#
#                              ======================
#                              | THE SUSYHIT OUTPUT |
#                              ======================
#
#
#              ------------------------------------------------------
#              |     This is the output of the SUSY-HIT package     |
#              |  created by A.Djouadi, M.Muehlleitner and M.Spira. |
#              |  In case of problems with SUSY-HIT email to        |
#              |           margarete.muehlleitner@cern.ch           |
#              |           michael.spira@psi.ch                     |
#              |           abdelhak.djouadi@cern.ch                 |
#              ------------------------------------------------------
#
#              ------------------------------------------------------
#              |  SUSY Les Houches Accord - MSSM Spectrum + Decays  |
#              |              based on the decay programs           |
#              |                                                    |
#              |                     SDECAY 1.3b                    |
#              |                                                    |
#              |  Authors: M.Muhlleitner, A.Djouadi and Y.Mambrini  |
#              |  Ref.:    Comput.Phys.Commun.168(2005)46           |
#              |           [hep-ph/0311167]                         |
#              |                                                    |
#              |                     HDECAY 3.4                     |
#              |                                                    |
#              |  By: A.Djouadi,J.Kalinowski,M.Muhlleitner,M.Spira  |
#              |  Ref.:    Comput.Phys.Commun.108(1998)56           |
#              |           [hep-ph/9704448]                         |
#              |                                                    |
#              |                                                    |
#              |  If not stated otherwise all DRbar couplings and   |
#              |  soft SUSY breaking masses are given at the scale  |
#              |  Q=  0.50007275E+04
#              |                                                    |
#              ------------------------------------------------------
#
#
BLOCK DCINFO  # Decay Program information
     1   SDECAY/HDECAY # decay calculator
     2   1.3b  /3.4    # version number
#
BLOCK SPINFO  # Spectrum calculator information
     1    SOFTSUSY    # spectrum calculator                
     2    3.4.0       # version number                     
#
BLOCK MODSEL  # Model selection
     1     0   #  nonUniversal                                     
#
BLOCK SMINPUTS  # Standard Model inputs
         1     1.25778332E+02   # alpha_em^-1(M_Z)^MSbar
         2     1.16570000E-05   # G_F [GeV^-2]
         3     1.17200002E-01   # alpha_S(M_Z)^MSbar
         4     9.11876000E+01   # M_Z pole mass
         5     4.25000000E+00   # mb(mb)^MSbar
         6     1.72500000E+02   # mt pole mass
         7     1.77682000E+00   # mtau pole mass
#
BLOCK MINPAR  # Input parameters - minimal models
         3     1.00000000E+01   # tanb                
#
BLOCK EXTPAR  # Input parameters - non-minimal models
         0    -1.00000000E+00   # Set                 
         1     6.00000000E+01   # M_1(MX)             
         2     3.00000000E+03   # M_2(MX)             
         3     1.66797300E+03   # M_3(MX)             
        11     5.00000000E+03   # At(MX)              
        12     5.00000000E+03   # Ab(MX)              
        13     0.00000000E+00   # Atau(MX)            
        23    -1.25122700E+03   # mu(MX)              
        26     3.00000000E+03   # mA(pole)            
        31     5.00000000E+03   # meL(MX)             
        32     5.00000000E+03   # mmuL(MX)            
        33     5.00000000E+03   # mtauL(MX)           
        34     5.00000000E+03   # meR(MX)             
        35     5.00000000E+03   # mmuR(MX)            
        36     5.00000000E+03   # mtauR(MX)           
        41     5.00000000E+03   # mqL1(MX)            
        42     5.00000000E+03   # mqL2(MX)            
        43     5.00000000E+03   # mqL3(MX)            
        44     5.00000000E+03   # muR(MX)             
        45     5.00000000E+03   # mcR(MX)             
        46     5.00000000E+03   # mtR(MX)             
        47     5.00000000E+03   # mdR(MX)             
        48     5.00000000E+03   # msR(MX)             
        49     5.00000000E+03   # mbR(MX)             
#
BLOCK MASS  # Mass Spectrum
# PDG code           mass       particle
        24     8.00959651E+01   # W+
        25     1.24770644E+02   # h
        35     3.00008162E+03   # H
        36     2.99999988E+03   # A
        37     3.00086853E+03   # H+
         5     4.87878001E+00   # b-quark pole mass calculated from mb(mb)_Msbar
   1000001     5.07189466E+03   # ~d_L
   2000001     5.05410849E+03   # ~d_R
   1000002     5.07142100E+03   # ~u_L
   2000002     5.05382964E+03   # ~u_R
   1000003     5.07189466E+03   # ~s_L
   2000003     5.05410849E+03   # ~s_R
   1000004     5.07142100E+03   # ~c_L
   2000004     5.05382964E+03   # ~c_R
   1000005     5.01774223E+03   # ~b_1
   2000005     5.05281794E+03   # ~b_2
   1000006     4.90892769E+03   # ~t_1
   2000006     5.06333150E+03   # ~t_2
   1000011     5.01905677E+03   # ~e_L
   2000011     5.00591552E+03   # ~e_R
   1000012     5.01810858E+03   # ~nu_eL
   1000013     5.01905677E+03   # ~mu_L
   2000013     5.00591552E+03   # ~mu_R
   1000014     5.01810858E+03   # ~nu_muL
   1000015     5.00447639E+03   # ~tau_1
   2000015     5.01889677E+03   # ~tau_2
   1000016     5.01756647E+03   # ~nu_tauL
   1000021     2.00000068E+03   # ~g
   1000022     6.03029682E+01   # ~chi_10
   1000023     1.29950322E+03   # ~chi_20
   1000025    -1.30184328E+03   # ~chi_30
   1000035     3.07430489E+03   # ~chi_40
   1000024     1.30000031E+03   # ~chi_1+
   1000037     3.07447233E+03   # ~chi_2+
#
BLOCK NMIX  # Neutralino Mixing Matrix
  1  1     9.99410410E-01   # N_11
  1  2     1.55334571E-04   # N_12
  1  3    -3.42757824E-02   # N_13
  1  4     1.99498074E-03   # N_14
  2  1     2.28285629E-02   # N_21
  2  2     2.74286550E-02   # N_22
  2  3     7.06875001E-01   # N_23
  2  4     7.06437725E-01   # N_24
  3  1    -2.56419346E-02   # N_31
  3  2     1.38788222E-02   # N_32
  3  3    -7.06442542E-01   # N_33
  3  4     7.07169572E-01   # N_34
  4  1    -4.25721110E-04   # N_41
  4  2     9.99527400E-01   # N_42
  4  3    -9.58324497E-03   # N_43
  4  4    -2.92054298E-02   # N_44
#
BLOCK UMIX  # Chargino Mixing Matrix U
  1  1     1.35670876E-02   # U_11
  1  2     9.99907963E-01   # U_12
  2  1    -9.99907963E-01   # U_21
  2  2     1.35670876E-02   # U_22
#
BLOCK VMIX  # Chargino Mixing Matrix V
  1  1     4.13295892E-02   # V_11
  1  2    -9.99145568E-01   # V_12
  2  1    -9.99145568E-01   # V_21
  2  2    -4.13295892E-02   # V_22
#
BLOCK STOPMIX  # Stop Mixing Matrix
  1  1    -5.09166164E-01   # cos(theta_t)
  1  2     8.60668239E-01   # sin(theta_t)
  2  1    -8.60668239E-01   # -sin(theta_t)
  2  2    -5.09166164E-01   # cos(theta_t)
#
BLOCK SBOTMIX  # Sbottom Mixing Matrix
  1  1     9.95669319E-01   # cos(theta_b)
  1  2    -9.29656238E-02   # sin(theta_b)
  2  1     9.29656238E-02   # -sin(theta_b)
  2  2     9.95669319E-01   # cos(theta_b)
#
BLOCK STAUMIX  # Stau Mixing Matrix
  1  1    -1.46891562E-01   # cos(theta_tau)
  1  2     9.89152601E-01   # sin(theta_tau)
  2  1    -9.89152601E-01   # -sin(theta_tau)
  2  2    -1.46891562E-01   # cos(theta_tau)
#
BLOCK ALPHA  # Higgs mixing
          -1.05468265E-01   # Mixing angle in the neutral Higgs boson sector
#
BLOCK HMIX Q=  5.00072750E+03  # DRbar Higgs Parameters
         1    -1.27415552E+03   # mu(Q)MSSM           
         2     9.47013448E+00   # tan                 
         3     2.41916489E+02   # higgs               
         4     8.44145547E+06   # mA^2(Q)MSSM         
#
BLOCK GAUGE Q=  5.00072750E+03  # The gauge couplings
     1     3.70736375E-01   # gprime(Q) DRbar
     2     6.32256360E-01   # g(Q) DRbar
     3     9.98500284E-01   # g3(Q) DRbar
#
BLOCK AU Q=  5.00072750E+03  # The trilinear couplings
  1  1     5.00000001E+03   # A_u(Q) DRbar
  2  2     5.00000001E+03   # A_c(Q) DRbar
  3  3     5.00000002E+03   # A_t(Q) DRbar
#
BLOCK AD Q=  5.00072750E+03  # The trilinear couplings
  1  1     5.00000001E+03   # A_d(Q) DRbar
  2  2     5.00000001E+03   # A_s(Q) DRbar
  3  3     5.00000001E+03   # A_b(Q) DRbar
#
BLOCK AE Q=  5.00072750E+03  # The trilinear couplings
  1  1     0.00000000E+00   # A_e(Q) DRbar
  2  2     1.75750982E-07   # A_mu(Q) DRbar
  3  3     1.75391540E-07   # A_tau(Q) DRbar
#
BLOCK Yu Q=  5.00072750E+03  # The Yukawa couplings
  1  1     0.00000000E+00   # y_u(Q) DRbar
  2  2     0.00000000E+00   # y_c(Q) DRbar
  3  3     8.19703265E-01   # y_t(Q) DRbar
#
BLOCK Yd Q=  5.00072750E+03  # The Yukawa couplings
  1  1     0.00000000E+00   # y_d(Q) DRbar
  2  2     0.00000000E+00   # y_s(Q) DRbar
  3  3     1.31011380E-01   # y_b(Q) DRbar
#
BLOCK Ye Q=  5.00072750E+03  # The Yukawa couplings
  1  1     0.00000000E+00   # y_e(Q) DRbar
  2  2     0.00000000E+00   # y_mu(Q) DRbar
  3  3     9.67136937E-02   # y_tau(Q) DRbar
#
BLOCK MSOFT Q=  5.00072750E+03  # The soft SUSY breaking masses at the scale Q
         1     6.00000000E+01   # M_1(Q)              
         2     3.00000000E+03   # M_2(Q)              
         3     1.66797300E+03   # M_3(Q)              
        21     7.05670310E+06   # mH1^2(Q)            
        22    -1.06827377E+06   # mH2^2(Q)            
        31     5.00000000E+03   # meL(Q)              
        32     5.00000000E+03   # mmuL(Q)             
        33     5.00000000E+03   # mtauL(Q)            
        34     5.00000000E+03   # meR(Q)              
        35     5.00000000E+03   # mmuR(Q)             
        36     5.00000000E+03   # mtauR(Q)            
        41     5.00000000E+03   # mqL1(Q)             
        42     5.00000000E+03   # mqL2(Q)             
        43     5.00000000E+03   # mqL3(Q)             
        44     5.00000000E+03   # muR(Q)              
        45     5.00000000E+03   # mcR(Q)              
        46     4.99999999E+03   # mtR(Q)              
        47     5.00000000E+03   # mdR(Q)              
        48     5.00000000E+03   # msR(Q)              
        49     5.00000000E+03   # mbR(Q)              
#
#
#
#                             =================
#                             |The decay table|
#                             =================
#
# - The QCD corrections to the decays gluino -> squark  + quark
#                                     squark -> gaugino + quark_prime
#                                     squark -> squark_prime + Higgs
#                                     squark -> gluino  + quark
#   are included.
#
# - The multi-body decays for the inos, stops and sbottoms are included.
#
# - The loop induced decays for the gluino, neutralinos and stops
#   are included.
#
# - The SUSY decays of the top quark are included.
#
#
#         PDG            Width
DECAY         6     1.40081085E+00   # top decays
#          BR         NDA      ID1       ID2
     1.00000000E+00    2           5        24   # BR(t ->  b    W+)
#
#         PDG            Width
DECAY   1000021     3.80677925E-04   # gluino decays
#          BR         NDA      ID1       ID2
     6.80866825E-06    2     1000022        21   # BR(~g -> ~chi_10 g)
     8.46960843E-03    2     1000023        21   # BR(~g -> ~chi_20 g)
     8.37973517E-03    2     1000025        21   # BR(~g -> ~chi_30 g)
#           BR         NDA      ID1       ID2       ID3
     6.13965730E-02    3     1000022         1        -1   # BR(~g -> ~chi_10 d  db)
     1.11573819E-05    3     1000023         1        -1   # BR(~g -> ~chi_20 d  db)
     2.93585859E-06    3     1000025         1        -1   # BR(~g -> ~chi_30 d  db)
     2.09325447E-01    3     1000022         2        -2   # BR(~g -> ~chi_10 u  ub)
     2.45960480E-05    3     1000023         2        -2   # BR(~g -> ~chi_20 u  ub)
     3.11585192E-06    3     1000025         2        -2   # BR(~g -> ~chi_30 u  ub)
     6.13965730E-02    3     1000022         3        -3   # BR(~g -> ~chi_10 s  sb)
     1.11573819E-05    3     1000023         3        -3   # BR(~g -> ~chi_20 s  sb)
     2.93585859E-06    3     1000025         3        -3   # BR(~g -> ~chi_30 s  sb)
     2.09325447E-01    3     1000022         4        -4   # BR(~g -> ~chi_10 c  cb)
     2.45960480E-05    3     1000023         4        -4   # BR(~g -> ~chi_20 c  cb)
     3.11585192E-06    3     1000025         4        -4   # BR(~g -> ~chi_30 c  cb)
     6.21892452E-02    3     1000022         5        -5   # BR(~g -> ~chi_10 b  bb)
     1.66541505E-03    3     1000023         5        -5   # BR(~g -> ~chi_20 b  bb)
     1.62443450E-03    3     1000025         5        -5   # BR(~g -> ~chi_30 b  bb)
     2.03171709E-01    3     1000022         6        -6   # BR(~g -> ~chi_10 t  tb)
     4.20867366E-02    3     1000023         6        -6   # BR(~g -> ~chi_20 t  tb)
     2.88980553E-02    3     1000025         6        -6   # BR(~g -> ~chi_30 t  tb)
     3.00565932E-05    3     1000024         1        -2   # BR(~g -> ~chi_1+ d  ub)
     3.00565932E-05    3    -1000024         2        -1   # BR(~g -> ~chi_1- u  db)
     3.00565932E-05    3     1000024         3        -4   # BR(~g -> ~chi_1+ s  cb)
     3.00565932E-05    3    -1000024         4        -3   # BR(~g -> ~chi_1- c  sb)
     5.09301874E-02    3     1000024         5        -6   # BR(~g -> ~chi_1+ b  tb)
     5.09301874E-02    3    -1000024         6        -5   # BR(~g -> ~chi_1- t  bb)
#
#         PDG            Width
DECAY   1000006     3.35044149E+02   # stop1 decays
#          BR         NDA      ID1       ID2
     2.63568545E-02    2     1000022         6   # BR(~t_1 -> ~chi_10 t )
     8.53130062E-02    2     1000023         6   # BR(~t_1 -> ~chi_20 t )
     8.20333162E-02    2     1000025         6   # BR(~t_1 -> ~chi_30 t )
     6.31809747E-03    2     1000035         6   # BR(~t_1 -> ~chi_40 t )
     1.23700074E-01    2     1000024         5   # BR(~t_1 -> ~chi_1+ b )
     1.25772364E-02    2     1000037         5   # BR(~t_1 -> ~chi_2+ b )
     6.63701415E-01    2     1000021         6   # BR(~t_1 -> ~g      t )
#
#         PDG            Width
DECAY   2000006     3.44339630E+02   # stop2 decays
#          BR         NDA      ID1       ID2
     1.01972258E-02    2     1000022         6   # BR(~t_2 -> ~chi_10 t )
     8.56082213E-02    2     1000023         6   # BR(~t_2 -> ~chi_20 t )
     8.90808816E-02    2     1000025         6   # BR(~t_2 -> ~chi_30 t )
     1.60095534E-02    2     1000035         6   # BR(~t_2 -> ~chi_40 t )
     5.15072124E-02    2     1000024         5   # BR(~t_2 -> ~chi_1+ b )
     3.18211057E-02    2     1000037         5   # BR(~t_2 -> ~chi_2+ b )
     7.12065851E-01    2     1000021         6   # BR(~t_2 -> ~g      t )
     8.32027991E-04    2     1000006        25   # BR(~t_2 -> ~t_1    h )
     2.87792085E-03    2     1000006        23   # BR(~t_2 -> ~t_1    Z )
#
#         PDG            Width
DECAY   1000005     3.20219796E+02   # sbottom1 decays
#          BR         NDA      ID1       ID2
     2.42638159E-03    2     1000022         5   # BR(~b_1 -> ~chi_10 b )
     2.39585055E-03    2     1000023         5   # BR(~b_1 -> ~chi_20 b )
     2.29651397E-03    2     1000025         5   # BR(~b_1 -> ~chi_30 b )
     2.34500758E-02    2     1000035         5   # BR(~b_1 -> ~chi_40 b )
     1.81236908E-01    2    -1000024         6   # BR(~b_1 -> ~chi_1- t )
     4.71605969E-02    2    -1000037         6   # BR(~b_1 -> ~chi_2- t )
     7.39300151E-01    2     1000021         5   # BR(~b_1 -> ~g      b )
     1.73352265E-03    2     1000006       -24   # BR(~b_1 -> ~t_1    W-)
#
#         PDG            Width
DECAY   2000005     2.46078629E+02   # sbottom2 decays
#          BR         NDA      ID1       ID2
     1.19128489E-02    2     1000022         5   # BR(~b_2 -> ~chi_10 b )
     3.04142051E-03    2     1000023         5   # BR(~b_2 -> ~chi_20 b )
     3.15074533E-03    2     1000025         5   # BR(~b_2 -> ~chi_30 b )
     2.75567647E-04    2     1000035         5   # BR(~b_2 -> ~chi_40 b )
     8.10449747E-03    2    -1000024         6   # BR(~b_2 -> ~chi_1- t )
     5.54035259E-04    2    -1000037         6   # BR(~b_2 -> ~chi_2- t )
     9.72877723E-01    2     1000021         5   # BR(~b_2 -> ~g      b )
     8.31622143E-05    2     1000006       -24   # BR(~b_2 -> ~t_1    W-)
#
#         PDG            Width
DECAY   1000002     2.65184762E+02   # sup_L decays
#          BR         NDA      ID1       ID2
     2.81375418E-03    2     1000022         2   # BR(~u_L -> ~chi_10 u)
     6.55029305E-05    2     1000023         2   # BR(~u_L -> ~chi_20 u)
     5.06129364E-06    2     1000025         2   # BR(~u_L -> ~chi_30 u)
     2.95923892E-02    2     1000035         2   # BR(~u_L -> ~chi_40 u)
     2.20008559E-04    2     1000024         1   # BR(~u_L -> ~chi_1+ d)
     5.91419830E-02    2     1000037         1   # BR(~u_L -> ~chi_2+ d)
     9.08161301E-01    2     1000021         2   # BR(~u_L -> ~g      u)
#
#         PDG            Width
DECAY   2000002     2.51269162E+02   # sup_R decays
#          BR         NDA      ID1       ID2
     4.72713162E-02    2     1000022         2   # BR(~u_R -> ~chi_10 u)
     2.15564607E-05    2     1000023         2   # BR(~u_R -> ~chi_20 u)
     2.71832319E-05    2     1000025         2   # BR(~u_R -> ~chi_30 u)
     3.42399031E-09    2     1000035         2   # BR(~u_R -> ~chi_40 u)
     9.52679941E-01    2     1000021         2   # BR(~u_R -> ~g      u)
#
#         PDG            Width
DECAY   1000001     2.65199697E+02   # sdown_L decays
#          BR         NDA      ID1       ID2
     2.80492562E-03    2     1000022         1   # BR(~d_L -> ~chi_10 d)
     3.39748285E-05    2     1000023         1   # BR(~d_L -> ~chi_20 d)
     2.29741375E-05    2     1000025         1   # BR(~d_L -> ~chi_30 d)
     2.96097243E-02    2     1000035         1   # BR(~d_L -> ~chi_40 d)
     2.37092833E-05    2    -1000024         2   # BR(~d_L -> ~chi_1- u)
     5.92472414E-02    2    -1000037         2   # BR(~d_L -> ~chi_2- u)
     9.08257450E-01    2     1000021         1   # BR(~d_L -> ~g      d)
#
#         PDG            Width
DECAY   2000001     2.42374793E+02   # sdown_R decays
#          BR         NDA      ID1       ID2
     1.22521893E-02    2     1000022         1   # BR(~d_R -> ~chi_10 d)
     5.58727577E-06    2     1000023         1   # BR(~d_R -> ~chi_20 d)
     7.04569381E-06    2     1000025         1   # BR(~d_R -> ~chi_30 d)
     8.87573147E-10    2     1000035         1   # BR(~d_R -> ~chi_40 d)
     9.87735177E-01    2     1000021         1   # BR(~d_R -> ~g      d)
#
#         PDG            Width
DECAY   1000004     2.65184762E+02   # scharm_L decays
#          BR         NDA      ID1       ID2
     2.81375418E-03    2     1000022         4   # BR(~c_L -> ~chi_10 c)
     6.55029305E-05    2     1000023         4   # BR(~c_L -> ~chi_20 c)
     5.06129364E-06    2     1000025         4   # BR(~c_L -> ~chi_30 c)
     2.95923892E-02    2     1000035         4   # BR(~c_L -> ~chi_40 c)
     2.20008559E-04    2     1000024         3   # BR(~c_L -> ~chi_1+ s)
     5.91419830E-02    2     1000037         3   # BR(~c_L -> ~chi_2+ s)
     9.08161301E-01    2     1000021         4   # BR(~c_L -> ~g      c)
#
#         PDG            Width
DECAY   2000004     2.51269162E+02   # scharm_R decays
#          BR         NDA      ID1       ID2
     4.72713162E-02    2     1000022         4   # BR(~c_R -> ~chi_10 c)
     2.15564607E-05    2     1000023         4   # BR(~c_R -> ~chi_20 c)
     2.71832319E-05    2     1000025         4   # BR(~c_R -> ~chi_30 c)
     3.42399031E-09    2     1000035         4   # BR(~c_R -> ~chi_40 c)
     9.52679941E-01    2     1000021         4   # BR(~c_R -> ~g      c)
#
#         PDG            Width
DECAY   1000003     2.65199697E+02   # sstrange_L decays
#          BR         NDA      ID1       ID2
     2.80492562E-03    2     1000022         3   # BR(~s_L -> ~chi_10 s)
     3.39748285E-05    2     1000023         3   # BR(~s_L -> ~chi_20 s)
     2.29741375E-05    2     1000025         3   # BR(~s_L -> ~chi_30 s)
     2.96097243E-02    2     1000035         3   # BR(~s_L -> ~chi_40 s)
     2.37092833E-05    2    -1000024         4   # BR(~s_L -> ~chi_1- c)
     5.92472414E-02    2    -1000037         4   # BR(~s_L -> ~chi_2- c)
     9.08257450E-01    2     1000021         3   # BR(~s_L -> ~g      s)
#
#         PDG            Width
DECAY   2000003     2.42374793E+02   # sstrange_R decays
#          BR         NDA      ID1       ID2
     1.22521893E-02    2     1000022         3   # BR(~s_R -> ~chi_10 s)
     5.58727577E-06    2     1000023         3   # BR(~s_R -> ~chi_20 s)
     7.04569381E-06    2     1000025         3   # BR(~s_R -> ~chi_30 s)
     8.87573147E-10    2     1000035         3   # BR(~s_R -> ~chi_40 s)
     9.87735177E-01    2     1000021         3   # BR(~s_R -> ~g      s)
#
#         PDG            Width
DECAY   1000011     3.02485124E+01   # selectron_L decays
#          BR         NDA      ID1       ID2
     2.26642410E-01    2     1000022        11   # BR(~e_L -> ~chi_10 e-)
     9.56678837E-04    2     1000023        11   # BR(~e_L -> ~chi_20 e-)
     7.68177178E-07    2     1000025        11   # BR(~e_L -> ~chi_30 e-)
     2.57202369E-01    2     1000035        11   # BR(~e_L -> ~chi_40 e-)
     2.11392498E-04    2    -1000024        12   # BR(~e_L -> ~chi_1- nu_e)
     5.14986382E-01    2    -1000037        12   # BR(~e_L -> ~chi_2- nu_e)
#
#         PDG            Width
DECAY   2000011     2.73641071E+01   # selectron_R decays
#          BR         NDA      ID1       ID2
     9.98974624E-01    2     1000022        11   # BR(~e_R -> ~chi_10 e-)
     4.53472731E-04    2     1000023        11   # BR(~e_R -> ~chi_20 e-)
     5.71833161E-04    2     1000025        11   # BR(~e_R -> ~chi_30 e-)
     7.03387535E-08    2     1000035        11   # BR(~e_R -> ~chi_40 e-)
#
#         PDG            Width
DECAY   1000013     3.02485124E+01   # smuon_L decays
#          BR         NDA      ID1       ID2
     2.26642410E-01    2     1000022        13   # BR(~mu_L -> ~chi_10 mu-)
     9.56678837E-04    2     1000023        13   # BR(~mu_L -> ~chi_20 mu-)
     7.68177178E-07    2     1000025        13   # BR(~mu_L -> ~chi_30 mu-)
     2.57202369E-01    2     1000035        13   # BR(~mu_L -> ~chi_40 mu-)
     2.11392498E-04    2    -1000024        14   # BR(~mu_L -> ~chi_1- nu_mu)
     5.14986382E-01    2    -1000037        14   # BR(~mu_L -> ~chi_2- nu_mu)
#
#         PDG            Width
DECAY   2000013     2.73641071E+01   # smuon_R decays
#          BR         NDA      ID1       ID2
     9.98974624E-01    2     1000022        13   # BR(~mu_R -> ~chi_10 mu-)
     4.53472731E-04    2     1000023        13   # BR(~mu_R -> ~chi_20 mu-)
     5.71833161E-04    2     1000025        13   # BR(~mu_R -> ~chi_30 mu-)
     7.03387535E-08    2     1000035        13   # BR(~mu_R -> ~chi_40 mu-)
#
#         PDG            Width
DECAY   1000015     2.90358567E+01   # stau_1 decays
#          BR         NDA      ID1       ID2
     9.26860374E-01    2     1000022        15   # BR(~tau_1 -> ~chi_10  tau-)
     1.47485530E-02    2     1000023        15   # BR(~tau_1 -> ~chi_20  tau-)
     1.36754504E-02    2     1000025        15   # BR(~tau_1 -> ~chi_30  tau-)
     5.56553569E-03    2     1000035        15   # BR(~tau_1 -> ~chi_40  tau-)
     2.80066103E-02    2    -1000024        16   # BR(~tau_1 -> ~chi_1-  nu_tau)
     1.11434768E-02    2    -1000037        16   # BR(~tau_1 -> ~chi_2-  nu_tau)
#
#         PDG            Width
DECAY   2000015     3.09948975E+01   # stau_2 decays
#          BR         NDA      ID1       ID2
     2.34708416E-01    2     1000022        15   # BR(~tau_2 -> ~chi_10  tau-)
     1.36779466E-02    2     1000023        15   # BR(~tau_2 -> ~chi_20  tau-)
     1.38137932E-02    2     1000025        15   # BR(~tau_2 -> ~chi_30  tau-)
     2.45717599E-01    2     1000035        15   # BR(~tau_2 -> ~chi_40  tau-)
     9.17406295E-05    2    -1000024        16   # BR(~tau_2 -> ~chi_1-  nu_tau)
     4.91990504E-01    2    -1000037        16   # BR(~tau_2 -> ~chi_2-  nu_tau)
#
#         PDG            Width
DECAY   1000012     3.02508874E+01   # snu_eL decays
#          BR         NDA      ID1       ID2
     2.26341669E-01    2     1000022        12   # BR(~nu_eL -> ~chi_10 nu_e)
     1.13212212E-04    2     1000023        12   # BR(~nu_eL -> ~chi_20 nu_e)
     4.79733863E-04    2     1000025        12   # BR(~nu_eL -> ~chi_30 nu_e)
     2.57273777E-01    2     1000035        12   # BR(~nu_eL -> ~chi_40 nu_e)
     1.96109544E-03    2     1000024        11   # BR(~nu_eL -> ~chi_1+ e-)
     5.13830512E-01    2     1000037        11   # BR(~nu_eL -> ~chi_2+ e-)
#
#         PDG            Width
DECAY   1000014     3.02508874E+01   # snu_muL decays
#          BR         NDA      ID1       ID2
     2.26341669E-01    2     1000022        14   # BR(~nu_muL -> ~chi_10 nu_mu)
     1.13212212E-04    2     1000023        14   # BR(~nu_muL -> ~chi_20 nu_mu)
     4.79733863E-04    2     1000025        14   # BR(~nu_muL -> ~chi_30 nu_mu)
     2.57273777E-01    2     1000035        14   # BR(~nu_muL -> ~chi_40 nu_mu)
     1.96109544E-03    2     1000024        13   # BR(~nu_muL -> ~chi_1+ mu-)
     5.13830512E-01    2     1000037        13   # BR(~nu_muL -> ~chi_2+ mu-)
#
#         PDG            Width
DECAY   1000016     3.10540463E+01   # snu_tauL decays
#          BR         NDA      ID1       ID2
     2.20463902E-01    2     1000022        16   # BR(~nu_tauL -> ~chi_10 nu_tau)
     1.10268835E-04    2     1000023        16   # BR(~nu_tauL -> ~chi_20 nu_tau)
     4.67261323E-04    2     1000025        16   # BR(~nu_tauL -> ~chi_30 nu_tau)
     2.50527694E-01    2     1000035        16   # BR(~nu_tauL -> ~chi_40 nu_tau)
     2.80733577E-02    2     1000024        15   # BR(~nu_tauL -> ~chi_1+ tau-)
     5.00357516E-01    2     1000037        15   # BR(~nu_tauL -> ~chi_2+ tau-)
#
#         PDG            Width
DECAY   1000024     7.97247497E-01   # chargino1+ decays
#          BR         NDA      ID1       ID2
     1.00000000E+00    2     1000022        24   # BR(~chi_1+ -> ~chi_10  W+)
#
#         PDG            Width
DECAY   1000037     1.92764572E+01   # chargino2+ decays
#          BR         NDA      ID1       ID2
     2.52918201E-01    2     1000024        23   # BR(~chi_2+ -> ~chi_1+  Z )
     2.27528629E-04    2     1000022        24   # BR(~chi_2+ -> ~chi_10  W+)
     2.43964314E-01    2     1000023        24   # BR(~chi_2+ -> ~chi_20  W+)
     2.43876629E-01    2     1000025        24   # BR(~chi_2+ -> ~chi_30  W+)
     2.59012735E-01    2     1000024        25   # BR(~chi_2+ -> ~chi_1+  h )
     5.92028345E-07    2     1000022        37   # BR(~chi_2+ -> ~chi_10  H+)
#
#         PDG            Width
DECAY   1000022     0.00000000E+00   # neutralino1 decays
#
#         PDG            Width
DECAY   1000023     8.36448069E-01   # neutralino2 decays
#          BR         NDA      ID1       ID2
     5.51246456E-01    2     1000022        23   # BR(~chi_20 -> ~chi_10   Z )
     4.48753544E-01    2     1000022        25   # BR(~chi_20 -> ~chi_10   h )
#
#         PDG            Width
DECAY   1000025     8.43553739E-01   # neutralino3 decays
#          BR         NDA      ID1       ID2
     4.33568256E-01    2     1000022        23   # BR(~chi_30 -> ~chi_10   Z )
     5.66431744E-01    2     1000022        25   # BR(~chi_30 -> ~chi_10   h )
#
#         PDG            Width
DECAY   1000035     1.92852645E+01   # neutralino4 decays
#          BR         NDA      ID1       ID2
     7.23302060E-05    2     1000022        23   # BR(~chi_40 -> ~chi_10   Z )
     5.16774625E-02    2     1000023        23   # BR(~chi_40 -> ~chi_20   Z )
     2.00568196E-01    2     1000025        23   # BR(~chi_40 -> ~chi_30   Z )
     2.44520316E-01    2     1000024       -24   # BR(~chi_40 -> ~chi_1+   W-)
     2.44520316E-01    2    -1000024        24   # BR(~chi_40 -> ~chi_1-   W+)
     1.59122139E-04    2     1000022        25   # BR(~chi_40 -> ~chi_10   h )
     5.39806015E-07    2     1000022        35   # BR(~chi_40 -> ~chi_10   H )
     7.32979711E-08    2     1000022        36   # BR(~chi_40 -> ~chi_10   A )
     2.06742042E-01    2     1000023        25   # BR(~chi_40 -> ~chi_20   h )
     5.17396013E-02    2     1000025        25   # BR(~chi_40 -> ~chi_30   h )
#
#         PDG            Width
DECAY        25     4.05028562E-03   # h decays
#          BR         NDA      ID1       ID2
     6.07581088E-01    2           5        -5   # BR(h -> b       bb     )
     6.40335587E-02    2         -15        15   # BR(h -> tau+    tau-   )
     2.26702092E-04    2         -13        13   # BR(h -> mu+     mu-    )
     4.80597395E-04    2           3        -3   # BR(h -> s       sb     )
     2.08261376E-02    2           4        -4   # BR(h -> c       cb     )
     6.73640458E-02    2          21        21   # BR(h -> g       g      )
     2.31617845E-03    2          22        22   # BR(h -> gam     gam    )
     1.49318535E-03    2          22        23   # BR(h -> Z       gam    )
     2.10546922E-01    2          24       -24   # BR(h -> W+      W-     )
     2.50912736E-02    2          23        23   # BR(h -> Z       Z      )
     4.03111184E-05    2     1000022   1000022   # BR(h -> ~chi_10 ~chi_10)
#
#         PDG            Width
DECAY        35     7.62453467E+00   # H decays
#          BR         NDA      ID1       ID2
     4.26419216E-01    2           5        -5   # BR(H -> b       bb     )
     7.30728009E-02    2         -15        15   # BR(H -> tau+    tau-   )
     2.58391228E-04    2         -13        13   # BR(H -> mu+     mu-    )
     3.16748053E-04    2           3        -3   # BR(H -> s       sb     )
     1.77148731E-06    2           4        -4   # BR(H -> c       cb     )
     1.76985612E-01    2           6        -6   # BR(H -> t       tb     )
     5.87758674E-05    2          21        21   # BR(H -> g       g      )
     3.62489356E-07    2          22        22   # BR(H -> gam     gam    )
     1.04514748E-07    2          23        22   # BR(H -> Z       gam    )
     8.00040333E-05    2          24       -24   # BR(H -> W+      W-     )
     3.99513875E-05    2          23        23   # BR(H -> Z       Z      )
     3.00133229E-04    2          25        25   # BR(H -> h       h      )
     3.05378433E-23    2          36        36   # BR(H -> A       A      )
     4.25961200E-19    2          23        36   # BR(H -> Z       A      )
     7.43701524E-04    2     1000024  -1000024   # BR(H -> ~chi_1+ ~chi_1-)
     1.12066388E-03    2     1000022   1000022   # BR(H -> ~chi_10 ~chi_10)
     5.61510876E-05    2     1000023   1000023   # BR(H -> ~chi_20 ~chi_20)
     1.24072585E-04    2     1000025   1000025   # BR(H -> ~chi_30 ~chi_30)
     1.91222390E-01    2     1000022   1000023   # BR(H -> ~chi_10 ~chi_20)
     1.29076179E-01    2     1000022   1000025   # BR(H -> ~chi_10 ~chi_30)
     1.22971040E-04    2     1000023   1000025   # BR(H -> ~chi_20 ~chi_30)
#
#         PDG            Width
DECAY        36     7.64557187E+00   # A decays
#          BR         NDA      ID1       ID2
     4.25388967E-01    2           5        -5   # BR(A -> b       bb     )
     7.28739067E-02    2         -15        15   # BR(A -> tau+    tau-   )
     2.57687562E-04    2         -13        13   # BR(A -> mu+     mu-    )
     3.16116297E-04    2           3        -3   # BR(A -> s       sb     )
     1.77393153E-06    2           4        -4   # BR(A -> c       cb     )
     1.77132024E-01    2           6        -6   # BR(A -> t       tb     )
     1.75293048E-04    2          21        21   # BR(A -> g       g      )
     4.87368359E-07    2          22        22   # BR(A -> gam     gam    )
     2.12332679E-07    2          23        22   # BR(A -> Z       gam    )
     7.94823869E-05    2          23        25   # BR(A -> Z       h      )
     2.59319284E-03    2     1000024  -1000024   # BR(A -> ~chi_1+ ~chi_1-)
     1.14731826E-03    2     1000022   1000022   # BR(A -> ~chi_10 ~chi_10)
     1.46839659E-04    2     1000023   1000023   # BR(A -> ~chi_20 ~chi_20)
     7.66807909E-04    2     1000025   1000025   # BR(A -> ~chi_30 ~chi_30)
     1.30322341E-01    2     1000022   1000023   # BR(A -> ~chi_10 ~chi_20)
     1.88790580E-01    2     1000022   1000025   # BR(A -> ~chi_10 ~chi_30)
     6.96996367E-06    2     1000023   1000025   # BR(A -> ~chi_20 ~chi_30)
#
#         PDG            Width
DECAY        37     7.62057420E+00   # H+ decays
#          BR         NDA      ID1       ID2
     6.85777221E-04    2           4        -5   # BR(H+ -> c       bb     )
     7.31341240E-02    2         -15        16   # BR(H+ -> tau+    nu_tau )
     2.58607710E-04    2         -13        14   # BR(H+ -> mu+     nu_mu  )
     4.38895167E-06    2           2        -5   # BR(H+ -> u       bb     )
     1.51745648E-05    2           2        -3   # BR(H+ -> u       sb     )
     3.13810723E-04    2           4        -3   # BR(H+ -> c       sb     )
     6.02603981E-01    2           6        -5   # BR(H+ -> t       bb     )
     7.98636055E-05    2          24        25   # BR(H+ -> W+      h      )
     8.52955415E-14    2          24        36   # BR(H+ -> W+      A      )
     3.22482138E-01    2     1000024   1000022   # BR(H+ -> ~chi_1+ ~chi_10)
     3.55973587E-04    2     1000024   1000023   # BR(H+ -> ~chi_1+ ~chi_20)
     6.61601671E-05    2     1000024   1000025   # BR(H+ -> ~chi_1+ ~chi_30)
