#
#                              ======================
#                              | THE SUSYHIT OUTPUT |
#                              ======================
#
#
#              ------------------------------------------------------
#              |     This is the output of the SUSY-HIT package     |
#              |  created by A.Djouadi, M.Muehlleitner and M.Spira. |
#              |  In case of problems with SUSY-HIT email to        |
#              |           margarete.muehlleitner@cern.ch           |
#              |           michael.spira@psi.ch                     |
#              |           abdelhak.djouadi@cern.ch                 |
#              ------------------------------------------------------
#
#              ------------------------------------------------------
#              |  SUSY Les Houches Accord - MSSM Spectrum + Decays  |
#              |              based on the decay programs           |
#              |                                                    |
#              |                     SDECAY 1.3b                    |
#              |                                                    |
#              |  Authors: M.Muhlleitner, A.Djouadi and Y.Mambrini  |
#              |  Ref.:    Comput.Phys.Commun.168(2005)46           |
#              |           [hep-ph/0311167]                         |
#              |                                                    |
#              |                     HDECAY 3.4                     |
#              |                                                    |
#              |  By: A.Djouadi,J.Kalinowski,M.Muhlleitner,M.Spira  |
#              |  Ref.:    Comput.Phys.Commun.108(1998)56           |
#              |           [hep-ph/9704448]                         |
#              |                                                    |
#              |                                                    |
#              |  If not stated otherwise all DRbar couplings and   |
#              |  soft SUSY breaking masses are given at the scale  |
#              |  Q=  0.50007376E+04
#              |                                                    |
#              ------------------------------------------------------
#
#
BLOCK DCINFO  # Decay Program information
     1   SDECAY/HDECAY # decay calculator
     2   1.3b  /3.4    # version number
#
BLOCK SPINFO  # Spectrum calculator information
     1    SOFTSUSY    # spectrum calculator                
     2    3.4.0       # version number                     
#
BLOCK MODSEL  # Model selection
     1     0   #  nonUniversal                                     
#
BLOCK SMINPUTS  # Standard Model inputs
         1     1.25778332E+02   # alpha_em^-1(M_Z)^MSbar
         2     1.16570000E-05   # G_F [GeV^-2]
         3     1.17200002E-01   # alpha_S(M_Z)^MSbar
         4     9.11876000E+01   # M_Z pole mass
         5     4.25000000E+00   # mb(mb)^MSbar
         6     1.72500000E+02   # mt pole mass
         7     1.77682000E+00   # mtau pole mass
#
BLOCK MINPAR  # Input parameters - minimal models
         3     1.00000000E+01   # tanb                
#
BLOCK EXTPAR  # Input parameters - non-minimal models
         0    -1.00000000E+00   # Set                 
         1     6.00000000E+01   # M_1(MX)             
         2     3.00000000E+03   # M_2(MX)             
         3     1.94903000E+03   # M_3(MX)             
        11     5.00000000E+03   # At(MX)              
        12     5.00000000E+03   # Ab(MX)              
        13     0.00000000E+00   # Atau(MX)            
        23    -1.05623100E+03   # mu(MX)              
        26     3.00000000E+03   # mA(pole)            
        31     5.00000000E+03   # meL(MX)             
        32     5.00000000E+03   # mmuL(MX)            
        33     5.00000000E+03   # mtauL(MX)           
        34     5.00000000E+03   # meR(MX)             
        35     5.00000000E+03   # mmuR(MX)            
        36     5.00000000E+03   # mtauR(MX)           
        41     5.00000000E+03   # mqL1(MX)            
        42     5.00000000E+03   # mqL2(MX)            
        43     5.00000000E+03   # mqL3(MX)            
        44     5.00000000E+03   # muR(MX)             
        45     5.00000000E+03   # mcR(MX)             
        46     5.00000000E+03   # mtR(MX)             
        47     5.00000000E+03   # mdR(MX)             
        48     5.00000000E+03   # msR(MX)             
        49     5.00000000E+03   # mbR(MX)             
#
BLOCK MASS  # Mass Spectrum
# PDG code           mass       particle
        24     8.00957113E+01   # W+
        25     1.24808793E+02   # h
        35     3.00008319E+03   # H
        36     2.99999749E+03   # A
        37     3.00102888E+03   # H+
         5     4.87878001E+00   # b-quark pole mass calculated from mb(mb)_Msbar
   1000001     5.07635500E+03   # ~d_L
   2000001     5.05857598E+03   # ~d_R
   1000002     5.07588274E+03   # ~u_L
   2000002     5.05829325E+03   # ~u_R
   1000003     5.07635500E+03   # ~s_L
   2000003     5.05857598E+03   # ~s_R
   1000004     5.07588274E+03   # ~c_L
   2000004     5.05829325E+03   # ~c_R
   1000005     5.02206670E+03   # ~b_1
   2000005     5.05713771E+03   # ~b_2
   1000006     4.91356481E+03   # ~t_1
   2000006     5.06674992E+03   # ~t_2
   1000011     5.01906456E+03   # ~e_L
   2000011     5.00592106E+03   # ~e_R
   1000012     5.01811619E+03   # ~nu_eL
   1000013     5.01906456E+03   # ~mu_L
   2000013     5.00592106E+03   # ~mu_R
   1000014     5.01811619E+03   # ~nu_muL
   1000015     5.00457009E+03   # ~tau_1
   2000015     5.01880419E+03   # ~tau_2
   1000016     5.01757136E+03   # ~nu_tauL
   1000021     2.30000031E+03   # ~g
   1000022     6.03010362E+01   # ~chi_10
   1000023     1.09959089E+03   # ~chi_20
   1000025    -1.10186405E+03   # ~chi_30
   1000035     3.07426954E+03   # ~chi_40
   1000024     1.10000068E+03   # ~chi_1+
   1000037     3.07443697E+03   # ~chi_2+
#
BLOCK NMIX  # Neutralino Mixing Matrix
  1  1     9.99178427E-01   # N_11
  1  2     1.73970401E-04   # N_12
  1  3    -4.04772539E-02   # N_13
  1  4     2.00801734E-03   # N_14
  2  1     2.72081616E-02   # N_21
  2  2     2.46690822E-02   # N_22
  2  3     7.06784926E-01   # N_23
  2  4     7.06474501E-01   # N_24
  3  1    -3.00336445E-02   # N_31
  3  2     1.45506503E-02   # N_32
  3  3    -7.06233289E-01   # N_33
  3  4     7.07192194E-01   # N_34
  4  1    -4.08186242E-04   # N_41
  4  2     9.99589758E-01   # N_42
  4  3    -7.15547541E-03   # N_43
  4  4    -2.77299091E-02   # N_44
#
BLOCK UMIX  # Chargino Mixing Matrix U
  1  1     1.01339308E-02   # U_11
  1  2     9.99948650E-01   # U_12
  2  1    -9.99948650E-01   # U_21
  2  2     1.01339308E-02   # U_22
#
BLOCK VMIX  # Chargino Mixing Matrix V
  1  1     3.92456694E-02   # V_11
  1  2    -9.99229592E-01   # V_12
  2  1    -9.99229592E-01   # V_21
  2  2    -3.92456694E-02   # V_22
#
BLOCK STOPMIX  # Stop Mixing Matrix
  1  1    -5.06438175E-01   # cos(theta_t)
  1  2     8.62276275E-01   # sin(theta_t)
  2  1    -8.62276275E-01   # -sin(theta_t)
  2  2    -5.06438175E-01   # cos(theta_t)
#
BLOCK SBOTMIX  # Sbottom Mixing Matrix
  1  1     9.96669122E-01   # cos(theta_b)
  1  2    -8.15515864E-02   # sin(theta_b)
  2  1     8.15515864E-02   # -sin(theta_b)
  2  2     9.96669122E-01   # cos(theta_b)
#
BLOCK STAUMIX  # Stau Mixing Matrix
  1  1    -1.25032899E-01   # cos(theta_tau)
  1  2     9.92152596E-01   # sin(theta_tau)
  2  1    -9.92152596E-01   # -sin(theta_tau)
  2  2    -1.25032899E-01   # cos(theta_tau)
#
BLOCK ALPHA  # Higgs mixing
          -1.05477732E-01   # Mixing angle in the neutral Higgs boson sector
#
BLOCK HMIX Q=  5.00073756E+03  # DRbar Higgs Parameters
         1    -1.07564343E+03   # mu(Q)MSSM           
         2     9.46944655E+00   # tan                 
         3     2.41872434E+02   # higgs               
         4     8.49076814E+06   # mA^2(Q)MSSM         
#
BLOCK GAUGE Q=  5.00073756E+03  # The gauge couplings
     1     3.70769518E-01   # gprime(Q) DRbar
     2     6.32427774E-01   # g(Q) DRbar
     3     9.96445922E-01   # g3(Q) DRbar
#
BLOCK AU Q=  5.00073756E+03  # The trilinear couplings
  1  1     5.00000001E+03   # A_u(Q) DRbar
  2  2     5.00000001E+03   # A_c(Q) DRbar
  3  3     5.00000002E+03   # A_t(Q) DRbar
#
BLOCK AD Q=  5.00073756E+03  # The trilinear couplings
  1  1     5.00000001E+03   # A_d(Q) DRbar
  2  2     5.00000001E+03   # A_s(Q) DRbar
  3  3     5.00000001E+03   # A_b(Q) DRbar
#
BLOCK AE Q=  5.00073756E+03  # The trilinear couplings
  1  1     0.00000000E+00   # A_e(Q) DRbar
  2  2     2.20491852E-07   # A_mu(Q) DRbar
  3  3     2.20308709E-07   # A_tau(Q) DRbar
#
BLOCK Yu Q=  5.00073756E+03  # The Yukawa couplings
  1  1     0.00000000E+00   # y_u(Q) DRbar
  2  2     0.00000000E+00   # y_c(Q) DRbar
  3  3     8.20618351E-01   # y_t(Q) DRbar
#
BLOCK Yd Q=  5.00073756E+03  # The Yukawa couplings
  1  1     0.00000000E+00   # y_d(Q) DRbar
  2  2     0.00000000E+00   # y_s(Q) DRbar
  3  3     1.30997423E-01   # y_b(Q) DRbar
#
BLOCK Ye Q=  5.00073756E+03  # The Yukawa couplings
  1  1     0.00000000E+00   # y_e(Q) DRbar
  2  2     0.00000000E+00   # y_mu(Q) DRbar
  3  3     9.68017950E-02   # y_tau(Q) DRbar
#
BLOCK MSOFT Q=  5.00073756E+03  # The soft SUSY breaking masses at the scale Q
         1     6.00000000E+01   # M_1(Q)              
         2     3.00000000E+03   # M_2(Q)              
         3     1.94903000E+03   # M_3(Q)              
        21     7.53430933E+06   # mH1^2(Q)            
        22    -5.94502947E+05   # mH2^2(Q)            
        31     5.00000000E+03   # meL(Q)              
        32     5.00000000E+03   # mmuL(Q)             
        33     5.00000000E+03   # mtauL(Q)            
        34     5.00000000E+03   # meR(Q)              
        35     5.00000000E+03   # mmuR(Q)             
        36     5.00000000E+03   # mtauR(Q)            
        41     5.00000000E+03   # mqL1(Q)             
        42     5.00000000E+03   # mqL2(Q)             
        43     4.99999999E+03   # mqL3(Q)             
        44     5.00000000E+03   # muR(Q)              
        45     5.00000000E+03   # mcR(Q)              
        46     4.99999999E+03   # mtR(Q)              
        47     5.00000000E+03   # mdR(Q)              
        48     5.00000000E+03   # msR(Q)              
        49     5.00000000E+03   # mbR(Q)              
#
#
#
#                             =================
#                             |The decay table|
#                             =================
#
# - The QCD corrections to the decays gluino -> squark  + quark
#                                     squark -> gaugino + quark_prime
#                                     squark -> squark_prime + Higgs
#                                     squark -> gluino  + quark
#   are included.
#
# - The multi-body decays for the inos, stops and sbottoms are included.
#
# - The loop induced decays for the gluino, neutralinos and stops
#   are included.
#
# - The SUSY decays of the top quark are included.
#
#
#         PDG            Width
DECAY         6     1.40158160E+00   # top decays
#          BR         NDA      ID1       ID2
     1.00000000E+00    2           5        24   # BR(t ->  b    W+)
#
#         PDG            Width
DECAY   1000021     1.61527053E-03   # gluino decays
#          BR         NDA      ID1       ID2
     2.92949027E-06    2     1000022        21   # BR(~g -> ~chi_10 g)
     7.43585427E-03    2     1000023        21   # BR(~g -> ~chi_20 g)
     7.33960157E-03    2     1000025        21   # BR(~g -> ~chi_30 g)
#           BR         NDA      ID1       ID2       ID3
     3.00583457E-02    3     1000022         1        -1   # BR(~g -> ~chi_10 d  db)
     2.15149986E-05    3     1000023         1        -1   # BR(~g -> ~chi_20 d  db)
     9.54406443E-06    3     1000025         1        -1   # BR(~g -> ~chi_30 d  db)
     1.02491792E-01    3     1000022         2        -2   # BR(~g -> ~chi_10 u  ub)
     5.97558477E-05    3     1000023         2        -2   # BR(~g -> ~chi_20 u  ub)
     1.08919700E-05    3     1000025         2        -2   # BR(~g -> ~chi_30 u  ub)
     3.00583457E-02    3     1000022         3        -3   # BR(~g -> ~chi_10 s  sb)
     2.15149986E-05    3     1000023         3        -3   # BR(~g -> ~chi_20 s  sb)
     9.54406443E-06    3     1000025         3        -3   # BR(~g -> ~chi_30 s  sb)
     1.02491792E-01    3     1000022         4        -4   # BR(~g -> ~chi_10 c  cb)
     5.97558477E-05    3     1000023         4        -4   # BR(~g -> ~chi_20 c  cb)
     1.08919700E-05    3     1000025         4        -4   # BR(~g -> ~chi_30 c  cb)
     3.04764966E-02    3     1000022         5        -5   # BR(~g -> ~chi_10 b  bb)
     4.09177035E-03    3     1000023         5        -5   # BR(~g -> ~chi_20 b  bb)
     4.03473253E-03    3     1000025         5        -5   # BR(~g -> ~chi_30 b  bb)
     1.02820988E-01    3     1000022         6        -6   # BR(~g -> ~chi_10 t  tb)
     1.45092261E-01    3     1000023         6        -6   # BR(~g -> ~chi_20 t  tb)
     1.26617594E-01    3     1000025         6        -6   # BR(~g -> ~chi_30 t  tb)
     6.08601406E-05    3     1000024         1        -2   # BR(~g -> ~chi_1+ d  ub)
     6.08601406E-05    3    -1000024         2        -1   # BR(~g -> ~chi_1- u  db)
     6.08601406E-05    3     1000024         3        -4   # BR(~g -> ~chi_1+ s  cb)
     6.08601406E-05    3    -1000024         4        -3   # BR(~g -> ~chi_1- c  sb)
     1.53270322E-01    3     1000024         5        -6   # BR(~g -> ~chi_1+ b  tb)
     1.53270322E-01    3    -1000024         6        -5   # BR(~g -> ~chi_1- t  bb)
#
#         PDG            Width
DECAY   1000006     3.11734020E+02   # stop1 decays
#          BR         NDA      ID1       ID2
     2.84427951E-02    2     1000022         6   # BR(~t_1 -> ~chi_10 t )
     9.57918600E-02    2     1000023         6   # BR(~t_1 -> ~chi_20 t )
     9.21082214E-02    2     1000025         6   # BR(~t_1 -> ~chi_30 t )
     6.64687285E-03    2     1000035         6   # BR(~t_1 -> ~chi_40 t )
     1.39873279E-01    2     1000024         5   # BR(~t_1 -> ~chi_1+ b )
     1.32393124E-02    2     1000037         5   # BR(~t_1 -> ~chi_2+ b )
     6.23897659E-01    2     1000021         6   # BR(~t_1 -> ~g      t )
#
#         PDG            Width
DECAY   2000006     3.20946792E+02   # stop2 decays
#          BR         NDA      ID1       ID2
     1.07755193E-02    2     1000022         6   # BR(~t_2 -> ~chi_10 t )
     9.55535683E-02    2     1000023         6   # BR(~t_2 -> ~chi_20 t )
     9.94734052E-02    2     1000025         6   # BR(~t_2 -> ~chi_30 t )
     1.73847892E-02    2     1000035         6   # BR(~t_2 -> ~chi_40 t )
     5.64205674E-02    2     1000024         5   # BR(~t_2 -> ~chi_1+ b )
     3.45787434E-02    2     1000037         5   # BR(~t_2 -> ~chi_2+ b )
     6.81942127E-01    2     1000021         6   # BR(~t_2 -> ~g      t )
     8.79500693E-04    2     1000006        25   # BR(~t_2 -> ~t_1    h )
     2.99177944E-03    2     1000006        23   # BR(~t_2 -> ~t_1    Z )
#
#         PDG            Width
DECAY   1000005     2.95986612E+02   # sbottom1 decays
#          BR         NDA      ID1       ID2
     2.61095483E-03    2     1000022         5   # BR(~b_1 -> ~chi_10 b )
     2.66967459E-03    2     1000023         5   # BR(~b_1 -> ~chi_20 b )
     2.58656043E-03    2     1000025         5   # BR(~b_1 -> ~chi_30 b )
     2.55134469E-02    2     1000035         5   # BR(~b_1 -> ~chi_40 b )
     2.04770789E-01    2    -1000024         6   # BR(~b_1 -> ~chi_1- t )
     5.12765665E-02    2    -1000037         6   # BR(~b_1 -> ~chi_2- t )
     7.08718758E-01    2     1000021         5   # BR(~b_1 -> ~g      b )
     1.85324988E-03    2     1000006       -24   # BR(~b_1 -> ~t_1    W-)
#
#         PDG            Width
DECAY   2000005     2.19206157E+02   # sbottom2 decays
#          BR         NDA      ID1       ID2
     1.33785833E-02    2     1000022         5   # BR(~b_2 -> ~chi_10 b )
     3.56802736E-03    2     1000023         5   # BR(~b_2 -> ~chi_20 b )
     3.67239737E-03    2     1000025         5   # BR(~b_2 -> ~chi_30 b )
     2.32547780E-04    2     1000035         5   # BR(~b_2 -> ~chi_40 b )
     8.90092683E-03    2    -1000024         6   # BR(~b_2 -> ~chi_1- t )
     4.67292447E-04    2    -1000037         6   # BR(~b_2 -> ~chi_2- t )
     9.69708742E-01    2     1000021         5   # BR(~b_2 -> ~g      b )
     7.14832466E-05    2     1000006       -24   # BR(~b_2 -> ~t_1    W-)
#
#         PDG            Width
DECAY   1000002     2.38499913E+02   # sup_L decays
#          BR         NDA      ID1       ID2
     3.12553592E-03    2     1000022         2   # BR(~u_L -> ~chi_10 u)
     6.70000093E-05    2     1000023         2   # BR(~u_L -> ~chi_20 u)
     5.61360106E-06    2     1000025         2   # BR(~u_L -> ~chi_30 u)
     3.30168765E-02    2     1000035         2   # BR(~u_L -> ~chi_40 u)
     2.29517452E-04    2     1000024         1   # BR(~u_L -> ~chi_1+ d)
     6.59884450E-02    2     1000037         1   # BR(~u_L -> ~chi_2+ d)
     8.97567011E-01    2     1000021         2   # BR(~u_L -> ~g      u)
#
#         PDG            Width
DECAY   2000002     2.24442191E+02   # sup_R decays
#          BR         NDA      ID1       ID2
     5.28594466E-02    2     1000022         2   # BR(~u_R -> ~chi_10 u)
     3.56663548E-05    2     1000023         2   # BR(~u_R -> ~chi_20 u)
     4.34409727E-05    2     1000025         2   # BR(~u_R -> ~chi_30 u)
     3.53450321E-09    2     1000035         2   # BR(~u_R -> ~chi_40 u)
     9.47061443E-01    2     1000021         2   # BR(~u_R -> ~g      u)
#
#         PDG            Width
DECAY   1000001     2.38515924E+02   # sdown_L decays
#          BR         NDA      ID1       ID2
     3.11450214E-03    2     1000022         1   # BR(~d_L -> ~chi_10 d)
     2.79065708E-05    2     1000023         1   # BR(~d_L -> ~chi_20 d)
     3.10587225E-05    2     1000025         1   # BR(~d_L -> ~chi_30 d)
     3.30353471E-02    2     1000035         1   # BR(~d_L -> ~chi_40 d)
     1.53040975E-05    2    -1000024         2   # BR(~d_L -> ~chi_1- u)
     6.60993202E-02    2    -1000037         2   # BR(~d_L -> ~chi_2- u)
     8.97676561E-01    2     1000021         1   # BR(~d_L -> ~g      d)
#
#         PDG            Width
DECAY   2000001     2.15555392E+02   # sdown_R decays
#          BR         NDA      ID1       ID2
     1.37604583E-02    2     1000022         1   # BR(~d_R -> ~chi_10 d)
     9.28482404E-06    2     1000023         1   # BR(~d_R -> ~chi_20 d)
     1.13087477E-05    2     1000025         1   # BR(~d_R -> ~chi_30 d)
     9.20226559E-10    2     1000035         1   # BR(~d_R -> ~chi_40 d)
     9.86218947E-01    2     1000021         1   # BR(~d_R -> ~g      d)
#
#         PDG            Width
DECAY   1000004     2.38499913E+02   # scharm_L decays
#          BR         NDA      ID1       ID2
     3.12553592E-03    2     1000022         4   # BR(~c_L -> ~chi_10 c)
     6.70000093E-05    2     1000023         4   # BR(~c_L -> ~chi_20 c)
     5.61360106E-06    2     1000025         4   # BR(~c_L -> ~chi_30 c)
     3.30168765E-02    2     1000035         4   # BR(~c_L -> ~chi_40 c)
     2.29517452E-04    2     1000024         3   # BR(~c_L -> ~chi_1+ s)
     6.59884450E-02    2     1000037         3   # BR(~c_L -> ~chi_2+ s)
     8.97567011E-01    2     1000021         4   # BR(~c_L -> ~g      c)
#
#         PDG            Width
DECAY   2000004     2.24442191E+02   # scharm_R decays
#          BR         NDA      ID1       ID2
     5.28594466E-02    2     1000022         4   # BR(~c_R -> ~chi_10 c)
     3.56663548E-05    2     1000023         4   # BR(~c_R -> ~chi_20 c)
     4.34409727E-05    2     1000025         4   # BR(~c_R -> ~chi_30 c)
     3.53450321E-09    2     1000035         4   # BR(~c_R -> ~chi_40 c)
     9.47061443E-01    2     1000021         4   # BR(~c_R -> ~g      c)
#
#         PDG            Width
DECAY   1000003     2.38515924E+02   # sstrange_L decays
#          BR         NDA      ID1       ID2
     3.11450214E-03    2     1000022         3   # BR(~s_L -> ~chi_10 s)
     2.79065708E-05    2     1000023         3   # BR(~s_L -> ~chi_20 s)
     3.10587225E-05    2     1000025         3   # BR(~s_L -> ~chi_30 s)
     3.30353471E-02    2     1000035         3   # BR(~s_L -> ~chi_40 s)
     1.53040975E-05    2    -1000024         4   # BR(~s_L -> ~chi_1- c)
     6.60993202E-02    2    -1000037         4   # BR(~s_L -> ~chi_2- c)
     8.97676561E-01    2     1000021         3   # BR(~s_L -> ~g      s)
#
#         PDG            Width
DECAY   2000003     2.15555392E+02   # sstrange_R decays
#          BR         NDA      ID1       ID2
     1.37604583E-02    2     1000022         3   # BR(~s_R -> ~chi_10 s)
     9.28482404E-06    2     1000023         3   # BR(~s_R -> ~chi_20 s)
     1.13087477E-05    2     1000025         3   # BR(~s_R -> ~chi_30 s)
     9.20226559E-10    2     1000035         3   # BR(~s_R -> ~chi_40 s)
     9.86218947E-01    2     1000021         3   # BR(~s_R -> ~g      s)
#
#         PDG            Width
DECAY   1000011     3.02612318E+01   # selectron_L decays
#          BR         NDA      ID1       ID2
     2.26497288E-01    2     1000022        11   # BR(~e_L -> ~chi_10 e-)
     9.86778314E-04    2     1000023        11   # BR(~e_L -> ~chi_20 e-)
     5.58651475E-06    2     1000025        11   # BR(~e_L -> ~chi_30 e-)
     2.57279570E-01    2     1000035        11   # BR(~e_L -> ~chi_40 e-)
     1.22825286E-04    2    -1000024        12   # BR(~e_L -> ~chi_1- nu_e)
     5.15107952E-01    2    -1000037        12   # BR(~e_L -> ~chi_2- nu_e)
#
#         PDG            Width
DECAY   2000011     2.73690018E+01   # selectron_R decays
#          BR         NDA      ID1       ID2
     9.98511970E-01    2     1000022        11   # BR(~e_R -> ~chi_10 e-)
     6.70868963E-04    2     1000023        11   # BR(~e_R -> ~chi_20 e-)
     8.17096044E-04    2     1000025        11   # BR(~e_R -> ~chi_30 e-)
     6.46658116E-08    2     1000035        11   # BR(~e_R -> ~chi_40 e-)
#
#         PDG            Width
DECAY   1000013     3.02612318E+01   # smuon_L decays
#          BR         NDA      ID1       ID2
     2.26497288E-01    2     1000022        13   # BR(~mu_L -> ~chi_10 mu-)
     9.86778314E-04    2     1000023        13   # BR(~mu_L -> ~chi_20 mu-)
     5.58651475E-06    2     1000025        13   # BR(~mu_L -> ~chi_30 mu-)
     2.57279570E-01    2     1000035        13   # BR(~mu_L -> ~chi_40 mu-)
     1.22825286E-04    2    -1000024        14   # BR(~mu_L -> ~chi_1- nu_mu)
     5.15107952E-01    2    -1000037        14   # BR(~mu_L -> ~chi_2- nu_mu)
#
#         PDG            Width
DECAY   2000013     2.73690018E+01   # smuon_R decays
#          BR         NDA      ID1       ID2
     9.98511970E-01    2     1000022        13   # BR(~mu_R -> ~chi_10 mu-)
     6.70868963E-04    2     1000023        13   # BR(~mu_R -> ~chi_20 mu-)
     8.17096044E-04    2     1000025        13   # BR(~mu_R -> ~chi_30 mu-)
     6.46658116E-08    2     1000035        13   # BR(~mu_R -> ~chi_40 mu-)
#
#         PDG            Width
DECAY   1000015     2.90940351E+01   # stau_1 decays
#          BR         NDA      ID1       ID2
     9.28969111E-01    2     1000022        15   # BR(~tau_1 -> ~chi_10  tau-)
     1.53513800E-02    2     1000023        15   # BR(~tau_1 -> ~chi_20  tau-)
     1.44821170E-02    2     1000025        15   # BR(~tau_1 -> ~chi_30  tau-)
     4.04114408E-03    2     1000035        15   # BR(~tau_1 -> ~chi_40  tau-)
     2.90655809E-02    2    -1000024        16   # BR(~tau_1 -> ~chi_1-  nu_tau)
     8.09066681E-03    2    -1000037        16   # BR(~tau_1 -> ~chi_2-  nu_tau)
#
#         PDG            Width
DECAY   2000015     3.10596169E+01   # stau_2 decays
#          BR         NDA      ID1       ID2
     2.30236602E-01    2     1000022        15   # BR(~tau_2 -> ~chi_10  tau-)
     1.44013119E-02    2     1000023        15   # BR(~tau_2 -> ~chi_20  tau-)
     1.43384185E-02    2     1000025        15   # BR(~tau_2 -> ~chi_30  tau-)
     2.46800266E-01    2     1000035        15   # BR(~tau_2 -> ~chi_40  tau-)
     9.61208892E-05    2    -1000024        16   # BR(~tau_2 -> ~chi_1-  nu_tau)
     4.94127281E-01    2    -1000037        16   # BR(~tau_2 -> ~chi_2-  nu_tau)
#
#         PDG            Width
DECAY   1000012     3.02638971E+01   # snu_eL decays
#          BR         NDA      ID1       ID2
     2.26165689E-01    2     1000022        12   # BR(~nu_eL -> ~chi_10 nu_e)
     4.54384615E-05    2     1000023        12   # BR(~nu_eL -> ~chi_20 nu_e)
     6.18019576E-04    2     1000025        12   # BR(~nu_eL -> ~chi_30 nu_e)
     2.57337865E-01    2     1000035        12   # BR(~nu_eL -> ~chi_40 nu_e)
     1.84152879E-03    2     1000024        11   # BR(~nu_eL -> ~chi_1+ e-)
     5.13991460E-01    2     1000037        11   # BR(~nu_eL -> ~chi_2+ e-)
#
#         PDG            Width
DECAY   1000014     3.02638971E+01   # snu_muL decays
#          BR         NDA      ID1       ID2
     2.26165689E-01    2     1000022        14   # BR(~nu_muL -> ~chi_10 nu_mu)
     4.54384615E-05    2     1000023        14   # BR(~nu_muL -> ~chi_20 nu_mu)
     6.18019576E-04    2     1000025        14   # BR(~nu_muL -> ~chi_30 nu_mu)
     2.57337865E-01    2     1000035        14   # BR(~nu_muL -> ~chi_40 nu_mu)
     1.84152879E-03    2     1000024        13   # BR(~nu_muL -> ~chi_1+ mu-)
     5.13991460E-01    2     1000037        13   # BR(~nu_muL -> ~chi_2+ mu-)
#
#         PDG            Width
DECAY   1000016     3.11021286E+01   # snu_tauL decays
#          BR         NDA      ID1       ID2
     2.20046404E-01    2     1000022        16   # BR(~nu_tauL -> ~chi_10 nu_tau)
     4.42080835E-05    2     1000023        16   # BR(~nu_tauL -> ~chi_20 nu_tau)
     6.01284847E-04    2     1000025        16   # BR(~nu_tauL -> ~chi_30 nu_tau)
     2.50309844E-01    2     1000035        16   # BR(~nu_tauL -> ~chi_40 nu_tau)
     2.90443705E-02    2     1000024        15   # BR(~nu_tauL -> ~chi_1+ tau-)
     4.99953888E-01    2     1000037        15   # BR(~nu_tauL -> ~chi_2+ tau-)
#
#         PDG            Width
DECAY   1000024     6.71691473E-01   # chargino1+ decays
#          BR         NDA      ID1       ID2
     1.00000000E+00    2     1000022        24   # BR(~chi_1+ -> ~chi_10  W+)
#
#         PDG            Width
DECAY   1000037     2.00483974E+01   # chargino2+ decays
#          BR         NDA      ID1       ID2
     2.53106448E-01    2     1000024        23   # BR(~chi_2+ -> ~chi_1+  Z )
     2.05838325E-04    2     1000022        24   # BR(~chi_2+ -> ~chi_10  W+)
     2.44057482E-01    2     1000023        24   # BR(~chi_2+ -> ~chi_20  W+)
     2.44031561E-01    2     1000025        24   # BR(~chi_2+ -> ~chi_30  W+)
     2.58597741E-01    2     1000024        25   # BR(~chi_2+ -> ~chi_1+  h )
     9.30029651E-07    2     1000022        37   # BR(~chi_2+ -> ~chi_10  H+)
#
#         PDG            Width
DECAY   1000022     0.00000000E+00   # neutralino1 decays
#
#         PDG            Width
DECAY   1000023     7.02902483E-01   # neutralino2 decays
#          BR         NDA      ID1       ID2
     5.44440855E-01    2     1000022        23   # BR(~chi_20 -> ~chi_10   Z )
     4.55559145E-01    2     1000022        25   # BR(~chi_20 -> ~chi_10   h )
#
#         PDG            Width
DECAY   1000025     7.07376318E-01   # neutralino3 decays
#          BR         NDA      ID1       ID2
     4.43581482E-01    2     1000022        23   # BR(~chi_30 -> ~chi_10   Z )
     5.56418518E-01    2     1000022        25   # BR(~chi_30 -> ~chi_10   h )
#
#         PDG            Width
DECAY   1000035     2.00620715E+01   # neutralino4 decays
#          BR         NDA      ID1       ID2
     5.54562941E-05    2     1000022        23   # BR(~chi_40 -> ~chi_10   Z )
     6.53755970E-02    2     1000023        23   # BR(~chi_40 -> ~chi_20   Z )
     1.87012863E-01    2     1000025        23   # BR(~chi_40 -> ~chi_30   Z )
     2.44694909E-01    2     1000024       -24   # BR(~chi_40 -> ~chi_1+   W-)
     2.44694909E-01    2    -1000024        24   # BR(~chi_40 -> ~chi_1-   W+)
     1.52338754E-04    2     1000022        25   # BR(~chi_40 -> ~chi_10   h )
     8.62239527E-07    2     1000022        35   # BR(~chi_40 -> ~chi_10   H )
     1.09021557E-07    2     1000022        36   # BR(~chi_40 -> ~chi_10   A )
     1.92479489E-01    2     1000023        25   # BR(~chi_40 -> ~chi_20   h )
     6.55334672E-02    2     1000025        25   # BR(~chi_40 -> ~chi_30   h )
#
#         PDG            Width
DECAY        25     4.05640234E-03   # h decays
#          BR         NDA      ID1       ID2
     6.07063477E-01    2           5        -5   # BR(h -> b       bb     )
     6.39588468E-02    2         -15        15   # BR(h -> tau+    tau-   )
     2.26437417E-04    2         -13        13   # BR(h -> mu+     mu-    )
     4.80007485E-04    2           3        -3   # BR(h -> s       sb     )
     2.07998414E-02    2           4        -4   # BR(h -> c       cb     )
     6.73233061E-02    2          21        21   # BR(h -> g       g      )
     2.31554988E-03    2          22        22   # BR(h -> gam     gam    )
     1.49605572E-03    2          22        23   # BR(h -> Z       gam    )
     2.11111526E-01    2          24       -24   # BR(h -> W+      W-     )
     2.51738224E-02    2          23        23   # BR(h -> Z       Z      )
     5.11294659E-05    2     1000022   1000022   # BR(h -> ~chi_10 ~chi_10)
#
#         PDG            Width
DECAY        35     7.95469622E+00   # H decays
#          BR         NDA      ID1       ID2
     4.07043024E-01    2           5        -5   # BR(H -> b       bb     )
     7.00297302E-02    2         -15        15   # BR(H -> tau+    tau-   )
     2.47630688E-04    2         -13        13   # BR(H -> mu+     mu-    )
     3.03557245E-04    2           3        -3   # BR(H -> s       sb     )
     1.69826851E-06    2           4        -4   # BR(H -> c       cb     )
     1.69670476E-01    2           6        -6   # BR(H -> t       tb     )
     5.63715312E-05    2          21        21   # BR(H -> g       g      )
     3.01289526E-07    2          22        22   # BR(H -> gam     gam    )
     1.00195072E-07    2          23        22   # BR(H -> Z       gam    )
     7.77839825E-05    2          24       -24   # BR(H -> W+      W-     )
     3.88427660E-05    2          23        23   # BR(H -> Z       Z      )
     2.89214853E-04    2          25        25   # BR(H -> h       h      )
     2.13239940E-23    2          36        36   # BR(H -> A       A      )
     5.43132451E-19    2          23        36   # BR(H -> Z       A      )
     1.60341310E-03    2     1000024  -1000024   # BR(H -> ~chi_1+ ~chi_1-)
     1.49997544E-03    2     1000022   1000022   # BR(H -> ~chi_10 ~chi_10)
     5.86942546E-05    2     1000023   1000023   # BR(H -> ~chi_20 ~chi_20)
     3.73118415E-04    2     1000025   1000025   # BR(H -> ~chi_30 ~chi_30)
     2.08827674E-01    2     1000022   1000023   # BR(H -> ~chi_10 ~chi_20)
     1.39536007E-01    2     1000022   1000025   # BR(H -> ~chi_10 ~chi_30)
     3.42387290E-04    2     1000023   1000025   # BR(H -> ~chi_20 ~chi_30)
#
#         PDG            Width
DECAY        36     7.97317227E+00   # A decays
#          BR         NDA      ID1       ID2
     4.06236441E-01    2           5        -5   # BR(A -> b       bb     )
     6.98694679E-02    2         -15        15   # BR(A -> tau+    tau-   )
     2.47063643E-04    2         -13        13   # BR(A -> mu+     mu-    )
     3.03083534E-04    2           3        -3   # BR(A -> s       sb     )
     1.70129051E-06    2           4        -4   # BR(A -> c       cb     )
     1.69878614E-01    2           6        -6   # BR(A -> t       tb     )
     1.68104932E-04    2          21        21   # BR(A -> g       g      )
     5.55075487E-07    2          22        22   # BR(A -> gam     gam    )
     2.03617255E-07    2          23        22   # BR(A -> Z       gam    )
     7.73099074E-05    2          23        25   # BR(A -> Z       h      )
     3.10277854E-03    2     1000024  -1000024   # BR(A -> ~chi_1+ ~chi_1-)
     1.53074661E-03    2     1000022   1000022   # BR(A -> ~chi_10 ~chi_10)
     8.28065924E-05    2     1000023   1000023   # BR(A -> ~chi_20 ~chi_20)
     1.23687171E-03    2     1000025   1000025   # BR(A -> ~chi_30 ~chi_30)
     1.41095537E-01    2     1000022   1000023   # BR(A -> ~chi_10 ~chi_20)
     2.06100019E-01    2     1000022   1000025   # BR(A -> ~chi_10 ~chi_30)
     6.86952752E-05    2     1000023   1000025   # BR(A -> ~chi_20 ~chi_30)
#
#         PDG            Width
DECAY        37     7.94377188E+00   # H+ decays
#          BR         NDA      ID1       ID2
     6.55007215E-04    2           4        -5   # BR(H+ -> c       bb     )
     7.01521689E-02    2         -15        16   # BR(H+ -> tau+    nu_tau )
     2.48063295E-04    2         -13        14   # BR(H+ -> mu+     nu_mu  )
     4.19202457E-06    2           2        -5   # BR(H+ -> u       bb     )
     1.45557396E-05    2           2        -3   # BR(H+ -> u       sb     )
     3.01013864E-04    2           4        -3   # BR(H+ -> c       sb     )
     5.76328629E-01    2           6        -5   # BR(H+ -> t       bb     )
     7.77259929E-05    2          24        25   # BR(H+ -> W+      h      )
     1.93084503E-13    2          24        36   # BR(H+ -> W+      A      )
     3.51497414E-01    2     1000024   1000022   # BR(H+ -> ~chi_1+ ~chi_10)
     6.73172189E-04    2     1000024   1000023   # BR(H+ -> ~chi_1+ ~chi_20)
     4.80582156E-05    2     1000024   1000025   # BR(H+ -> ~chi_1+ ~chi_30)
