#
#                              ======================
#                              | THE SUSYHIT OUTPUT |
#                              ======================
#
#
#              ------------------------------------------------------
#              |     This is the output of the SUSY-HIT package     |
#              |  created by A.Djouadi, M.Muehlleitner and M.Spira. |
#              |  In case of problems with SUSY-HIT email to        |
#              |           margarete.muehlleitner@cern.ch           |
#              |           michael.spira@psi.ch                     |
#              |           abdelhak.djouadi@cern.ch                 |
#              ------------------------------------------------------
#
#              ------------------------------------------------------
#              |  SUSY Les Houches Accord - MSSM Spectrum + Decays  |
#              |              based on the decay programs           |
#              |                                                    |
#              |                     SDECAY 1.3b                    |
#              |                                                    |
#              |  Authors: M.Muhlleitner, A.Djouadi and Y.Mambrini  |
#              |  Ref.:    Comput.Phys.Commun.168(2005)46           |
#              |           [hep-ph/0311167]                         |
#              |                                                    |
#              |                     HDECAY 3.4                     |
#              |                                                    |
#              |  By: A.Djouadi,J.Kalinowski,M.Muhlleitner,M.Spira  |
#              |  Ref.:    Comput.Phys.Commun.108(1998)56           |
#              |           [hep-ph/9704448]                         |
#              |                                                    |
#              |                                                    |
#              |  If not stated otherwise all DRbar couplings and   |
#              |  soft SUSY breaking masses are given at the scale  |
#              |  Q=  0.50007134E+04
#              |                                                    |
#              ------------------------------------------------------
#
#
BLOCK DCINFO  # Decay Program information
     1   SDECAY/HDECAY # decay calculator
     2   1.3b  /3.4    # version number
#
BLOCK SPINFO  # Spectrum calculator information
     1    SOFTSUSY    # spectrum calculator                
     2    3.4.0       # version number                     
#
BLOCK MODSEL  # Model selection
     1     0   #  nonUniversal                                     
#
BLOCK SMINPUTS  # Standard Model inputs
         1     1.25778332E+02   # alpha_em^-1(M_Z)^MSbar
         2     1.16570000E-05   # G_F [GeV^-2]
         3     1.17200002E-01   # alpha_S(M_Z)^MSbar
         4     9.11876000E+01   # M_Z pole mass
         5     4.25000000E+00   # mb(mb)^MSbar
         6     1.72500000E+02   # mt pole mass
         7     1.77682000E+00   # mtau pole mass
#
BLOCK MINPAR  # Input parameters - minimal models
         3     1.00000000E+01   # tanb                
#
BLOCK EXTPAR  # Input parameters - non-minimal models
         0    -1.00000000E+00   # Set                 
         1     6.00000000E+01   # M_1(MX)             
         2     3.00000000E+03   # M_2(MX)             
         3     1.48350700E+03   # M_3(MX)             
        11     5.00000000E+03   # At(MX)              
        12     5.00000000E+03   # Ab(MX)              
        13     0.00000000E+00   # Atau(MX)            
        23    -1.54458200E+03   # mu(MX)              
        26     3.00000000E+03   # mA(pole)            
        31     5.00000000E+03   # meL(MX)             
        32     5.00000000E+03   # mmuL(MX)            
        33     5.00000000E+03   # mtauL(MX)           
        34     5.00000000E+03   # meR(MX)             
        35     5.00000000E+03   # mmuR(MX)            
        36     5.00000000E+03   # mtauR(MX)           
        41     5.00000000E+03   # mqL1(MX)            
        42     5.00000000E+03   # mqL2(MX)            
        43     5.00000000E+03   # mqL3(MX)            
        44     5.00000000E+03   # muR(MX)             
        45     5.00000000E+03   # mcR(MX)             
        46     5.00000000E+03   # mtR(MX)             
        47     5.00000000E+03   # mdR(MX)             
        48     5.00000000E+03   # msR(MX)             
        49     5.00000000E+03   # mbR(MX)             
#
BLOCK MASS  # Mass Spectrum
# PDG code           mass       particle
        24     8.00963303E+01   # W+
        25     1.24726664E+02   # h
        35     3.00008260E+03   # H
        36     2.99999996E+03   # A
        37     3.00087394E+03   # H+
         5     4.87878001E+00   # b-quark pole mass calculated from mb(mb)_Msbar
   1000001     5.06947922E+03   # ~d_L
   2000001     5.05169619E+03   # ~d_R
   1000002     5.06900471E+03   # ~u_L
   2000002     5.05142245E+03   # ~u_R
   1000003     5.06947922E+03   # ~s_L
   2000003     5.05169619E+03   # ~s_R
   1000004     5.06900471E+03   # ~c_L
   2000004     5.05142245E+03   # ~c_R
   1000005     5.01565752E+03   # ~b_1
   2000005     5.05063779E+03   # ~b_2
   1000006     4.90694141E+03   # ~t_1
   2000006     5.06219184E+03   # ~t_2
   1000011     5.01904627E+03   # ~e_L
   2000011     5.00590866E+03   # ~e_R
   1000012     5.01809825E+03   # ~nu_eL
   1000013     5.01904627E+03   # ~mu_L
   2000013     5.00590866E+03   # ~mu_R
   1000014     5.01809825E+03   # ~nu_muL
   1000015     5.00431347E+03   # ~tau_1
   2000015     5.01906294E+03   # ~tau_2
   1000016     5.01756111E+03   # ~nu_tauL
   1000021     1.80000049E+03   # ~g
   1000022     6.03025286E+01   # ~chi_10
   1000023     1.59942879E+03   # ~chi_20
   1000025    -1.60195034E+03   # ~chi_30
   1000035     3.07434408E+03   # ~chi_40
   1000024     1.60000069E+03   # ~chi_1+
   1000037     3.07451162E+03   # ~chi_2+
#
BLOCK NMIX  # Neutralino Mixing Matrix
  1  1     9.99609619E-01   # N_11
  1  2     1.33207928E-04   # N_12
  1  3    -2.78763190E-02   # N_13
  1  4     1.87130043E-03   # N_14
  2  1     1.83865096E-02   # N_21
  2  2     3.29883215E-02   # N_22
  2  3     7.06888712E-01   # N_23
  2  4     7.06315833E-01   # N_24
  3  1    -2.10315671E-02   # N_31
  3  2     1.29782099E-02   # N_32
  3  3    -7.06633526E-01   # N_33
  3  4     7.07148003E-01   # N_34
  4  1    -4.67037473E-04   # N_41
  4  2     9.99371462E-01   # N_42
  4  3    -1.41534165E-02   # N_43
  4  4    -3.24983647E-02   # N_44
#
BLOCK UMIX  # Chargino Mixing Matrix U
  1  1     2.00198468E-02   # U_11
  1  2     9.99799583E-01   # U_12
  2  1    -9.99799583E-01   # U_21
  2  2     2.00198468E-02   # U_22
#
BLOCK VMIX  # Chargino Mixing Matrix V
  1  1     4.59715342E-02   # V_11
  1  2    -9.98942750E-01   # V_12
  2  1    -9.98942750E-01   # V_21
  2  2    -4.59715342E-02   # V_22
#
BLOCK STOPMIX  # Stop Mixing Matrix
  1  1    -5.12656415E-01   # cos(theta_t)
  1  2     8.58593851E-01   # sin(theta_t)
  2  1    -8.58593851E-01   # -sin(theta_t)
  2  2    -5.12656415E-01   # cos(theta_t)
#
BLOCK SBOTMIX  # Sbottom Mixing Matrix
  1  1     9.93850067E-01   # cos(theta_b)
  1  2    -1.10734115E-01   # sin(theta_b)
  2  1     1.10734115E-01   # -sin(theta_b)
  2  2     9.93850067E-01   # cos(theta_b)
#
BLOCK STAUMIX  # Stau Mixing Matrix
  1  1    -1.78618989E-01   # cos(theta_tau)
  1  2     9.83918318E-01   # sin(theta_tau)
  2  1    -9.83918318E-01   # -sin(theta_tau)
  2  2    -1.78618989E-01   # cos(theta_tau)
#
BLOCK ALPHA  # Higgs mixing
          -1.05456935E-01   # Mixing angle in the neutral Higgs boson sector
#
BLOCK HMIX Q=  5.00071341E+03  # DRbar Higgs Parameters
         1    -1.57280285E+03   # mu(Q)MSSM           
         2     9.47092425E+00   # tan                 
         3     2.41983594E+02   # higgs               
         4     8.38194408E+06   # mA^2(Q)MSSM         
#
BLOCK GAUGE Q=  5.00071341E+03  # The gauge couplings
     1     3.70691283E-01   # gprime(Q) DRbar
     2     6.32030635E-01   # g(Q) DRbar
     3     1.00003984E+00   # g3(Q) DRbar
#
BLOCK AU Q=  5.00071341E+03  # The trilinear couplings
  1  1     5.00000001E+03   # A_u(Q) DRbar
  2  2     5.00000001E+03   # A_c(Q) DRbar
  3  3     5.00000002E+03   # A_t(Q) DRbar
#
BLOCK AD Q=  5.00071341E+03  # The trilinear couplings
  1  1     5.00000000E+03   # A_d(Q) DRbar
  2  2     5.00000000E+03   # A_s(Q) DRbar
  3  3     5.00000001E+03   # A_b(Q) DRbar
#
BLOCK AE Q=  5.00071341E+03  # The trilinear couplings
  1  1     0.00000000E+00   # A_e(Q) DRbar
  2  2     1.45866617E-07   # A_mu(Q) DRbar
  3  3     1.45388850E-07   # A_tau(Q) DRbar
#
BLOCK Yu Q=  5.00071341E+03  # The Yukawa couplings
  1  1     0.00000000E+00   # y_u(Q) DRbar
  2  2     0.00000000E+00   # y_c(Q) DRbar
  3  3     8.18810534E-01   # y_t(Q) DRbar
#
BLOCK Yd Q=  5.00071341E+03  # The Yukawa couplings
  1  1     0.00000000E+00   # y_d(Q) DRbar
  2  2     0.00000000E+00   # y_s(Q) DRbar
  3  3     1.31163256E-01   # y_b(Q) DRbar
#
BLOCK Ye Q=  5.00071341E+03  # The Yukawa couplings
  1  1     0.00000000E+00   # y_e(Q) DRbar
  2  2     0.00000000E+00   # y_mu(Q) DRbar
  3  3     9.65947273E-02   # y_tau(Q) DRbar
#
BLOCK MSOFT Q=  5.00071341E+03  # The soft SUSY breaking masses at the scale Q
         1     6.00000000E+01   # M_1(Q)              
         2     3.00000000E+03   # M_2(Q)              
         3     1.48350700E+03   # M_3(Q)              
        21     6.19082714E+06   # mH1^2(Q)            
        22    -1.92940917E+06   # mH2^2(Q)            
        31     5.00000000E+03   # meL(Q)              
        32     5.00000000E+03   # mmuL(Q)             
        33     5.00000000E+03   # mtauL(Q)            
        34     5.00000000E+03   # meR(Q)              
        35     5.00000000E+03   # mmuR(Q)             
        36     5.00000000E+03   # mtauR(Q)            
        41     5.00000000E+03   # mqL1(Q)             
        42     5.00000000E+03   # mqL2(Q)             
        43     5.00000000E+03   # mqL3(Q)             
        44     5.00000000E+03   # muR(Q)              
        45     5.00000000E+03   # mcR(Q)              
        46     4.99999999E+03   # mtR(Q)              
        47     5.00000000E+03   # mdR(Q)              
        48     5.00000000E+03   # msR(Q)              
        49     5.00000000E+03   # mbR(Q)              
#
#
#
#                             =================
#                             |The decay table|
#                             =================
#
# - The QCD corrections to the decays gluino -> squark  + quark
#                                     squark -> gaugino + quark_prime
#                                     squark -> squark_prime + Higgs
#                                     squark -> gluino  + quark
#   are included.
#
# - The multi-body decays for the inos, stops and sbottoms are included.
#
# - The loop induced decays for the gluino, neutralinos and stops
#   are included.
#
# - The SUSY decays of the top quark are included.
#
#
#         PDG            Width
DECAY         6     1.39979487E+00   # top decays
#          BR         NDA      ID1       ID2
     1.00000000E+00    2           5        24   # BR(t ->  b    W+)
#
#         PDG            Width
DECAY   1000021     1.77158949E-04   # gluino decays
#          BR         NDA      ID1       ID2
     9.25902148E-06    2     1000022        21   # BR(~g -> ~chi_10 g)
     6.40539905E-04    2     1000023        21   # BR(~g -> ~chi_20 g)
     6.22629261E-04    2     1000025        21   # BR(~g -> ~chi_30 g)
#           BR         NDA      ID1       ID2       ID3
     7.66175804E-02    3     1000022         1        -1   # BR(~g -> ~chi_10 d  db)
     1.09171577E-07    3     1000023         1        -1   # BR(~g -> ~chi_20 d  db)
     1.35447793E-08    3     1000025         1        -1   # BR(~g -> ~chi_30 d  db)
     2.61195688E-01    3     1000022         2        -2   # BR(~g -> ~chi_10 u  ub)
     1.84509915E-07    3     1000023         2        -2   # BR(~g -> ~chi_20 u  ub)
     1.32732296E-08    3     1000025         2        -2   # BR(~g -> ~chi_30 u  ub)
     7.66175804E-02    3     1000022         3        -3   # BR(~g -> ~chi_10 s  sb)
     1.09171577E-07    3     1000023         3        -3   # BR(~g -> ~chi_20 s  sb)
     1.35447793E-08    3     1000025         3        -3   # BR(~g -> ~chi_30 s  sb)
     2.61195688E-01    3     1000022         4        -4   # BR(~g -> ~chi_10 c  cb)
     1.84509915E-07    3     1000023         4        -4   # BR(~g -> ~chi_20 c  cb)
     1.32732296E-08    3     1000025         4        -4   # BR(~g -> ~chi_30 c  cb)
     7.75376074E-02    3     1000022         5        -5   # BR(~g -> ~chi_10 b  bb)
     1.07887872E-05    3     1000023         5        -5   # BR(~g -> ~chi_20 b  bb)
     9.86564246E-06    3     1000025         5        -5   # BR(~g -> ~chi_30 b  bb)
     2.45537180E-01    3     1000022         6        -6   # BR(~g -> ~chi_10 t  tb)
     2.69184966E-07    3     1000024         1        -2   # BR(~g -> ~chi_1+ d  ub)
     2.69184966E-07    3    -1000024         2        -1   # BR(~g -> ~chi_1- u  db)
     2.69184966E-07    3     1000024         3        -4   # BR(~g -> ~chi_1+ s  cb)
     2.69184966E-07    3    -1000024         4        -3   # BR(~g -> ~chi_1- c  sb)
     1.93758291E-06    3     1000024         5        -6   # BR(~g -> ~chi_1+ b  tb)
     1.93758291E-06    3    -1000024         6        -5   # BR(~g -> ~chi_1- t  bb)
#
#         PDG            Width
DECAY   1000006     3.44632483E+02   # stop1 decays
#          BR         NDA      ID1       ID2
     2.54948048E-02    2     1000022         6   # BR(~t_1 -> ~chi_10 t )
     7.64236951E-02    2     1000023         6   # BR(~t_1 -> ~chi_20 t )
     7.34022013E-02    2     1000025         6   # BR(~t_1 -> ~chi_30 t )
     6.35558888E-03    2     1000035         6   # BR(~t_1 -> ~chi_40 t )
     1.09768637E-01    2     1000024         5   # BR(~t_1 -> ~chi_1+ b )
     1.26349587E-02    2     1000037         5   # BR(~t_1 -> ~chi_2+ b )
     6.95920114E-01    2     1000021         6   # BR(~t_1 -> ~g      t )
#
#         PDG            Width
DECAY   2000006     3.55288293E+02   # stop2 decays
#          BR         NDA      ID1       ID2
     1.00416642E-02    2     1000022         6   # BR(~t_2 -> ~chi_10 t )
     7.70172076E-02    2     1000023         6   # BR(~t_2 -> ~chi_20 t )
     8.01985165E-02    2     1000025         6   # BR(~t_2 -> ~chi_30 t )
     1.52876088E-02    2     1000035         6   # BR(~t_2 -> ~chi_40 t )
     4.75190914E-02    2     1000024         5   # BR(~t_2 -> ~chi_1+ b )
     3.03374752E-02    2     1000037         5   # BR(~t_2 -> ~chi_2+ b )
     7.35924065E-01    2     1000021         6   # BR(~t_2 -> ~g      t )
     8.07394327E-04    2     1000006        25   # BR(~t_2 -> ~t_1    h )
     2.86697740E-03    2     1000006        23   # BR(~t_2 -> ~t_1    Z )
#
#         PDG            Width
DECAY   1000005     3.32232585E+02   # sbottom1 decays
#          BR         NDA      ID1       ID2
     2.36127193E-03    2     1000022         5   # BR(~b_1 -> ~chi_10 b )
     2.18645107E-03    2     1000023         5   # BR(~b_1 -> ~chi_20 b )
     2.05441480E-03    2     1000025         5   # BR(~b_1 -> ~chi_30 b )
     2.24551163E-02    2     1000035         5   # BR(~b_1 -> ~chi_40 b )
     1.61071968E-01    2    -1000024         6   # BR(~b_1 -> ~chi_1- t )
     4.52281335E-02    2    -1000037         6   # BR(~b_1 -> ~chi_2- t )
     7.62979029E-01    2     1000021         5   # BR(~b_1 -> ~g      b )
     1.66361481E-03    2     1000006       -24   # BR(~b_1 -> ~t_1    W-)
#
#         PDG            Width
DECAY   2000005     2.62771394E+02   # sbottom2 decays
#          BR         NDA      ID1       ID2
     1.11330336E-02    2     1000022         5   # BR(~b_2 -> ~chi_10 b )
     2.62260067E-03    2     1000023         5   # BR(~b_2 -> ~chi_20 b )
     2.75003330E-03    2     1000025         5   # BR(~b_2 -> ~chi_30 b )
     3.75375427E-04    2     1000035         5   # BR(~b_2 -> ~chi_40 b )
     7.79267620E-03    2    -1000024         6   # BR(~b_2 -> ~chi_1- t )
     7.55651565E-04    2    -1000037         6   # BR(~b_2 -> ~chi_2- t )
     9.74460175E-01    2     1000021         5   # BR(~b_2 -> ~g      b )
     1.10453968E-04    2     1000006       -24   # BR(~b_2 -> ~t_1    W-)
#
#         PDG            Width
DECAY   1000002     2.81723873E+02   # sup_L decays
#          BR         NDA      ID1       ID2
     2.64974588E-03    2     1000022         2   # BR(~u_L -> ~chi_10 u)
     7.53216420E-05    2     1000023         2   # BR(~u_L -> ~chi_20 u)
     4.42142841E-06    2     1000025         2   # BR(~u_L -> ~chi_30 u)
     2.77802484E-02    2     1000035         2   # BR(~u_L -> ~chi_40 u)
     2.37849424E-04    2     1000024         1   # BR(~u_L -> ~chi_1+ d)
     5.55159875E-02    2     1000037         1   # BR(~u_L -> ~chi_2+ d)
     9.13736426E-01    2     1000021         2   # BR(~u_L -> ~g      u)
#
#         PDG            Width
DECAY   2000002     2.67905937E+02   # sup_R decays
#          BR         NDA      ID1       ID2
     4.43659732E-02    2     1000022         2   # BR(~u_R -> ~chi_10 u)
     1.21742968E-05    2     1000023         2   # BR(~u_R -> ~chi_20 u)
     1.59178250E-05    2     1000025         2   # BR(~u_R -> ~chi_30 u)
     3.85758414E-09    2     1000035         2   # BR(~u_R -> ~chi_40 u)
     9.55605931E-01    2     1000021         2   # BR(~u_R -> ~g      u)
#
#         PDG            Width
DECAY   1000001     2.81738469E+02   # sdown_L decays
#          BR         NDA      ID1       ID2
     2.64264401E-03    2     1000022         1   # BR(~d_L -> ~chi_10 d)
     4.86303825E-05    2     1000023         1   # BR(~d_L -> ~chi_20 d)
     1.64277315E-05    2     1000025         1   # BR(~d_L -> ~chi_30 d)
     2.77975786E-02    2     1000035         1   # BR(~d_L -> ~chi_40 d)
     4.51109429E-05    2    -1000024         2   # BR(~d_L -> ~chi_1- u)
     5.56256266E-02    2    -1000037         2   # BR(~d_L -> ~chi_2- u)
     9.13823982E-01    2     1000021         1   # BR(~d_L -> ~g      d)
#
#         PDG            Width
DECAY   2000001     2.59007968E+02   # sdown_R decays
#          BR         NDA      ID1       ID2
     1.14731586E-02    2     1000022         1   # BR(~d_R -> ~chi_10 d)
     3.14838054E-06    2     1000023         1   # BR(~d_R -> ~chi_20 d)
     4.11649028E-06    2     1000025         1   # BR(~d_R -> ~chi_30 d)
     9.97707340E-10    2     1000035         1   # BR(~d_R -> ~chi_40 d)
     9.88519576E-01    2     1000021         1   # BR(~d_R -> ~g      d)
#
#         PDG            Width
DECAY   1000004     2.81723873E+02   # scharm_L decays
#          BR         NDA      ID1       ID2
     2.64974588E-03    2     1000022         4   # BR(~c_L -> ~chi_10 c)
     7.53216420E-05    2     1000023         4   # BR(~c_L -> ~chi_20 c)
     4.42142841E-06    2     1000025         4   # BR(~c_L -> ~chi_30 c)
     2.77802484E-02    2     1000035         4   # BR(~c_L -> ~chi_40 c)
     2.37849424E-04    2     1000024         3   # BR(~c_L -> ~chi_1+ s)
     5.55159875E-02    2     1000037         3   # BR(~c_L -> ~chi_2+ s)
     9.13736426E-01    2     1000021         4   # BR(~c_L -> ~g      c)
#
#         PDG            Width
DECAY   2000004     2.67905937E+02   # scharm_R decays
#          BR         NDA      ID1       ID2
     4.43659732E-02    2     1000022         4   # BR(~c_R -> ~chi_10 c)
     1.21742968E-05    2     1000023         4   # BR(~c_R -> ~chi_20 c)
     1.59178250E-05    2     1000025         4   # BR(~c_R -> ~chi_30 c)
     3.85758414E-09    2     1000035         4   # BR(~c_R -> ~chi_40 c)
     9.55605931E-01    2     1000021         4   # BR(~c_R -> ~g      c)
#
#         PDG            Width
DECAY   1000003     2.81738469E+02   # sstrange_L decays
#          BR         NDA      ID1       ID2
     2.64264401E-03    2     1000022         3   # BR(~s_L -> ~chi_10 s)
     4.86303825E-05    2     1000023         3   # BR(~s_L -> ~chi_20 s)
     1.64277315E-05    2     1000025         3   # BR(~s_L -> ~chi_30 s)
     2.77975786E-02    2     1000035         3   # BR(~s_L -> ~chi_40 s)
     4.51109429E-05    2    -1000024         4   # BR(~s_L -> ~chi_1- c)
     5.56256266E-02    2    -1000037         4   # BR(~s_L -> ~chi_2- c)
     9.13823982E-01    2     1000021         3   # BR(~s_L -> ~g      s)
#
#         PDG            Width
DECAY   2000003     2.59007968E+02   # sstrange_R decays
#          BR         NDA      ID1       ID2
     1.14731586E-02    2     1000022         3   # BR(~s_R -> ~chi_10 s)
     3.14838054E-06    2     1000023         3   # BR(~s_R -> ~chi_20 s)
     4.11649028E-06    2     1000025         3   # BR(~s_R -> ~chi_30 s)
     9.97707340E-10    2     1000035         3   # BR(~s_R -> ~chi_40 s)
     9.88519576E-01    2     1000021         3   # BR(~s_R -> ~g      s)
#
#         PDG            Width
DECAY   1000011     3.02337067E+01   # selectron_L decays
#          BR         NDA      ID1       ID2
     2.26770986E-01    2     1000022        11   # BR(~e_L -> ~chi_10 e-)
     1.02020719E-03    2     1000023        11   # BR(~e_L -> ~chi_20 e-)
     2.20003699E-07    2     1000025        11   # BR(~e_L -> ~chi_30 e-)
     2.57042167E-01    2     1000035        11   # BR(~e_L -> ~chi_40 e-)
     4.26750083E-04    2    -1000024        12   # BR(~e_L -> ~chi_1- nu_e)
     5.14739669E-01    2    -1000037        12   # BR(~e_L -> ~chi_2- nu_e)
#
#         PDG            Width
DECAY   2000011     2.73574740E+01   # selectron_R decays
#          BR         NDA      ID1       ID2
     9.99370703E-01    2     1000022        11   # BR(~e_R -> ~chi_10 e-)
     2.72684459E-04    2     1000023        11   # BR(~e_R -> ~chi_20 e-)
     3.56527800E-04    2     1000025        11   # BR(~e_R -> ~chi_30 e-)
     8.46509703E-08    2     1000035        11   # BR(~e_R -> ~chi_40 e-)
#
#         PDG            Width
DECAY   1000013     3.02337067E+01   # smuon_L decays
#          BR         NDA      ID1       ID2
     2.26770986E-01    2     1000022        13   # BR(~mu_L -> ~chi_10 mu-)
     1.02020719E-03    2     1000023        13   # BR(~mu_L -> ~chi_20 mu-)
     2.20003699E-07    2     1000025        13   # BR(~mu_L -> ~chi_30 mu-)
     2.57042167E-01    2     1000035        13   # BR(~mu_L -> ~chi_40 mu-)
     4.26750083E-04    2    -1000024        14   # BR(~mu_L -> ~chi_1- nu_mu)
     5.14739669E-01    2    -1000037        14   # BR(~mu_L -> ~chi_2- nu_mu)
#
#         PDG            Width
DECAY   2000013     2.73574740E+01   # smuon_R decays
#          BR         NDA      ID1       ID2
     9.99370703E-01    2     1000022        13   # BR(~mu_R -> ~chi_10 mu-)
     2.72684459E-04    2     1000023        13   # BR(~mu_R -> ~chi_20 mu-)
     3.56527800E-04    2     1000025        13   # BR(~mu_R -> ~chi_30 mu-)
     8.46509703E-08    2     1000035        13   # BR(~mu_R -> ~chi_40 mu-)
#
#         PDG            Width
DECAY   1000015     2.89376123E+01   # stau_1 decays
#          BR         NDA      ID1       ID2
     9.22777861E-01    2     1000022        15   # BR(~tau_1 -> ~chi_10  tau-)
     1.38750028E-02    2     1000023        15   # BR(~tau_1 -> ~chi_20  tau-)
     1.24860751E-02    2     1000025        15   # BR(~tau_1 -> ~chi_30  tau-)
     8.19889813E-03    2     1000035        15   # BR(~tau_1 -> ~chi_40  tau-)
     2.62431858E-02    2    -1000024        16   # BR(~tau_1 -> ~chi_1-  nu_tau)
     1.64189769E-02    2    -1000037        16   # BR(~tau_1 -> ~chi_2-  nu_tau)
#
#         PDG            Width
DECAY   2000015     3.08888069E+01   # stau_2 decays
#          BR         NDA      ID1       ID2
     2.42417796E-01    2     1000022        15   # BR(~tau_2 -> ~chi_10  tau-)
     1.25195967E-02    2     1000023        15   # BR(~tau_2 -> ~chi_20  tau-)
     1.28677121E-02    2     1000025        15   # BR(~tau_2 -> ~chi_30  tau-)
     2.43838598E-01    2     1000035        15   # BR(~tau_2 -> ~chi_40  tau-)
     6.01236268E-05    2    -1000024        16   # BR(~tau_2 -> ~chi_1-  nu_tau)
     4.88296174E-01    2    -1000037        16   # BR(~tau_2 -> ~chi_2-  nu_tau)
#
#         PDG            Width
DECAY   1000012     3.02355637E+01   # snu_eL decays
#          BR         NDA      ID1       ID2
     2.26508250E-01    2     1000022        12   # BR(~nu_eL -> ~chi_10 nu_e)
     2.62438596E-04    2     1000023        12   # BR(~nu_eL -> ~chi_20 nu_e)
     3.40829783E-04    2     1000025        12   # BR(~nu_eL -> ~chi_30 nu_e)
     2.57142990E-01    2     1000035        12   # BR(~nu_eL -> ~chi_40 nu_e)
     2.24949104E-03    2     1000024        11   # BR(~nu_eL -> ~chi_1+ e-)
     5.13496001E-01    2     1000037        11   # BR(~nu_eL -> ~chi_2+ e-)
#
#         PDG            Width
DECAY   1000014     3.02355637E+01   # snu_muL decays
#          BR         NDA      ID1       ID2
     2.26508250E-01    2     1000022        14   # BR(~nu_muL -> ~chi_10 nu_mu)
     2.62438596E-04    2     1000023        14   # BR(~nu_muL -> ~chi_20 nu_mu)
     3.40829783E-04    2     1000025        14   # BR(~nu_muL -> ~chi_30 nu_mu)
     2.57142990E-01    2     1000035        14   # BR(~nu_muL -> ~chi_40 nu_mu)
     2.24949104E-03    2     1000024        13   # BR(~nu_muL -> ~chi_1+ mu-)
     5.13496001E-01    2     1000037        13   # BR(~nu_muL -> ~chi_2+ mu-)
#
#         PDG            Width
DECAY   1000016     3.09778102E+01   # snu_tauL decays
#          BR         NDA      ID1       ID2
     2.21057301E-01    2     1000022        16   # BR(~nu_tauL -> ~chi_10 nu_tau)
     2.56110592E-04    2     1000023        16   # BR(~nu_tauL -> ~chi_20 nu_tau)
     3.32611529E-04    2     1000025        16   # BR(~nu_tauL -> ~chi_30 nu_tau)
     2.50890258E-01    2     1000035        16   # BR(~nu_tauL -> ~chi_40 nu_tau)
     2.64517497E-02    2     1000024        15   # BR(~nu_tauL -> ~chi_1+ tau-)
     5.01011969E-01    2     1000037        15   # BR(~nu_tauL -> ~chi_2+ tau-)
#
#         PDG            Width
DECAY   1000024     9.85375130E-01   # chargino1+ decays
#          BR         NDA      ID1       ID2
     1.00000000E+00    2     1000022        24   # BR(~chi_1+ -> ~chi_10  W+)
#
#         PDG            Width
DECAY   1000037     1.79065536E+01   # chargino2+ decays
#          BR         NDA      ID1       ID2
     2.52582217E-01    2     1000024        23   # BR(~chi_2+ -> ~chi_1+  Z )
     2.84944370E-04    2     1000022        24   # BR(~chi_2+ -> ~chi_10  W+)
     2.44119881E-01    2     1000023        24   # BR(~chi_2+ -> ~chi_20  W+)
     2.43556506E-01    2     1000025        24   # BR(~chi_2+ -> ~chi_30  W+)
     2.59456175E-01    2     1000024        25   # BR(~chi_2+ -> ~chi_1+  h )
     2.76952083E-07    2     1000022        37   # BR(~chi_2+ -> ~chi_10  H+)
#
#         PDG            Width
DECAY   1000022     0.00000000E+00   # neutralino1 decays
#
#         PDG            Width
DECAY   1000023     1.03614344E+00   # neutralino2 decays
#          BR         NDA      ID1       ID2
     5.58676736E-01    2     1000022        23   # BR(~chi_20 -> ~chi_10   Z )
     4.41323264E-01    2     1000022        25   # BR(~chi_20 -> ~chi_10   h )
#
#         PDG            Width
DECAY   1000025     1.04695414E+00   # neutralino3 decays
#          BR         NDA      ID1       ID2
     4.23613020E-01    2     1000022        23   # BR(~chi_30 -> ~chi_10   Z )
     5.76386980E-01    2     1000022        25   # BR(~chi_30 -> ~chi_10   h )
#
#         PDG            Width
DECAY   1000035     1.79009206E+01   # neutralino4 decays
#          BR         NDA      ID1       ID2
     1.07970404E-04    2     1000022        23   # BR(~chi_40 -> ~chi_10   Z )
     3.40845702E-02    2     1000023        23   # BR(~chi_40 -> ~chi_20   Z )
     2.18084960E-01    2     1000025        23   # BR(~chi_40 -> ~chi_30   Z )
     2.44212034E-01    2     1000024       -24   # BR(~chi_40 -> ~chi_1+   W-)
     2.44212034E-01    2    -1000024        24   # BR(~chi_40 -> ~chi_1-   W+)
     1.84756410E-04    2     1000022        25   # BR(~chi_40 -> ~chi_10   h )
     2.47275187E-07    2     1000022        35   # BR(~chi_40 -> ~chi_10   H )
     3.99624320E-08    2     1000022        36   # BR(~chi_40 -> ~chi_10   A )
     2.25113747E-01    2     1000023        25   # BR(~chi_40 -> ~chi_20   h )
     3.39996400E-02    2     1000025        25   # BR(~chi_40 -> ~chi_30   h )
#
#         PDG            Width
DECAY        25     4.04068812E-03   # h decays
#          BR         NDA      ID1       ID2
     6.07929603E-01    2           5        -5   # BR(h -> b       bb     )
     6.41598209E-02    2         -15        15   # BR(h -> tau+    tau-   )
     2.27149300E-04    2         -13        13   # BR(h -> mu+     mu-    )
     4.81578843E-04    2           3        -3   # BR(h -> s       sb     )
     2.08696943E-02    2           4        -4   # BR(h -> c       cb     )
     6.74537177E-02    2          21        21   # BR(h -> g       g      )
     2.31835337E-03    2          22        22   # BR(h -> gam     gam    )
     1.49082380E-03    2          22        23   # BR(h -> Z       gam    )
     2.10027828E-01    2          24       -24   # BR(h -> W+      W-     )
     2.50121546E-02    2          23        23   # BR(h -> Z       Z      )
     2.92758573E-05    2     1000022   1000022   # BR(h -> ~chi_10 ~chi_10)
#
#         PDG            Width
DECAY        35     7.08486064E+00   # H decays
#          BR         NDA      ID1       ID2
     4.61621510E-01    2           5        -5   # BR(H -> b       bb     )
     7.86521510E-02    2         -15        15   # BR(H -> tau+    tau-   )
     2.78120253E-04    2         -13        13   # BR(H -> mu+     mu-    )
     3.40932819E-04    2           3        -3   # BR(H -> s       sb     )
     1.90601552E-06    2           4        -4   # BR(H -> c       cb     )
     1.90426048E-01    2           6        -6   # BR(H -> t       tb     )
     6.31992591E-05    2          21        21   # BR(H -> g       g      )
     3.82513244E-07    2          22        22   # BR(H -> gam     gam    )
     1.12452975E-07    2          23        22   # BR(H -> Z       gam    )
     8.43903973E-05    2          24       -24   # BR(H -> W+      W-     )
     4.21417953E-05    2          23        23   # BR(H -> Z       Z      )
     3.20446477E-04    2          25        25   # BR(H -> h       h      )
     3.46573201E-23    2          36        36   # BR(H -> A       A      )
     9.33734825E-19    2          23        36   # BR(H -> Z       A      )
     7.96570801E-04    2     1000022   1000022   # BR(H -> ~chi_10 ~chi_10)
     1.58472305E-01    2     1000022   1000023   # BR(H -> ~chi_10 ~chi_20)
     1.08899784E-01    2     1000022   1000025   # BR(H -> ~chi_10 ~chi_30)
#
#         PDG            Width
DECAY        36     7.08762833E+00   # A decays
#          BR         NDA      ID1       ID2
     4.61595512E-01    2           5        -5   # BR(A -> b       bb     )
     7.86237109E-02    2         -15        15   # BR(A -> tau+    tau-   )
     2.78019298E-04    2         -13        13   # BR(A -> mu+     mu-    )
     3.41058077E-04    2           3        -3   # BR(A -> s       sb     )
     1.91325770E-06    2           4        -4   # BR(A -> c       cb     )
     1.91044132E-01    2           6        -6   # BR(A -> t       tb     )
     1.89073827E-04    2          21        21   # BR(A -> g       g      )
     3.23425433E-07    2          22        22   # BR(A -> gam     gam    )
     2.29040191E-07    2          23        22   # BR(A -> Z       gam    )
     8.40388845E-05    2          23        25   # BR(A -> Z       h      )
     8.20536060E-04    2     1000022   1000022   # BR(A -> ~chi_10 ~chi_10)
     1.10146932E-01    2     1000022   1000023   # BR(A -> ~chi_10 ~chi_20)
     1.56874521E-01    2     1000022   1000025   # BR(A -> ~chi_10 ~chi_30)
#
#         PDG            Width
DECAY        37     7.08822082E+00   # H+ decays
#          BR         NDA      ID1       ID2
     7.42654281E-04    2           4        -5   # BR(H+ -> c       bb     )
     7.86400421E-02    2         -15        16   # BR(H+ -> tau+    nu_tau )
     2.78077047E-04    2         -13        14   # BR(H+ -> mu+     nu_mu  )
     4.75296313E-06    2           2        -5   # BR(H+ -> u       bb     )
     1.63169813E-05    2           2        -3   # BR(H+ -> u       sb     )
     3.37435340E-04    2           4        -3   # BR(H+ -> c       sb     )
     6.51183751E-01    2           6        -5   # BR(H+ -> t       bb     )
     8.41592823E-05    2          24        25   # BR(H+ -> W+      h      )
     9.45490117E-14    2          24        36   # BR(H+ -> W+      A      )
     2.68712811E-01    2     1000024   1000022   # BR(H+ -> ~chi_1+ ~chi_10)
