#
#                              ======================
#                              | THE SUSYHIT OUTPUT |
#                              ======================
#
#
#              ------------------------------------------------------
#              |     This is the output of the SUSY-HIT package     |
#              |  created by A.Djouadi, M.Muehlleitner and M.Spira. |
#              |  In case of problems with SUSY-HIT email to        |
#              |           margarete.muehlleitner@cern.ch           |
#              |           michael.spira@psi.ch                     |
#              |           abdelhak.djouadi@cern.ch                 |
#              ------------------------------------------------------
#
#              ------------------------------------------------------
#              |  SUSY Les Houches Accord - MSSM Spectrum + Decays  |
#              |              based on the decay programs           |
#              |                                                    |
#              |                     SDECAY 1.3b                    |
#              |                                                    |
#              |  Authors: M.Muhlleitner, A.Djouadi and Y.Mambrini  |
#              |  Ref.:    Comput.Phys.Commun.168(2005)46           |
#              |           [hep-ph/0311167]                         |
#              |                                                    |
#              |                     HDECAY 3.4                     |
#              |                                                    |
#              |  By: A.Djouadi,J.Kalinowski,M.Muhlleitner,M.Spira  |
#              |  Ref.:    Comput.Phys.Commun.108(1998)56           |
#              |           [hep-ph/9704448]                         |
#              |                                                    |
#              |                                                    |
#              |  If not stated otherwise all DRbar couplings and   |
#              |  soft SUSY breaking masses are given at the scale  |
#              |  Q=  0.50007635E+04
#              |                                                    |
#              ------------------------------------------------------
#
#
BLOCK DCINFO  # Decay Program information
     1   SDECAY/HDECAY # decay calculator
     2   1.3b  /3.4    # version number
#
BLOCK SPINFO  # Spectrum calculator information
     1    SOFTSUSY    # spectrum calculator                
     2    3.4.0       # version number                     
#
BLOCK MODSEL  # Model selection
     1     0   #  nonUniversal                                     
#
BLOCK SMINPUTS  # Standard Model inputs
         1     1.25778332E+02   # alpha_em^-1(M_Z)^MSbar
         2     1.16570000E-05   # G_F [GeV^-2]
         3     1.17200002E-01   # alpha_S(M_Z)^MSbar
         4     9.11876000E+01   # M_Z pole mass
         5     4.25000000E+00   # mb(mb)^MSbar
         6     1.72500000E+02   # mt pole mass
         7     1.77682000E+00   # mtau pole mass
#
BLOCK MINPAR  # Input parameters - minimal models
         3     1.00000000E+01   # tanb                
#
BLOCK EXTPAR  # Input parameters - non-minimal models
         0    -1.00000000E+00   # Set                 
         1     6.00000000E+01   # M_1(MX)             
         2     3.00000000E+03   # M_2(MX)             
         3     2.33132100E+03   # M_3(MX)             
        11     5.00000000E+03   # At(MX)              
        12     5.00000000E+03   # Ab(MX)              
        13     0.00000000E+00   # Atau(MX)            
        23    -4.74869000E+02   # mu(MX)              
        26     3.00000000E+03   # mA(pole)            
        31     5.00000000E+03   # meL(MX)             
        32     5.00000000E+03   # mmuL(MX)            
        33     5.00000000E+03   # mtauL(MX)           
        34     5.00000000E+03   # meR(MX)             
        35     5.00000000E+03   # mmuR(MX)            
        36     5.00000000E+03   # mtauR(MX)           
        41     5.00000000E+03   # mqL1(MX)            
        42     5.00000000E+03   # mqL2(MX)            
        43     5.00000000E+03   # mqL3(MX)            
        44     5.00000000E+03   # muR(MX)             
        45     5.00000000E+03   # mcR(MX)             
        46     5.00000000E+03   # mtR(MX)             
        47     5.00000000E+03   # mdR(MX)             
        48     5.00000000E+03   # msR(MX)             
        49     5.00000000E+03   # mbR(MX)             
#
BLOCK MASS  # Mass Spectrum
# PDG code           mass       particle
        24     8.00933508E+01   # W+
        25     1.24805728E+02   # h
        35     3.00008594E+03   # H
        36     2.99999945E+03   # A
        37     3.00143033E+03   # H+
         5     4.87878001E+00   # b-quark pole mass calculated from mb(mb)_Msbar
   1000001     5.08407628E+03   # ~d_L
   2000001     5.06627944E+03   # ~d_R
   1000002     5.08360564E+03   # ~u_L
   2000002     5.06598071E+03   # ~u_R
   1000003     5.08407628E+03   # ~s_L
   2000003     5.06627944E+03   # ~s_R
   1000004     5.08360564E+03   # ~c_L
   2000004     5.06598071E+03   # ~c_R
   1000005     5.02989084E+03   # ~b_1
   2000005     5.06449076E+03   # ~b_2
   1000006     4.92211847E+03   # ~t_1
   2000006     5.07269740E+03   # ~t_2
   1000011     5.01910629E+03   # ~e_L
   2000011     5.00594352E+03   # ~e_R
   1000012     5.01815622E+03   # ~nu_eL
   1000013     5.01910629E+03   # ~mu_L
   2000013     5.00594352E+03   # ~mu_R
   1000014     5.01815622E+03   # ~nu_muL
   1000015     5.00477429E+03   # ~tau_1
   2000015     5.01863063E+03   # ~tau_2
   1000016     5.01760463E+03   # ~nu_tauL
   1000021     2.70000087E+03   # ~g
   1000022     6.02023844E+01   # ~chi_10
   1000023     5.00513322E+02   # ~chi_20
   1000025    -5.02707572E+02   # ~chi_30
   1000035     3.07417152E+03   # ~chi_40
   1000024     5.00000785E+02   # ~chi_1+
   1000037     3.07433920E+03   # ~chi_2+
#
BLOCK NMIX  # Neutralino Mixing Matrix
  1  1     9.96029233E-01   # N_11
  1  2     2.24968648E-04   # N_12
  1  3    -8.90134896E-02   # N_13
  1  4    -1.52163626E-03   # N_14
  2  1     6.40538484E-02   # N_21
  2  2     1.90061530E-02   # N_22
  2  3     7.04713299E-01   # N_23
  2  4     7.06339179E-01   # N_24
  3  1    -6.18281487E-02   # N_31
  3  2     1.70138548E-02   # N_32
  3  3    -7.03884798E-01   # N_33
  3  4     7.07413599E-01   # N_34
  4  1    -3.89684262E-04   # N_41
  4  2     9.99674569E-01   # N_42
  4  3    -1.39852491E-03   # N_43
  4  4    -2.54685687E-02   # N_44
#
BLOCK UMIX  # Chargino Mixing Matrix U
  1  1     1.98306294E-03   # U_11
  1  2     9.99998034E-01   # U_12
  2  1    -9.99998034E-01   # U_21
  2  2     1.98306294E-03   # U_22
#
BLOCK VMIX  # Chargino Mixing Matrix V
  1  1     3.60382620E-02   # V_11
  1  2    -9.99350411E-01   # V_12
  2  1    -9.99350411E-01   # V_21
  2  2    -3.60382620E-02   # V_22
#
BLOCK STOPMIX  # Stop Mixing Matrix
  1  1    -5.01024312E-01   # cos(theta_t)
  1  2     8.65433209E-01   # sin(theta_t)
  2  1    -8.65433209E-01   # -sin(theta_t)
  2  2    -5.01024312E-01   # cos(theta_t)
#
BLOCK SBOTMIX  # Sbottom Mixing Matrix
  1  1     9.98779663E-01   # cos(theta_b)
  1  2    -4.93881036E-02   # sin(theta_b)
  2  1     4.93881036E-02   # -sin(theta_b)
  2  2     9.98779663E-01   # cos(theta_b)
#
BLOCK STAUMIX  # Stau Mixing Matrix
  1  1    -5.69234524E-02   # cos(theta_tau)
  1  2     9.98378546E-01   # sin(theta_tau)
  2  1    -9.98378546E-01   # -sin(theta_tau)
  2  2    -5.69234524E-02   # cos(theta_tau)
#
BLOCK ALPHA  # Higgs mixing
          -1.05493551E-01   # Mixing angle in the neutral Higgs boson sector
#
BLOCK HMIX Q=  5.00076348E+03  # DRbar Higgs Parameters
         1    -4.83589059E+02   # mu(Q)MSSM           
         2     9.46853349E+00   # tan                 
         3     2.41750305E+02   # higgs               
         4     8.67877264E+06   # mA^2(Q)MSSM         
#
BLOCK GAUGE Q=  5.00076348E+03  # The gauge couplings
     1     3.70941788E-01   # gprime(Q) DRbar
     2     6.33285213E-01   # g(Q) DRbar
     3     9.94068124E-01   # g3(Q) DRbar
#
BLOCK AU Q=  5.00076348E+03  # The trilinear couplings
  1  1     5.00000002E+03   # A_u(Q) DRbar
  2  2     5.00000002E+03   # A_c(Q) DRbar
  3  3     5.00000002E+03   # A_t(Q) DRbar
#
BLOCK AD Q=  5.00076348E+03  # The trilinear couplings
  1  1     5.00000001E+03   # A_d(Q) DRbar
  2  2     5.00000001E+03   # A_s(Q) DRbar
  3  3     5.00000001E+03   # A_b(Q) DRbar
#
BLOCK AE Q=  5.00076348E+03  # The trilinear couplings
  1  1     0.00000000E+00   # A_e(Q) DRbar
  2  2     2.76233972E-07   # A_mu(Q) DRbar
  3  3     2.76276293E-07   # A_tau(Q) DRbar
#
BLOCK Yu Q=  5.00076348E+03  # The Yukawa couplings
  1  1     0.00000000E+00   # y_u(Q) DRbar
  2  2     0.00000000E+00   # y_c(Q) DRbar
  3  3     8.21638966E-01   # y_t(Q) DRbar
#
BLOCK Yd Q=  5.00076348E+03  # The Yukawa couplings
  1  1     0.00000000E+00   # y_d(Q) DRbar
  2  2     0.00000000E+00   # y_s(Q) DRbar
  3  3     1.30391019E-01   # y_b(Q) DRbar
#
BLOCK Ye Q=  5.00076348E+03  # The Yukawa couplings
  1  1     0.00000000E+00   # y_e(Q) DRbar
  2  2     0.00000000E+00   # y_mu(Q) DRbar
  3  3     9.71329652E-02   # y_tau(Q) DRbar
#
BLOCK MSOFT Q=  5.00076348E+03  # The soft SUSY breaking masses at the scale Q
         1     6.00000000E+01   # M_1(Q)              
         2     3.00000000E+03   # M_2(Q)              
         3     2.33132100E+03   # M_3(Q)              
        21     8.49026976E+06   # mH1^2(Q)            
        22     3.44503101E+05   # mH2^2(Q)            
        31     5.00000000E+03   # meL(Q)              
        32     5.00000000E+03   # mmuL(Q)             
        33     5.00000000E+03   # mtauL(Q)            
        34     5.00000000E+03   # meR(Q)              
        35     5.00000000E+03   # mmuR(Q)             
        36     5.00000000E+03   # mtauR(Q)            
        41     4.99999999E+03   # mqL1(Q)             
        42     4.99999999E+03   # mqL2(Q)             
        43     4.99999999E+03   # mqL3(Q)             
        44     4.99999999E+03   # muR(Q)              
        45     4.99999999E+03   # mcR(Q)              
        46     4.99999999E+03   # mtR(Q)              
        47     4.99999999E+03   # mdR(Q)              
        48     4.99999999E+03   # msR(Q)              
        49     4.99999999E+03   # mbR(Q)              
#
#
#
#                             =================
#                             |The decay table|
#                             =================
#
# - The QCD corrections to the decays gluino -> squark  + quark
#                                     squark -> gaugino + quark_prime
#                                     squark -> squark_prime + Higgs
#                                     squark -> gluino  + quark
#   are included.
#
# - The multi-body decays for the inos, stops and sbottoms are included.
#
# - The loop induced decays for the gluino, neutralinos and stops
#   are included.
#
# - The SUSY decays of the top quark are included.
#
#
#         PDG            Width
DECAY         6     1.40548809E+00   # top decays
#          BR         NDA      ID1       ID2
     1.00000000E+00    2           5        24   # BR(t ->  b    W+)
#
#         PDG            Width
DECAY   1000021     1.12491749E-02   # gluino decays
#          BR         NDA      ID1       ID2
     3.49403611E-07    2     1000022        21   # BR(~g -> ~chi_10 g)
     3.54698722E-03    2     1000023        21   # BR(~g -> ~chi_20 g)
     3.44973493E-03    2     1000025        21   # BR(~g -> ~chi_30 g)
#           BR         NDA      ID1       ID2       ID3
     1.01384301E-02    3     1000022         1        -1   # BR(~g -> ~chi_10 d  db)
     3.44371987E-05    3     1000023         1        -1   # BR(~g -> ~chi_20 d  db)
     4.28698954E-05    3     1000025         1        -1   # BR(~g -> ~chi_30 d  db)
     3.45781474E-02    3     1000022         2        -2   # BR(~g -> ~chi_10 u  ub)
     1.79659891E-04    3     1000023         2        -2   # BR(~g -> ~chi_20 u  ub)
     7.13827458E-05    3     1000025         2        -2   # BR(~g -> ~chi_30 u  ub)
     1.01384301E-02    3     1000022         3        -3   # BR(~g -> ~chi_10 s  sb)
     3.44371987E-05    3     1000023         3        -3   # BR(~g -> ~chi_20 s  sb)
     4.28698954E-05    3     1000025         3        -3   # BR(~g -> ~chi_30 s  sb)
     3.45781474E-02    3     1000022         4        -4   # BR(~g -> ~chi_10 c  cb)
     1.79659891E-04    3     1000023         4        -4   # BR(~g -> ~chi_20 c  cb)
     7.13827458E-05    3     1000025         4        -4   # BR(~g -> ~chi_30 c  cb)
     1.03788136E-02    3     1000022         5        -5   # BR(~g -> ~chi_10 b  bb)
     5.28803844E-03    3     1000023         5        -5   # BR(~g -> ~chi_20 b  bb)
     5.26865944E-03    3     1000025         5        -5   # BR(~g -> ~chi_30 b  bb)
     3.55509302E-02    3     1000022         6        -6   # BR(~g -> ~chi_10 t  tb)
     2.10435904E-01    3     1000023         6        -6   # BR(~g -> ~chi_20 t  tb)
     2.01638622E-01    3     1000025         6        -6   # BR(~g -> ~chi_30 t  tb)
     5.40944549E-05    3     1000024         1        -2   # BR(~g -> ~chi_1+ d  ub)
     5.40944549E-05    3    -1000024         2        -1   # BR(~g -> ~chi_1- u  db)
     5.40944549E-05    3     1000024         3        -4   # BR(~g -> ~chi_1+ s  cb)
     5.40944549E-05    3    -1000024         4        -3   # BR(~g -> ~chi_1- c  sb)
     2.17067864E-01    3     1000024         5        -6   # BR(~g -> ~chi_1+ b  tb)
     2.17067864E-01    3    -1000024         6        -5   # BR(~g -> ~chi_1- t  bb)
#
#         PDG            Width
DECAY   1000006     2.81776911E+02   # stop1 decays
#          BR         NDA      ID1       ID2
     3.13344557E-02    2     1000022         6   # BR(~t_1 -> ~chi_10 t )
     1.16246631E-01    2     1000023         6   # BR(~t_1 -> ~chi_20 t )
     1.10015775E-01    2     1000025         6   # BR(~t_1 -> ~chi_30 t )
     7.09571509E-03    2     1000035         6   # BR(~t_1 -> ~chi_40 t )
     1.70186622E-01    2     1000024         5   # BR(~t_1 -> ~chi_1+ b )
     1.41449738E-02    2     1000037         5   # BR(~t_1 -> ~chi_2+ b )
     5.50975827E-01    2     1000021         6   # BR(~t_1 -> ~g      t )
#
#         PDG            Width
DECAY   2000006     2.88866318E+02   # stop2 decays
#          BR         NDA      ID1       ID2
     1.18131634E-02    2     1000022         6   # BR(~t_2 -> ~chi_10 t )
     1.13391021E-01    2     1000023         6   # BR(~t_2 -> ~chi_20 t )
     1.20224969E-01    2     1000025         6   # BR(~t_2 -> ~chi_30 t )
     1.97430386E-02    2     1000035         6   # BR(~t_2 -> ~chi_40 t )
     6.53402144E-02    2     1000024         5   # BR(~t_2 -> ~chi_1+ b )
     3.93118729E-02    2     1000037         5   # BR(~t_2 -> ~chi_2+ b )
     6.26139239E-01    2     1000021         6   # BR(~t_2 -> ~g      t )
     9.35861484E-04    2     1000006        25   # BR(~t_2 -> ~t_1    h )
     3.10061959E-03    2     1000006        23   # BR(~t_2 -> ~t_1    Z )
#
#         PDG            Width
DECAY   1000005     2.63087663E+02   # sbottom1 decays
#          BR         NDA      ID1       ID2
     2.94570855E-03    2     1000022         5   # BR(~b_1 -> ~chi_10 b )
     3.12088123E-03    2     1000023         5   # BR(~b_1 -> ~chi_20 b )
     3.12268262E-03    2     1000025         5   # BR(~b_1 -> ~chi_30 b )
     2.90482779E-02    2     1000035         5   # BR(~b_1 -> ~chi_40 b )
     2.50269202E-01    2    -1000024         6   # BR(~b_1 -> ~chi_1- t )
     5.83222228E-02    2    -1000037         6   # BR(~b_1 -> ~chi_2- t )
     6.51148337E-01    2     1000021         5   # BR(~b_1 -> ~g      b )
     2.02268850E-03    2     1000006       -24   # BR(~b_1 -> ~t_1    W-)
#
#         PDG            Width
DECAY   2000005     1.80699836E+02   # sbottom2 decays
#          BR         NDA      ID1       ID2
     1.61962447E-02    2     1000022         5   # BR(~b_2 -> ~chi_10 b )
     4.71464781E-03    2     1000023         5   # BR(~b_2 -> ~chi_20 b )
     4.76911412E-03    2     1000025         5   # BR(~b_2 -> ~chi_30 b )
     9.32279783E-05    2     1000035         5   # BR(~b_2 -> ~chi_40 b )
     1.00535042E-02    2    -1000024         6   # BR(~b_2 -> ~chi_1- t )
     1.87205245E-04    2    -1000037         6   # BR(~b_2 -> ~chi_2- t )
     9.63955112E-01    2     1000021         5   # BR(~b_2 -> ~g      b )
     3.09436160E-05    2     1000006       -24   # BR(~b_2 -> ~t_1    W-)
#
#         PDG            Width
DECAY   1000002     2.00394735E+02   # sup_L decays
#          BR         NDA      ID1       ID2
     3.69715123E-03    2     1000022         2   # BR(~u_L -> ~chi_10 u)
     9.51433791E-05    2     1000023         2   # BR(~u_L -> ~chi_20 u)
     2.33969391E-06    2     1000025         2   # BR(~u_L -> ~chi_30 u)
     3.95828141E-02    2     1000035         2   # BR(~u_L -> ~chi_40 u)
     2.48878501E-04    2     1000024         1   # BR(~u_L -> ~chi_1+ d)
     7.91164762E-02    2     1000037         1   # BR(~u_L -> ~chi_2+ d)
     8.77257197E-01    2     1000021         2   # BR(~u_L -> ~g      u)
#
#         PDG            Width
DECAY   2000002     1.86107346E+02   # sup_R decays
#          BR         NDA      ID1       ID2
     6.33233797E-02    2     1000022         2   # BR(~u_R -> ~chi_10 u)
     2.57229624E-04    2     1000023         2   # BR(~u_R -> ~chi_20 u)
     2.39624069E-04    2     1000025         2   # BR(~u_R -> ~chi_30 u)
     3.90579212E-09    2     1000035         2   # BR(~u_R -> ~chi_40 u)
     9.36179763E-01    2     1000021         2   # BR(~u_R -> ~g      u)
#
#         PDG            Width
DECAY   1000001     2.00411264E+02   # sdown_L decays
#          BR         NDA      ID1       ID2
     3.68012771E-03    2     1000022         1   # BR(~d_L -> ~chi_10 d)
     4.04781591E-06    2     1000023         1   # BR(~d_L -> ~chi_20 d)
     8.10409897E-05    2     1000025         1   # BR(~d_L -> ~chi_30 d)
     3.96036697E-02    2     1000035         1   # BR(~d_L -> ~chi_40 d)
     7.53597416E-07    2    -1000024         2   # BR(~d_L -> ~chi_1- u)
     7.92366671E-02    2    -1000037         2   # BR(~d_L -> ~chi_2- u)
     8.77393693E-01    2     1000021         1   # BR(~d_L -> ~g      d)
#
#         PDG            Width
DECAY   2000001     1.77226043E+02   # sdown_R decays
#          BR         NDA      ID1       ID2
     1.66251758E-02    2     1000022         1   # BR(~d_R -> ~chi_10 d)
     6.75342469E-05    2     1000023         1   # BR(~d_R -> ~chi_20 d)
     6.29120048E-05    2     1000025         1   # BR(~d_R -> ~chi_30 d)
     1.02558124E-09    2     1000035         1   # BR(~d_R -> ~chi_40 d)
     9.83244377E-01    2     1000021         1   # BR(~d_R -> ~g      d)
#
#         PDG            Width
DECAY   1000004     2.00394735E+02   # scharm_L decays
#          BR         NDA      ID1       ID2
     3.69715123E-03    2     1000022         4   # BR(~c_L -> ~chi_10 c)
     9.51433791E-05    2     1000023         4   # BR(~c_L -> ~chi_20 c)
     2.33969391E-06    2     1000025         4   # BR(~c_L -> ~chi_30 c)
     3.95828141E-02    2     1000035         4   # BR(~c_L -> ~chi_40 c)
     2.48878501E-04    2     1000024         3   # BR(~c_L -> ~chi_1+ s)
     7.91164762E-02    2     1000037         3   # BR(~c_L -> ~chi_2+ s)
     8.77257197E-01    2     1000021         4   # BR(~c_L -> ~g      c)
#
#         PDG            Width
DECAY   2000004     1.86107346E+02   # scharm_R decays
#          BR         NDA      ID1       ID2
     6.33233797E-02    2     1000022         4   # BR(~c_R -> ~chi_10 c)
     2.57229624E-04    2     1000023         4   # BR(~c_R -> ~chi_20 c)
     2.39624069E-04    2     1000025         4   # BR(~c_R -> ~chi_30 c)
     3.90579212E-09    2     1000035         4   # BR(~c_R -> ~chi_40 c)
     9.36179763E-01    2     1000021         4   # BR(~c_R -> ~g      c)
#
#         PDG            Width
DECAY   1000003     2.00411264E+02   # sstrange_L decays
#          BR         NDA      ID1       ID2
     3.68012771E-03    2     1000022         3   # BR(~s_L -> ~chi_10 s)
     4.04781591E-06    2     1000023         3   # BR(~s_L -> ~chi_20 s)
     8.10409897E-05    2     1000025         3   # BR(~s_L -> ~chi_30 s)
     3.96036697E-02    2     1000035         3   # BR(~s_L -> ~chi_40 s)
     7.53597416E-07    2    -1000024         4   # BR(~s_L -> ~chi_1- c)
     7.92366671E-02    2    -1000037         4   # BR(~s_L -> ~chi_2- c)
     8.77393693E-01    2     1000021         3   # BR(~s_L -> ~g      s)
#
#         PDG            Width
DECAY   2000003     1.77226043E+02   # sstrange_R decays
#          BR         NDA      ID1       ID2
     1.66251758E-02    2     1000022         3   # BR(~s_R -> ~chi_10 s)
     6.75342469E-05    2     1000023         3   # BR(~s_R -> ~chi_20 s)
     6.29120048E-05    2     1000025         3   # BR(~s_R -> ~chi_30 s)
     1.02558124E-09    2     1000035         3   # BR(~s_R -> ~chi_40 s)
     9.83244377E-01    2     1000021         3   # BR(~s_R -> ~g      s)
#
#         PDG            Width
DECAY   1000011     3.03309661E+01   # selectron_L decays
#          BR         NDA      ID1       ID2
     2.24804957E-01    2     1000022        11   # BR(~e_L -> ~chi_10 e-)
     2.06748406E-03    2     1000023        11   # BR(~e_L -> ~chi_20 e-)
     2.38534652E-04    2     1000025        11   # BR(~e_L -> ~chi_30 e-)
     2.57460934E-01    2     1000035        11   # BR(~e_L -> ~chi_40 e-)
     5.08954566E-06    2    -1000024        12   # BR(~e_L -> ~chi_1- nu_e)
     5.15423000E-01    2    -1000037        12   # BR(~e_L -> ~chi_2- nu_e)
#
#         PDG            Width
DECAY   2000011     2.73945482E+01   # selectron_R decays
#          BR         NDA      ID1       ID2
     9.92229199E-01    2     1000022        11   # BR(~e_R -> ~chi_10 e-)
     4.02306593E-03    2     1000023        11   # BR(~e_R -> ~chi_20 e-)
     3.74767659E-03    2     1000025        11   # BR(~e_R -> ~chi_30 e-)
     5.89416432E-08    2     1000035        11   # BR(~e_R -> ~chi_40 e-)
#
#         PDG            Width
DECAY   1000013     3.03309661E+01   # smuon_L decays
#          BR         NDA      ID1       ID2
     2.24804957E-01    2     1000022        13   # BR(~mu_L -> ~chi_10 mu-)
     2.06748406E-03    2     1000023        13   # BR(~mu_L -> ~chi_20 mu-)
     2.38534652E-04    2     1000025        13   # BR(~mu_L -> ~chi_30 mu-)
     2.57460934E-01    2     1000035        13   # BR(~mu_L -> ~chi_40 mu-)
     5.08954566E-06    2    -1000024        14   # BR(~mu_L -> ~chi_1- nu_mu)
     5.15423000E-01    2    -1000037        14   # BR(~mu_L -> ~chi_2- nu_mu)
#
#         PDG            Width
DECAY   2000013     2.73945482E+01   # smuon_R decays
#          BR         NDA      ID1       ID2
     9.92229199E-01    2     1000022        13   # BR(~mu_R -> ~chi_10 mu-)
     4.02306593E-03    2     1000023        13   # BR(~mu_R -> ~chi_20 mu-)
     3.74767659E-03    2     1000025        13   # BR(~mu_R -> ~chi_30 mu-)
     5.89416432E-08    2     1000035        13   # BR(~mu_R -> ~chi_40 mu-)
#
#         PDG            Width
DECAY   1000015     2.92371060E+01   # stau_1 decays
#          BR         NDA      ID1       ID2
     9.28350025E-01    2     1000022        15   # BR(~tau_1 -> ~chi_10  tau-)
     1.91860048E-02    2     1000023        15   # BR(~tau_1 -> ~chi_20  tau-)
     1.84822852E-02    2     1000025        15   # BR(~tau_1 -> ~chi_30  tau-)
     8.48011701E-04    2     1000035        15   # BR(~tau_1 -> ~chi_40  tau-)
     3.14361589E-02    2    -1000024        16   # BR(~tau_1 -> ~chi_1-  nu_tau)
     1.69751452E-03    2    -1000037        16   # BR(~tau_1 -> ~chi_2-  nu_tau)
#
#         PDG            Width
DECAY   2000015     3.12381859E+01   # stau_2 decays
#          BR         NDA      ID1       ID2
     2.19793978E-01    2     1000022        15   # BR(~tau_2 -> ~chi_10  tau-)
     1.68942357E-02    2     1000023        15   # BR(~tau_2 -> ~chi_20  tau-)
     1.54637935E-02    2     1000025        15   # BR(~tau_2 -> ~chi_30  tau-)
     2.49101784E-01    2     1000035        15   # BR(~tau_2 -> ~chi_40  tau-)
     5.72668324E-05    2    -1000024        16   # BR(~tau_2 -> ~chi_1-  nu_tau)
     4.98688942E-01    2    -1000037        16   # BR(~tau_2 -> ~chi_2-  nu_tau)
#
#         PDG            Width
DECAY   1000012     3.03341616E+01   # snu_eL decays
#          BR         NDA      ID1       ID2
     2.24392327E-01    2     1000022        12   # BR(~nu_eL -> ~chi_10 nu_e)
     2.21704691E-04    2     1000023        12   # BR(~nu_eL -> ~chi_20 nu_e)
     1.83252586E-03    2     1000025        12   # BR(~nu_eL -> ~chi_30 nu_e)
     2.57503133E-01    2     1000035        12   # BR(~nu_eL -> ~chi_40 nu_e)
     1.68036037E-03    2     1000024        11   # BR(~nu_eL -> ~chi_1+ e-)
     5.14369949E-01    2     1000037        11   # BR(~nu_eL -> ~chi_2+ e-)
#
#         PDG            Width
DECAY   1000014     3.03341616E+01   # snu_muL decays
#          BR         NDA      ID1       ID2
     2.24392327E-01    2     1000022        14   # BR(~nu_muL -> ~chi_10 nu_mu)
     2.21704691E-04    2     1000023        14   # BR(~nu_muL -> ~chi_20 nu_mu)
     1.83252586E-03    2     1000025        14   # BR(~nu_muL -> ~chi_30 nu_mu)
     2.57503133E-01    2     1000035        14   # BR(~nu_muL -> ~chi_40 nu_mu)
     1.68036037E-03    2     1000024        13   # BR(~nu_muL -> ~chi_1+ mu-)
     5.14369949E-01    2     1000037        13   # BR(~nu_muL -> ~chi_2+ mu-)
#
#         PDG            Width
DECAY   1000016     3.12478445E+01   # snu_tauL decays
#          BR         NDA      ID1       ID2
     2.17807168E-01    2     1000022        16   # BR(~nu_tauL -> ~chi_10 nu_tau)
     2.15197467E-04    2     1000023        16   # BR(~nu_tauL -> ~chi_20 nu_tau)
     1.77873957E-03    2     1000025        16   # BR(~nu_tauL -> ~chi_30 nu_tau)
     2.49880273E-01    2     1000035        16   # BR(~nu_tauL -> ~chi_40 nu_tau)
     3.11760647E-02    2     1000024        15   # BR(~nu_tauL -> ~chi_1+ tau-)
     4.99142557E-01    2     1000037        15   # BR(~nu_tauL -> ~chi_2+ tau-)
#
#         PDG            Width
DECAY   1000024     2.94049696E-01   # chargino1+ decays
#          BR         NDA      ID1       ID2
     1.00000000E+00    2     1000022        24   # BR(~chi_1+ -> ~chi_10  W+)
#
#         PDG            Width
DECAY   1000037     2.21593298E+01   # chargino2+ decays
#          BR         NDA      ID1       ID2
     2.53559481E-01    2     1000024        23   # BR(~chi_2+ -> ~chi_1+  Z )
     1.56241932E-04    2     1000022        24   # BR(~chi_2+ -> ~chi_10  W+)
     2.44964080E-01    2     1000023        24   # BR(~chi_2+ -> ~chi_20  W+)
     2.44369854E-01    2     1000025        24   # BR(~chi_2+ -> ~chi_30  W+)
     2.56945164E-01    2     1000024        25   # BR(~chi_2+ -> ~chi_1+  h )
     5.17874816E-06    2     1000022        37   # BR(~chi_2+ -> ~chi_10  H+)
#
#         PDG            Width
DECAY   1000022     0.00000000E+00   # neutralino1 decays
#
#         PDG            Width
DECAY   1000023     2.97384698E-01   # neutralino2 decays
#          BR         NDA      ID1       ID2
     5.04349439E-01    2     1000022        23   # BR(~chi_20 -> ~chi_10   Z )
     4.95650561E-01    2     1000022        25   # BR(~chi_20 -> ~chi_10   h )
#
#         PDG            Width
DECAY   1000025     2.90285821E-01   # neutralino3 decays
#          BR         NDA      ID1       ID2
     5.33686989E-01    2     1000022        23   # BR(~chi_30 -> ~chi_10   Z )
     4.66313011E-01    2     1000022        25   # BR(~chi_30 -> ~chi_10   h )
#
#         PDG            Width
DECAY   1000035     2.21702805E+01   # neutralino4 decays
#          BR         NDA      ID1       ID2
     3.10001513E-06    2     1000022        23   # BR(~chi_40 -> ~chi_10   Z )
     1.12720459E-01    2     1000023        23   # BR(~chi_40 -> ~chi_20   Z )
     1.40400329E-01    2     1000025        23   # BR(~chi_40 -> ~chi_30   Z )
     2.45146862E-01    2     1000024       -24   # BR(~chi_40 -> ~chi_1+   W-)
     2.45146862E-01    2    -1000024        24   # BR(~chi_40 -> ~chi_1-   W+)
     1.45594344E-04    2     1000022        25   # BR(~chi_40 -> ~chi_10   h )
     4.98235847E-06    2     1000022        35   # BR(~chi_40 -> ~chi_10   H )
     5.43563412E-07    2     1000022        36   # BR(~chi_40 -> ~chi_10   A )
     1.43429316E-01    2     1000023        25   # BR(~chi_40 -> ~chi_20   h )
     1.13001952E-01    2     1000025        25   # BR(~chi_40 -> ~chi_30   h )
#
#         PDG            Width
DECAY        25     4.07067099E-03   # h decays
#          BR         NDA      ID1       ID2
     6.08414901E-01    2           5        -5   # BR(h -> b       bb     )
     6.37399764E-02    2         -15        15   # BR(h -> tau+    tau-   )
     2.25662550E-04    2         -13        13   # BR(h -> mu+     mu-    )
     4.78366513E-04    2           3        -3   # BR(h -> s       sb     )
     2.07264982E-02    2           4        -4   # BR(h -> c       cb     )
     6.70831773E-02    2          21        21   # BR(h -> g       g      )
     2.30639708E-03    2          22        22   # BR(h -> gam     gam    )
     1.49027436E-03    2          22        23   # BR(h -> Z       gam    )
     2.10373472E-01    2          24       -24   # BR(h -> W+      W-     )
     2.50759261E-02    2          23        23   # BR(h -> Z       Z      )
     8.53485532E-05    2     1000022   1000022   # BR(h -> ~chi_10 ~chi_10)
#
#         PDG            Width
DECAY        35     8.66001580E+00   # H decays
#          BR         NDA      ID1       ID2
     3.68277511E-01    2           5        -5   # BR(H -> b       bb     )
     6.43136977E-02    2         -15        15   # BR(H -> tau+    tau-   )
     2.27418343E-04    2         -13        13   # BR(H -> mu+     mu-    )
     2.78779957E-04    2           3        -3   # BR(H -> s       sb     )
     1.56042289E-06    2           4        -4   # BR(H -> c       cb     )
     1.55898610E-01    2           6        -6   # BR(H -> t       tb     )
     5.18552478E-05    2          21        21   # BR(H -> g       g      )
     1.49182541E-07    2          22        22   # BR(H -> gam     gam    )
     9.20134160E-08    2          23        22   # BR(H -> Z       gam    )
     7.45834484E-05    2          24       -24   # BR(H -> W+      W-     )
     3.72445151E-05    2          23        23   # BR(H -> Z       Z      )
     2.69920825E-04    2          25        25   # BR(H -> h       h      )
     2.78441230E-23    2          36        36   # BR(H -> A       A      )
     8.33516664E-19    2          23        36   # BR(H -> Z       A      )
     3.17469651E-03    2     1000024  -1000024   # BR(H -> ~chi_1+ ~chi_1-)
     6.71564388E-03    2     1000022   1000022   # BR(H -> ~chi_10 ~chi_10)
     3.68963125E-04    2     1000023   1000023   # BR(H -> ~chi_20 ~chi_20)
     2.44866035E-03    2     1000025   1000025   # BR(H -> ~chi_30 ~chi_30)
     2.39584978E-01    2     1000022   1000023   # BR(H -> ~chi_10 ~chi_20)
     1.54951375E-01    2     1000022   1000025   # BR(H -> ~chi_10 ~chi_30)
     3.32426015E-03    2     1000023   1000025   # BR(H -> ~chi_20 ~chi_30)
#
#         PDG            Width
DECAY        36     8.66704144E+00   # A decays
#          BR         NDA      ID1       ID2
     3.68104537E-01    2           5        -5   # BR(A -> b       bb     )
     6.42634799E-02    2         -15        15   # BR(A -> tau+    tau-   )
     2.27240452E-04    2         -13        13   # BR(A -> mu+     mu-    )
     2.78765579E-04    2           3        -3   # BR(A -> s       sb     )
     1.56539072E-06    2           4        -4   # BR(A -> c       cb     )
     1.56308641E-01    2           6        -6   # BR(A -> t       tb     )
     1.54664133E-04    2          21        21   # BR(A -> g       g      )
     5.93899760E-07    2          22        22   # BR(A -> gam     gam    )
     1.87237490E-07    2          23        22   # BR(A -> Z       gam    )
     7.42407684E-05    2          23        25   # BR(A -> Z       h      )
     3.48664847E-03    2     1000024  -1000024   # BR(A -> ~chi_1+ ~chi_1-)
     6.67279107E-03    2     1000022   1000022   # BR(A -> ~chi_10 ~chi_10)
     2.71083896E-04    2     1000023   1000023   # BR(A -> ~chi_20 ~chi_20)
     4.22356534E-03    2     1000025   1000025   # BR(A -> ~chi_30 ~chi_30)
     1.58352758E-01    2     1000022   1000023   # BR(A -> ~chi_10 ~chi_20)
     2.35216327E-01    2     1000022   1000025   # BR(A -> ~chi_10 ~chi_30)
     2.36291135E-03    2     1000023   1000025   # BR(A -> ~chi_20 ~chi_30)
#
#         PDG            Width
DECAY        37     8.61953712E+00   # H+ decays
#          BR         NDA      ID1       ID2
     5.91457487E-04    2           4        -5   # BR(H+ -> c       bb     )
     6.46484713E-02    2         -15        16   # BR(H+ -> tau+    nu_tau )
     2.28601810E-04    2         -13        14   # BR(H+ -> mu+     nu_mu  )
     3.78530809E-06    2           2        -5   # BR(H+ -> u       bb     )
     1.34135554E-05    2           2        -3   # BR(H+ -> u       sb     )
     2.77393986E-04    2           4        -3   # BR(H+ -> c       sb     )
     5.23580720E-01    2           6        -5   # BR(H+ -> t       bb     )
     7.48049710E-05    2          24        25   # BR(H+ -> W+      h      )
     9.14421257E-13    2          24        36   # BR(H+ -> W+      A      )
     4.06787655E-01    2     1000024   1000022   # BR(H+ -> ~chi_1+ ~chi_10)
     3.46409122E-03    2     1000024   1000023   # BR(H+ -> ~chi_1+ ~chi_20)
     3.29605725E-04    2     1000024   1000025   # BR(H+ -> ~chi_1+ ~chi_30)
