#
#                              ======================
#                              | THE SUSYHIT OUTPUT |
#                              ======================
#
#
#              ------------------------------------------------------
#              |     This is the output of the SUSY-HIT package     |
#              |  created by A.Djouadi, M.Muehlleitner and M.Spira. |
#              |  In case of problems with SUSY-HIT email to        |
#              |           margarete.muehlleitner@cern.ch           |
#              |           michael.spira@psi.ch                     |
#              |           abdelhak.djouadi@cern.ch                 |
#              ------------------------------------------------------
#
#              ------------------------------------------------------
#              |  SUSY Les Houches Accord - MSSM Spectrum + Decays  |
#              |              based on the decay programs           |
#              |                                                    |
#              |                     SDECAY 1.3b                    |
#              |                                                    |
#              |  Authors: M.Muhlleitner, A.Djouadi and Y.Mambrini  |
#              |  Ref.:    Comput.Phys.Commun.168(2005)46           |
#              |           [hep-ph/0311167]                         |
#              |                                                    |
#              |                     HDECAY 3.4                     |
#              |                                                    |
#              |  By: A.Djouadi,J.Kalinowski,M.Muhlleitner,M.Spira  |
#              |  Ref.:    Comput.Phys.Commun.108(1998)56           |
#              |           [hep-ph/9704448]                         |
#              |                                                    |
#              |                                                    |
#              |  If not stated otherwise all DRbar couplings and   |
#              |  soft SUSY breaking masses are given at the scale  |
#              |  Q=  0.50007592E+04
#              |                                                    |
#              ------------------------------------------------------
#
#
BLOCK DCINFO  # Decay Program information
     1   SDECAY/HDECAY # decay calculator
     2   1.3b  /3.4    # version number
#
BLOCK SPINFO  # Spectrum calculator information
     1    SOFTSUSY    # spectrum calculator                
     2    3.4.0       # version number                     
#
BLOCK MODSEL  # Model selection
     1     0   #  nonUniversal                                     
#
BLOCK SMINPUTS  # Standard Model inputs
         1     1.25778332E+02   # alpha_em^-1(M_Z)^MSbar
         2     1.16570000E-05   # G_F [GeV^-2]
         3     1.17200002E-01   # alpha_S(M_Z)^MSbar
         4     9.11876000E+01   # M_Z pole mass
         5     4.25000000E+00   # mb(mb)^MSbar
         6     1.72500000E+02   # mt pole mass
         7     1.77682000E+00   # mtau pole mass
#
BLOCK MINPAR  # Input parameters - minimal models
         3     1.00000000E+01   # tanb                
#
BLOCK EXTPAR  # Input parameters - non-minimal models
         0    -1.00000000E+00   # Set                 
         1     6.00000000E+01   # M_1(MX)             
         2     3.00000000E+03   # M_2(MX)             
         3     2.23497000E+03   # M_3(MX)             
        11     5.00000000E+03   # At(MX)              
        12     5.00000000E+03   # Ab(MX)              
        13     0.00000000E+00   # Atau(MX)            
        23    -5.71314000E+02   # mu(MX)              
        26     3.00000000E+03   # mA(pole)            
        31     5.00000000E+03   # meL(MX)             
        32     5.00000000E+03   # mmuL(MX)            
        33     5.00000000E+03   # mtauL(MX)           
        34     5.00000000E+03   # meR(MX)             
        35     5.00000000E+03   # mmuR(MX)            
        36     5.00000000E+03   # mtauR(MX)           
        41     5.00000000E+03   # mqL1(MX)            
        42     5.00000000E+03   # mqL2(MX)            
        43     5.00000000E+03   # mqL3(MX)            
        44     5.00000000E+03   # muR(MX)             
        45     5.00000000E+03   # mcR(MX)             
        46     5.00000000E+03   # mtR(MX)             
        47     5.00000000E+03   # mdR(MX)             
        48     5.00000000E+03   # msR(MX)             
        49     5.00000000E+03   # mbR(MX)             
#
BLOCK MASS  # Mass Spectrum
# PDG code           mass       particle
        24     8.00938977E+01   # W+
        25     1.24809222E+02   # h
        35     3.00008473E+03   # H
        36     2.99999920E+03   # A
        37     3.00140510E+03   # H+
         5     4.87878001E+00   # b-quark pole mass calculated from mb(mb)_Msbar
   1000001     5.08195106E+03   # ~d_L
   2000001     5.06415715E+03   # ~d_R
   1000002     5.08148001E+03   # ~u_L
   2000002     5.06386128E+03   # ~u_R
   1000003     5.08195106E+03   # ~s_L
   2000003     5.06415715E+03   # ~s_R
   1000004     5.08148001E+03   # ~c_L
   2000004     5.06386128E+03   # ~c_R
   1000005     5.02770987E+03   # ~b_1
   2000005     5.06242234E+03   # ~b_2
   1000006     4.91970628E+03   # ~t_1
   2000006     5.07088275E+03   # ~t_2
   1000011     5.01909635E+03   # ~e_L
   2000011     5.00593914E+03   # ~e_R
   1000012     5.01814672E+03   # ~nu_eL
   1000013     5.01909635E+03   # ~mu_L
   2000013     5.00593914E+03   # ~mu_R
   1000014     5.01814672E+03   # ~nu_muL
   1000015     5.00474855E+03   # ~tau_1
   2000015     5.01864751E+03   # ~tau_2
   1000016     5.01759618E+03   # ~nu_tauL
   1000021     2.60000021E+03   # ~g
   1000022     6.02510622E+01   # ~chi_10
   1000023     6.00199025E+02   # ~chi_20
   1000025    -6.02416365E+02   # ~chi_30
   1000035     3.07417594E+03   # ~chi_40
   1000024     6.00000099E+02   # ~chi_1+
   1000037     3.07434354E+03   # ~chi_2+
#
BLOCK NMIX  # Neutralino Mixing Matrix
  1  1     9.97249213E-01   # N_11
  1  2     2.27071524E-04   # N_12
  1  3    -7.41208216E-02   # N_13
  1  4     2.42754384E-04   # N_14
  2  1     5.22669896E-02   # N_21
  2  2     1.97521618E-02   # N_22
  2  3     7.05593684E-01   # N_23
  2  4     7.06410339E-01   # N_24
  3  1    -5.25548947E-02   # N_31
  3  2     1.65481778E-02   # N_32
  3  3    -7.04725872E-01   # N_33
  3  4     7.07336968E-01   # N_34
  4  1    -3.89274459E-04   # N_41
  4  2     9.99667924E-01   # N_42
  4  3    -2.25899100E-03   # N_43
  4  4    -2.56668477E-02   # N_44
#
BLOCK UMIX  # Chargino Mixing Matrix U
  1  1     3.20181645E-03   # U_11
  1  2     9.99994874E-01   # U_12
  2  1    -9.99994874E-01   # U_21
  2  2     3.20181645E-03   # U_22
#
BLOCK VMIX  # Chargino Mixing Matrix V
  1  1     3.63223067E-02   # V_11
  1  2    -9.99340127E-01   # V_12
  2  1    -9.99340127E-01   # V_21
  2  2    -3.63223067E-02   # V_22
#
BLOCK STOPMIX  # Stop Mixing Matrix
  1  1    -5.01988851E-01   # cos(theta_t)
  1  2     8.64874091E-01   # sin(theta_t)
  2  1    -8.64874091E-01   # -sin(theta_t)
  2  2    -5.01988851E-01   # cos(theta_t)
#
BLOCK SBOTMIX  # Sbottom Mixing Matrix
  1  1     9.98507279E-01   # cos(theta_b)
  1  2    -5.46188043E-02   # sin(theta_b)
  2  1     5.46188043E-02   # -sin(theta_b)
  2  2     9.98507279E-01   # cos(theta_b)
#
BLOCK STAUMIX  # Stau Mixing Matrix
  1  1    -6.84623564E-02   # cos(theta_tau)
  1  2     9.97653700E-01   # sin(theta_tau)
  2  1    -9.97653700E-01   # -sin(theta_tau)
  2  2    -6.84623564E-02   # cos(theta_tau)
#
BLOCK ALPHA  # Higgs mixing
          -1.05490830E-01   # Mixing angle in the neutral Higgs boson sector
#
BLOCK HMIX Q=  5.00075917E+03  # DRbar Higgs Parameters
         1    -5.81809675E+02   # mu(Q)MSSM           
         2     9.46868275E+00   # tan                 
         3     2.41770969E+02   # higgs               
         4     8.64394644E+06   # mA^2(Q)MSSM         
#
BLOCK GAUGE Q=  5.00075917E+03  # The gauge couplings
     1     3.70902615E-01   # gprime(Q) DRbar
     2     6.33088734E-01   # g(Q) DRbar
     3     9.94631102E-01   # g3(Q) DRbar
#
BLOCK AU Q=  5.00075917E+03  # The trilinear couplings
  1  1     5.00000002E+03   # A_u(Q) DRbar
  2  2     5.00000002E+03   # A_c(Q) DRbar
  3  3     5.00000002E+03   # A_t(Q) DRbar
#
BLOCK AD Q=  5.00075917E+03  # The trilinear couplings
  1  1     5.00000001E+03   # A_d(Q) DRbar
  2  2     5.00000001E+03   # A_s(Q) DRbar
  3  3     5.00000001E+03   # A_b(Q) DRbar
#
BLOCK AE Q=  5.00075917E+03  # The trilinear couplings
  1  1     0.00000000E+00   # A_e(Q) DRbar
  2  2     2.62235958E-07   # A_mu(Q) DRbar
  3  3     2.62222063E-07   # A_tau(Q) DRbar
#
BLOCK Yu Q=  5.00075917E+03  # The Yukawa couplings
  1  1     0.00000000E+00   # y_u(Q) DRbar
  2  2     0.00000000E+00   # y_c(Q) DRbar
  3  3     8.21445740E-01   # y_t(Q) DRbar
#
BLOCK Yd Q=  5.00075917E+03  # The Yukawa couplings
  1  1     0.00000000E+00   # y_d(Q) DRbar
  2  2     0.00000000E+00   # y_s(Q) DRbar
  3  3     1.30485222E-01   # y_b(Q) DRbar
#
BLOCK Ye Q=  5.00075917E+03  # The Yukawa couplings
  1  1     0.00000000E+00   # y_e(Q) DRbar
  2  2     0.00000000E+00   # y_mu(Q) DRbar
  3  3     9.70709863E-02   # y_tau(Q) DRbar
#
BLOCK MSOFT Q=  5.00075917E+03  # The soft SUSY breaking masses at the scale Q
         1     6.00000000E+01   # M_1(Q)              
         2     3.00000000E+03   # M_2(Q)              
         3     2.23497000E+03   # M_3(Q)              
        21     8.38121388E+06   # mH1^2(Q)            
        22     2.37668835E+05   # mH2^2(Q)            
        31     5.00000000E+03   # meL(Q)              
        32     5.00000000E+03   # mmuL(Q)             
        33     5.00000000E+03   # mtauL(Q)            
        34     5.00000000E+03   # meR(Q)              
        35     5.00000000E+03   # mmuR(Q)             
        36     5.00000000E+03   # mtauR(Q)            
        41     4.99999999E+03   # mqL1(Q)             
        42     4.99999999E+03   # mqL2(Q)             
        43     4.99999999E+03   # mqL3(Q)             
        44     4.99999999E+03   # muR(Q)              
        45     4.99999999E+03   # mcR(Q)              
        46     4.99999999E+03   # mtR(Q)              
        47     4.99999999E+03   # mdR(Q)              
        48     4.99999999E+03   # msR(Q)              
        49     4.99999999E+03   # mbR(Q)              
#
#
#
#                             =================
#                             |The decay table|
#                             =================
#
# - The QCD corrections to the decays gluino -> squark  + quark
#                                     squark -> gaugino + quark_prime
#                                     squark -> squark_prime + Higgs
#                                     squark -> gluino  + quark
#   are included.
#
# - The multi-body decays for the inos, stops and sbottoms are included.
#
# - The loop induced decays for the gluino, neutralinos and stops
#   are included.
#
# - The SUSY decays of the top quark are included.
#
#
#         PDG            Width
DECAY         6     1.40459217E+00   # top decays
#          BR         NDA      ID1       ID2
     1.00000000E+00    2           5        24   # BR(t ->  b    W+)
#
#         PDG            Width
DECAY   1000021     8.14424925E-03   # gluino decays
#          BR         NDA      ID1       ID2
     6.55791348E-07    2     1000022        21   # BR(~g -> ~chi_10 g)
     4.05598636E-03    2     1000023        21   # BR(~g -> ~chi_20 g)
     3.95485253E-03    2     1000025        21   # BR(~g -> ~chi_30 g)
#           BR         NDA      ID1       ID2       ID3
     1.14364558E-02    3     1000022         1        -1   # BR(~g -> ~chi_10 d  db)
     2.66856066E-05    3     1000023         1        -1   # BR(~g -> ~chi_20 d  db)
     3.18334417E-05    3     1000025         1        -1   # BR(~g -> ~chi_30 d  db)
     3.90042358E-02    3     1000022         2        -2   # BR(~g -> ~chi_10 u  ub)
     1.34434369E-04    3     1000023         2        -2   # BR(~g -> ~chi_20 u  ub)
     4.86478207E-05    3     1000025         2        -2   # BR(~g -> ~chi_30 u  ub)
     1.14364558E-02    3     1000022         3        -3   # BR(~g -> ~chi_10 s  sb)
     2.66856066E-05    3     1000023         3        -3   # BR(~g -> ~chi_20 s  sb)
     3.18334417E-05    3     1000025         3        -3   # BR(~g -> ~chi_30 s  sb)
     3.90042358E-02    3     1000022         4        -4   # BR(~g -> ~chi_10 c  cb)
     1.34434369E-04    3     1000023         4        -4   # BR(~g -> ~chi_20 c  cb)
     4.86478207E-05    3     1000025         4        -4   # BR(~g -> ~chi_30 c  cb)
     1.16660292E-02    3     1000022         5        -5   # BR(~g -> ~chi_10 b  bb)
     5.24363115E-03    3     1000023         5        -5   # BR(~g -> ~chi_20 b  bb)
     5.21610694E-03    3     1000025         5        -5   # BR(~g -> ~chi_30 b  bb)
     3.99476317E-02    3     1000022         6        -6   # BR(~g -> ~chi_10 t  tb)
     2.06133827E-01    3     1000023         6        -6   # BR(~g -> ~chi_20 t  tb)
     1.96015321E-01    3     1000025         6        -6   # BR(~g -> ~chi_30 t  tb)
     5.58202069E-05    3     1000024         1        -2   # BR(~g -> ~chi_1+ d  ub)
     5.58202069E-05    3    -1000024         2        -1   # BR(~g -> ~chi_1- u  db)
     5.58202069E-05    3     1000024         3        -4   # BR(~g -> ~chi_1+ s  cb)
     5.58202069E-05    3    -1000024         4        -3   # BR(~g -> ~chi_1- c  sb)
     2.13089046E-01    3     1000024         5        -6   # BR(~g -> ~chi_1+ b  tb)
     2.13089046E-01    3    -1000024         6        -5   # BR(~g -> ~chi_1- t  bb)
#
#         PDG            Width
DECAY   1000006     2.90633801E+02   # stop1 decays
#          BR         NDA      ID1       ID2
     3.05056278E-02    2     1000022         6   # BR(~t_1 -> ~chi_10 t )
     1.11272735E-01    2     1000023         6   # BR(~t_1 -> ~chi_20 t )
     1.05955424E-01    2     1000025         6   # BR(~t_1 -> ~chi_30 t )
     6.91518641E-03    2     1000035         6   # BR(~t_1 -> ~chi_40 t )
     1.63158746E-01    2     1000024         5   # BR(~t_1 -> ~chi_1+ b )
     1.37842555E-02    2     1000037         5   # BR(~t_1 -> ~chi_2+ b )
     5.68408026E-01    2     1000021         6   # BR(~t_1 -> ~g      t )
#
#         PDG            Width
DECAY   2000006     2.97944111E+02   # stop2 decays
#          BR         NDA      ID1       ID2
     1.14329714E-02    2     1000022         6   # BR(~t_2 -> ~chi_10 t )
     1.09449110E-01    2     1000023         6   # BR(~t_2 -> ~chi_20 t )
     1.15254948E-01    2     1000025         6   # BR(~t_2 -> ~chi_30 t )
     1.90597440E-02    2     1000035         6   # BR(~t_2 -> ~chi_40 t )
     6.32132107E-02    2     1000024         5   # BR(~t_2 -> ~chi_1+ b )
     3.79474204E-02    2     1000037         5   # BR(~t_2 -> ~chi_2+ b )
     6.39675607E-01    2     1000021         6   # BR(~t_2 -> ~g      t )
     9.17933392E-04    2     1000006        25   # BR(~t_2 -> ~t_1    h )
     3.04905547E-03    2     1000006        23   # BR(~t_2 -> ~t_1    Z )
#
#         PDG            Width
DECAY   1000005     2.72239100E+02   # sbottom1 decays
#          BR         NDA      ID1       ID2
     2.83589297E-03    2     1000022         5   # BR(~b_1 -> ~chi_10 b )
     3.01557551E-03    2     1000023         5   # BR(~b_1 -> ~chi_20 b )
     2.99655230E-03    2     1000025         5   # BR(~b_1 -> ~chi_30 b )
     2.80036070E-02    2     1000035         5   # BR(~b_1 -> ~chi_40 b )
     2.39663565E-01    2    -1000024         6   # BR(~b_1 -> ~chi_1- t )
     5.62298527E-02    2    -1000037         6   # BR(~b_1 -> ~chi_2- t )
     6.65283279E-01    2     1000021         5   # BR(~b_1 -> ~g      b )
     1.97167594E-03    2     1000006       -24   # BR(~b_1 -> ~t_1    W-)
#
#         PDG            Width
DECAY   2000005     1.90514922E+02   # sbottom2 decays
#          BR         NDA      ID1       ID2
     1.53836367E-02    2     1000022         5   # BR(~b_2 -> ~chi_10 b )
     4.42069099E-03    2     1000023         5   # BR(~b_2 -> ~chi_20 b )
     4.48762072E-03    2     1000025         5   # BR(~b_2 -> ~chi_30 b )
     1.11149493E-04    2     1000035         5   # BR(~b_2 -> ~chi_40 b )
     9.65435062E-03    2    -1000024         6   # BR(~b_2 -> ~chi_1- t )
     2.23198789E-04    2    -1000037         6   # BR(~b_2 -> ~chi_2- t )
     9.65683251E-01    2     1000021         5   # BR(~b_2 -> ~g      b )
     3.61016974E-05    2     1000006       -24   # BR(~b_2 -> ~t_1    W-)
#
#         PDG            Width
DECAY   1000002     2.10122618E+02   # sup_L decays
#          BR         NDA      ID1       ID2
     3.53508493E-03    2     1000022         2   # BR(~u_L -> ~chi_10 u)
     8.13012309E-05    2     1000023         2   # BR(~u_L -> ~chi_20 u)
     3.57717256E-06    2     1000025         2   # BR(~u_L -> ~chi_30 u)
     3.76825926E-02    2     1000035         2   # BR(~u_L -> ~chi_40 u)
     2.39012293E-04    2     1000024         1   # BR(~u_L -> ~chi_1+ d)
     7.53178237E-02    2     1000037         1   # BR(~u_L -> ~chi_2+ d)
     8.83140608E-01    2     1000021         2   # BR(~u_L -> ~g      u)
#
#         PDG            Width
DECAY   2000002     1.95889987E+02   # sup_R decays
#          BR         NDA      ID1       ID2
     6.03154661E-02    2     1000022         2   # BR(~u_R -> ~chi_10 u)
     1.61361564E-04    2     1000023         2   # BR(~u_R -> ~chi_20 u)
     1.63110622E-04    2     1000025         2   # BR(~u_R -> ~chi_30 u)
     3.69782554E-09    2     1000035         2   # BR(~u_R -> ~chi_40 u)
     9.39360058E-01    2     1000021         2   # BR(~u_R -> ~g      u)
#
#         PDG            Width
DECAY   1000001     2.10138998E+02   # sdown_L decays
#          BR         NDA      ID1       ID2
     3.51869478E-03    2     1000022         1   # BR(~d_L -> ~chi_10 d)
     8.25285227E-06    2     1000023         1   # BR(~d_L -> ~chi_20 d)
     6.51025342E-05    2     1000025         1   # BR(~d_L -> ~chi_30 d)
     3.77026317E-02    2     1000035         1   # BR(~d_L -> ~chi_40 d)
     1.85727238E-06    2    -1000024         2   # BR(~d_L -> ~chi_1- u)
     7.54337085E-02    2    -1000037         2   # BR(~d_L -> ~chi_2- u)
     8.83269752E-01    2     1000021         1   # BR(~d_L -> ~g      d)
#
#         PDG            Width
DECAY   2000001     1.87007243E+02   # sdown_R decays
#          BR         NDA      ID1       ID2
     1.57960466E-02    2     1000022         1   # BR(~d_R -> ~chi_10 d)
     4.22591886E-05    2     1000023         1   # BR(~d_R -> ~chi_20 d)
     4.27172527E-05    2     1000025         1   # BR(~d_R -> ~chi_30 d)
     9.68555428E-10    2     1000035         1   # BR(~d_R -> ~chi_40 d)
     9.84118976E-01    2     1000021         1   # BR(~d_R -> ~g      d)
#
#         PDG            Width
DECAY   1000004     2.10122618E+02   # scharm_L decays
#          BR         NDA      ID1       ID2
     3.53508493E-03    2     1000022         4   # BR(~c_L -> ~chi_10 c)
     8.13012309E-05    2     1000023         4   # BR(~c_L -> ~chi_20 c)
     3.57717256E-06    2     1000025         4   # BR(~c_L -> ~chi_30 c)
     3.76825926E-02    2     1000035         4   # BR(~c_L -> ~chi_40 c)
     2.39012293E-04    2     1000024         3   # BR(~c_L -> ~chi_1+ s)
     7.53178237E-02    2     1000037         3   # BR(~c_L -> ~chi_2+ s)
     8.83140608E-01    2     1000021         4   # BR(~c_L -> ~g      c)
#
#         PDG            Width
DECAY   2000004     1.95889987E+02   # scharm_R decays
#          BR         NDA      ID1       ID2
     6.03154661E-02    2     1000022         4   # BR(~c_R -> ~chi_10 c)
     1.61361564E-04    2     1000023         4   # BR(~c_R -> ~chi_20 c)
     1.63110622E-04    2     1000025         4   # BR(~c_R -> ~chi_30 c)
     3.69782554E-09    2     1000035         4   # BR(~c_R -> ~chi_40 c)
     9.39360058E-01    2     1000021         4   # BR(~c_R -> ~g      c)
#
#         PDG            Width
DECAY   1000003     2.10138998E+02   # sstrange_L decays
#          BR         NDA      ID1       ID2
     3.51869478E-03    2     1000022         3   # BR(~s_L -> ~chi_10 s)
     8.25285227E-06    2     1000023         3   # BR(~s_L -> ~chi_20 s)
     6.51025342E-05    2     1000025         3   # BR(~s_L -> ~chi_30 s)
     3.77026317E-02    2     1000035         3   # BR(~s_L -> ~chi_40 s)
     1.85727238E-06    2    -1000024         4   # BR(~s_L -> ~chi_1- c)
     7.54337085E-02    2    -1000037         4   # BR(~s_L -> ~chi_2- c)
     8.83269752E-01    2     1000021         3   # BR(~s_L -> ~g      s)
#
#         PDG            Width
DECAY   2000003     1.87007243E+02   # sstrange_R decays
#          BR         NDA      ID1       ID2
     1.57960466E-02    2     1000022         3   # BR(~s_R -> ~chi_10 s)
     4.22591886E-05    2     1000023         3   # BR(~s_R -> ~chi_20 s)
     4.27172527E-05    2     1000025         3   # BR(~s_R -> ~chi_30 s)
     9.68555428E-10    2     1000035         3   # BR(~s_R -> ~chi_40 s)
     9.84118976E-01    2     1000021         3   # BR(~s_R -> ~g      s)
#
#         PDG            Width
DECAY   1000011     3.03148570E+01   # selectron_L decays
#          BR         NDA      ID1       ID2
     2.25428952E-01    2     1000022        11   # BR(~e_L -> ~chi_10 e-)
     1.62738883E-03    2     1000023        11   # BR(~e_L -> ~chi_20 e-)
     1.30053293E-04    2     1000025        11   # BR(~e_L -> ~chi_30 e-)
     2.57431984E-01    2     1000035        11   # BR(~e_L -> ~chi_40 e-)
     1.31498243E-05    2    -1000024        12   # BR(~e_L -> ~chi_1- nu_e)
     5.15368472E-01    2    -1000037        12   # BR(~e_L -> ~chi_2- nu_e)
#
#         PDG            Width
DECAY   2000011     2.73887322E+01   # selectron_R decays
#          BR         NDA      ID1       ID2
     9.94661104E-01    2     1000022        11   # BR(~e_R -> ~chi_10 e-)
     2.65504339E-03    2     1000023        11   # BR(~e_R -> ~chi_20 e-)
     2.68379420E-03    2     1000025        11   # BR(~e_R -> ~chi_30 e-)
     5.88174232E-08    2     1000035        11   # BR(~e_R -> ~chi_40 e-)
#
#         PDG            Width
DECAY   1000013     3.03148570E+01   # smuon_L decays
#          BR         NDA      ID1       ID2
     2.25428952E-01    2     1000022        13   # BR(~mu_L -> ~chi_10 mu-)
     1.62738883E-03    2     1000023        13   # BR(~mu_L -> ~chi_20 mu-)
     1.30053293E-04    2     1000025        13   # BR(~mu_L -> ~chi_30 mu-)
     2.57431984E-01    2     1000035        13   # BR(~mu_L -> ~chi_40 mu-)
     1.31498243E-05    2    -1000024        14   # BR(~mu_L -> ~chi_1- nu_mu)
     5.15368472E-01    2    -1000037        14   # BR(~mu_L -> ~chi_2- nu_mu)
#
#         PDG            Width
DECAY   2000013     2.73887322E+01   # smuon_R decays
#          BR         NDA      ID1       ID2
     9.94661104E-01    2     1000022        13   # BR(~mu_R -> ~chi_10 mu-)
     2.65504339E-03    2     1000023        13   # BR(~mu_R -> ~chi_20 mu-)
     2.68379420E-03    2     1000025        13   # BR(~mu_R -> ~chi_30 mu-)
     5.88174232E-08    2     1000035        13   # BR(~mu_R -> ~chi_40 mu-)
#
#         PDG            Width
DECAY   1000015     2.92164328E+01   # stau_1 decays
#          BR         NDA      ID1       ID2
     9.29990981E-01    2     1000022        15   # BR(~tau_1 -> ~chi_10  tau-)
     1.78636108E-02    2     1000023        15   # BR(~tau_1 -> ~chi_20  tau-)
     1.73387119E-02    2     1000025        15   # BR(~tau_1 -> ~chi_30  tau-)
     1.22221089E-03    2     1000035        15   # BR(~tau_1 -> ~chi_40  tau-)
     3.11378439E-02    2    -1000024        16   # BR(~tau_1 -> ~chi_1-  nu_tau)
     2.44664132E-03    2    -1000037        16   # BR(~tau_1 -> ~chi_2-  nu_tau)
#
#         PDG            Width
DECAY   2000015     3.12091231E+01   # stau_2 decays
#          BR         NDA      ID1       ID2
     2.21369535E-01    2     1000022        15   # BR(~tau_2 -> ~chi_10  tau-)
     1.63081030E-02    2     1000023        15   # BR(~tau_2 -> ~chi_20  tau-)
     1.52949433E-02    2     1000025        15   # BR(~tau_2 -> ~chi_30  tau-)
     2.48824253E-01    2     1000035        15   # BR(~tau_2 -> ~chi_40  tau-)
     6.64435860E-05    2    -1000024        16   # BR(~tau_2 -> ~chi_1-  nu_tau)
     4.98136723E-01    2    -1000037        16   # BR(~tau_2 -> ~chi_2-  nu_tau)
#
#         PDG            Width
DECAY   1000012     3.03180143E+01   # snu_eL decays
#          BR         NDA      ID1       ID2
     2.25012723E-01    2     1000022        12   # BR(~nu_eL -> ~chi_10 nu_e)
     7.57429339E-05    2     1000023        12   # BR(~nu_eL -> ~chi_20 nu_e)
     1.43643092E-03    2     1000025        12   # BR(~nu_eL -> ~chi_30 nu_e)
     2.57474366E-01    2     1000035        12   # BR(~nu_eL -> ~chi_40 nu_e)
     1.69177170E-03    2     1000024        11   # BR(~nu_eL -> ~chi_1+ e-)
     5.14308966E-01    2     1000037        11   # BR(~nu_eL -> ~chi_2+ e-)
#
#         PDG            Width
DECAY   1000014     3.03180143E+01   # snu_muL decays
#          BR         NDA      ID1       ID2
     2.25012723E-01    2     1000022        14   # BR(~nu_muL -> ~chi_10 nu_mu)
     7.57429339E-05    2     1000023        14   # BR(~nu_muL -> ~chi_20 nu_mu)
     1.43643092E-03    2     1000025        14   # BR(~nu_muL -> ~chi_30 nu_mu)
     2.57474366E-01    2     1000035        14   # BR(~nu_muL -> ~chi_40 nu_mu)
     1.69177170E-03    2     1000024        13   # BR(~nu_muL -> ~chi_1+ mu-)
     5.14308966E-01    2     1000037        13   # BR(~nu_muL -> ~chi_2+ mu-)
#
#         PDG            Width
DECAY   1000016     3.12224206E+01   # snu_tauL decays
#          BR         NDA      ID1       ID2
     2.18470892E-01    2     1000022        16   # BR(~nu_tauL -> ~chi_10 nu_tau)
     7.35403838E-05    2     1000023        16   # BR(~nu_tauL -> ~chi_20 nu_tau)
     1.39466048E-03    2     1000025        16   # BR(~nu_tauL -> ~chi_30 nu_tau)
     2.49922877E-01    2     1000035        16   # BR(~nu_tauL -> ~chi_40 nu_tau)
     3.09138422E-02    2     1000024        15   # BR(~nu_tauL -> ~chi_1+ tau-)
     4.99224188E-01    2     1000037        15   # BR(~nu_tauL -> ~chi_2+ tau-)
#
#         PDG            Width
DECAY   1000024     3.57375491E-01   # chargino1+ decays
#          BR         NDA      ID1       ID2
     1.00000000E+00    2     1000022        24   # BR(~chi_1+ -> ~chi_10  W+)
#
#         PDG            Width
DECAY   1000037     2.18065165E+01   # chargino2+ decays
#          BR         NDA      ID1       ID2
     2.53500628E-01    2     1000024        23   # BR(~chi_2+ -> ~chi_1+  Z )
     1.69258017E-04    2     1000022        24   # BR(~chi_2+ -> ~chi_10  W+)
     2.44749336E-01    2     1000023        24   # BR(~chi_2+ -> ~chi_20  W+)
     2.44320609E-01    2     1000025        24   # BR(~chi_2+ -> ~chi_30  W+)
     2.57256622E-01    2     1000024        25   # BR(~chi_2+ -> ~chi_1+  h )
     3.54632745E-06    2     1000022        37   # BR(~chi_2+ -> ~chi_10  H+)
#
#         PDG            Width
DECAY   1000022     0.00000000E+00   # neutralino1 decays
#
#         PDG            Width
DECAY   1000023     3.66140528E-01   # neutralino2 decays
#          BR         NDA      ID1       ID2
     5.14073828E-01    2     1000022        23   # BR(~chi_20 -> ~chi_10   Z )
     4.85926172E-01    2     1000022        25   # BR(~chi_20 -> ~chi_10   h )
#
#         PDG            Width
DECAY   1000025     3.61767032E-01   # neutralino3 decays
#          BR         NDA      ID1       ID2
     5.03966332E-01    2     1000022        23   # BR(~chi_30 -> ~chi_10   Z )
     4.96033668E-01    2     1000022        25   # BR(~chi_30 -> ~chi_10   h )
#
#         PDG            Width
DECAY   1000035     2.18200897E+01   # neutralino4 decays
#          BR         NDA      ID1       ID2
     1.29180553E-05    2     1000022        23   # BR(~chi_40 -> ~chi_10   Z )
     1.04469700E-01    2     1000023        23   # BR(~chi_40 -> ~chi_20   Z )
     1.48494654E-01    2     1000025        23   # BR(~chi_40 -> ~chi_30   Z )
     2.45084157E-01    2     1000024       -24   # BR(~chi_40 -> ~chi_1+   W-)
     2.45084157E-01    2    -1000024        24   # BR(~chi_40 -> ~chi_1-   W+)
     1.51397730E-04    2     1000022        25   # BR(~chi_40 -> ~chi_10   h )
     3.40081599E-06    2     1000022        35   # BR(~chi_40 -> ~chi_10   H )
     3.78885648E-07    2     1000022        36   # BR(~chi_40 -> ~chi_10   A )
     1.51937781E-01    2     1000023        25   # BR(~chi_40 -> ~chi_20   h )
     1.04761456E-01    2     1000025        25   # BR(~chi_40 -> ~chi_30   h )
#
#         PDG            Width
DECAY        25     4.06864941E-03   # h decays
#          BR         NDA      ID1       ID2
     6.08137139E-01    2           5        -5   # BR(h -> b       bb     )
     6.37721472E-02    2         -15        15   # BR(h -> tau+    tau-   )
     2.25776431E-04    2         -13        13   # BR(h -> mu+     mu-    )
     4.78605438E-04    2           3        -3   # BR(h -> s       sb     )
     2.07372684E-02    2           4        -4   # BR(h -> c       cb     )
     6.71219071E-02    2          21        21   # BR(h -> g       g      )
     2.30806383E-03    2          22        22   # BR(h -> gam     gam    )
     1.49151343E-03    2          22        23   # BR(h -> Z       gam    )
     2.10541286E-01    2          24       -24   # BR(h -> W+      W-     )
     2.50993989E-02    2          23        23   # BR(h -> Z       Z      )
     8.68941192E-05    2     1000022   1000022   # BR(h -> ~chi_10 ~chi_10)
#
#         PDG            Width
DECAY        35     8.57747415E+00   # H decays
#          BR         NDA      ID1       ID2
     3.72817975E-01    2           5        -5   # BR(H -> b       bb     )
     6.49346289E-02    2         -15        15   # BR(H -> tau+    tau-   )
     2.29614006E-04    2         -13        13   # BR(H -> mu+     mu-    )
     2.81471520E-04    2           3        -3   # BR(H -> s       sb     )
     1.57535689E-06    2           4        -4   # BR(H -> c       cb     )
     1.57390633E-01    2           6        -6   # BR(H -> t       tb     )
     5.23417157E-05    2          21        21   # BR(H -> g       g      )
     1.64465201E-07    2          22        22   # BR(H -> gam     gam    )
     9.29062600E-08    2          23        22   # BR(H -> Z       gam    )
     7.47043225E-05    2          24       -24   # BR(H -> W+      W-     )
     3.73048778E-05    2          23        23   # BR(H -> Z       Z      )
     2.71793910E-04    2          25        25   # BR(H -> h       h      )
     1.10403382E-23    2          36        36   # BR(H -> A       A      )
     1.02379153E-18    2          23        36   # BR(H -> Z       A      )
     3.01200364E-03    2     1000024  -1000024   # BR(H -> ~chi_1+ ~chi_1-)
     4.69226269E-03    2     1000022   1000022   # BR(H -> ~chi_10 ~chi_10)
     1.03137476E-04    2     1000023   1000023   # BR(H -> ~chi_20 ~chi_20)
     1.80811657E-03    2     1000025   1000025   # BR(H -> ~chi_30 ~chi_30)
     2.37473495E-01    2     1000022   1000023   # BR(H -> ~chi_10 ~chi_20)
     1.54608758E-01    2     1000022   1000025   # BR(H -> ~chi_10 ~chi_30)
     2.20992637E-03    2     1000023   1000025   # BR(H -> ~chi_20 ~chi_30)
#
#         PDG            Width
DECAY        36     8.58583880E+00   # A decays
#          BR         NDA      ID1       ID2
     3.72581620E-01    2           5        -5   # BR(A -> b       bb     )
     6.48733071E-02    2         -15        15   # BR(A -> tau+    tau-   )
     2.29396846E-04    2         -13        13   # BR(A -> mu+     mu-    )
     2.81410918E-04    2           3        -3   # BR(A -> s       sb     )
     1.58014584E-06    2           4        -4   # BR(A -> c       cb     )
     1.57781981E-01    2           6        -6   # BR(A -> t       tb     )
     1.56124032E-04    2          21        21   # BR(A -> g       g      )
     5.99296972E-07    2          22        22   # BR(A -> gam     gam    )
     1.89028464E-07    2          23        22   # BR(A -> Z       gam    )
     7.43489641E-05    2          23        25   # BR(A -> Z       h      )
     3.45124035E-03    2     1000024  -1000024   # BR(A -> ~chi_1+ ~chi_1-)
     4.70190917E-03    2     1000022   1000022   # BR(A -> ~chi_10 ~chi_10)
     8.02033860E-05    2     1000023   1000023   # BR(A -> ~chi_20 ~chi_20)
     3.29839695E-03    2     1000025   1000025   # BR(A -> ~chi_30 ~chi_30)
     1.57608726E-01    2     1000022   1000023   # BR(A -> ~chi_10 ~chi_20)
     2.33488469E-01    2     1000022   1000025   # BR(A -> ~chi_10 ~chi_30)
     1.39049739E-03    2     1000023   1000025   # BR(A -> ~chi_20 ~chi_30)
#
#         PDG            Width
DECAY        37     8.54126585E+00   # H+ decays
#          BR         NDA      ID1       ID2
     5.99023746E-04    2           4        -5   # BR(H+ -> c       bb     )
     6.52424117E-02    2         -15        16   # BR(H+ -> tau+    nu_tau )
     2.30702027E-04    2         -13        14   # BR(H+ -> mu+     nu_mu  )
     3.83373196E-06    2           2        -5   # BR(H+ -> u       bb     )
     1.35368036E-05    2           2        -3   # BR(H+ -> u       sb     )
     2.79942677E-04    2           4        -3   # BR(H+ -> c       sb     )
     5.29712081E-01    2           6        -5   # BR(H+ -> t       bb     )
     7.48903010E-05    2          24        25   # BR(H+ -> W+      h      )
     8.45017758E-13    2          24        36   # BR(H+ -> W+      A      )
     4.01217524E-01    2     1000024   1000022   # BR(H+ -> ~chi_1+ ~chi_10)
     2.48732929E-03    2     1000024   1000023   # BR(H+ -> ~chi_1+ ~chi_20)
     1.38724684E-04    2     1000024   1000025   # BR(H+ -> ~chi_1+ ~chi_30)
