#
#                              ======================
#                              | THE SUSYHIT OUTPUT |
#                              ======================
#
#
#              ------------------------------------------------------
#              |     This is the output of the SUSY-HIT package     |
#              |  created by A.Djouadi, M.Muehlleitner and M.Spira. |
#              |  In case of problems with SUSY-HIT email to        |
#              |           margarete.muehlleitner@kit.edu           |
#              |           michael.spira@psi.ch                     |
#              |           abdelhak.djouadi@cern.ch                 |
#              ------------------------------------------------------
#
#              ------------------------------------------------------
#              |  SUSY Les Houches Accord - MSSM Spectrum + Decays  |
#              |              based on the decay programs           |
#              |                                                    |
#              |                     SDECAY 1.5                     |
#              |                                                    |
#              |  Authors: M.Muhlleitner, A.Djouadi and Y.Mambrini  |
#              |  Ref.:    Comput.Phys.Commun.168(2005)46           |
#              |           [hep-ph/0311167]                         |
#              |                                                    |
#              |                     HDECAY 3.4                     |
#              |                                                    |
#              |  By: A.Djouadi,J.Kalinowski,M.Muhlleitner,M.Spira  |
#              |  Ref.:    Comput.Phys.Commun.108(1998)56           |
#              |           [hep-ph/9704448]                         |
#              |                                                    |
#              |                                                    |
#              |  If not stated otherwise all DRbar couplings and   |
#              |  soft SUSY breaking masses are given at the scale  |
#              |  Q=  0.91187600E+02
#              |                                                    |
#              ------------------------------------------------------
#
#
BLOCK DCINFO  # Decay Program information
     1   SDECAY/HDECAY # decay calculator
     2   1.5  /3.4    # version number
#
BLOCK SPINFO  # Spectrum calculator information
     1   SuSpect     # RGE +Spectrum calculator            
     2   2.43         # version number                     
#
BLOCK MODSEL  # Model selection
     1     2   # GMSB                                              
#
BLOCK SMINPUTS  # Standard Model inputs
         1     1.27932904E+02   # alpha_em^-1(M_Z)^MSbar
         2     1.16639000E-05   # G_F [GeV^-2]
         3     1.17200000E-01   # alpha_S(M_Z)^MSbar
         4     9.11870000E+01   # M_Z pole mass
         5     4.25000000E+00   # mb(mb)^MSbar
         6     1.72900000E+02   # mt pole mass
         7     1.77700000E+00   # mtau pole mass
#
BLOCK MINPAR  # Input parameters - minimal models
#
BLOCK EXTPAR  # Input parameters - non-minimal models
         0     9.11876000E+01   # EWSB                
         1     4.63000000E+02   # M_1                 
         2     3.00000000E+03   # M_2                 
         3     1.20000000E+03   # M_3                 
        11     0.00000000E+00   # A_t                 
        12     0.00000000E+00   # A_b                 
        13     0.00000000E+00   # A_tau               
        14     0.00000000E+00   # A_u                 
        15     0.00000000E+00   # A_d                 
        16     0.00000000E+00   # A_e                 
        23     4.50000000E+02   # mu(EWSB)            
        25     1.50000000E+00   # tanbeta(in)         
        26     2.00000000E+03   # MA_pole             
        31     5.00000000E+03   # M_eL                
        32     5.00000000E+03   # M_muL               
        33     5.00000000E+03   # M_tauL              
        34     5.00000000E+03   # M_eR                
        35     5.00000000E+03   # M_muR               
        36     5.00000000E+03   # M_tauR              
        41     5.00000000E+03   # M_q1L               
        42     5.00000000E+03   # M_q2L               
        43     5.00000000E+03   # M_q3L               
        44     5.00000000E+03   # M_uR                
        45     5.00000000E+03   # M_cR                
        46     5.00000000E+03   # M_tR                
        47     5.00000000E+03   # M_dR                
        48     5.00000000E+03   # M_sR                
        49     5.00000000E+03   # M_bR                
#
BLOCK MASS  # Mass Spectrum
# PDG code           mass       particle
        24     8.05385986E+01   # W+
        25     1.26000000E+02   # h
        35     2.00419446E+03   # H
        36     2.00000000E+03   # A
        37     2.00203439E+03   # H+
         5     4.87877839E+00   # b-quark pole mass calculated from mb(mb)_Msbar
   1000001     5.01048234E+03   # ~d_L
   2000001     5.01037294E+03   # ~d_R
   1000002     5.01023780E+03   # ~u_L
   2000002     5.01029577E+03   # ~u_R
   1000003     5.01048234E+03   # ~s_L
   2000003     5.01037294E+03   # ~s_R
   1000004     5.01023780E+03   # ~c_L
   2000004     5.01029577E+03   # ~c_R
   1000005     5.01023614E+03   # ~b_1
   2000005     5.01062060E+03   # ~b_2
   1000006     5.13915527E+03   # ~t_1
   2000006     5.43637263E+03   # ~t_2
   1000011     5.00008242E+03   # ~e_L
   2000011     5.00007600E+03   # ~e_R
   1000012     4.99984158E+03   # ~nu_eL
   1000013     5.00008242E+03   # ~mu_L
   2000013     5.00007600E+03   # ~mu_R
   1000014     4.99984158E+03   # ~nu_muL
   1000015     4.99995950E+03   # ~tau_1
   2000015     5.00019955E+03   # ~tau_2
   1000016     4.99984158E+03   # ~nu_tauL
   1000021     1.33583164E+03   # ~g
   1000022     4.42342364E+02   # ~chi_10
   1000023    -4.84150631E+02   # ~chi_20
   1000025     5.29916061E+02   # ~chi_30
   1000035     3.12901585E+03   # ~chi_40
   1000024     4.81795734E+02   # ~chi_1+
   1000037     3.12901529E+03   # ~chi_2+
   1000039     1.00000000E-09   # ~gravitino
#
BLOCK NMIX  # Neutralino Mixing Matrix
  1  1     6.70610794E-01   # N_11
  1  2    -2.13946908E-02   # N_12
  1  3     5.29015161E-01   # N_13
  1  4    -5.19582900E-01   # N_14
  2  1     8.97825204E-03   # N_21
  2  2    -4.31377434E-03   # N_22
  2  3    -7.06541196E-01   # N_23
  2  4    -7.07601809E-01   # N_24
  3  1     7.41754882E-01   # N_31
  3  2     2.00669723E-02   # N_32
  3  3    -4.69711694E-01   # N_33
  3  4     4.78296912E-01   # N_34
  4  1     4.98753216E-04   # N_41
  4  2    -9.99560391E-01   # N_42
  4  3    -1.77037308E-02   # N_43
  4  4     2.37771736E-02   # N_44
#
BLOCK UMIX  # Chargino Mixing Matrix U
  1  1    -2.50278867E-02   # U_11
  1  2     9.99686753E-01   # U_12
  2  1     9.99686753E-01   # U_21
  2  2     2.50278867E-02   # U_22
#
BLOCK VMIX  # Chargino Mixing Matrix V
  1  1    -3.36200425E-02   # V_11
  1  2     9.99434687E-01   # V_12
  2  1     9.99434687E-01   # V_21
  2  2     3.36200425E-02   # V_22
#
BLOCK STOPMIX  # Stop Mixing Matrix
  1  1     9.99942236E-01   # cos(theta_t)
  1  2    -1.07482400E-02   # sin(theta_t)
  2  1     1.07482400E-02   # -sin(theta_t)
  2  2     9.99942236E-01   # cos(theta_t)
#
BLOCK SBOTMIX  # Sbottom Mixing Matrix
  1  1     5.98090216E-01   # cos(theta_b)
  1  2     8.01428783E-01   # sin(theta_b)
  2  1    -8.01428783E-01   # -sin(theta_b)
  2  2     5.98090216E-01   # cos(theta_b)
#
BLOCK STAUMIX  # Stau Mixing Matrix
  1  1     6.97597662E-01   # cos(theta_tau)
  1  2     7.16489708E-01   # sin(theta_tau)
  2  1    -7.16489708E-01   # -sin(theta_tau)
  2  2     6.97597662E-01   # cos(theta_tau)
#
BLOCK ALPHA  # Higgs mixing
          -5.90201593E-01   # Mixing angle in the neutral Higgs boson sector
#
BLOCK HMIX Q=  9.11876000E+01  # DRbar Higgs Parameters
         1     4.50000000E+02   # mu(Q)               
         2     1.49999979E+00   # tanbeta(Q)          
         3     2.51887119E+02   # vev(Q)              
         4     3.77217494E+06   # MA^2(Q)             
#
BLOCK GAUGE Q=  9.11876000E+01  # The gauge couplings
     1     3.52960467E-01   # gprime(Q) DRbar
     2     6.28305056E-01   # g(Q) DRbar
     3     1.08870418E+00   # g3(Q) DRbar
#
BLOCK AU Q=  9.11876000E+01  # The trilinear couplings
  1  1     0.00000000E+00   # A_u(Q) DRbar
  2  2     0.00000000E+00   # A_c(Q) DRbar
  3  3     0.00000000E+00   # A_t(Q) DRbar
#
BLOCK AD Q=  9.11876000E+01  # The trilinear couplings
  1  1     0.00000000E+00   # A_d(Q) DRbar
  2  2     0.00000000E+00   # A_s(Q) DRbar
  3  3     0.00000000E+00   # A_b(Q) DRbar
#
BLOCK AE Q=  9.11876000E+01  # The trilinear couplings
  1  1     0.00000000E+00   # A_e(Q) DRbar
  2  2     0.00000000E+00   # A_mu(Q) DRbar
  3  3     0.00000000E+00   # A_tau(Q) DRbar
#
BLOCK Yu Q=  9.11876000E+01  # The Yukawa couplings
  1  1     0.00000000E+00   # y_u(Q) DRbar
  2  2     0.00000000E+00   # y_c(Q) DRbar
  3  3     1.02592486E+00   # y_t(Q) DRbar
#
BLOCK Yd Q=  9.11876000E+01  # The Yukawa couplings
  1  1     0.00000000E+00   # y_d(Q) DRbar
  2  2     0.00000000E+00   # y_s(Q) DRbar
  3  3     2.72143916E-02   # y_b(Q) DRbar
#
BLOCK Ye Q=  9.11876000E+01  # The Yukawa couplings
  1  1     0.00000000E+00   # y_e(Q) DRbar
  2  2     0.00000000E+00   # y_mu(Q) DRbar
  3  3     1.79916044E-02   # y_tau(Q) DRbar
#
BLOCK MSOFT Q=  9.11876000E+01  # The soft SUSY breaking masses at the scale Q
         1     4.63000000E+02   # M_1                 
         2     3.00000000E+03   # M_2                 
         3     1.20000000E+03   # M_3                 
        14     0.00000000E+00   # A_u                 
        15     0.00000000E+00   # A_d                 
        16     0.00000000E+00   # A_e                 
        21     2.83462903E+06   # M^2_Hd              
        22    -5.67824705E+06   # M^2_Hu              
        31     5.00000000E+03   # M_eL                
        32     5.00000000E+03   # M_muL               
        33     5.00000000E+03   # M_tauL              
        34     5.00000000E+03   # M_eR                
        35     5.00000000E+03   # M_muR               
        36     5.00000000E+03   # M_tauR              
        41     5.00000000E+03   # M_q1L               
        42     5.00000000E+03   # M_q2L               
        43     5.00000000E+03   # M_q3L               
        44     5.00000000E+03   # M_uR                
        45     5.00000000E+03   # M_cR                
        46     5.00000000E+03   # M_tR                
        47     5.00000000E+03   # M_dR                
        48     5.00000000E+03   # M_sR                
        49     5.00000000E+03   # M_bR                
#
#
#
#                             =================
#                             |The decay table|
#                             =================
#
# - The QCD corrections to the decays gluino -> squark  + quark
#                                     squark -> gaugino + quark_prime
#                                     squark -> squark_prime + Higgs
#                                     squark -> gluino  + quark
#   are included.
#
# - The multi-body decays for the inos, stops and sbottoms are included.
#
# - The loop induced decays for the gluino, neutralinos and stops
#   are included.
#
# - The SUSY decays of the top quark are included.
#
# - Possible decays of the NLSP in GMSB models are included.
#
#
#         PDG            Width
DECAY         6     1.37553373E+00   # top decays
#          BR         NDA      ID1       ID2
     1.00000000E+00    2           5        24   # BR(t ->  b    W+)
#
#         PDG            Width
DECAY   1000021     1.64427217E-04   # gluino decays
#          BR         NDA      ID1       ID2
     1.83235426E-02    2     1000022        21   # BR(~g -> ~chi_10 g)
     3.13675550E-02    2     1000023        21   # BR(~g -> ~chi_20 g)
     1.27794659E-02    2     1000025        21   # BR(~g -> ~chi_30 g)
#          BR         NDA      ID1       ID2
0.0E+00    2     1000039    21 # BR(~g -> ~G      g)
#           BR         NDA      ID1       ID2       ID3
     5.73439942E-03    3     1000022         1        -1   # BR(~g -> ~chi_10 d  db)
     1.19579215E-06    3     1000023         1        -1   # BR(~g -> ~chi_20 d  db)
     4.51333510E-03    3     1000025         1        -1   # BR(~g -> ~chi_30 d  db)
     1.78230556E-02    3     1000022         2        -2   # BR(~g -> ~chi_10 u  ub)
     1.32021076E-06    3     1000023         2        -2   # BR(~g -> ~chi_20 u  ub)
     1.65115404E-02    3     1000025         2        -2   # BR(~g -> ~chi_30 u  ub)
     5.73439942E-03    3     1000022         3        -3   # BR(~g -> ~chi_10 s  sb)
     1.19579215E-06    3     1000023         3        -3   # BR(~g -> ~chi_20 s  sb)
     4.51333510E-03    3     1000025         3        -3   # BR(~g -> ~chi_30 s  sb)
     1.78230556E-02    3     1000022         4        -4   # BR(~g -> ~chi_10 c  cb)
     1.32021076E-06    3     1000023         4        -4   # BR(~g -> ~chi_20 c  cb)
     1.65115404E-02    3     1000025         4        -4   # BR(~g -> ~chi_30 c  cb)
     5.84593130E-03    3     1000022         5        -5   # BR(~g -> ~chi_10 b  bb)
     2.38099479E-04    3     1000023         5        -5   # BR(~g -> ~chi_20 b  bb)
     4.62718975E-03    3     1000025         5        -5   # BR(~g -> ~chi_30 b  bb)
     1.05984360E-01    3     1000022         6        -6   # BR(~g -> ~chi_10 t  tb)
     1.52458951E-01    3     1000023         6        -6   # BR(~g -> ~chi_20 t  tb)
     8.91033793E-02    3     1000025         6        -6   # BR(~g -> ~chi_30 t  tb)
     1.02946043E-04    3     1000024         1        -2   # BR(~g -> ~chi_1+ d  ub)
     1.02946043E-04    3    -1000024         2        -1   # BR(~g -> ~chi_1- u  db)
     1.02946043E-04    3     1000024         3        -4   # BR(~g -> ~chi_1+ s  cb)
     1.02946043E-04    3    -1000024         4        -3   # BR(~g -> ~chi_1- c  sb)
     2.29953425E-01    3     1000024         5        -6   # BR(~g -> ~chi_1+ b  tb)
     2.29953425E-01    3    -1000024         6        -5   # BR(~g -> ~chi_1- t  bb)
#
#         PDG            Width
DECAY   1000006     3.31538174E+02   # stop1 decays
#          BR         NDA      ID1       ID2
     5.85668993E-02    2     1000022         6   # BR(~t_1 -> ~chi_10 t )
     1.09456110E-01    2     1000023         6   # BR(~t_1 -> ~chi_20 t )
     5.25133498E-02    2     1000025         6   # BR(~t_1 -> ~chi_30 t )
     2.34511424E-02    2     1000035         6   # BR(~t_1 -> ~chi_40 t )
     9.90062310E-05    2     1000024         5   # BR(~t_1 -> ~chi_1+ b )
     4.67275313E-02    2     1000037         5   # BR(~t_1 -> ~chi_2+ b )
     6.93604305E-01    2     1000021         6   # BR(~t_1 -> ~g      t )
     5.62595474E-03    2     1000005        24   # BR(~t_1 -> ~b_1    W+)
     9.95570103E-03    2     2000005        24   # BR(~t_1 -> ~b_2    W+)
#
#         PDG            Width
DECAY   2000006     4.09673801E+02   # stop2 decays
#          BR         NDA      ID1       ID2
     6.44029039E-02    2     1000022         6   # BR(~t_2 -> ~chi_10 t )
     9.42381561E-02    2     1000023         6   # BR(~t_2 -> ~chi_20 t )
     5.72554714E-02    2     1000025         6   # BR(~t_2 -> ~chi_30 t )
    -4.13060167E-06    2     1000035         6   # BR(~t_2 -> ~chi_40 t )
     1.88540382E-01    2     1000024         5   # BR(~t_2 -> ~chi_1+ b )
    -8.07819390E-06    2     1000037         5   # BR(~t_2 -> ~chi_2+ b )
     5.95508826E-01    2     1000021         6   # BR(~t_2 -> ~g      t )
    -3.89693752E-05    2     1000006        25   # BR(~t_2 -> ~t_1    h )
     1.53486394E-05    2     1000006        23   # BR(~t_2 -> ~t_1    Z )
     3.22552433E-05    2     1000005        24   # BR(~t_2 -> ~b_1    W+)
     5.78356534E-05    2     2000005        24   # BR(~t_2 -> ~b_2    W+)
#
#         PDG            Width
DECAY   1000005     2.43751618E+02   # sbottom1 decays
#          BR         NDA      ID1       ID2
     4.91872462E-03    2     1000022         5   # BR(~b_1 -> ~chi_10 b )
     8.08831518E-05    2     1000023         5   # BR(~b_1 -> ~chi_20 b )
     4.19656235E-03    2     1000025         5   # BR(~b_1 -> ~chi_30 b )
     6.55870675E-03    2     1000035         5   # BR(~b_1 -> ~chi_40 b )
     5.03379398E-02    2    -1000024         6   # BR(~b_1 -> ~chi_1- t )
     1.31606756E-02    2    -1000037         6   # BR(~b_1 -> ~chi_2- t )
     9.20746508E-01    2     1000021         5   # BR(~b_1 -> ~g      b )
#
#         PDG            Width
DECAY   2000005     3.00466068E+02   # sbottom2 decays
#          BR         NDA      ID1       ID2
     1.37845623E-03    2     1000022         5   # BR(~b_2 -> ~chi_10 b )
     1.03835298E-04    2     1000023         5   # BR(~b_2 -> ~chi_20 b )
     2.31784868E-03    2     1000025         5   # BR(~b_2 -> ~chi_30 b )
     1.82762395E-02    2     1000035         5   # BR(~b_2 -> ~chi_40 b )
     1.94459458E-01    2    -1000024         6   # BR(~b_2 -> ~chi_1- t )
     3.66912383E-02    2    -1000037         6   # BR(~b_2 -> ~chi_2- t )
     7.46772924E-01    2     1000021         5   # BR(~b_2 -> ~g      b )
#
#         PDG            Width
DECAY   1000002     2.46368661E+02   # sup_L decays
#          BR         NDA      ID1       ID2
     8.24613225E-04    2     1000022         2   # BR(~u_L -> ~chi_10 u)
     5.24916834E-07    2     1000023         2   # BR(~u_L -> ~chi_20 u)
     1.90690888E-03    2     1000025         2   # BR(~u_L -> ~chi_30 u)
     2.87615171E-02    2     1000035         2   # BR(~u_L -> ~chi_40 u)
     1.71254863E-04    2     1000024         1   # BR(~u_L -> ~chi_1+ d)
     5.75193413E-02    2     1000037         1   # BR(~u_L -> ~chi_2+ d)
     9.10815840E-01    2     1000021         2   # BR(~u_L -> ~g      u)
#
#         PDG            Width
DECAY   2000002     2.34862379E+02   # sup_R decays
#          BR         NDA      ID1       ID2
     2.01086038E-02    2     1000022         2   # BR(~u_R -> ~chi_10 u)
     3.59324684E-06    2     1000023         2   # BR(~u_R -> ~chi_20 u)
     2.44352044E-02    2     1000025         2   # BR(~u_R -> ~chi_30 u)
     4.21526193E-09    2     1000035         2   # BR(~u_R -> ~chi_40 u)
     9.55452594E-01    2     1000021         2   # BR(~u_R -> ~g      u)
#
#         PDG            Width
DECAY   1000001     2.46372079E+02   # sdown_L decays
#          BR         NDA      ID1       ID2
     1.64115414E-03    2     1000022         1   # BR(~d_L -> ~chi_10 d)
     2.72227620E-06    2     1000023         1   # BR(~d_L -> ~chi_20 d)
     1.06561962E-03    2     1000025         1   # BR(~d_L -> ~chi_30 d)
     2.87768363E-02    2     1000035         1   # BR(~d_L -> ~chi_40 d)
     9.49097457E-05    2    -1000024         2   # BR(~d_L -> ~chi_1- u)
     5.75574949E-02    2    -1000037         2   # BR(~d_L -> ~chi_2- u)
     9.10861263E-01    2     1000021         1   # BR(~d_L -> ~g      d)
#
#         PDG            Width
DECAY   2000001     2.27020053E+02   # sdown_R decays
#          BR         NDA      ID1       ID2
     5.20089505E-03    2     1000022         1   # BR(~d_R -> ~chi_10 d)
     9.29358479E-07    2     1000023         1   # BR(~d_R -> ~chi_20 d)
     6.31992960E-03    2     1000025         1   # BR(~d_R -> ~chi_30 d)
     1.09027855E-09    2     1000035         1   # BR(~d_R -> ~chi_40 d)
     9.88478245E-01    2     1000021         1   # BR(~d_R -> ~g      d)
#
#         PDG            Width
DECAY   1000004     2.46368661E+02   # scharm_L decays
#          BR         NDA      ID1       ID2
     8.24613225E-04    2     1000022         4   # BR(~c_L -> ~chi_10 c)
     5.24916834E-07    2     1000023         4   # BR(~c_L -> ~chi_20 c)
     1.90690888E-03    2     1000025         4   # BR(~c_L -> ~chi_30 c)
     2.87615171E-02    2     1000035         4   # BR(~c_L -> ~chi_40 c)
     1.71254863E-04    2     1000024         3   # BR(~c_L -> ~chi_1+ s)
     5.75193413E-02    2     1000037         3   # BR(~c_L -> ~chi_2+ s)
     9.10815840E-01    2     1000021         4   # BR(~c_L -> ~g      c)
#
#         PDG            Width
DECAY   2000004     2.34862379E+02   # scharm_R decays
#          BR         NDA      ID1       ID2
     2.01086038E-02    2     1000022         4   # BR(~c_R -> ~chi_10 c)
     3.59324684E-06    2     1000023         4   # BR(~c_R -> ~chi_20 c)
     2.44352044E-02    2     1000025         4   # BR(~c_R -> ~chi_30 c)
     4.21526193E-09    2     1000035         4   # BR(~c_R -> ~chi_40 c)
     9.55452594E-01    2     1000021         4   # BR(~c_R -> ~g      c)
#
#         PDG            Width
DECAY   1000003     2.46372079E+02   # sstrange_L decays
#          BR         NDA      ID1       ID2
     1.64115414E-03    2     1000022         3   # BR(~s_L -> ~chi_10 s)
     2.72227620E-06    2     1000023         3   # BR(~s_L -> ~chi_20 s)
     1.06561962E-03    2     1000025         3   # BR(~s_L -> ~chi_30 s)
     2.87768363E-02    2     1000035         3   # BR(~s_L -> ~chi_40 s)
     9.49097457E-05    2    -1000024         4   # BR(~s_L -> ~chi_1- c)
     5.75574949E-02    2    -1000037         4   # BR(~s_L -> ~chi_2- c)
     9.10861263E-01    2     1000021         3   # BR(~s_L -> ~g      s)
#
#         PDG            Width
DECAY   2000003     2.27020053E+02   # sstrange_R decays
#          BR         NDA      ID1       ID2
     5.20089505E-03    2     1000022         3   # BR(~s_R -> ~chi_10 s)
     9.29358479E-07    2     1000023         3   # BR(~s_R -> ~chi_20 s)
     6.31992960E-03    2     1000025         3   # BR(~s_R -> ~chi_30 s)
     1.09027855E-09    2     1000035         3   # BR(~s_R -> ~chi_40 s)
     9.88478245E-01    2     1000021         3   # BR(~s_R -> ~g      s)
#
#         PDG            Width
DECAY   1000011     2.79086769E+01   # selectron_L decays
#          BR         NDA      ID1       ID2
     8.74424698E-02    2     1000022        11   # BR(~e_L -> ~chi_10 e-)
     3.67813344E-07    2     1000023        11   # BR(~e_L -> ~chi_20 e-)
     1.31205802E-01    2     1000025        11   # BR(~e_L -> ~chi_30 e-)
     2.60020937E-01    2     1000035        11   # BR(~e_L -> ~chi_40 e-)
     8.65077867E-04    2    -1000024        12   # BR(~e_L -> ~chi_1- nu_e)
     5.20465345E-01    2    -1000037        12   # BR(~e_L -> ~chi_2- nu_e)
#
#         PDG            Width
DECAY   2000011     2.43065502E+01   # selectron_R decays
#          BR         NDA      ID1       ID2
     4.51421184E-01    2     1000022        11   # BR(~e_R -> ~chi_10 e-)
     8.06616337E-05    2     1000023        11   # BR(~e_R -> ~chi_20 e-)
     5.48498060E-01    2     1000025        11   # BR(~e_R -> ~chi_30 e-)
     9.38836806E-08    2     1000035        11   # BR(~e_R -> ~chi_40 e-)
#
#         PDG            Width
DECAY   1000013     2.79086769E+01   # smuon_L decays
#          BR         NDA      ID1       ID2
     8.74424698E-02    2     1000022        13   # BR(~mu_L -> ~chi_10 mu-)
     3.67813344E-07    2     1000023        13   # BR(~mu_L -> ~chi_20 mu-)
     1.31205802E-01    2     1000025        13   # BR(~mu_L -> ~chi_30 mu-)
     2.60020937E-01    2     1000035        13   # BR(~mu_L -> ~chi_40 mu-)
     8.65077867E-04    2    -1000024        14   # BR(~mu_L -> ~chi_1- nu_mu)
     5.20465345E-01    2    -1000037        14   # BR(~mu_L -> ~chi_2- nu_mu)
#
#         PDG            Width
DECAY   2000013     2.43065502E+01   # smuon_R decays
#          BR         NDA      ID1       ID2
     4.51421184E-01    2     1000022        13   # BR(~mu_R -> ~chi_10 mu-)
     8.06616337E-05    2     1000023        13   # BR(~mu_R -> ~chi_20 mu-)
     5.48498060E-01    2     1000025        13   # BR(~mu_R -> ~chi_30 mu-)
     9.38836806E-08    2     1000035        13   # BR(~mu_R -> ~chi_40 mu-)
#
#         PDG            Width
DECAY   1000015     2.61373038E+01   # stau_1 decays
#          BR         NDA      ID1       ID2
     2.67595398E-01    2     1000022        15   # BR(~tau_1 -> ~chi_10  tau-)
     4.44916342E-04    2     1000023        15   # BR(~tau_1 -> ~chi_20  tau-)
     3.24770187E-01    2     1000025        15   # BR(~tau_1 -> ~chi_30  tau-)
     1.34901931E-01    2     1000035        15   # BR(~tau_1 -> ~chi_40  tau-)
     2.12593394E-03    2    -1000024        16   # BR(~tau_1 -> ~chi_1-  nu_tau)
     2.70023991E-01    2    -1000037        16   # BR(~tau_1 -> ~chi_2-  nu_tau)
     1.37644243E-04    2     1000039        15   # BR(~tau_1 -> ~G       tau-)
#
#         PDG            Width
DECAY   2000015     2.61763032E+01   # stau_2 decays
#          BR         NDA      ID1       ID2
     2.45885865E-01    2     1000022        15   # BR(~tau_2 -> ~chi_10  tau-)
     8.36227127E-04    2     1000023        15   # BR(~tau_2 -> ~chi_20  tau-)
     3.25453744E-01    2     1000025        15   # BR(~tau_2 -> ~chi_30  tau-)
     1.42529007E-01    2     1000035        15   # BR(~tau_2 -> ~chi_40  tau-)
     6.11181195E-06    2    -1000024        16   # BR(~tau_2 -> ~chi_1-  nu_tau)
     2.85289045E-01    2    -1000037        16   # BR(~tau_2 -> ~chi_2-  nu_tau)
#
#         PDG            Width
DECAY   1000012     2.79076317E+01   # snu_eL decays
#          BR         NDA      ID1       ID2
     1.09768958E-01    2     1000022        12   # BR(~nu_eL -> ~chi_10 nu_e)
     6.04514635E-05    2     1000023        12   # BR(~nu_eL -> ~chi_20 nu_e)
     1.08199223E-01    2     1000025        12   # BR(~nu_eL -> ~chi_30 nu_e)
     2.60277567E-01    2     1000035        12   # BR(~nu_eL -> ~chi_40 nu_e)
     1.56098208E-03    2     1000024        11   # BR(~nu_eL -> ~chi_1+ e-)
     5.20132819E-01    2     1000037        11   # BR(~nu_eL -> ~chi_2+ e-)
#
#         PDG            Width
DECAY   1000014     2.79076317E+01   # snu_muL decays
#          BR         NDA      ID1       ID2
     1.09768958E-01    2     1000022        14   # BR(~nu_muL -> ~chi_10 nu_mu)
     6.04514635E-05    2     1000023        14   # BR(~nu_muL -> ~chi_20 nu_mu)
     1.08199223E-01    2     1000025        14   # BR(~nu_muL -> ~chi_30 nu_mu)
     2.60277567E-01    2     1000035        14   # BR(~nu_muL -> ~chi_40 nu_mu)
     1.56098208E-03    2     1000024        13   # BR(~nu_muL -> ~chi_1+ mu-)
     5.20132819E-01    2     1000037        13   # BR(~nu_muL -> ~chi_2+ mu-)
#
#         PDG            Width
DECAY   1000016     2.79392222E+01   # snu_tauL decays
#          BR         NDA      ID1       ID2
     1.09644844E-01    2     1000022        16   # BR(~nu_tauL -> ~chi_10 nu_tau)
     6.03831120E-05    2     1000023        16   # BR(~nu_tauL -> ~chi_20 nu_tau)
     1.08076884E-01    2     1000025        16   # BR(~nu_tauL -> ~chi_30 nu_tau)
     2.59983275E-01    2     1000035        16   # BR(~nu_tauL -> ~chi_40 nu_tau)
     2.68944448E-03    2     1000024        15   # BR(~nu_tauL -> ~chi_1+ tau-)
     5.19545170E-01    2     1000037        15   # BR(~nu_tauL -> ~chi_2+ tau-)
#
#         PDG            Width
DECAY   1000024     6.05867074E-05   # chargino1+ decays
#          BR         NDA      ID1       ID2
     2.21272998E-04    2     1000039        24   # BR(~chi_1+ -> ~G       W+)
#           BR         NDA      ID1       ID2       ID3
     3.33631364E-01    3     1000022         2        -1   # BR(~chi_1+ -> ~chi_10 u    db)
     3.33631364E-01    3     1000022         4        -3   # BR(~chi_1+ -> ~chi_10 c    sb)
     1.11210582E-01    3     1000022       -11        12   # BR(~chi_1+ -> ~chi_10 e+   nu_e)
     1.11210582E-01    3     1000022       -13        14   # BR(~chi_1+ -> ~chi_10 mu+  nu_mu)
     1.10094835E-01    3     1000022       -15        16   # BR(~chi_1+ -> ~chi_10 tau+ nu_tau)
#
#         PDG            Width
DECAY   1000037     3.50046588E+01   # chargino2+ decays
#          BR         NDA      ID1       ID2
     2.21822610E-01    2     1000024        23   # BR(~chi_2+ -> ~chi_1+  Z )
     1.12724173E-01    2     1000022        24   # BR(~chi_2+ -> ~chi_10  W+)
     2.16295487E-01    2     1000023        24   # BR(~chi_2+ -> ~chi_20  W+)
     1.03562867E-01    2     1000025        24   # BR(~chi_2+ -> ~chi_30  W+)
     2.22781241E-01    2     1000024        25   # BR(~chi_2+ -> ~chi_1+  h )
     3.05895503E-02    2     1000024        35   # BR(~chi_2+ -> ~chi_1+  H )
     3.08306521E-02    2     1000024        36   # BR(~chi_2+ -> ~chi_1+  A )
     1.80074540E-02    2     1000022        37   # BR(~chi_2+ -> ~chi_10  H+)
     3.05928132E-02    2     1000023        37   # BR(~chi_2+ -> ~chi_20  H+)
     1.27833160E-02    2     1000025        37   # BR(~chi_2+ -> ~chi_30  H+)
     9.83588890E-06    2     1000039        24   # BR(~chi_2+ -> ~G       W+)
     4.69021521E-10    2     1000039        37   # BR(~chi_2+ -> ~G       H+)
#
#         PDG            Width
DECAY   1000022    1.0E-05    # neutralino1 decays
#          BR         NDA      ID1       ID2
     5.00257926E-01    2     1000039        22   # BR(~chi_10 -> ~G        gam)
     4.89551103E-01    2     1000039        23   # BR(~chi_10 -> ~G        Z)
     1.01909706E-02    2     1000039        25   # BR(~chi_10 -> ~G        h)
#
#         PDG            Width
DECAY   1000023     6.54456938E-05   # neutralino2 decays
#          BR         NDA      ID1       ID2
     8.03484926E-04    2     1000022        22   # BR(~chi_20 -> ~chi_10 gam)
#          BR         NDA      ID1       ID2
     1.52835764E-08    2     1000039        22   # BR(~chi_20 -> ~G        gam)
     7.87332225E-06    2     1000039        23   # BR(~chi_20 -> ~G        Z)
     1.70128434E-04    2     1000039        25   # BR(~chi_20 -> ~G        h)
#           BR         NDA      ID1       ID2       ID3
     1.19104190E-01    3     1000022        -2         2   # BR(~chi_20 -> ~chi_10 ub      u)
     1.54185560E-01    3     1000022        -1         1   # BR(~chi_20 -> ~chi_10 db      d)
     1.19104190E-01    3     1000022        -4         4   # BR(~chi_20 -> ~chi_10 cb      c)
     1.54185560E-01    3     1000022        -3         3   # BR(~chi_20 -> ~chi_10 sb      s)
     1.36448187E-01    3     1000022        -5         5   # BR(~chi_20 -> ~chi_10 bb      b)
     3.51966063E-02    3     1000022       -11        11   # BR(~chi_20 -> ~chi_10 e+      e-)
     3.51966063E-02    3     1000022       -13        13   # BR(~chi_20 -> ~chi_10 mu+     mu-)
     3.47597393E-02    3     1000022       -15        15   # BR(~chi_20 -> ~chi_10 tau+    tau-)
     7.02785545E-02    3     1000022       -12        12   # BR(~chi_20 -> ~chi_10 nu_eb   nu_e)
     7.02785545E-02    3     1000022       -14        14   # BR(~chi_20 -> ~chi_10 nu_mub  nu_mu)
     7.02785545E-02    3     1000022       -16        16   # BR(~chi_20 -> ~chi_10 nu_taub nu_tau)
     4.09915076E-07    3     1000024        -2         1   # BR(~chi_20 -> ~chi_1+ ub      d)
     4.09915076E-07    3    -1000024        -1         2   # BR(~chi_20 -> ~chi_1- db      u)
     4.09915076E-07    3     1000024        -4         3   # BR(~chi_20 -> ~chi_1+ cb      s)
     4.09915076E-07    3    -1000024        -3         4   # BR(~chi_20 -> ~chi_1- sb      c)
     1.36638373E-07    3     1000024       -12        11   # BR(~chi_20 -> ~chi_1+ nu_eb   e-)
     1.36638373E-07    3    -1000024        12       -11   # BR(~chi_20 -> ~chi_1- nu_e    e+)
     1.36638373E-07    3     1000024       -14        13   # BR(~chi_20 -> ~chi_1+ nu_mub  mu-)
     1.36638373E-07    3    -1000024        14       -13   # BR(~chi_20 -> ~chi_1- nu_mu   mu+)
     4.82709903E-09    3     1000024       -16        15   # BR(~chi_20 -> ~chi_1+ nu_taub tau-)
     4.82709903E-09    3    -1000024        16       -15   # BR(~chi_20 -> ~chi_1- nu_tau  tau+)
#
#         PDG            Width
DECAY   1000025     3.74854670E-04   # neutralino3 decays
#          BR         NDA      ID1       ID2
     2.16962703E-04    2     1000022        22   # BR(~chi_30 -> ~chi_10 gam)
     5.20775578E-04    2     1000023        22   # BR(~chi_30 -> ~chi_20 gam)
#          BR         NDA      ID1       ID2
     5.53175973E-05    2     1000039        22   # BR(~chi_30 -> ~G        gam)
     3.82821019E-05    2     1000039        23   # BR(~chi_30 -> ~G        Z)
     9.40040014E-07    2     1000039        25   # BR(~chi_30 -> ~G        h)
#           BR         NDA      ID1       ID2       ID3
     3.57173984E-08    3     1000022        -2         2   # BR(~chi_30 -> ~chi_10 ub      u)
     4.31417945E-08    3     1000022        -1         1   # BR(~chi_30 -> ~chi_10 db      d)
     3.57173984E-08    3     1000022        -4         4   # BR(~chi_30 -> ~chi_10 cb      c)
     4.31417945E-08    3     1000022        -3         3   # BR(~chi_30 -> ~chi_10 sb      s)
     1.04133555E-06    3     1000022        -5         5   # BR(~chi_30 -> ~chi_10 bb      b)
     9.36269614E-08    3     1000022       -11        11   # BR(~chi_30 -> ~chi_10 e+      e-)
     9.36269614E-08    3     1000022       -13        13   # BR(~chi_30 -> ~chi_10 mu+     mu-)
     2.43370056E-07    3     1000022       -15        15   # BR(~chi_30 -> ~chi_10 tau+    tau-)
     7.38035752E-09    3     1000022       -12        12   # BR(~chi_30 -> ~chi_10 nu_eb   nu_e)
     7.38035752E-09    3     1000022       -14        14   # BR(~chi_30 -> ~chi_10 nu_mub  nu_mu)
     7.38035752E-09    3     1000022       -16        16   # BR(~chi_30 -> ~chi_10 nu_taub nu_tau)
     2.75009410E-02    3     1000023        -2         2   # BR(~chi_30 -> ~chi_20 ub      u)
     3.56012944E-02    3     1000023        -1         1   # BR(~chi_30 -> ~chi_20 db      d)
     2.75009410E-02    3     1000023        -4         4   # BR(~chi_30 -> ~chi_20 cb      c)
     3.56012944E-02    3     1000023        -3         3   # BR(~chi_30 -> ~chi_20 sb      s)
     3.21210608E-02    3     1000023        -5         5   # BR(~chi_30 -> ~chi_20 bb      b)
     8.12693713E-03    3     1000023       -11        11   # BR(~chi_30 -> ~chi_20 e+      e-)
     8.12693713E-03    3     1000023       -13        13   # BR(~chi_30 -> ~chi_20 mu+     mu-)
     8.03875942E-03    3     1000023       -15        15   # BR(~chi_30 -> ~chi_20 tau+    tau-)
     1.62271440E-02    3     1000023       -12        12   # BR(~chi_30 -> ~chi_20 nu_eb   nu_e)
     1.62271440E-02    3     1000023       -14        14   # BR(~chi_30 -> ~chi_20 nu_mub  nu_mu)
     1.62271440E-02    3     1000023       -16        16   # BR(~chi_30 -> ~chi_20 nu_taub nu_tau)
     1.28073287E-01    3     1000024        -2         1   # BR(~chi_30 -> ~chi_1+ ub      d)
     1.28073287E-01    3    -1000024        -1         2   # BR(~chi_30 -> ~chi_1- db      u)
     1.28073287E-01    3     1000024        -4         3   # BR(~chi_30 -> ~chi_1+ cb      s)
     1.28073287E-01    3    -1000024        -3         4   # BR(~chi_30 -> ~chi_1- sb      c)
     4.26910112E-02    3     1000024       -12        11   # BR(~chi_30 -> ~chi_1+ nu_eb   e-)
     4.26910112E-02    3    -1000024        12       -11   # BR(~chi_30 -> ~chi_1- nu_e    e+)
     4.26910112E-02    3     1000024       -14        13   # BR(~chi_30 -> ~chi_1+ nu_mub  mu-)
     4.26910112E-02    3    -1000024        14       -13   # BR(~chi_30 -> ~chi_1- nu_mu   mu+)
     4.24046399E-02    3     1000024       -16        15   # BR(~chi_30 -> ~chi_1+ nu_taub tau-)
     4.24046399E-02    3    -1000024        16       -15   # BR(~chi_30 -> ~chi_1- nu_tau  tau+)
#
#         PDG            Width
DECAY   1000035     3.50050540E+01   # neutralino4 decays
#          BR         NDA      ID1       ID2
     2.28733674E-03    2     1000022        23   # BR(~chi_40 -> ~chi_10   Z )
     2.17338907E-01    2     1000023        23   # BR(~chi_40 -> ~chi_20   Z )
     2.33020693E-03    2     1000025        23   # BR(~chi_40 -> ~chi_30   Z )
     2.16107156E-01    2     1000024       -24   # BR(~chi_40 -> ~chi_1+   W-)
     2.16107156E-01    2    -1000024        24   # BR(~chi_40 -> ~chi_1-   W+)
     1.13948872E-01    2     1000022        25   # BR(~chi_40 -> ~chi_10   h )
     1.89732285E-03    2     1000022        35   # BR(~chi_40 -> ~chi_10   H )
     1.60846531E-02    2     1000022        36   # BR(~chi_40 -> ~chi_10   A )
     4.60572961E-03    2     1000023        25   # BR(~chi_40 -> ~chi_20   h )
     2.72108105E-02    2     1000023        35   # BR(~chi_40 -> ~chi_20   H )
     3.30329048E-03    2     1000023        36   # BR(~chi_40 -> ~chi_20   A )
     1.04462438E-01    2     1000025        25   # BR(~chi_40 -> ~chi_30   h )
     1.34999490E-03    2     1000025        35   # BR(~chi_40 -> ~chi_30   H )
     1.14177305E-02    2     1000025        36   # BR(~chi_40 -> ~chi_30   A )
     3.07692793E-02    2     1000024       -37   # BR(~chi_40 -> ~chi_1+   H-)
     3.07692793E-02    2    -1000024        37   # BR(~chi_40 -> ~chi_1-   H+)
     2.36009682E-06    2     1000039        22   # BR(~chi_40 -> ~G        gam)
     7.47495314E-06    2     1000039        23   # BR(~chi_40 -> ~G        Z)
     4.80504663E-10    2     1000039        25   # BR(~chi_40 -> ~G        h)
     4.65785696E-10    2     1000039        35   # BR(~chi_40 -> ~G        H)
     1.43366137E-12    2     1000039        36   # BR(~chi_40 -> ~G        A)
#
#         PDG            Width
DECAY        25     4.21716235E-03   # h decays
#          BR         NDA      ID1       ID2
     6.01683701E-01    2           5        -5   # BR(h -> b       bb     )
     6.22563488E-02    2         -15        15   # BR(h -> tau+    tau-   )
     2.20360333E-04    2         -13        13   # BR(h -> mu+     mu-    )
     4.66239876E-04    2           3        -3   # BR(h -> s       sb     )
     2.01145574E-02    2           4        -4   # BR(h -> c       cb     )
     6.64265428E-02    2          21        21   # BR(h -> g       g      )
     2.31270118E-03    2          22        22   # BR(h -> gam     gam    )
     1.62695511E-03    2          22        23   # BR(h -> Z       gam    )
     2.16803676E-01    2          24       -24   # BR(h -> W+      W-     )
     2.80889177E-02    2          23        23   # BR(h -> Z       Z      )
#
#         PDG            Width
DECAY        35     3.99023479E+01   # H decays
#          BR         NDA      ID1       ID2
     1.39706477E-03    2           5        -5   # BR(H -> b       bb     )
     2.33528125E-04    2         -15        15   # BR(H -> tau+    tau-   )
     8.25608864E-07    2         -13        13   # BR(H -> mu+     mu-    )
     1.05706749E-06    2           3        -3   # BR(H -> s       sb     )
     9.53971977E-06    2           4        -4   # BR(H -> c       cb     )
     9.43915963E-01    2           6        -6   # BR(H -> t       tb     )
     7.55952867E-04    2          21        21   # BR(H -> g       g      )
     2.63735419E-06    2          22        22   # BR(H -> gam     gam    )
     1.09854900E-06    2          23        22   # BR(H -> Z       gam    )
     3.17045990E-04    2          24       -24   # BR(H -> W+      W-     )
     1.58090602E-04    2          23        23   # BR(H -> Z       Z      )
     8.57420744E-04    2          25        25   # BR(H -> h       h      )
     8.82230907E-24    2          36        36   # BR(H -> A       A      )
     3.51061259E-11    2          23        36   # BR(H -> Z       A      )
     3.09887437E-12    2          24       -37   # BR(H -> W+      H-     )
     3.09887437E-12    2         -24        37   # BR(H -> W-      H+     )
     5.65314543E-05    2     1000024  -1000024   # BR(H -> ~chi_1+ ~chi_1-)
     9.95185802E-04    2     1000022   1000022   # BR(H -> ~chi_10 ~chi_10)
     2.27696177E-05    2     1000023   1000023   # BR(H -> ~chi_20 ~chi_20)
     5.62244444E-04    2     1000025   1000025   # BR(H -> ~chi_30 ~chi_30)
     2.57797921E-02    2     1000022   1000023   # BR(H -> ~chi_10 ~chi_20)
     1.25425231E-05    2     1000022   1000025   # BR(H -> ~chi_10 ~chi_30)
     2.49207091E-02    2     1000023   1000025   # BR(H -> ~chi_20 ~chi_30)
#
#         PDG            Width
DECAY        36     4.03526573E+01   # A decays
#          BR         NDA      ID1       ID2
     1.39972557E-03    2           5        -5   # BR(A -> b       bb     )
     2.31117776E-04    2         -15        15   # BR(A -> tau+    tau-   )
     8.17084827E-07    2         -13        13   # BR(A -> mu+     mu-    )
     1.07720838E-06    2           3        -3   # BR(A -> s       sb     )
     9.43978043E-06    2           4        -4   # BR(A -> c       cb     )
     9.44754611E-01    2           6        -6   # BR(A -> t       tb     )
     8.94228188E-04    2          21        21   # BR(A -> g       g      )
     2.66894039E-06    2          22        22   # BR(A -> gam     gam    )
     1.28092886E-06    2          23        22   # BR(A -> Z       gam    )
     3.08888419E-04    2          23        25   # BR(A -> Z       h      )
     6.47353438E-04    2     1000024  -1000024   # BR(A -> ~chi_1+ ~chi_1-)
     2.86077853E-02    2     1000022   1000022   # BR(A -> ~chi_10 ~chi_10)
     1.16220629E-06    2     1000023   1000023   # BR(A -> ~chi_20 ~chi_20)
     2.15243996E-02    2     1000025   1000025   # BR(A -> ~chi_30 ~chi_30)
     6.61698492E-04    2     1000022   1000023   # BR(A -> ~chi_10 ~chi_20)
     1.11115271E-04    2     1000022   1000025   # BR(A -> ~chi_10 ~chi_30)
     8.42630790E-04    2     1000023   1000025   # BR(A -> ~chi_20 ~chi_30)
#
#         PDG            Width
DECAY        37     3.95434392E+01   # H+ decays
#          BR         NDA      ID1       ID2
     2.24603667E-06    2           4        -5   # BR(H+ -> c       bb     )
     2.36087280E-04    2         -15        16   # BR(H+ -> tau+    nu_tau )
     8.34653817E-07    2         -13        14   # BR(H+ -> mu+     nu_mu  )
     1.42800219E-08    2           2        -5   # BR(H+ -> u       bb     )
     5.16883951E-08    2           2        -3   # BR(H+ -> u       sb     )
     1.02991076E-05    2           4        -3   # BR(H+ -> c       sb     )
     9.46648074E-01    2           6        -5   # BR(H+ -> t       bb     )
     3.16623241E-04    2          24        25   # BR(H+ -> W+      h      )
     1.15864901E-12    2          24        36   # BR(H+ -> W+      A      )
     2.39149103E-02    2     1000024   1000022   # BR(H+ -> ~chi_1+ ~chi_10)
     1.46287339E-04    2     1000024   1000023   # BR(H+ -> ~chi_1+ ~chi_20)
     2.87245718E-02    2     1000024   1000025   # BR(H+ -> ~chi_1+ ~chi_30)
