#
#                              ======================
#                              | THE SUSYHIT OUTPUT |
#                              ======================
#
#
#              ------------------------------------------------------
#              |     This is the output of the SUSY-HIT package     |
#              |  created by A.Djouadi, M.Muehlleitner and M.Spira. |
#              |  In case of problems with SUSY-HIT email to        |
#              |           margarete.muehlleitner@cern.ch           |
#              |           michael.spira@psi.ch                     |
#              |           abdelhak.djouadi@cern.ch                 |
#              ------------------------------------------------------
#
#              ------------------------------------------------------
#              |  SUSY Les Houches Accord - MSSM Spectrum + Decays  |
#              |              based on the decay programs           |
#              |                                                    |
#              |                     SDECAY 1.3b                    |
#              |                                                    |
#              |  Authors: M.Muhlleitner, A.Djouadi and Y.Mambrini  |
#              |  Ref.:    Comput.Phys.Commun.168(2005)46           |
#              |           [hep-ph/0311167]                         |
#              |                                                    |
#              |                     HDECAY 3.4                     |
#              |                                                    |
#              |  By: A.Djouadi,J.Kalinowski,M.Muhlleitner,M.Spira  |
#              |  Ref.:    Comput.Phys.Commun.108(1998)56           |
#              |           [hep-ph/9704448]                         |
#              |                                                    |
#              |                                                    |
#              |  If not stated otherwise all DRbar couplings and   |
#              |  soft SUSY breaking masses are given at the scale  |
#              |  Q=  0.50007352E+04
#              |                                                    |
#              ------------------------------------------------------
#
#
BLOCK DCINFO  # Decay Program information
     1   SDECAY/HDECAY # decay calculator
     2   1.3b  /3.4    # version number
#
BLOCK SPINFO  # Spectrum calculator information
     1    SOFTSUSY    # spectrum calculator                
     2    3.4.0       # version number                     
#
BLOCK MODSEL  # Model selection
     1     0   #  nonUniversal                                     
#
BLOCK SMINPUTS  # Standard Model inputs
         1     1.25778332E+02   # alpha_em^-1(M_Z)^MSbar
         2     1.16570000E-05   # G_F [GeV^-2]
         3     1.17200002E-01   # alpha_S(M_Z)^MSbar
         4     9.11876000E+01   # M_Z pole mass
         5     4.25000000E+00   # mb(mb)^MSbar
         6     1.72500000E+02   # mt pole mass
         7     1.77682000E+00   # mtau pole mass
#
BLOCK MINPAR  # Input parameters - minimal models
         3     1.00000000E+01   # tanb                
#
BLOCK EXTPAR  # Input parameters - non-minimal models
         0    -1.00000000E+00   # Set                 
         1     6.00000000E+01   # M_1(MX)             
         2     3.00000000E+03   # M_2(MX)             
         3     1.21156400E+03   # M_3(MX)             
        11     5.00000000E+03   # At(MX)              
        12     5.00000000E+03   # Ab(MX)              
        13     0.00000000E+00   # Atau(MX)            
        23    -9.59164000E+02   # mu(MX)              
        26     3.00000000E+03   # mA(pole)            
        31     5.00000000E+03   # meL(MX)             
        32     5.00000000E+03   # mmuL(MX)            
        33     5.00000000E+03   # mtauL(MX)           
        34     5.00000000E+03   # meR(MX)             
        35     5.00000000E+03   # mmuR(MX)            
        36     5.00000000E+03   # mtauR(MX)           
        41     5.00000000E+03   # mqL1(MX)            
        42     5.00000000E+03   # mqL2(MX)            
        43     5.00000000E+03   # mqL3(MX)            
        44     5.00000000E+03   # muR(MX)             
        45     5.00000000E+03   # mcR(MX)             
        46     5.00000000E+03   # mtR(MX)             
        47     5.00000000E+03   # mdR(MX)             
        48     5.00000000E+03   # msR(MX)             
        49     5.00000000E+03   # mbR(MX)             
#
BLOCK MASS  # Mass Spectrum
# PDG code           mass       particle
        24     8.00941620E+01   # W+
        25     1.24617519E+02   # h
        35     3.00008131E+03   # H
        36     2.99999855E+03   # A
        37     3.00112139E+03   # H+
         5     4.87878001E+00   # b-quark pole mass calculated from mb(mb)_Msbar
   1000001     5.06668303E+03   # ~d_L
   2000001     5.04886081E+03   # ~d_R
   1000002     5.06620735E+03   # ~u_L
   2000002     5.04857459E+03   # ~u_R
   1000003     5.06668303E+03   # ~s_L
   2000003     5.04886081E+03   # ~s_R
   1000004     5.06620735E+03   # ~c_L
   2000004     5.04857459E+03   # ~c_R
   1000005     5.01263857E+03   # ~b_1
   2000005     5.04740597E+03   # ~b_2
   1000006     4.90319615E+03   # ~t_1
   2000006     5.05816885E+03   # ~t_2
   1000011     5.01907232E+03   # ~e_L
   2000011     5.00592436E+03   # ~e_R
   1000012     5.01812345E+03   # ~nu_eL
   1000013     5.01907232E+03   # ~mu_L
   2000013     5.00592436E+03   # ~mu_R
   1000014     5.01812345E+03   # ~nu_muL
   1000015     5.00461220E+03   # ~tau_1
   2000015     5.01876701E+03   # ~tau_2
   1000016     5.01757727E+03   # ~nu_tauL
   1000021     1.50000069E+03   # ~g
   1000022     6.02984976E+01   # ~chi_10
   1000023     9.99652456E+02   # ~chi_20
   1000025    -1.00190680E+03   # ~chi_30
   1000035     3.07425707E+03   # ~chi_40
   1000024     1.00000069E+03   # ~chi_1+
   1000037     3.07442456E+03   # ~chi_2+
#
BLOCK NMIX  # Neutralino Mixing Matrix
  1  1     9.99006943E-01   # N_11
  1  2     1.84570021E-04   # N_12
  1  3    -4.45112989E-02   # N_13
  1  4     1.95913777E-03   # N_14
  2  1     3.00976444E-02   # N_21
  2  2     2.34949205E-02   # N_22
  2  3     7.06701150E-01   # N_23
  2  4     7.06481143E-01   # N_24
  3  1    -3.28496327E-02   # N_31
  3  2     1.49127850E-02   # N_32
  3  3    -7.06084559E-01   # N_33
  3  4     7.07207965E-01   # N_34
  4  1    -4.01804602E-04   # N_41
  4  2     9.99612707E-01   # N_42
  4  3    -6.06833488E-03   # N_43
  4  4    -2.71560375E-02   # N_44
#
BLOCK UMIX  # Chargino Mixing Matrix U
  1  1     8.59560598E-03   # U_11
  1  2     9.99963057E-01   # U_12
  2  1    -9.99963057E-01   # U_21
  2  2     8.59560598E-03   # U_22
#
BLOCK VMIX  # Chargino Mixing Matrix V
  1  1     3.84342495E-02   # V_11
  1  2    -9.99261131E-01   # V_12
  2  1    -9.99261131E-01   # V_21
  2  2    -3.84342495E-02   # V_22
#
BLOCK STOPMIX  # Stop Mixing Matrix
  1  1    -5.08647656E-01   # cos(theta_t)
  1  2     8.60974774E-01   # sin(theta_t)
  2  1    -8.60974774E-01   # -sin(theta_t)
  2  2    -5.08647656E-01   # cos(theta_t)
#
BLOCK SBOTMIX  # Sbottom Mixing Matrix
  1  1     9.97056844E-01   # cos(theta_b)
  1  2    -7.66658322E-02   # sin(theta_b)
  2  1     7.66658322E-02   # -sin(theta_b)
  2  2     9.97056844E-01   # cos(theta_b)
#
BLOCK STAUMIX  # Stau Mixing Matrix
  1  1    -1.13913926E-01   # cos(theta_tau)
  1  2     9.93490623E-01   # sin(theta_tau)
  2  1    -9.93490623E-01   # -sin(theta_tau)
  2  2    -1.13913926E-01   # cos(theta_tau)
#
BLOCK ALPHA  # Higgs mixing
          -1.05456471E-01   # Mixing angle in the neutral Higgs boson sector
#
BLOCK HMIX Q=  5.00073519E+03  # DRbar Higgs Parameters
         1    -9.76547151E+02   # mu(Q)MSSM           
         2     9.47138452E+00   # tan                 
         3     2.41876298E+02   # higgs               
         4     8.51359934E+06   # mA^2(Q)MSSM         
#
BLOCK GAUGE Q=  5.00073519E+03  # The gauge couplings
     1     3.70806834E-01   # gprime(Q) DRbar
     2     6.32578682E-01   # g(Q) DRbar
     3     1.00270853E+00   # g3(Q) DRbar
#
BLOCK AU Q=  5.00073519E+03  # The trilinear couplings
  1  1     5.00000001E+03   # A_u(Q) DRbar
  2  2     5.00000001E+03   # A_c(Q) DRbar
  3  3     5.00000001E+03   # A_t(Q) DRbar
#
BLOCK AD Q=  5.00073519E+03  # The trilinear couplings
  1  1     5.00000000E+03   # A_d(Q) DRbar
  2  2     5.00000000E+03   # A_s(Q) DRbar
  3  3     5.00000001E+03   # A_b(Q) DRbar
#
BLOCK AE Q=  5.00073519E+03  # The trilinear couplings
  1  1     0.00000000E+00   # A_e(Q) DRbar
  2  2     9.71452472E-08   # A_mu(Q) DRbar
  3  3     9.64818186E-08   # A_tau(Q) DRbar
#
BLOCK Yu Q=  5.00073519E+03  # The Yukawa couplings
  1  1     0.00000000E+00   # y_u(Q) DRbar
  2  2     0.00000000E+00   # y_c(Q) DRbar
  3  3     8.17761710E-01   # y_t(Q) DRbar
#
BLOCK Yd Q=  5.00073519E+03  # The Yukawa couplings
  1  1     0.00000000E+00   # y_d(Q) DRbar
  2  2     0.00000000E+00   # y_s(Q) DRbar
  3  3     1.30115290E-01   # y_b(Q) DRbar
#
BLOCK Ye Q=  5.00073519E+03  # The Yukawa couplings
  1  1     0.00000000E+00   # y_e(Q) DRbar
  2  2     0.00000000E+00   # y_mu(Q) DRbar
  3  3     9.68618650E-02   # y_tau(Q) DRbar
#
BLOCK MSOFT Q=  5.00073519E+03  # The soft SUSY breaking masses at the scale Q
         1     6.00000000E+01   # M_1(Q)              
         2     3.00000000E+03   # M_2(Q)              
         3     1.21156400E+03   # M_3(Q)              
        21     7.74269722E+06   # mH1^2(Q)            
        22    -3.91380704E+05   # mH2^2(Q)            
        31     5.00000000E+03   # meL(Q)              
        32     5.00000000E+03   # mmuL(Q)             
        33     5.00000000E+03   # mtauL(Q)            
        34     5.00000000E+03   # meR(Q)              
        35     5.00000000E+03   # mmuR(Q)             
        36     5.00000000E+03   # mtauR(Q)            
        41     5.00000000E+03   # mqL1(Q)             
        42     5.00000000E+03   # mqL2(Q)             
        43     5.00000000E+03   # mqL3(Q)             
        44     5.00000000E+03   # muR(Q)              
        45     5.00000000E+03   # mcR(Q)              
        46     5.00000000E+03   # mtR(Q)              
        47     5.00000000E+03   # mdR(Q)              
        48     5.00000000E+03   # msR(Q)              
        49     5.00000000E+03   # mbR(Q)              
#
#
#
#                             =================
#                             |The decay table|
#                             =================
#
# - The QCD corrections to the decays gluino -> squark  + quark
#                                     squark -> gaugino + quark_prime
#                                     squark -> squark_prime + Higgs
#                                     squark -> gluino  + quark
#   are included.
#
# - The multi-body decays for the inos, stops and sbottoms are included.
#
# - The loop induced decays for the gluino, neutralinos and stops
#   are included.
#
# - The SUSY decays of the top quark are included.
#
#
#         PDG            Width
DECAY         6     1.40231829E+00   # top decays
#          BR         NDA      ID1       ID2
     1.00000000E+00    2           5        24   # BR(t ->  b    W+)
#
#         PDG            Width
DECAY   1000021     7.83078689E-05   # gluino decays
#          BR         NDA      ID1       ID2
     9.95793805E-06    2     1000022        21   # BR(~g -> ~chi_10 g)
     1.44491559E-02    2     1000023        21   # BR(~g -> ~chi_20 g)
     1.41351057E-02    2     1000025        21   # BR(~g -> ~chi_30 g)
#           BR         NDA      ID1       ID2       ID3
     6.83789720E-02    3     1000022         1        -1   # BR(~g -> ~chi_10 d  db)
     7.08675048E-06    3     1000023         1        -1   # BR(~g -> ~chi_20 d  db)
     3.36046015E-06    3     1000025         1        -1   # BR(~g -> ~chi_30 d  db)
     2.33135570E-01    3     1000022         2        -2   # BR(~g -> ~chi_10 u  ub)
     2.24096178E-05    3     1000023         2        -2   # BR(~g -> ~chi_20 u  ub)
     4.00411766E-06    3     1000025         2        -2   # BR(~g -> ~chi_30 u  ub)
     6.83789720E-02    3     1000022         3        -3   # BR(~g -> ~chi_10 s  sb)
     7.08675048E-06    3     1000023         3        -3   # BR(~g -> ~chi_20 s  sb)
     3.36046015E-06    3     1000025         3        -3   # BR(~g -> ~chi_30 s  sb)
     2.33135570E-01    3     1000022         4        -4   # BR(~g -> ~chi_10 c  cb)
     2.24096178E-05    3     1000023         4        -4   # BR(~g -> ~chi_20 c  cb)
     4.00411766E-06    3     1000025         4        -4   # BR(~g -> ~chi_30 c  cb)
     6.93517625E-02    3     1000022         5        -5   # BR(~g -> ~chi_10 b  bb)
     1.39647216E-03    3     1000023         5        -5   # BR(~g -> ~chi_20 b  bb)
     1.35683060E-03    3     1000025         5        -5   # BR(~g -> ~chi_30 b  bb)
     2.04314308E-01    3     1000022         6        -6   # BR(~g -> ~chi_10 t  tb)
     1.79953711E-02    3     1000023         6        -6   # BR(~g -> ~chi_20 t  tb)
     8.72067765E-03    3     1000025         6        -6   # BR(~g -> ~chi_30 t  tb)
     1.97893290E-05    3     1000024         1        -2   # BR(~g -> ~chi_1+ d  ub)
     1.97893290E-05    3    -1000024         2        -1   # BR(~g -> ~chi_1- u  db)
     1.97893290E-05    3     1000024         3        -4   # BR(~g -> ~chi_1+ s  cb)
     1.97893290E-05    3    -1000024         4        -3   # BR(~g -> ~chi_1- c  sb)
     3.25441979E-02    3     1000024         5        -6   # BR(~g -> ~chi_1+ b  tb)
     3.25441979E-02    3    -1000024         6        -5   # BR(~g -> ~chi_1- t  bb)
#
#         PDG            Width
DECAY   1000006     3.82485762E+02   # stop1 decays
#          BR         NDA      ID1       ID2
     2.30568888E-02    2     1000022         6   # BR(~t_1 -> ~chi_10 t )
     7.93901089E-02    2     1000023         6   # BR(~t_1 -> ~chi_20 t )
     7.62526606E-02    2     1000025         6   # BR(~t_1 -> ~chi_30 t )
     5.48184387E-03    2     1000035         6   # BR(~t_1 -> ~chi_40 t )
     1.14921004E-01    2     1000024         5   # BR(~t_1 -> ~chi_1+ b )
     1.09213250E-02    2     1000037         5   # BR(~t_1 -> ~chi_2+ b )
     6.89976169E-01    2     1000021         6   # BR(~t_1 -> ~g      t )
#
#         PDG            Width
DECAY   2000006     3.86768793E+02   # stop2 decays
#          BR         NDA      ID1       ID2
     9.13634370E-03    2     1000022         6   # BR(~t_2 -> ~chi_10 t )
     8.03276002E-02    2     1000023         6   # BR(~t_2 -> ~chi_20 t )
     8.37291900E-02    2     1000025         6   # BR(~t_2 -> ~chi_30 t )
     1.42312728E-02    2     1000035         6   # BR(~t_2 -> ~chi_40 t )
     4.83347099E-02    2     1000024         5   # BR(~t_2 -> ~chi_1+ b )
     2.83140068E-02    2     1000037         5   # BR(~t_2 -> ~chi_2+ b )
     7.32604017E-01    2     1000021         6   # BR(~t_2 -> ~g      t )
     7.49024072E-04    2     1000006        25   # BR(~t_2 -> ~t_1    h )
     2.57383560E-03    2     1000006        23   # BR(~t_2 -> ~t_1    Z )
#
#         PDG            Width
DECAY   1000005     3.63457881E+02   # sbottom1 decays
#          BR         NDA      ID1       ID2
     2.13075899E-03    2     1000022         5   # BR(~b_1 -> ~chi_10 b )
     2.18287396E-03    2     1000023         5   # BR(~b_1 -> ~chi_20 b )
     2.12358045E-03    2     1000025         5   # BR(~b_1 -> ~chi_30 b )
     2.06668097E-02    2     1000035         5   # BR(~b_1 -> ~chi_40 b )
     1.69302710E-01    2    -1000024         6   # BR(~b_1 -> ~chi_1- t )
     4.15246523E-02    2    -1000037         6   # BR(~b_1 -> ~chi_2- t )
     7.60506107E-01    2     1000021         5   # BR(~b_1 -> ~g      b )
     1.56250711E-03    2     1000006       -24   # BR(~b_1 -> ~t_1    W-)
#
#         PDG            Width
DECAY   2000005     2.85443962E+02   # sbottom2 decays
#          BR         NDA      ID1       ID2
     1.02973192E-02    2     1000022         5   # BR(~b_2 -> ~chi_10 b )
     2.76807358E-03    2     1000023         5   # BR(~b_2 -> ~chi_20 b )
     2.84330055E-03    2     1000025         5   # BR(~b_2 -> ~chi_30 b )
     1.59765752E-04    2     1000035         5   # BR(~b_2 -> ~chi_40 b )
     6.76780192E-03    2    -1000024         6   # BR(~b_2 -> ~chi_1- t )
     3.20960847E-04    2    -1000037         6   # BR(~b_2 -> ~chi_2- t )
     9.76794383E-01    2     1000021         5   # BR(~b_2 -> ~g      b )
     4.83949910E-05    2     1000006       -24   # BR(~b_2 -> ~t_1    W-)
#
#         PDG            Width
DECAY   1000002     3.04448030E+02   # sup_L decays
#          BR         NDA      ID1       ID2
     2.45344689E-03    2     1000022         2   # BR(~u_L -> ~chi_10 u)
     5.12800099E-05    2     1000023         2   # BR(~u_L -> ~chi_20 u)
     4.28597232E-06    2     1000025         2   # BR(~u_L -> ~chi_30 u)
     2.57121454E-02    2     1000035         2   # BR(~u_L -> ~chi_40 u)
     1.75553767E-04    2     1000024         1   # BR(~u_L -> ~chi_1+ d)
     5.13897080E-02    2     1000037         1   # BR(~u_L -> ~chi_2+ d)
     9.20213580E-01    2     1000021         2   # BR(~u_L -> ~g      u)
#
#         PDG            Width
DECAY   2000002     2.90715478E+02   # sup_R decays
#          BR         NDA      ID1       ID2
     4.08880666E-02    2     1000022         2   # BR(~u_R -> ~chi_10 u)
     3.42969608E-05    2     1000023         2   # BR(~u_R -> ~chi_20 u)
     4.08405726E-05    2     1000025         2   # BR(~u_R -> ~chi_30 u)
     2.62736750E-09    2     1000035         2   # BR(~u_R -> ~chi_40 u)
     9.59036793E-01    2     1000021         2   # BR(~u_R -> ~g      u)
#
#         PDG            Width
DECAY   1000001     3.04459614E+02   # sdown_L decays
#          BR         NDA      ID1       ID2
     2.44432307E-03    2     1000022         1   # BR(~d_L -> ~chi_10 d)
     1.84380681E-05    2     1000023         1   # BR(~d_L -> ~chi_20 d)
     2.70320871E-05    2     1000025         1   # BR(~d_L -> ~chi_30 d)
     2.57272543E-02    2     1000035         1   # BR(~d_L -> ~chi_40 d)
     8.78127051E-06    2    -1000024         2   # BR(~d_L -> ~chi_1- u)
     5.14759978E-02    2    -1000037         2   # BR(~d_L -> ~chi_2- u)
     9.20298173E-01    2     1000021         1   # BR(~d_L -> ~g      d)
#
#         PDG            Width
DECAY   2000001     2.81806097E+02   # sdown_R decays
#          BR         NDA      ID1       ID2
     1.05457905E-02    2     1000022         1   # BR(~d_R -> ~chi_10 d)
     8.84590246E-06    2     1000023         1   # BR(~d_R -> ~chi_20 d)
     1.05336370E-05    2     1000025         1   # BR(~d_R -> ~chi_30 d)
     6.77736503E-10    2     1000035         1   # BR(~d_R -> ~chi_40 d)
     9.89434829E-01    2     1000021         1   # BR(~d_R -> ~g      d)
#
#         PDG            Width
DECAY   1000004     3.04448030E+02   # scharm_L decays
#          BR         NDA      ID1       ID2
     2.45344689E-03    2     1000022         4   # BR(~c_L -> ~chi_10 c)
     5.12800099E-05    2     1000023         4   # BR(~c_L -> ~chi_20 c)
     4.28597232E-06    2     1000025         4   # BR(~c_L -> ~chi_30 c)
     2.57121454E-02    2     1000035         4   # BR(~c_L -> ~chi_40 c)
     1.75553767E-04    2     1000024         3   # BR(~c_L -> ~chi_1+ s)
     5.13897080E-02    2     1000037         3   # BR(~c_L -> ~chi_2+ s)
     9.20213580E-01    2     1000021         4   # BR(~c_L -> ~g      c)
#
#         PDG            Width
DECAY   2000004     2.90715478E+02   # scharm_R decays
#          BR         NDA      ID1       ID2
     4.08880666E-02    2     1000022         4   # BR(~c_R -> ~chi_10 c)
     3.42969608E-05    2     1000023         4   # BR(~c_R -> ~chi_20 c)
     4.08405726E-05    2     1000025         4   # BR(~c_R -> ~chi_30 c)
     2.62736750E-09    2     1000035         4   # BR(~c_R -> ~chi_40 c)
     9.59036793E-01    2     1000021         4   # BR(~c_R -> ~g      c)
#
#         PDG            Width
DECAY   1000003     3.04459614E+02   # sstrange_L decays
#          BR         NDA      ID1       ID2
     2.44432307E-03    2     1000022         3   # BR(~s_L -> ~chi_10 s)
     1.84380681E-05    2     1000023         3   # BR(~s_L -> ~chi_20 s)
     2.70320871E-05    2     1000025         3   # BR(~s_L -> ~chi_30 s)
     2.57272543E-02    2     1000035         3   # BR(~s_L -> ~chi_40 s)
     8.78127051E-06    2    -1000024         4   # BR(~s_L -> ~chi_1- c)
     5.14759978E-02    2    -1000037         4   # BR(~s_L -> ~chi_2- c)
     9.20298173E-01    2     1000021         3   # BR(~s_L -> ~g      s)
#
#         PDG            Width
DECAY   2000003     2.81806097E+02   # sstrange_R decays
#          BR         NDA      ID1       ID2
     1.05457905E-02    2     1000022         3   # BR(~s_R -> ~chi_10 s)
     8.84590246E-06    2     1000023         3   # BR(~s_R -> ~chi_20 s)
     1.05336370E-05    2     1000025         3   # BR(~s_R -> ~chi_30 s)
     6.77736503E-10    2     1000035         3   # BR(~s_R -> ~chi_40 s)
     9.89434829E-01    2     1000021         3   # BR(~s_R -> ~g      s)
#
#         PDG            Width
DECAY   1000011     3.02733933E+01   # selectron_L decays
#          BR         NDA      ID1       ID2
     2.26382742E-01    2     1000022        11   # BR(~e_L -> ~chi_10 e-)
     1.02994110E-03    2     1000023        11   # BR(~e_L -> ~chi_20 e-)
     1.14755371E-05    2     1000025        11   # BR(~e_L -> ~chi_30 e-)
     2.57316584E-01    2     1000035        11   # BR(~e_L -> ~chi_40 e-)
     8.99272887E-05    2    -1000024        12   # BR(~e_L -> ~chi_1- nu_e)
     5.15169329E-01    2    -1000037        12   # BR(~e_L -> ~chi_2- nu_e)
#
#         PDG            Width
DECAY   2000011     2.73745183E+01   # selectron_R decays
#          BR         NDA      ID1       ID2
     9.98169684E-01    2     1000022        11   # BR(~e_R -> ~chi_10 e-)
     8.35432899E-04    2     1000023        11   # BR(~e_R -> ~chi_20 e-)
     9.94820408E-04    2     1000025        11   # BR(~e_R -> ~chi_30 e-)
     6.26603699E-08    2     1000035        11   # BR(~e_R -> ~chi_40 e-)
#
#         PDG            Width
DECAY   1000013     3.02733933E+01   # smuon_L decays
#          BR         NDA      ID1       ID2
     2.26382742E-01    2     1000022        13   # BR(~mu_L -> ~chi_10 mu-)
     1.02994110E-03    2     1000023        13   # BR(~mu_L -> ~chi_20 mu-)
     1.14755371E-05    2     1000025        13   # BR(~mu_L -> ~chi_30 mu-)
     2.57316584E-01    2     1000035        13   # BR(~mu_L -> ~chi_40 mu-)
     8.99272887E-05    2    -1000024        14   # BR(~mu_L -> ~chi_1- nu_mu)
     5.15169329E-01    2    -1000037        14   # BR(~mu_L -> ~chi_2- nu_mu)
#
#         PDG            Width
DECAY   2000013     2.73745183E+01   # smuon_R decays
#          BR         NDA      ID1       ID2
     9.98169684E-01    2     1000022        13   # BR(~mu_R -> ~chi_10 mu-)
     8.35432899E-04    2     1000023        13   # BR(~mu_R -> ~chi_20 mu-)
     9.94820408E-04    2     1000025        13   # BR(~mu_R -> ~chi_30 mu-)
     6.26603699E-08    2     1000035        13   # BR(~mu_R -> ~chi_40 mu-)
#
#         PDG            Width
DECAY   1000015     2.91241348E+01   # stau_1 decays
#          BR         NDA      ID1       ID2
     9.29768396E-01    2     1000022        15   # BR(~tau_1 -> ~chi_10  tau-)
     1.56818232E-02    2     1000023        15   # BR(~tau_1 -> ~chi_20  tau-)
     1.49126756E-02    2     1000025        15   # BR(~tau_1 -> ~chi_30  tau-)
     3.35845521E-03    2     1000035        15   # BR(~tau_1 -> ~chi_40  tau-)
     2.95549836E-02    2    -1000024        16   # BR(~tau_1 -> ~chi_1-  nu_tau)
     6.72366684E-03    2    -1000037        16   # BR(~tau_1 -> ~chi_2-  nu_tau)
#
#         PDG            Width
DECAY   2000015     3.10951439E+01   # stau_2 decays
#          BR         NDA      ID1       ID2
     2.28199088E-01    2     1000022        15   # BR(~tau_2 -> ~chi_10  tau-)
     1.47552681E-02    2     1000023        15   # BR(~tau_2 -> ~chi_20  tau-)
     1.45692877E-02    2     1000025        15   # BR(~tau_2 -> ~chi_30  tau-)
     2.47288905E-01    2     1000035        15   # BR(~tau_2 -> ~chi_40  tau-)
     9.39065829E-05    2    -1000024        16   # BR(~tau_2 -> ~chi_1-  nu_tau)
     4.95093545E-01    2    -1000037        16   # BR(~tau_2 -> ~chi_2-  nu_tau)
#
#         PDG            Width
DECAY   1000012     3.02761868E+01   # snu_eL decays
#          BR         NDA      ID1       ID2
     2.26033889E-01    2     1000022        12   # BR(~nu_eL -> ~chi_10 nu_e)
     2.08370045E-05    2     1000023        12   # BR(~nu_eL -> ~chi_20 nu_e)
     7.10055102E-04    2     1000025        12   # BR(~nu_eL -> ~chi_30 nu_e)
     2.57369829E-01    2     1000035        12   # BR(~nu_eL -> ~chi_40 nu_e)
     1.79737851E-03    2     1000024        11   # BR(~nu_eL -> ~chi_1+ e-)
     5.14068012E-01    2     1000037        11   # BR(~nu_eL -> ~chi_2+ e-)
#
#         PDG            Width
DECAY   1000014     3.02761868E+01   # snu_muL decays
#          BR         NDA      ID1       ID2
     2.26033889E-01    2     1000022        14   # BR(~nu_muL -> ~chi_10 nu_mu)
     2.08370045E-05    2     1000023        14   # BR(~nu_muL -> ~chi_20 nu_mu)
     7.10055102E-04    2     1000025        14   # BR(~nu_muL -> ~chi_30 nu_mu)
     2.57369829E-01    2     1000035        14   # BR(~nu_muL -> ~chi_40 nu_mu)
     1.79737851E-03    2     1000024        13   # BR(~nu_muL -> ~chi_1+ mu-)
     5.14068012E-01    2     1000037        13   # BR(~nu_muL -> ~chi_2+ mu-)
#
#         PDG            Width
DECAY   1000016     3.11303932E+01   # snu_tauL decays
#          BR         NDA      ID1       ID2
     2.19807663E-01    2     1000022        16   # BR(~nu_tauL -> ~chi_10 nu_tau)
     2.02626745E-05    2     1000023        16   # BR(~nu_tauL -> ~chi_20 nu_tau)
     6.90483808E-04    2     1000025        16   # BR(~nu_tauL -> ~chi_30 nu_tau)
     2.50214979E-01    2     1000035        16   # BR(~nu_tauL -> ~chi_40 nu_tau)
     2.94900179E-02    2     1000024        15   # BR(~nu_tauL -> ~chi_1+ tau-)
     4.99776593E-01    2     1000037        15   # BR(~nu_tauL -> ~chi_2+ tau-)
#
#         PDG            Width
DECAY   1000024     6.09116274E-01   # chargino1+ decays
#          BR         NDA      ID1       ID2
     1.00000000E+00    2     1000022        24   # BR(~chi_1+ -> ~chi_10  W+)
#
#         PDG            Width
DECAY   1000037     2.04185738E+01   # chargino2+ decays
#          BR         NDA      ID1       ID2
     2.53201961E-01    2     1000024        23   # BR(~chi_2+ -> ~chi_1+  Z )
     1.97861109E-04    2     1000022        24   # BR(~chi_2+ -> ~chi_10  W+)
     2.44167460E-01    2     1000023        24   # BR(~chi_2+ -> ~chi_20  W+)
     2.44118530E-01    2     1000025        24   # BR(~chi_2+ -> ~chi_30  W+)
     2.58313016E-01    2     1000024        25   # BR(~chi_2+ -> ~chi_1+  h )
     1.17127296E-06    2     1000022        37   # BR(~chi_2+ -> ~chi_10  H+)
#
#         PDG            Width
DECAY   1000022     0.00000000E+00   # neutralino1 decays
#
#         PDG            Width
DECAY   1000023     6.36144194E-01   # neutralino2 decays
#          BR         NDA      ID1       ID2
     5.40220219E-01    2     1000022        23   # BR(~chi_20 -> ~chi_10   Z )
     4.59779781E-01    2     1000022        25   # BR(~chi_20 -> ~chi_10   h )
#
#         PDG            Width
DECAY   1000025     6.39185012E-01   # neutralino3 decays
#          BR         NDA      ID1       ID2
     4.50330923E-01    2     1000022        23   # BR(~chi_30 -> ~chi_10   Z )
     5.49669077E-01    2     1000022        25   # BR(~chi_30 -> ~chi_10   h )
#
#         PDG            Width
DECAY   1000035     2.04335848E+01   # neutralino4 decays
#          BR         NDA      ID1       ID2
     4.77488591E-05    2     1000022        23   # BR(~chi_40 -> ~chi_10   Z )
     7.27254503E-02    2     1000023        23   # BR(~chi_40 -> ~chi_20   Z )
     1.79762625E-01    2     1000025        23   # BR(~chi_40 -> ~chi_30   Z )
     2.44797932E-01    2     1000024       -24   # BR(~chi_40 -> ~chi_1+   W-)
     2.44797932E-01    2    -1000024        24   # BR(~chi_40 -> ~chi_1-   W+)
     1.51049319E-04    2     1000022        25   # BR(~chi_40 -> ~chi_10   h )
     1.09491490E-06    2     1000022        35   # BR(~chi_40 -> ~chi_10   H )
     1.34455667E-07    2     1000022        36   # BR(~chi_40 -> ~chi_10   A )
     1.84805778E-01    2     1000023        25   # BR(~chi_40 -> ~chi_20   h )
     7.29102553E-02    2     1000025        25   # BR(~chi_40 -> ~chi_30   h )
#
#         PDG            Width
DECAY        25     4.04613522E-03   # h decays
#          BR         NDA      ID1       ID2
     6.11451839E-01    2           5        -5   # BR(h -> b       bb     )
     6.40228327E-02    2         -15        15   # BR(h -> tau+    tau-   )
     2.26664794E-04    2         -13        13   # BR(h -> mu+     mu-    )
     4.80633075E-04    2           3        -3   # BR(h -> s       sb     )
     2.08269014E-02    2           4        -4   # BR(h -> c       cb     )
     6.71901813E-02    2          21        21   # BR(h -> g       g      )
     2.30651464E-03    2          22        22   # BR(h -> gam     gam    )
     1.47408453E-03    2          22        23   # BR(h -> Z       gam    )
     2.07328964E-01    2          24       -24   # BR(h -> W+      W-     )
     2.46374887E-02    2          23        23   # BR(h -> Z       Z      )
     5.38951450E-05    2     1000022   1000022   # BR(h -> ~chi_10 ~chi_10)
#
#         PDG            Width
DECAY        35     8.10168411E+00   # H decays
#          BR         NDA      ID1       ID2
     3.98395369E-01    2           5        -5   # BR(H -> b       bb     )
     6.87872919E-02    2         -15        15   # BR(H -> tau+    tau-   )
     2.43237328E-04    2         -13        13   # BR(H -> mu+     mu-    )
     2.98171719E-04    2           3        -3   # BR(H -> s       sb     )
     1.66677894E-06    2           4        -4   # BR(H -> c       cb     )
     1.66524417E-01    2           6        -6   # BR(H -> t       tb     )
     5.53226158E-05    2          21        21   # BR(H -> g       g      )
     2.68825814E-07    2          22        22   # BR(H -> gam     gam    )
     9.82810884E-08    2          23        22   # BR(H -> Z       gam    )
     7.64351795E-05    2          24       -24   # BR(H -> W+      W-     )
     3.81692117E-05    2          23        23   # BR(H -> Z       Z      )
     2.84577151E-04    2          25        25   # BR(H -> h       h      )
    -3.42750023E-23    2          36        36   # BR(H -> A       A      )
     9.38644005E-19    2          23        36   # BR(H -> Z       A      )
     1.97535022E-03    2     1000024  -1000024   # BR(H -> ~chi_1+ ~chi_1-)
     1.78262980E-03    2     1000022   1000022   # BR(H -> ~chi_10 ~chi_10)
     3.94859226E-05    2     1000023   1000023   # BR(H -> ~chi_20 ~chi_20)
     5.44269747E-04    2     1000025   1000025   # BR(H -> ~chi_30 ~chi_30)
     2.16480023E-01    2     1000022   1000023   # BR(H -> ~chi_10 ~chi_20)
     1.43960516E-01    2     1000022   1000025   # BR(H -> ~chi_10 ~chi_30)
     5.12700670E-04    2     1000023   1000025   # BR(H -> ~chi_20 ~chi_30)
#
#         PDG            Width
DECAY        36     8.11801031E+00   # A decays
#          BR         NDA      ID1       ID2
     3.97728906E-01    2           5        -5   # BR(A -> b       bb     )
     6.86510021E-02    2         -15        15   # BR(A -> tau+    tau-   )
     2.42755057E-04    2         -13        13   # BR(A -> mu+     mu-    )
     2.97797942E-04    2           3        -3   # BR(A -> s       sb     )
     1.67025361E-06    2           4        -4   # BR(A -> c       cb     )
     1.66779493E-01    2           6        -6   # BR(A -> t       tb     )
     1.65066193E-04    2          21        21   # BR(A -> g       g      )
     5.74643861E-07    2          22        22   # BR(A -> gam     gam    )
     1.99853139E-07    2          23        22   # BR(A -> Z       gam    )
     7.59940643E-05    2          23        25   # BR(A -> Z       h      )
     3.22832862E-03    2     1000024  -1000024   # BR(A -> ~chi_1+ ~chi_1-)
     1.81545174E-03    2     1000022   1000022   # BR(A -> ~chi_10 ~chi_10)
     4.63800237E-05    2     1000023   1000023   # BR(A -> ~chi_20 ~chi_20)
     1.50030544E-03    2     1000025   1000025   # BR(A -> ~chi_30 ~chi_30)
     1.45730984E-01    2     1000022   1000023   # BR(A -> ~chi_10 ~chi_20)
     2.13588767E-01    2     1000022   1000025   # BR(A -> ~chi_10 ~chi_30)
     1.46324080E-04    2     1000023   1000025   # BR(A -> ~chi_20 ~chi_30)
#
#         PDG            Width
DECAY        37     8.06919291E+00   # H+ decays
#          BR         NDA      ID1       ID2
     6.39068918E-04    2           4        -5   # BR(H+ -> c       bb     )
     6.90921806E-02    2         -15        16   # BR(H+ -> tau+    nu_tau )
     2.44315097E-04    2         -13        14   # BR(H+ -> mu+     nu_mu  )
     4.09001986E-06    2           2        -5   # BR(H+ -> u       bb     )
     1.43357474E-05    2           2        -3   # BR(H+ -> u       sb     )
     2.96463088E-04    2           4        -3   # BR(H+ -> c       sb     )
     5.63714578E-01    2           6        -5   # BR(H+ -> t       bb     )
     7.65889010E-05    2          24        25   # BR(H+ -> W+      h      )
     2.90678188E-13    2          24        36   # BR(H+ -> W+      A      )
     3.65009227E-01    2     1000024   1000022   # BR(H+ -> ~chi_1+ ~chi_10)
     8.76323387E-04    2     1000024   1000023   # BR(H+ -> ~chi_1+ ~chi_20)
     3.28293723E-05    2     1000024   1000025   # BR(H+ -> ~chi_1+ ~chi_30)
