#
#                              ======================
#                              | THE SUSYHIT OUTPUT |
#                              ======================
#
#
#              ------------------------------------------------------
#              |     This is the output of the SUSY-HIT package     |
#              |  created by A.Djouadi, M.Muehlleitner and M.Spira. |
#              |  In case of problems with SUSY-HIT email to        |
#              |           margarete.muehlleitner@cern.ch           |
#              |           michael.spira@psi.ch                     |
#              |           abdelhak.djouadi@cern.ch                 |
#              ------------------------------------------------------
#
#              ------------------------------------------------------
#              |  SUSY Les Houches Accord - MSSM Spectrum + Decays  |
#              |              based on the decay programs           |
#              |                                                    |
#              |                     SDECAY 1.3b                    |
#              |                                                    |
#              |  Authors: M.Muhlleitner, A.Djouadi and Y.Mambrini  |
#              |  Ref.:    Comput.Phys.Commun.168(2005)46           |
#              |           [hep-ph/0311167]                         |
#              |                                                    |
#              |                     HDECAY 3.4                     |
#              |                                                    |
#              |  By: A.Djouadi,J.Kalinowski,M.Muhlleitner,M.Spira  |
#              |  Ref.:    Comput.Phys.Commun.108(1998)56           |
#              |           [hep-ph/9704448]                         |
#              |                                                    |
#              |                                                    |
#              |  If not stated otherwise all DRbar couplings and   |
#              |  soft SUSY breaking masses are given at the scale  |
#              |  Q=  0.50007349E+04
#              |                                                    |
#              ------------------------------------------------------
#
#
BLOCK DCINFO  # Decay Program information
     1   SDECAY/HDECAY # decay calculator
     2   1.3b  /3.4    # version number
#
BLOCK SPINFO  # Spectrum calculator information
     1    SOFTSUSY    # spectrum calculator                
     2    3.4.0       # version number                     
#
BLOCK MODSEL  # Model selection
     1     0   #  nonUniversal                                     
#
BLOCK SMINPUTS  # Standard Model inputs
         1     1.25778332E+02   # alpha_em^-1(M_Z)^MSbar
         2     1.16570000E-05   # G_F [GeV^-2]
         3     1.17200002E-01   # alpha_S(M_Z)^MSbar
         4     9.11876000E+01   # M_Z pole mass
         5     4.25000000E+00   # mb(mb)^MSbar
         6     1.72500000E+02   # mt pole mass
         7     1.77682000E+00   # mtau pole mass
#
BLOCK MINPAR  # Input parameters - minimal models
         3     1.00000000E+01   # tanb                
#
BLOCK EXTPAR  # Input parameters - non-minimal models
         0    -1.00000000E+00   # Set                 
         1     6.00000000E+01   # M_1(MX)             
         2     3.00000000E+03   # M_2(MX)             
         3     2.33132600E+03   # M_3(MX)             
        11     5.00000000E+03   # At(MX)              
        12     5.00000000E+03   # Ab(MX)              
        13     0.00000000E+00   # Atau(MX)            
        23    -1.15359800E+03   # mu(MX)              
        26     3.00000000E+03   # mA(pole)            
        31     5.00000000E+03   # meL(MX)             
        32     5.00000000E+03   # mmuL(MX)            
        33     5.00000000E+03   # mtauL(MX)           
        34     5.00000000E+03   # meR(MX)             
        35     5.00000000E+03   # mmuR(MX)            
        36     5.00000000E+03   # mtauR(MX)           
        41     5.00000000E+03   # mqL1(MX)            
        42     5.00000000E+03   # mqL2(MX)            
        43     5.00000000E+03   # mqL3(MX)            
        44     5.00000000E+03   # muR(MX)             
        45     5.00000000E+03   # mcR(MX)             
        46     5.00000000E+03   # mtR(MX)             
        47     5.00000000E+03   # mdR(MX)             
        48     5.00000000E+03   # msR(MX)             
        49     5.00000000E+03   # mbR(MX)             
#
BLOCK MASS  # Mass Spectrum
# PDG code           mass       particle
        24     8.00961353E+01   # W+
        25     1.24825987E+02   # h
        35     3.00008025E+03   # H
        36     2.99999985E+03   # A
        37     3.00086373E+03   # H+
         5     4.87878001E+00   # b-quark pole mass calculated from mb(mb)_Msbar
   1000001     5.08401598E+03   # ~d_L
   2000001     5.06627126E+03   # ~d_R
   1000002     5.08354609E+03   # ~u_L
   2000002     5.06599174E+03   # ~u_R
   1000003     5.08401598E+03   # ~s_L
   2000003     5.06627126E+03   # ~s_R
   1000004     5.08354609E+03   # ~c_L
   2000004     5.06599174E+03   # ~c_R
   1000005     5.02977050E+03   # ~b_1
   2000005     5.06487552E+03   # ~b_2
   1000006     4.92206948E+03   # ~t_1
   2000006     5.07398629E+03   # ~t_2
   1000011     5.01905832E+03   # ~e_L
   2000011     5.00591793E+03   # ~e_R
   1000012     5.01811017E+03   # ~nu_eL
   1000013     5.01905832E+03   # ~mu_L
   2000013     5.00591793E+03   # ~mu_R
   1000014     5.01811017E+03   # ~nu_muL
   1000015     5.00452463E+03   # ~tau_1
   2000015     5.01884644E+03   # ~tau_2
   1000016     5.01756671E+03   # ~nu_tauL
   1000021     2.70000066E+03   # ~g
   1000022     6.03023925E+01   # ~chi_10
   1000023     1.19954201E+03   # ~chi_20
   1000025    -1.20184346E+03   # ~chi_30
   1000035     3.07428105E+03   # ~chi_40
   1000024     1.20000023E+03   # ~chi_1+
   1000037     3.07444846E+03   # ~chi_2+
#
BLOCK NMIX  # Neutralino Mixing Matrix
  1  1     9.99308827E-01   # N_11
  1  2     1.64230230E-04   # N_12
  1  3    -3.71185042E-02   # N_13
  1  4     2.01423244E-03   # N_14
  2  1     2.48267737E-02   # N_21
  2  2     2.59735429E-02   # N_22
  2  3     7.06840295E-01   # N_23
  2  4     7.06460051E-01   # N_24
  3  1    -2.76645190E-02   # N_31
  3  2     1.42065734E-02   # N_32
  3  3    -7.06349602E-01   # N_33
  3  4     7.07179671E-01   # N_34
  4  1    -4.16120370E-04   # N_41
  4  2     9.99561665E-01   # N_42
  4  3    -8.32189107E-03   # N_43
  4  4    -2.84086537E-02   # N_44
#
BLOCK UMIX  # Chargino Mixing Matrix U
  1  1     1.17837836E-02   # U_11
  1  2     9.99930569E-01   # U_12
  2  1    -9.99930569E-01   # U_21
  2  2     1.17837836E-02   # U_22
#
BLOCK VMIX  # Chargino Mixing Matrix V
  1  1     4.02046456E-02   # V_11
  1  2    -9.99191466E-01   # V_12
  2  1    -9.99191466E-01   # V_21
  2  2    -4.02046456E-02   # V_22
#
BLOCK STOPMIX  # Stop Mixing Matrix
  1  1    -5.05617397E-01   # cos(theta_t)
  1  2     8.62757815E-01   # sin(theta_t)
  2  1    -8.62757815E-01   # -sin(theta_t)
  2  2    -5.05617397E-01   # cos(theta_t)
#
BLOCK SBOTMIX  # Sbottom Mixing Matrix
  1  1     9.96214549E-01   # cos(theta_b)
  1  2    -8.69285474E-02   # sin(theta_b)
  2  1     8.69285474E-02   # -sin(theta_b)
  2  2     9.96214549E-01   # cos(theta_b)
#
BLOCK STAUMIX  # Stau Mixing Matrix
  1  1    -1.36041163E-01   # cos(theta_tau)
  1  2     9.90703186E-01   # sin(theta_tau)
  2  1    -9.90703186E-01   # -sin(theta_tau)
  2  2    -1.36041163E-01   # cos(theta_tau)
#
BLOCK ALPHA  # Higgs mixing
          -1.05478878E-01   # Mixing angle in the neutral Higgs boson sector
#
BLOCK HMIX Q=  5.00073495E+03  # DRbar Higgs Parameters
         1    -1.17485168E+03   # mu(Q)MSSM           
         2     9.46928374E+00   # tan                 
         3     2.41896515E+02   # higgs               
         4     8.46633290E+06   # mA^2(Q)MSSM         
#
BLOCK GAUGE Q=  5.00073495E+03  # The gauge couplings
     1     3.70741044E-01   # gprime(Q) DRbar
     2     6.32302218E-01   # g(Q) DRbar
     3     9.94062913E-01   # g3(Q) DRbar
#
BLOCK AU Q=  5.00073495E+03  # The trilinear couplings
  1  1     5.00000002E+03   # A_u(Q) DRbar
  2  2     5.00000002E+03   # A_c(Q) DRbar
  3  3     5.00000002E+03   # A_t(Q) DRbar
#
BLOCK AD Q=  5.00073495E+03  # The trilinear couplings
  1  1     5.00000001E+03   # A_d(Q) DRbar
  2  2     5.00000001E+03   # A_s(Q) DRbar
  3  3     5.00000001E+03   # A_b(Q) DRbar
#
BLOCK AE Q=  5.00073495E+03  # The trilinear couplings
  1  1     0.00000000E+00   # A_e(Q) DRbar
  2  2     2.81070042E-07   # A_mu(Q) DRbar
  3  3     2.81122480E-07   # A_tau(Q) DRbar
#
BLOCK Yu Q=  5.00073495E+03  # The Yukawa couplings
  1  1     0.00000000E+00   # y_u(Q) DRbar
  2  2     0.00000000E+00   # y_c(Q) DRbar
  3  3     8.21218934E-01   # y_t(Q) DRbar
#
BLOCK Yd Q=  5.00073495E+03  # The Yukawa couplings
  1  1     0.00000000E+00   # y_d(Q) DRbar
  2  2     0.00000000E+00   # y_s(Q) DRbar
  3  3     1.31385046E-01   # y_b(Q) DRbar
#
BLOCK Ye Q=  5.00073495E+03  # The Yukawa couplings
  1  1     0.00000000E+00   # y_e(Q) DRbar
  2  2     0.00000000E+00   # y_mu(Q) DRbar
  3  3     9.67507799E-02   # y_tau(Q) DRbar
#
BLOCK MSOFT Q=  5.00073495E+03  # The soft SUSY breaking masses at the scale Q
         1     6.00000000E+01   # M_1(Q)              
         2     3.00000000E+03   # M_2(Q)              
         3     2.33132600E+03   # M_3(Q)              
        21     7.30511471E+06   # mH1^2(Q)            
        22    -8.19402068E+05   # mH2^2(Q)            
        31     5.00000000E+03   # meL(Q)              
        32     5.00000000E+03   # mmuL(Q)             
        33     5.00000000E+03   # mtauL(Q)            
        34     5.00000000E+03   # meR(Q)              
        35     5.00000000E+03   # mmuR(Q)             
        36     5.00000000E+03   # mtauR(Q)            
        41     4.99999999E+03   # mqL1(Q)             
        42     4.99999999E+03   # mqL2(Q)             
        43     4.99999999E+03   # mqL3(Q)             
        44     4.99999999E+03   # muR(Q)              
        45     4.99999999E+03   # mcR(Q)              
        46     4.99999999E+03   # mtR(Q)              
        47     4.99999999E+03   # mdR(Q)              
        48     4.99999999E+03   # msR(Q)              
        49     4.99999999E+03   # mbR(Q)              
#
#
#
#                             =================
#                             |The decay table|
#                             =================
#
# - The QCD corrections to the decays gluino -> squark  + quark
#                                     squark -> gaugino + quark_prime
#                                     squark -> squark_prime + Higgs
#                                     squark -> gluino  + quark
#   are included.
#
# - The multi-body decays for the inos, stops and sbottoms are included.
#
# - The loop induced decays for the gluino, neutralinos and stops
#   are included.
#
# - The SUSY decays of the top quark are included.
#
#
#         PDG            Width
DECAY         6     1.40100662E+00   # top decays
#          BR         NDA      ID1       ID2
     1.00000000E+00    2           5        24   # BR(t ->  b    W+)
#
#         PDG            Width
DECAY   1000021     4.65754359E-03   # gluino decays
#          BR         NDA      ID1       ID2
     2.17025409E-06    2     1000022        21   # BR(~g -> ~chi_10 g)
     5.05672804E-03    2     1000023        21   # BR(~g -> ~chi_20 g)
     5.00635386E-03    2     1000025        21   # BR(~g -> ~chi_30 g)
#           BR         NDA      ID1       ID2       ID3
     2.46262300E-02    3     1000022         1        -1   # BR(~g -> ~chi_10 d  db)
     2.49906811E-05    3     1000023         1        -1   # BR(~g -> ~chi_20 d  db)
     9.44115160E-06    3     1000025         1        -1   # BR(~g -> ~chi_30 d  db)
     8.39747947E-02    3     1000022         2        -2   # BR(~g -> ~chi_10 u  ub)
     6.15135258E-05    3     1000023         2        -2   # BR(~g -> ~chi_20 u  ub)
     1.03734159E-05    3     1000025         2        -2   # BR(~g -> ~chi_30 u  ub)
     2.46262300E-02    3     1000022         3        -3   # BR(~g -> ~chi_10 s  sb)
     2.49906811E-05    3     1000023         3        -3   # BR(~g -> ~chi_20 s  sb)
     9.44115160E-06    3     1000025         3        -3   # BR(~g -> ~chi_30 s  sb)
     8.39747947E-02    3     1000022         4        -4   # BR(~g -> ~chi_10 c  cb)
     6.15135258E-05    3     1000023         4        -4   # BR(~g -> ~chi_20 c  cb)
     1.03734159E-05    3     1000025         4        -4   # BR(~g -> ~chi_30 c  cb)
     2.49665829E-02    3     1000022         5        -5   # BR(~g -> ~chi_10 b  bb)
     4.37595667E-03    3     1000023         5        -5   # BR(~g -> ~chi_20 b  bb)
     4.32063574E-03    3     1000025         5        -5   # BR(~g -> ~chi_30 b  bb)
     8.67208401E-02    3     1000022         6        -6   # BR(~g -> ~chi_10 t  tb)
     1.63269009E-01    3     1000023         6        -6   # BR(~g -> ~chi_20 t  tb)
     1.49326608E-01    3     1000025         6        -6   # BR(~g -> ~chi_30 t  tb)
     6.98957247E-05    3     1000024         1        -2   # BR(~g -> ~chi_1+ d  ub)
     6.98957247E-05    3    -1000024         2        -1   # BR(~g -> ~chi_1- u  db)
     6.98957247E-05    3     1000024         3        -4   # BR(~g -> ~chi_1+ s  cb)
     6.98957247E-05    3    -1000024         4        -3   # BR(~g -> ~chi_1- c  sb)
     1.69630422E-01    3     1000024         5        -6   # BR(~g -> ~chi_1+ b  tb)
     1.69630422E-01    3    -1000024         6        -5   # BR(~g -> ~chi_1- t  bb)
#
#         PDG            Width
DECAY   1000006     2.70380248E+02   # stop1 decays
#          BR         NDA      ID1       ID2
     3.28716209E-02    2     1000022         6   # BR(~t_1 -> ~chi_10 t )
     1.08005302E-01    2     1000023         6   # BR(~t_1 -> ~chi_20 t )
     1.03910244E-01    2     1000025         6   # BR(~t_1 -> ~chi_30 t )
     7.64812151E-03    2     1000035         6   # BR(~t_1 -> ~chi_40 t )
     1.58321849E-01    2     1000024         5   # BR(~t_1 -> ~chi_1+ b )
     1.52297112E-02    2     1000037         5   # BR(~t_1 -> ~chi_2+ b )
     5.74013151E-01    2     1000021         6   # BR(~t_1 -> ~g      t )
#
#         PDG            Width
DECAY   2000006     2.81439275E+02   # stop2 decays
#          BR         NDA      ID1       ID2
     1.21574960E-02    2     1000022         6   # BR(~t_2 -> ~chi_10 t )
     1.06879237E-01    2     1000023         6   # BR(~t_2 -> ~chi_20 t )
     1.11184715E-01    2     1000025         6   # BR(~t_2 -> ~chi_30 t )
     1.99634406E-02    2     1000035         6   # BR(~t_2 -> ~chi_40 t )
     6.26104144E-02    2     1000024         5   # BR(~t_2 -> ~chi_1+ b )
     3.96956710E-02    2     1000037         5   # BR(~t_2 -> ~chi_2+ b )
     6.43182777E-01    2     1000021         6   # BR(~t_2 -> ~g      t )
     9.78178687E-04    2     1000006        25   # BR(~t_2 -> ~t_1    h )
     3.34807092E-03    2     1000006        23   # BR(~t_2 -> ~t_1    Z )
#
#         PDG            Width
DECAY   1000005     2.56257762E+02   # sbottom1 decays
#          BR         NDA      ID1       ID2
     3.01525993E-03    2     1000022         5   # BR(~b_1 -> ~chi_10 b )
     3.04729101E-03    2     1000023         5   # BR(~b_1 -> ~chi_20 b )
     2.93856203E-03    2     1000025         5   # BR(~b_1 -> ~chi_30 b )
     2.95621188E-02    2     1000035         5   # BR(~b_1 -> ~chi_40 b )
     2.31513705E-01    2    -1000024         6   # BR(~b_1 -> ~chi_1- t )
     5.94311118E-02    2    -1000037         6   # BR(~b_1 -> ~chi_2- t )
     6.68404241E-01    2     1000021         5   # BR(~b_1 -> ~g      b )
     2.08770983E-03    2     1000006       -24   # BR(~b_1 -> ~t_1    W-)
#
#         PDG            Width
DECAY   2000005     1.80875146E+02   # sbottom2 decays
#          BR         NDA      ID1       ID2
     1.61857261E-02    2     1000022         5   # BR(~b_2 -> ~chi_10 b )
     4.24512383E-03    2     1000023         5   # BR(~b_2 -> ~chi_20 b )
     4.38082263E-03    2     1000025         5   # BR(~b_2 -> ~chi_30 b )
     3.20199365E-04    2     1000035         5   # BR(~b_2 -> ~chi_40 b )
     1.08676524E-02    2    -1000024         6   # BR(~b_2 -> ~chi_1- t )
     6.43587919E-04    2    -1000037         6   # BR(~b_2 -> ~chi_2- t )
     9.63258328E-01    2     1000021         5   # BR(~b_2 -> ~g      b )
     9.85599002E-05    2     1000006       -24   # BR(~b_2 -> ~t_1    W-)
#
#         PDG            Width
DECAY   1000002     2.00312485E+02   # sup_L decays
#          BR         NDA      ID1       ID2
     3.71664571E-03    2     1000022         2   # BR(~u_L -> ~chi_10 u)
     8.26955402E-05    2     1000023         2   # BR(~u_L -> ~chi_20 u)
     6.73584489E-06    2     1000025         2   # BR(~u_L -> ~chi_30 u)
     3.94621745E-02    2     1000035         2   # BR(~u_L -> ~chi_40 u)
     2.81317502E-04    2     1000024         1   # BR(~u_L -> ~chi_1+ d)
     7.88689162E-02    2     1000037         1   # BR(~u_L -> ~chi_2+ d)
     8.77581515E-01    2     1000021         2   # BR(~u_L -> ~g      u)
#
#         PDG            Width
DECAY   2000002     1.86093560E+02   # sup_R decays
#          BR         NDA      ID1       ID2
     6.36769473E-02    2     1000022         2   # BR(~u_R -> ~chi_10 u)
     3.51366375E-05    2     1000023         2   # BR(~u_R -> ~chi_20 u)
     4.36083642E-05    2     1000025         2   # BR(~u_R -> ~chi_30 u)
     4.44888155E-09    2     1000035         2   # BR(~u_R -> ~chi_40 u)
     9.36244303E-01    2     1000021         2   # BR(~u_R -> ~g      u)
#
#         PDG            Width
DECAY   1000001     2.00330078E+02   # sdown_L decays
#          BR         NDA      ID1       ID2
     3.70419045E-03    2     1000022         1   # BR(~d_L -> ~chi_10 d)
     3.88244401E-05    2     1000023         1   # BR(~d_L -> ~chi_20 d)
     3.34641017E-05    2     1000025         1   # BR(~d_L -> ~chi_30 d)
     3.94835675E-02    2     1000035         1   # BR(~d_L -> ~chi_40 d)
     2.41671724E-05    2    -1000024         2   # BR(~d_L -> ~chi_1- u)
     7.90027441E-02    2    -1000037         2   # BR(~d_L -> ~chi_2- u)
     8.77713042E-01    2     1000021         1   # BR(~d_L -> ~g      d)
#
#         PDG            Width
DECAY   2000001     1.77220204E+02   # sdown_R decays
#          BR         NDA      ID1       ID2
     1.67172505E-02    2     1000022         1   # BR(~d_R -> ~chi_10 d)
     9.22461648E-06    2     1000023         1   # BR(~d_R -> ~chi_20 d)
     1.14487465E-05    2     1000025         1   # BR(~d_R -> ~chi_30 d)
     1.16812270E-09    2     1000035         1   # BR(~d_R -> ~chi_40 d)
     9.83262075E-01    2     1000021         1   # BR(~d_R -> ~g      d)
#
#         PDG            Width
DECAY   1000004     2.00312485E+02   # scharm_L decays
#          BR         NDA      ID1       ID2
     3.71664571E-03    2     1000022         4   # BR(~c_L -> ~chi_10 c)
     8.26955402E-05    2     1000023         4   # BR(~c_L -> ~chi_20 c)
     6.73584489E-06    2     1000025         4   # BR(~c_L -> ~chi_30 c)
     3.94621745E-02    2     1000035         4   # BR(~c_L -> ~chi_40 c)
     2.81317502E-04    2     1000024         3   # BR(~c_L -> ~chi_1+ s)
     7.88689162E-02    2     1000037         3   # BR(~c_L -> ~chi_2+ s)
     8.77581515E-01    2     1000021         4   # BR(~c_L -> ~g      c)
#
#         PDG            Width
DECAY   2000004     1.86093560E+02   # scharm_R decays
#          BR         NDA      ID1       ID2
     6.36769473E-02    2     1000022         4   # BR(~c_R -> ~chi_10 c)
     3.51366375E-05    2     1000023         4   # BR(~c_R -> ~chi_20 c)
     4.36083642E-05    2     1000025         4   # BR(~c_R -> ~chi_30 c)
     4.44888155E-09    2     1000035         4   # BR(~c_R -> ~chi_40 c)
     9.36244303E-01    2     1000021         4   # BR(~c_R -> ~g      c)
#
#         PDG            Width
DECAY   1000003     2.00330078E+02   # sstrange_L decays
#          BR         NDA      ID1       ID2
     3.70419045E-03    2     1000022         3   # BR(~s_L -> ~chi_10 s)
     3.88244401E-05    2     1000023         3   # BR(~s_L -> ~chi_20 s)
     3.34641017E-05    2     1000025         3   # BR(~s_L -> ~chi_30 s)
     3.94835675E-02    2     1000035         3   # BR(~s_L -> ~chi_40 s)
     2.41671724E-05    2    -1000024         4   # BR(~s_L -> ~chi_1- c)
     7.90027441E-02    2    -1000037         4   # BR(~s_L -> ~chi_2- c)
     8.77713042E-01    2     1000021         3   # BR(~s_L -> ~g      s)
#
#         PDG            Width
DECAY   2000003     1.77220204E+02   # sstrange_R decays
#          BR         NDA      ID1       ID2
     1.67172505E-02    2     1000022         3   # BR(~s_R -> ~chi_10 s)
     9.22461648E-06    2     1000023         3   # BR(~s_R -> ~chi_20 s)
     1.14487465E-05    2     1000025         3   # BR(~s_R -> ~chi_30 s)
     1.16812270E-09    2     1000035         3   # BR(~s_R -> ~chi_40 s)
     9.83262075E-01    2     1000021         3   # BR(~s_R -> ~g      s)
#
#         PDG            Width
DECAY   1000011     3.02514713E+01   # selectron_L decays
#          BR         NDA      ID1       ID2
     2.26586851E-01    2     1000022        11   # BR(~e_L -> ~chi_10 e-)
     9.63605248E-04    2     1000023        11   # BR(~e_L -> ~chi_20 e-)
     2.37849162E-06    2     1000025        11   # BR(~e_L -> ~chi_30 e-)
     2.57240128E-01    2     1000035        11   # BR(~e_L -> ~chi_40 e-)
     1.62891216E-04    2    -1000024        12   # BR(~e_L -> ~chi_1- nu_e)
     5.15044146E-01    2    -1000037        12   # BR(~e_L -> ~chi_2- nu_e)
#
#         PDG            Width
DECAY   2000011     2.73647940E+01   # selectron_R decays
#          BR         NDA      ID1       ID2
     9.98772129E-01    2     1000022        11   # BR(~e_R -> ~chi_10 e-)
     5.47860509E-04    2     1000023        11   # BR(~e_R -> ~chi_20 e-)
     6.79942858E-04    2     1000025        11   # BR(~e_R -> ~chi_30 e-)
     6.72033865E-08    2     1000035        11   # BR(~e_R -> ~chi_40 e-)
#
#         PDG            Width
DECAY   1000013     3.02514713E+01   # smuon_L decays
#          BR         NDA      ID1       ID2
     2.26586851E-01    2     1000022        13   # BR(~mu_L -> ~chi_10 mu-)
     9.63605248E-04    2     1000023        13   # BR(~mu_L -> ~chi_20 mu-)
     2.37849162E-06    2     1000025        13   # BR(~mu_L -> ~chi_30 mu-)
     2.57240128E-01    2     1000035        13   # BR(~mu_L -> ~chi_40 mu-)
     1.62891216E-04    2    -1000024        14   # BR(~mu_L -> ~chi_1- nu_mu)
     5.15044146E-01    2    -1000037        14   # BR(~mu_L -> ~chi_2- nu_mu)
#
#         PDG            Width
DECAY   2000013     2.73647940E+01   # smuon_R decays
#          BR         NDA      ID1       ID2
     9.98772129E-01    2     1000022        13   # BR(~mu_R -> ~chi_10 mu-)
     5.47860509E-04    2     1000023        13   # BR(~mu_R -> ~chi_20 mu-)
     6.79942858E-04    2     1000025        13   # BR(~mu_R -> ~chi_30 mu-)
     6.72033865E-08    2     1000035        13   # BR(~mu_R -> ~chi_40 mu-)
#
#         PDG            Width
DECAY   1000015     2.90637908E+01   # stau_1 decays
#          BR         NDA      ID1       ID2
     9.27988836E-01    2     1000022        15   # BR(~tau_1 -> ~chi_10  tau-)
     1.50437807E-02    2     1000023        15   # BR(~tau_1 -> ~chi_20  tau-)
     1.40729153E-02    2     1000025        15   # BR(~tau_1 -> ~chi_30  tau-)
     4.77862902E-03    2     1000035        15   # BR(~tau_1 -> ~chi_40  tau-)
     2.85483306E-02    2    -1000024        16   # BR(~tau_1 -> ~chi_1-  nu_tau)
     9.56750868E-03    2    -1000037        16   # BR(~tau_1 -> ~chi_2-  nu_tau)
#
#         PDG            Width
DECAY   2000015     3.10246993E+01   # stau_2 decays
#          BR         NDA      ID1       ID2
     2.32414250E-01    2     1000022        15   # BR(~tau_2 -> ~chi_10  tau-)
     1.40434585E-02    2     1000023        15   # BR(~tau_2 -> ~chi_20  tau-)
     1.40868372E-02    2     1000025        15   # BR(~tau_2 -> ~chi_30  tau-)
     2.46273340E-01    2     1000035        15   # BR(~tau_2 -> ~chi_40  tau-)
     9.55608980E-05    2    -1000024        16   # BR(~tau_2 -> ~chi_1-  nu_tau)
     4.93086554E-01    2    -1000037        16   # BR(~tau_2 -> ~chi_2-  nu_tau)
#
#         PDG            Width
DECAY   1000012     3.02539968E+01   # snu_eL decays
#          BR         NDA      ID1       ID2
     2.26271282E-01    2     1000022        12   # BR(~nu_eL -> ~chi_10 nu_e)
     7.64335022E-05    2     1000023        12   # BR(~nu_eL -> ~chi_20 nu_e)
     5.42654607E-04    2     1000025        12   # BR(~nu_eL -> ~chi_30 nu_e)
     2.57304457E-01    2     1000035        12   # BR(~nu_eL -> ~chi_40 nu_e)
     1.89558130E-03    2     1000024        11   # BR(~nu_eL -> ~chi_1+ e-)
     5.13909591E-01    2     1000037        11   # BR(~nu_eL -> ~chi_2+ e-)
#
#         PDG            Width
DECAY   1000014     3.02539968E+01   # snu_muL decays
#          BR         NDA      ID1       ID2
     2.26271282E-01    2     1000022        14   # BR(~nu_muL -> ~chi_10 nu_mu)
     7.64335022E-05    2     1000023        14   # BR(~nu_muL -> ~chi_20 nu_mu)
     5.42654607E-04    2     1000025        14   # BR(~nu_muL -> ~chi_30 nu_mu)
     2.57304457E-01    2     1000035        14   # BR(~nu_muL -> ~chi_40 nu_mu)
     1.89558130E-03    2     1000024        13   # BR(~nu_muL -> ~chi_1+ mu-)
     5.13909591E-01    2     1000037        13   # BR(~nu_muL -> ~chi_2+ mu-)
#
#         PDG            Width
DECAY   1000016     3.10751741E+01   # snu_tauL decays
#          BR         NDA      ID1       ID2
     2.20268077E-01    2     1000022        16   # BR(~nu_tauL -> ~chi_10 nu_tau)
     7.44036953E-05    2     1000023        16   # BR(~nu_tauL -> ~chi_20 nu_tau)
     5.28243539E-04    2     1000025        16   # BR(~nu_tauL -> ~chi_30 nu_tau)
     2.50412726E-01    2     1000035        16   # BR(~nu_tauL -> ~chi_40 nu_tau)
     2.85716605E-02    2     1000024        15   # BR(~nu_tauL -> ~chi_1+ tau-)
     5.00144889E-01    2     1000037        15   # BR(~nu_tauL -> ~chi_2+ tau-)
#
#         PDG            Width
DECAY   1000024     7.34390772E-01   # chargino1+ decays
#          BR         NDA      ID1       ID2
     1.00000000E+00    2     1000022        24   # BR(~chi_1+ -> ~chi_10  W+)
#
#         PDG            Width
DECAY   1000037     1.96689233E+01   # chargino2+ decays
#          BR         NDA      ID1       ID2
     2.53014722E-01    2     1000024        23   # BR(~chi_2+ -> ~chi_1+  Z )
     2.15547864E-04    2     1000022        24   # BR(~chi_2+ -> ~chi_10  W+)
     2.43990005E-01    2     1000023        24   # BR(~chi_2+ -> ~chi_20  W+)
     2.43953020E-01    2     1000025        24   # BR(~chi_2+ -> ~chi_30  W+)
     2.58825959E-01    2     1000024        25   # BR(~chi_2+ -> ~chi_1+  h )
     7.45389321E-07    2     1000022        37   # BR(~chi_2+ -> ~chi_10  H+)
#
#         PDG            Width
DECAY   1000022     0.00000000E+00   # neutralino1 decays
#
#         PDG            Width
DECAY   1000023     7.69653811E-01   # neutralino2 decays
#          BR         NDA      ID1       ID2
     5.48080374E-01    2     1000022        23   # BR(~chi_20 -> ~chi_10   Z )
     4.51919626E-01    2     1000022        25   # BR(~chi_20 -> ~chi_10   h )
#
#         PDG            Width
DECAY   1000025     7.75474557E-01   # neutralino3 decays
#          BR         NDA      ID1       ID2
     4.38102339E-01    2     1000022        23   # BR(~chi_30 -> ~chi_10   Z )
     5.61897661E-01    2     1000022        25   # BR(~chi_30 -> ~chi_10   h )
#
#         PDG            Width
DECAY   1000035     1.96805586E+01   # neutralino4 decays
#          BR         NDA      ID1       ID2
     6.35267378E-05    2     1000022        23   # BR(~chi_40 -> ~chi_10   Z )
     5.83476760E-02    2     1000023        23   # BR(~chi_40 -> ~chi_20   Z )
     1.93961914E-01    2     1000025        23   # BR(~chi_40 -> ~chi_30   Z )
     2.44604280E-01    2     1000024       -24   # BR(~chi_40 -> ~chi_1+   W-)
     2.44604280E-01    2    -1000024        24   # BR(~chi_40 -> ~chi_1-   W+)
     1.54950854E-04    2     1000022        25   # BR(~chi_40 -> ~chi_10   h )
     6.82411004E-07    2     1000022        35   # BR(~chi_40 -> ~chi_10   H )
     8.91234530E-08    2     1000022        36   # BR(~chi_40 -> ~chi_10   A )
     1.99801381E-01    2     1000023        25   # BR(~chi_40 -> ~chi_20   h )
     5.84612194E-02    2     1000025        25   # BR(~chi_40 -> ~chi_30   h )
#
#         PDG            Width
DECAY        25     4.05062781E-03   # h decays
#          BR         NDA      ID1       ID2
     6.06029796E-01    2           5        -5   # BR(h -> b       bb     )
     6.40580793E-02    2         -15        15   # BR(h -> tau+    tau-   )
     2.26788660E-04    2         -13        13   # BR(h -> mu+     mu-    )
     4.80739235E-04    2           3        -3   # BR(h -> s       sb     )
     2.08318054E-02    2           4        -4   # BR(h -> c       cb     )
     6.74467741E-02    2          21        21   # BR(h -> g       g      )
     2.32023728E-03    2          22        22   # BR(h -> gam     gam    )
     1.50053328E-03    2          22        23   # BR(h -> Z       gam    )
     2.11795125E-01    2          24       -24   # BR(h -> W+      W-     )
     2.52642056E-02    2          23        23   # BR(h -> Z       Z      )
     4.59167715E-05    2     1000022   1000022   # BR(h -> ~chi_10 ~chi_10)
#
#         PDG            Width
DECAY        35     7.79746540E+00   # H decays
#          BR         NDA      ID1       ID2
     4.16552197E-01    2           5        -5   # BR(H -> b       bb     )
     7.14393173E-02    2         -15        15   # BR(H -> tau+    tau-   )
     2.52615100E-04    2         -13        13   # BR(H -> mu+     mu-    )
     3.09667408E-04    2           3        -3   # BR(H -> s       sb     )
     1.73254968E-06    2           4        -4   # BR(H -> c       cb     )
     1.73095433E-01    2           6        -6   # BR(H -> t       tb     )
     5.75019168E-05    2          21        21   # BR(H -> g       g      )
     3.33298009E-07    2          22        22   # BR(H -> gam     gam    )
     1.02230241E-07    2          23        22   # BR(H -> Z       gam    )
     7.89634595E-05    2          24       -24   # BR(H -> W+      W-     )
     3.94317597E-05    2          23        23   # BR(H -> Z       Z      )
     2.94266642E-04    2          25        25   # BR(H -> h       h      )
     1.62488391E-23    2          36        36   # BR(H -> A       A      )
     4.42547803E-19    2          23        36   # BR(H -> Z       A      )
     1.18846049E-03    2     1000024  -1000024   # BR(H -> ~chi_1+ ~chi_1-)
     1.28586496E-03    2     1000022   1000022   # BR(H -> ~chi_10 ~chi_10)
     6.57854917E-05    2     1000023   1000023   # BR(H -> ~chi_20 ~chi_20)
     2.34258525E-04    2     1000025   1000025   # BR(H -> ~chi_30 ~chi_30)
     2.00351402E-01    2     1000022   1000023   # BR(H -> ~chi_10 ~chi_20)
     1.34536698E-01    2     1000022   1000025   # BR(H -> ~chi_10 ~chi_30)
     2.15969417E-04    2     1000023   1000025   # BR(H -> ~chi_20 ~chi_30)
#
#         PDG            Width
DECAY        36     7.81774390E+00   # A decays
#          BR         NDA      ID1       ID2
     4.15611617E-01    2           5        -5   # BR(A -> b       bb     )
     7.12561825E-02    2         -15        15   # BR(A -> tau+    tau-   )
     2.51967169E-04    2         -13        13   # BR(A -> mu+     mu-    )
     3.09098872E-04    2           3        -3   # BR(A -> s       sb     )
     1.73517554E-06    2           4        -4   # BR(A -> c       cb     )
     1.73262130E-01    2           6        -6   # BR(A -> t       tb     )
     1.71450525E-04    2          21        21   # BR(A -> g       g      )
     5.27102870E-07    2          22        22   # BR(A -> gam     gam    )
     2.07691325E-07    2          23        22   # BR(A -> Z       gam    )
     7.84607432E-05    2          23        25   # BR(A -> Z       h      )
     2.90865629E-03    2     1000024  -1000024   # BR(A -> ~chi_1+ ~chi_1-)
     1.31446887E-03    2     1000022   1000022   # BR(A -> ~chi_10 ~chi_10)
     1.19072376E-04    2     1000023   1000023   # BR(A -> ~chi_20 ~chi_20)
     9.98191770E-04    2     1000025   1000025   # BR(A -> ~chi_30 ~chi_30)
     1.35919428E-01    2     1000022   1000023   # BR(A -> ~chi_10 ~chi_20)
     1.97770382E-01    2     1000022   1000025   # BR(A -> ~chi_10 ~chi_30)
     2.64229478E-05    2     1000023   1000025   # BR(A -> ~chi_20 ~chi_30)
#
#         PDG            Width
DECAY        37     7.79951403E+00   # H+ decays
#          BR         NDA      ID1       ID2
     6.71283282E-04    2           4        -5   # BR(H+ -> c       bb     )
     7.14432971E-02    2         -15        16   # BR(H+ -> tau+    nu_tau )
     2.52628820E-04    2         -13        14   # BR(H+ -> mu+     nu_mu  )
     4.29619097E-06    2           2        -5   # BR(H+ -> u       bb     )
     1.48237390E-05    2           2        -3   # BR(H+ -> u       sb     )
     3.06556228E-04    2           4        -3   # BR(H+ -> c       sb     )
     5.89582722E-01    2           6        -5   # BR(H+ -> t       bb     )
     7.87625852E-05    2          24        25   # BR(H+ -> W+      h      )
     8.10748195E-14    2          24        36   # BR(H+ -> W+      A      )
     3.37081371E-01    2     1000024   1000022   # BR(H+ -> ~chi_1+ ~chi_10)
     5.03267580E-04    2     1000024   1000023   # BR(H+ -> ~chi_1+ ~chi_20)
     6.09905470E-05    2     1000024   1000025   # BR(H+ -> ~chi_1+ ~chi_30)
