#
#                              ======================
#                              | THE SUSYHIT OUTPUT |
#                              ======================
#
#
#              ------------------------------------------------------
#              |     This is the output of the SUSY-HIT package     |
#              |  created by A.Djouadi, M.Muehlleitner and M.Spira. |
#              |  In case of problems with SUSY-HIT email to        |
#              |           margarete.muehlleitner@cern.ch           |
#              |           michael.spira@psi.ch                     |
#              |           abdelhak.djouadi@cern.ch                 |
#              ------------------------------------------------------
#
#              ------------------------------------------------------
#              |  SUSY Les Houches Accord - MSSM Spectrum + Decays  |
#              |              based on the decay programs           |
#              |                                                    |
#              |                     SDECAY 1.3b                    |
#              |                                                    |
#              |  Authors: M.Muhlleitner, A.Djouadi and Y.Mambrini  |
#              |  Ref.:    Comput.Phys.Commun.168(2005)46           |
#              |           [hep-ph/0311167]                         |
#              |                                                    |
#              |                     HDECAY 3.4                     |
#              |                                                    |
#              |  By: A.Djouadi,J.Kalinowski,M.Muhlleitner,M.Spira  |
#              |  Ref.:    Comput.Phys.Commun.108(1998)56           |
#              |           [hep-ph/9704448]                         |
#              |                                                    |
#              |                                                    |
#              |  If not stated otherwise all DRbar couplings and   |
#              |  soft SUSY breaking masses are given at the scale  |
#              |  Q=  0.50007452E+04
#              |                                                    |
#              ------------------------------------------------------
#
#
BLOCK DCINFO  # Decay Program information
     1   SDECAY/HDECAY # decay calculator
     2   1.3b  /3.4    # version number
#
BLOCK SPINFO  # Spectrum calculator information
     1    SOFTSUSY    # spectrum calculator                
     2    3.4.0       # version number                     
#
BLOCK MODSEL  # Model selection
     1     0   #  nonUniversal                                     
#
BLOCK SMINPUTS  # Standard Model inputs
         1     1.25778332E+02   # alpha_em^-1(M_Z)^MSbar
         2     1.16570000E-05   # G_F [GeV^-2]
         3     1.17200002E-01   # alpha_S(M_Z)^MSbar
         4     9.11876000E+01   # M_Z pole mass
         5     4.25000000E+00   # mb(mb)^MSbar
         6     1.72500000E+02   # mt pole mass
         7     1.77682000E+00   # mtau pole mass
#
BLOCK MINPAR  # Input parameters - minimal models
         3     1.00000000E+01   # tanb                
#
BLOCK EXTPAR  # Input parameters - non-minimal models
         0    -1.00000000E+00   # Set                 
         1     6.00000000E+01   # M_1(MX)             
         2     3.00000000E+03   # M_2(MX)             
         3     1.85478300E+03   # M_3(MX)             
        11     5.00000000E+03   # At(MX)              
        12     5.00000000E+03   # Ab(MX)              
        13     0.00000000E+00   # Atau(MX)            
        23    -8.61824000E+02   # mu(MX)              
        26     3.00000000E+03   # mA(pole)            
        31     5.00000000E+03   # meL(MX)             
        32     5.00000000E+03   # mmuL(MX)            
        33     5.00000000E+03   # mtauL(MX)           
        34     5.00000000E+03   # meR(MX)             
        35     5.00000000E+03   # mmuR(MX)            
        36     5.00000000E+03   # mtauR(MX)           
        41     5.00000000E+03   # mqL1(MX)            
        42     5.00000000E+03   # mqL2(MX)            
        43     5.00000000E+03   # mqL3(MX)            
        44     5.00000000E+03   # muR(MX)             
        45     5.00000000E+03   # mcR(MX)             
        46     5.00000000E+03   # mtR(MX)             
        47     5.00000000E+03   # mdR(MX)             
        48     5.00000000E+03   # msR(MX)             
        49     5.00000000E+03   # mbR(MX)             
#
BLOCK MASS  # Mass Spectrum
# PDG code           mass       particle
        24     8.00949858E+01   # W+
        25     1.24793870E+02   # h
        35     3.00007858E+03   # H
        36     2.99998787E+03   # A
        37     3.00138893E+03   # H+
         5     4.87878001E+00   # b-quark pole mass calculated from mb(mb)_Msbar
   1000001     5.07476813E+03   # ~d_L
   2000001     5.05697106E+03   # ~d_R
   1000002     5.07429524E+03   # ~u_L
   2000002     5.05668308E+03   # ~u_R
   1000003     5.07476813E+03   # ~s_L
   2000003     5.05697106E+03   # ~s_R
   1000004     5.07429524E+03   # ~c_L
   2000004     5.05668308E+03   # ~c_R
   1000005     5.02046916E+03   # ~b_1
   2000005     5.05541709E+03   # ~b_2
   1000006     4.91174877E+03   # ~t_1
   2000006     5.06489093E+03   # ~t_2
   1000011     5.01907566E+03   # ~e_L
   2000011     5.00592763E+03   # ~e_R
   1000012     5.01812688E+03   # ~nu_eL
   1000013     5.01907566E+03   # ~mu_L
   2000013     5.00592763E+03   # ~mu_R
   1000014     5.01812688E+03   # ~nu_muL
   1000015     5.00465129E+03   # ~tau_1
   2000015     5.01872907E+03   # ~tau_2
   1000016     5.01757961E+03   # ~nu_tauL
   1000021     2.20000037E+03   # ~g
   1000022     6.02945636E+01   # ~chi_10
   1000023     8.99733955E+02   # ~chi_20
   1000025    -9.01972901E+02   # ~chi_30
   1000035     3.07423085E+03   # ~chi_40
   1000024     9.00000197E+02   # ~chi_1+
   1000037     3.07439833E+03   # ~chi_2+
#
BLOCK NMIX  # Neutralino Mixing Matrix
  1  1     9.98775632E-01   # N_11
  1  2     1.95999965E-04   # N_12
  1  3    -4.94349177E-02   # N_13
  1  4     1.84052665E-03   # N_14
  2  1     3.36660219E-02   # N_21
  2  2     2.24245360E-02   # N_22
  2  3     7.06575347E-01   # N_23
  2  4     7.06480728E-01   # N_24
  3  1    -3.62447053E-02   # N_31
  3  2     1.52900890E-02   # N_32
  3  3    -7.05890948E-01   # N_33
  3  4     7.07227336E-01   # N_34
  4  1    -3.96666274E-04   # N_41
  4  2     9.99631590E-01   # N_42
  4  3    -5.04365779E-03   # N_43
  4  4    -2.66662562E-02   # N_44
#
BLOCK UMIX  # Chargino Mixing Matrix U
  1  1     7.14518929E-03   # U_11
  1  2     9.99974473E-01   # U_12
  2  1    -9.99974473E-01   # U_21
  2  2     7.14518929E-03   # U_22
#
BLOCK VMIX  # Chargino Mixing Matrix V
  1  1     3.77411213E-02   # V_11
  1  2    -9.99287550E-01   # V_12
  2  1    -9.99287550E-01   # V_21
  2  2    -3.77411213E-02   # V_22
#
BLOCK STOPMIX  # Stop Mixing Matrix
  1  1    -5.05419052E-01   # cos(theta_t)
  1  2     8.62874024E-01   # sin(theta_t)
  2  1    -8.62874024E-01   # -sin(theta_t)
  2  2    -5.05419052E-01   # cos(theta_t)
#
BLOCK SBOTMIX  # Sbottom Mixing Matrix
  1  1     9.97496734E-01   # cos(theta_b)
  1  2    -7.07125566E-02   # sin(theta_b)
  2  1     7.07125566E-02   # -sin(theta_b)
  2  2     9.97496734E-01   # cos(theta_b)
#
BLOCK STAUMIX  # Stau Mixing Matrix
  1  1    -1.02683637E-01   # cos(theta_tau)
  1  2     9.94714065E-01   # sin(theta_tau)
  2  1    -9.94714065E-01   # -sin(theta_tau)
  2  2    -1.02683637E-01   # cos(theta_tau)
#
BLOCK ALPHA  # Higgs mixing
          -1.05480199E-01   # Mixing angle in the neutral Higgs boson sector
#
BLOCK HMIX Q=  5.00074524E+03  # DRbar Higgs Parameters
         1    -8.77637966E+02   # mu(Q)MSSM           
         2     9.46937504E+00   # tan                 
         3     2.41832078E+02   # higgs               
         4     8.54623888E+06   # mA^2(Q)MSSM         
#
BLOCK GAUGE Q=  5.00074524E+03  # The gauge couplings
     1     3.70817935E-01   # gprime(Q) DRbar
     2     6.32660354E-01   # g(Q) DRbar
     3     9.97103101E-01   # g3(Q) DRbar
#
BLOCK AU Q=  5.00074524E+03  # The trilinear couplings
  1  1     5.00000001E+03   # A_u(Q) DRbar
  2  2     5.00000001E+03   # A_c(Q) DRbar
  3  3     5.00000002E+03   # A_t(Q) DRbar
#
BLOCK AD Q=  5.00074524E+03  # The trilinear couplings
  1  1     5.00000001E+03   # A_d(Q) DRbar
  2  2     5.00000001E+03   # A_s(Q) DRbar
  3  3     5.00000001E+03   # A_b(Q) DRbar
#
BLOCK AE Q=  5.00074524E+03  # The trilinear couplings
  1  1     0.00000000E+00   # A_e(Q) DRbar
  2  2     2.04389169E-07   # A_mu(Q) DRbar
  3  3     2.04144822E-07   # A_tau(Q) DRbar
#
BLOCK Yu Q=  5.00074524E+03  # The Yukawa couplings
  1  1     0.00000000E+00   # y_u(Q) DRbar
  2  2     0.00000000E+00   # y_c(Q) DRbar
  3  3     8.20502133E-01   # y_t(Q) DRbar
#
BLOCK Yd Q=  5.00074524E+03  # The Yukawa couplings
  1  1     0.00000000E+00   # y_d(Q) DRbar
  2  2     0.00000000E+00   # y_s(Q) DRbar
  3  3     1.30662590E-01   # y_b(Q) DRbar
#
BLOCK Ye Q=  5.00074524E+03  # The Yukawa couplings
  1  1     0.00000000E+00   # y_e(Q) DRbar
  2  2     0.00000000E+00   # y_mu(Q) DRbar
  3  3     9.69040243E-02   # y_tau(Q) DRbar
#
BLOCK MSOFT Q=  5.00074524E+03  # The soft SUSY breaking masses at the scale Q
         1     6.00000000E+01   # M_1(Q)              
         2     3.00000000E+03   # M_2(Q)              
         3     1.85478300E+03   # M_3(Q)              
        21     7.93260262E+06   # mH1^2(Q)            
        22    -2.02459495E+05   # mH2^2(Q)            
        31     5.00000000E+03   # meL(Q)              
        32     5.00000000E+03   # mmuL(Q)             
        33     5.00000000E+03   # mtauL(Q)            
        34     5.00000000E+03   # meR(Q)              
        35     5.00000000E+03   # mmuR(Q)             
        36     5.00000000E+03   # mtauR(Q)            
        41     5.00000000E+03   # mqL1(Q)             
        42     5.00000000E+03   # mqL2(Q)             
        43     4.99999999E+03   # mqL3(Q)             
        44     5.00000000E+03   # muR(Q)              
        45     5.00000000E+03   # mcR(Q)              
        46     4.99999999E+03   # mtR(Q)              
        47     5.00000000E+03   # mdR(Q)              
        48     5.00000000E+03   # msR(Q)              
        49     5.00000000E+03   # mbR(Q)              
#
#
#
#                             =================
#                             |The decay table|
#                             =================
#
# - The QCD corrections to the decays gluino -> squark  + quark
#                                     squark -> gaugino + quark_prime
#                                     squark -> squark_prime + Higgs
#                                     squark -> gluino  + quark
#   are included.
#
# - The multi-body decays for the inos, stops and sbottoms are included.
#
# - The loop induced decays for the gluino, neutralinos and stops
#   are included.
#
# - The SUSY decays of the top quark are included.
#
#
#         PDG            Width
DECAY         6     1.40264439E+00   # top decays
#          BR         NDA      ID1       ID2
     1.00000000E+00    2           5        24   # BR(t ->  b    W+)
#
#         PDG            Width
DECAY   1000021     1.70922382E-03   # gluino decays
#          BR         NDA      ID1       ID2
     2.14997449E-06    2     1000022        21   # BR(~g -> ~chi_10 g)
     7.55263855E-03    2     1000023        21   # BR(~g -> ~chi_20 g)
     7.41799762E-03    2     1000025        21   # BR(~g -> ~chi_30 g)
#           BR         NDA      ID1       ID2       ID3
     2.24634568E-02    3     1000022         1        -1   # BR(~g -> ~chi_10 d  db)
     2.12306866E-05    3     1000023         1        -1   # BR(~g -> ~chi_20 d  db)
     1.44874950E-05    3     1000025         1        -1   # BR(~g -> ~chi_30 d  db)
     7.65984559E-02    3     1000022         2        -2   # BR(~g -> ~chi_10 u  ub)
     7.68230230E-05    3     1000023         2        -2   # BR(~g -> ~chi_20 u  ub)
     1.81590850E-05    3     1000025         2        -2   # BR(~g -> ~chi_30 u  ub)
     2.24634568E-02    3     1000022         3        -3   # BR(~g -> ~chi_10 s  sb)
     2.12306866E-05    3     1000023         3        -3   # BR(~g -> ~chi_20 s  sb)
     1.44874950E-05    3     1000025         3        -3   # BR(~g -> ~chi_30 s  sb)
     7.65984559E-02    3     1000022         4        -4   # BR(~g -> ~chi_10 c  cb)
     7.68230230E-05    3     1000023         4        -4   # BR(~g -> ~chi_20 c  cb)
     1.81590850E-05    3     1000025         4        -4   # BR(~g -> ~chi_30 c  cb)
     2.28041757E-02    3     1000022         5        -5   # BR(~g -> ~chi_10 b  bb)
     4.66839034E-03    3     1000023         5        -5   # BR(~g -> ~chi_20 b  bb)
     4.61577355E-03    3     1000025         5        -5   # BR(~g -> ~chi_30 b  bb)
     7.61144177E-02    3     1000022         6        -6   # BR(~g -> ~chi_10 t  tb)
     1.69803306E-01    3     1000023         6        -6   # BR(~g -> ~chi_20 t  tb)
     1.51202117E-01    3     1000025         6        -6   # BR(~g -> ~chi_30 t  tb)
     5.97725125E-05    3     1000024         1        -2   # BR(~g -> ~chi_1+ d  ub)
     5.97725125E-05    3    -1000024         2        -1   # BR(~g -> ~chi_1- u  db)
     5.97725125E-05    3     1000024         3        -4   # BR(~g -> ~chi_1+ s  cb)
     5.97725125E-05    3    -1000024         4        -3   # BR(~g -> ~chi_1- c  sb)
     1.78597359E-01    3     1000024         5        -6   # BR(~g -> ~chi_1+ b  tb)
     1.78597359E-01    3    -1000024         6        -5   # BR(~g -> ~chi_1- t  bb)
#
#         PDG            Width
DECAY   1000006     3.24971692E+02   # stop1 decays
#          BR         NDA      ID1       ID2
     2.72874072E-02    2     1000022         6   # BR(~t_1 -> ~chi_10 t )
     9.53266135E-02    2     1000023         6   # BR(~t_1 -> ~chi_20 t )
     9.15034156E-02    2     1000025         6   # BR(~t_1 -> ~chi_30 t )
     6.31838369E-03    2     1000035         6   # BR(~t_1 -> ~chi_40 t )
     1.39266271E-01    2     1000024         5   # BR(~t_1 -> ~chi_1+ b )
     1.25901331E-02    2     1000037         5   # BR(~t_1 -> ~chi_2+ b )
     6.27707776E-01    2     1000021         6   # BR(~t_1 -> ~g      t )
#
#         PDG            Width
DECAY   2000006     3.32490437E+02   # stop2 decays
#          BR         NDA      ID1       ID2
     1.03885192E-02    2     1000022         6   # BR(~t_2 -> ~chi_10 t )
     9.51608256E-02    2     1000023         6   # BR(~t_2 -> ~chi_20 t )
     9.92843546E-02    2     1000025         6   # BR(~t_2 -> ~chi_30 t )
     1.68218461E-02    2     1000035         6   # BR(~t_2 -> ~chi_40 t )
     5.59481890E-02    2     1000024         5   # BR(~t_2 -> ~chi_1+ b )
     3.34756911E-02    2     1000037         5   # BR(~t_2 -> ~chi_2+ b )
     6.85203586E-01    2     1000021         6   # BR(~t_2 -> ~g      t )
     8.50695175E-04    2     1000006        25   # BR(~t_2 -> ~t_1    h )
     2.86629349E-03    2     1000006        23   # BR(~t_2 -> ~t_1    Z )
#
#         PDG            Width
DECAY   1000005     3.07447646E+02   # sbottom1 decays
#          BR         NDA      ID1       ID2
     2.50941050E-03    2     1000022         5   # BR(~b_1 -> ~chi_10 b )
     2.62355370E-03    2     1000023         5   # BR(~b_1 -> ~chi_20 b )
     2.56609248E-03    2     1000025         5   # BR(~b_1 -> ~chi_30 b )
     2.46010470E-02    2     1000035         5   # BR(~b_1 -> ~chi_40 b )
     2.04215661E-01    2    -1000024         6   # BR(~b_1 -> ~chi_1- t )
     4.94195053E-02    2    -1000037         6   # BR(~b_1 -> ~chi_2- t )
     7.12269748E-01    2     1000021         5   # BR(~b_1 -> ~g      b )
     1.79498251E-03    2     1000006       -24   # BR(~b_1 -> ~t_1    W-)
#
#         PDG            Width
DECAY   2000005     2.28327088E+02   # sbottom2 decays
#          BR         NDA      ID1       ID2
     1.28570640E-02    2     1000022         5   # BR(~b_2 -> ~chi_10 b )
     3.54258434E-03    2     1000023         5   # BR(~b_2 -> ~chi_20 b )
     3.62670047E-03    2     1000025         5   # BR(~b_2 -> ~chi_30 b )
     1.64993240E-04    2     1000035         5   # BR(~b_2 -> ~chi_40 b )
     8.36250595E-03    2    -1000024         6   # BR(~b_2 -> ~chi_1- t )
     3.31417707E-04    2    -1000037         6   # BR(~b_2 -> ~chi_2- t )
     9.71063441E-01    2     1000021         5   # BR(~b_2 -> ~g      b )
     5.12934491E-05    2     1000006       -24   # BR(~b_2 -> ~t_1    W-)
#
#         PDG            Width
DECAY   1000002     2.47642436E+02   # sup_L decays
#          BR         NDA      ID1       ID2
     3.01011278E-03    2     1000022         2   # BR(~u_L -> ~chi_10 u)
     6.23757070E-05    2     1000023         2   # BR(~u_L -> ~chi_20 u)
     4.99547676E-06    2     1000025         2   # BR(~u_L -> ~chi_30 u)
     3.17949348E-02    2     1000035         2   # BR(~u_L -> ~chi_40 u)
     2.11252409E-04    2     1000024         1   # BR(~u_L -> ~chi_1+ d)
     6.35479902E-02    2     1000037         1   # BR(~u_L -> ~chi_2+ d)
     9.01368339E-01    2     1000021         2   # BR(~u_L -> ~g      u)
#
#         PDG            Width
DECAY   2000002     2.33612643E+02   # sup_R decays
#          BR         NDA      ID1       ID2
     5.07723308E-02    2     1000022         2   # BR(~u_R -> ~chi_10 u)
     5.42009402E-05    2     1000023         2   # BR(~u_R -> ~chi_20 u)
     6.28018269E-05    2     1000025         2   # BR(~u_R -> ~chi_30 u)
     3.20460000E-09    2     1000035         2   # BR(~u_R -> ~chi_40 u)
     9.49110663E-01    2     1000021         2   # BR(~u_R -> ~g      u)
#
#         PDG            Width
DECAY   1000001     2.47657623E+02   # sdown_L decays
#          BR         NDA      ID1       ID2
     2.99814293E-03    2     1000022         1   # BR(~d_L -> ~chi_10 d)
     1.86240593E-05    2     1000023         1   # BR(~d_L -> ~chi_20 d)
     3.71043822E-05    2     1000025         1   # BR(~d_L -> ~chi_30 d)
     3.18126392E-02    2     1000035         1   # BR(~d_L -> ~chi_40 d)
     7.57214720E-06    2    -1000024         2   # BR(~d_L -> ~chi_1- u)
     6.36510821E-02    2    -1000037         2   # BR(~d_L -> ~chi_2- u)
     9.01474835E-01    2     1000021         1   # BR(~d_L -> ~g      d)
#
#         PDG            Width
DECAY   2000001     2.24720940E+02   # sdown_R decays
#          BR         NDA      ID1       ID2
     1.31960821E-02    2     1000022         1   # BR(~d_R -> ~chi_10 d)
     1.40873026E-05    2     1000023         1   # BR(~d_R -> ~chi_20 d)
     1.63227495E-05    2     1000025         1   # BR(~d_R -> ~chi_30 d)
     8.33007632E-10    2     1000035         1   # BR(~d_R -> ~chi_40 d)
     9.86773507E-01    2     1000021         1   # BR(~d_R -> ~g      d)
#
#         PDG            Width
DECAY   1000004     2.47642436E+02   # scharm_L decays
#          BR         NDA      ID1       ID2
     3.01011278E-03    2     1000022         4   # BR(~c_L -> ~chi_10 c)
     6.23757070E-05    2     1000023         4   # BR(~c_L -> ~chi_20 c)
     4.99547676E-06    2     1000025         4   # BR(~c_L -> ~chi_30 c)
     3.17949348E-02    2     1000035         4   # BR(~c_L -> ~chi_40 c)
     2.11252409E-04    2     1000024         3   # BR(~c_L -> ~chi_1+ s)
     6.35479902E-02    2     1000037         3   # BR(~c_L -> ~chi_2+ s)
     9.01368339E-01    2     1000021         4   # BR(~c_L -> ~g      c)
#
#         PDG            Width
DECAY   2000004     2.33612643E+02   # scharm_R decays
#          BR         NDA      ID1       ID2
     5.07723308E-02    2     1000022         4   # BR(~c_R -> ~chi_10 c)
     5.42009402E-05    2     1000023         4   # BR(~c_R -> ~chi_20 c)
     6.28018269E-05    2     1000025         4   # BR(~c_R -> ~chi_30 c)
     3.20460000E-09    2     1000035         4   # BR(~c_R -> ~chi_40 c)
     9.49110663E-01    2     1000021         4   # BR(~c_R -> ~g      c)
#
#         PDG            Width
DECAY   1000003     2.47657623E+02   # sstrange_L decays
#          BR         NDA      ID1       ID2
     2.99814293E-03    2     1000022         3   # BR(~s_L -> ~chi_10 s)
     1.86240593E-05    2     1000023         3   # BR(~s_L -> ~chi_20 s)
     3.71043822E-05    2     1000025         3   # BR(~s_L -> ~chi_30 s)
     3.18126392E-02    2     1000035         3   # BR(~s_L -> ~chi_40 s)
     7.57214720E-06    2    -1000024         4   # BR(~s_L -> ~chi_1- c)
     6.36510821E-02    2    -1000037         4   # BR(~s_L -> ~chi_2- c)
     9.01474835E-01    2     1000021         3   # BR(~s_L -> ~g      s)
#
#         PDG            Width
DECAY   2000003     2.24720940E+02   # sstrange_R decays
#          BR         NDA      ID1       ID2
     1.31960821E-02    2     1000022         3   # BR(~s_R -> ~chi_10 s)
     1.40873026E-05    2     1000023         3   # BR(~s_R -> ~chi_20 s)
     1.63227495E-05    2     1000025         3   # BR(~s_R -> ~chi_30 s)
     8.33007632E-10    2     1000035         3   # BR(~s_R -> ~chi_40 s)
     9.86773507E-01    2     1000021         3   # BR(~s_R -> ~g      s)
#
#         PDG            Width
DECAY   1000011     3.02797668E+01   # selectron_L decays
#          BR         NDA      ID1       ID2
     2.26252876E-01    2     1000022        11   # BR(~e_L -> ~chi_10 e-)
     1.09870719E-03    2     1000023        11   # BR(~e_L -> ~chi_20 e-)
     2.19074330E-05    2     1000025        11   # BR(~e_L -> ~chi_30 e-)
     2.57345998E-01    2     1000035        11   # BR(~e_L -> ~chi_40 e-)
     6.31222422E-05    2    -1000024        12   # BR(~e_L -> ~chi_1- nu_e)
     5.15217389E-01    2    -1000037        12   # BR(~e_L -> ~chi_2- nu_e)
#
#         PDG            Width
DECAY   2000011     2.73761683E+01   # selectron_R decays
#          BR         NDA      ID1       ID2
     9.97707796E-01    2     1000022        11   # BR(~e_R -> ~chi_10 e-)
     1.06182957E-03    2     1000023        11   # BR(~e_R -> ~chi_20 e-)
     1.23031370E-03    2     1000025        11   # BR(~e_R -> ~chi_30 e-)
     6.10693734E-08    2     1000035        11   # BR(~e_R -> ~chi_40 e-)
#
#         PDG            Width
DECAY   1000013     3.02797668E+01   # smuon_L decays
#          BR         NDA      ID1       ID2
     2.26252876E-01    2     1000022        13   # BR(~mu_L -> ~chi_10 mu-)
     1.09870719E-03    2     1000023        13   # BR(~mu_L -> ~chi_20 mu-)
     2.19074330E-05    2     1000025        13   # BR(~mu_L -> ~chi_30 mu-)
     2.57345998E-01    2     1000035        13   # BR(~mu_L -> ~chi_40 mu-)
     6.31222422E-05    2    -1000024        14   # BR(~mu_L -> ~chi_1- nu_mu)
     5.15217389E-01    2    -1000037        14   # BR(~mu_L -> ~chi_2- nu_mu)
#
#         PDG            Width
DECAY   2000013     2.73761683E+01   # smuon_R decays
#          BR         NDA      ID1       ID2
     9.97707796E-01    2     1000022        13   # BR(~mu_R -> ~chi_10 mu-)
     1.06182957E-03    2     1000023        13   # BR(~mu_R -> ~chi_20 mu-)
     1.23031370E-03    2     1000025        13   # BR(~mu_R -> ~chi_30 mu-)
     6.10693734E-08    2     1000035        13   # BR(~mu_R -> ~chi_40 mu-)
#
#         PDG            Width
DECAY   1000015     2.91478492E+01   # stau_1 decays
#          BR         NDA      ID1       ID2
     9.30371117E-01    2     1000022        15   # BR(~tau_1 -> ~chi_10  tau-)
     1.60472370E-02    2     1000023        15   # BR(~tau_1 -> ~chi_20  tau-)
     1.53751619E-02    2     1000025        15   # BR(~tau_1 -> ~chi_30  tau-)
     2.73249807E-03    2     1000035        15   # BR(~tau_1 -> ~chi_40  tau-)
     3.00036412E-02    2    -1000024        16   # BR(~tau_1 -> ~chi_1-  nu_tau)
     5.47034435E-03    2    -1000037        16   # BR(~tau_1 -> ~chi_2-  nu_tau)
#
#         PDG            Width
DECAY   2000015     3.11226020E+01   # stau_2 decays
#          BR         NDA      ID1       ID2
     2.26319331E-01    2     1000022        15   # BR(~tau_2 -> ~chi_10  tau-)
     1.51062963E-02    2     1000023        15   # BR(~tau_2 -> ~chi_20  tau-)
     1.47757431E-02    2     1000025        15   # BR(~tau_2 -> ~chi_30  tau-)
     2.47734303E-01    2     1000035        15   # BR(~tau_2 -> ~chi_40  tau-)
     8.93770868E-05    2    -1000024        16   # BR(~tau_2 -> ~chi_1-  nu_tau)
     4.95974949E-01    2    -1000037        16   # BR(~tau_2 -> ~chi_2-  nu_tau)
#
#         PDG            Width
DECAY   1000012     3.02826746E+01   # snu_eL decays
#          BR         NDA      ID1       ID2
     2.25885643E-01    2     1000022        12   # BR(~nu_eL -> ~chi_10 nu_e)
     4.47890592E-06    2     1000023        12   # BR(~nu_eL -> ~chi_20 nu_e)
     8.24628267E-04    2     1000025        12   # BR(~nu_eL -> ~chi_30 nu_e)
     2.57395171E-01    2     1000035        12   # BR(~nu_eL -> ~chi_40 nu_e)
     1.76055589E-03    2     1000024        11   # BR(~nu_eL -> ~chi_1+ e-)
     5.14129523E-01    2     1000037        11   # BR(~nu_eL -> ~chi_2+ e-)
#
#         PDG            Width
DECAY   1000014     3.02826746E+01   # snu_muL decays
#          BR         NDA      ID1       ID2
     2.25885643E-01    2     1000022        14   # BR(~nu_muL -> ~chi_10 nu_mu)
     4.47890592E-06    2     1000023        14   # BR(~nu_muL -> ~chi_20 nu_mu)
     8.24628267E-04    2     1000025        14   # BR(~nu_muL -> ~chi_30 nu_mu)
     2.57395171E-01    2     1000035        14   # BR(~nu_muL -> ~chi_40 nu_mu)
     1.76055589E-03    2     1000024        13   # BR(~nu_muL -> ~chi_1+ mu-)
     5.14129523E-01    2     1000037        13   # BR(~nu_muL -> ~chi_2+ mu-)
#
#         PDG            Width
DECAY   1000016     3.11512607E+01   # snu_tauL decays
#          BR         NDA      ID1       ID2
     2.19563345E-01    2     1000022        16   # BR(~nu_tauL -> ~chi_10 nu_tau)
     4.35348331E-06    2     1000023        16   # BR(~nu_tauL -> ~chi_20 nu_tau)
     8.01536176E-04    2     1000025        16   # BR(~nu_tauL -> ~chi_30 nu_tau)
     2.50125393E-01    2     1000035        16   # BR(~nu_tauL -> ~chi_40 nu_tau)
     2.98972481E-02    2     1000024        15   # BR(~nu_tauL -> ~chi_1+ tau-)
     4.99608125E-01    2     1000037        15   # BR(~nu_tauL -> ~chi_2+ tau-)
#
#         PDG            Width
DECAY   1000024     5.46143499E-01   # chargino1+ decays
#          BR         NDA      ID1       ID2
     1.00000000E+00    2     1000022        24   # BR(~chi_1+ -> ~chi_10  W+)
#
#         PDG            Width
DECAY   1000037     2.07655559E+01   # chargino2+ decays
#          BR         NDA      ID1       ID2
     2.53278733E-01    2     1000024        23   # BR(~chi_2+ -> ~chi_1+  Z )
     1.91043778E-04    2     1000022        24   # BR(~chi_2+ -> ~chi_10  W+)
     2.44266226E-01    2     1000023        24   # BR(~chi_2+ -> ~chi_20  W+)
     2.44163892E-01    2     1000025        24   # BR(~chi_2+ -> ~chi_30  W+)
     2.58098631E-01    2     1000024        25   # BR(~chi_2+ -> ~chi_1+  h )
     1.47534103E-06    2     1000022        37   # BR(~chi_2+ -> ~chi_10  H+)
#
#         PDG            Width
DECAY   1000022     0.00000000E+00   # neutralino1 decays
#
#         PDG            Width
DECAY   1000023     5.68955637E-01   # neutralino2 decays
#          BR         NDA      ID1       ID2
     5.35268173E-01    2     1000022        23   # BR(~chi_20 -> ~chi_10   Z )
     4.64731827E-01    2     1000022        25   # BR(~chi_20 -> ~chi_10   h )
#
#         PDG            Width
DECAY   1000025     5.70453945E-01   # neutralino3 decays
#          BR         NDA      ID1       ID2
     4.58690269E-01    2     1000022        23   # BR(~chi_30 -> ~chi_10   Z )
     5.41309731E-01    2     1000022        25   # BR(~chi_30 -> ~chi_10   h )
#
#         PDG            Width
DECAY   1000035     2.07812686E+01   # neutralino4 decays
#          BR         NDA      ID1       ID2
     4.00042383E-05    2     1000022        23   # BR(~chi_40 -> ~chi_10   Z )
     8.03612819E-02    2     1000023        23   # BR(~chi_40 -> ~chi_20   Z )
     1.72222643E-01    2     1000025        23   # BR(~chi_40 -> ~chi_30   Z )
     2.44862879E-01    2     1000024       -24   # BR(~chi_40 -> ~chi_1+   W-)
     2.44862879E-01    2    -1000024        24   # BR(~chi_40 -> ~chi_1-   W+)
     1.50910804E-04    2     1000022        25   # BR(~chi_40 -> ~chi_10   h )
     1.40432573E-06    2     1000022        35   # BR(~chi_40 -> ~chi_10   H )
     1.68028871E-07    2     1000022        36   # BR(~chi_40 -> ~chi_10   A )
     1.76901290E-01    2     1000023        25   # BR(~chi_40 -> ~chi_20   h )
     8.05965403E-02    2     1000025        25   # BR(~chi_40 -> ~chi_30   h )
#
#         PDG            Width
DECAY        25     4.06152564E-03   # h decays
#          BR         NDA      ID1       ID2
     6.07947227E-01    2           5        -5   # BR(h -> b       bb     )
     6.38725340E-02    2         -15        15   # BR(h -> tau+    tau-   )
     2.26131904E-04    2         -13        13   # BR(h -> mu+     mu-    )
     4.79370819E-04    2           3        -3   # BR(h -> s       sb     )
     2.07715978E-02    2           4        -4   # BR(h -> c       cb     )
     6.72148515E-02    2          21        21   # BR(h -> g       g      )
     2.31132998E-03    2          22        22   # BR(h -> gam     gam    )
     1.49212202E-03    2          22        23   # BR(h -> Z       gam    )
     2.10525427E-01    2          24       -24   # BR(h -> W+      W-     )
     2.50949772E-02    2          23        23   # BR(h -> Z       Z      )
     6.44309796E-05    2     1000022   1000022   # BR(h -> ~chi_10 ~chi_10)
#
#         PDG            Width
DECAY        35     8.24191258E+00   # H decays
#          BR         NDA      ID1       ID2
     3.90920549E-01    2           5        -5   # BR(H -> b       bb     )
     6.75881668E-02    2         -15        15   # BR(H -> tau+    tau-   )
     2.38997126E-04    2         -13        13   # BR(H -> mu+     mu-    )
     2.92973879E-04    2           3        -3   # BR(H -> s       sb     )
     1.63916127E-06    2           4        -4   # BR(H -> c       cb     )
     1.63765189E-01    2           6        -6   # BR(H -> t       tb     )
     5.44288191E-05    2          21        21   # BR(H -> g       g      )
     2.37959181E-07    2          22        22   # BR(H -> gam     gam    )
     9.66906980E-08    2          23        22   # BR(H -> Z       gam    )
     7.60273174E-05    2          24       -24   # BR(H -> W+      W-     )
     3.79655420E-05    2          23        23   # BR(H -> Z       Z      )
     2.80596281E-04    2          25        25   # BR(H -> h       h      )
     6.94109325E-24    2          36        36   # BR(H -> A       A      )
     6.55716076E-19    2          23        36   # BR(H -> Z       A      )
     2.29873420E-03    2     1000024  -1000024   # BR(H -> ~chi_1+ ~chi_1-)
     2.16326145E-03    2     1000022   1000022   # BR(H -> ~chi_10 ~chi_10)
     1.59517351E-05    2     1000023   1000023   # BR(H -> ~chi_20 ~chi_20)
     7.54448739E-04    2     1000025   1000025   # BR(H -> ~chi_30 ~chi_30)
     2.23123641E-01    2     1000022   1000023   # BR(H -> ~chi_10 ~chi_20)
     1.47643952E-01    2     1000022   1000025   # BR(H -> ~chi_10 ~chi_30)
     7.43143773E-04    2     1000023   1000025   # BR(H -> ~chi_20 ~chi_30)
#
#         PDG            Width
DECAY        36     8.25595025E+00   # A decays
#          BR         NDA      ID1       ID2
     3.90387289E-01    2           5        -5   # BR(A -> b       bb     )
     6.74751042E-02    2         -15        15   # BR(A -> tau+    tau-   )
     2.38596995E-04    2         -13        13   # BR(A -> mu+     mu-    )
     2.92697261E-04    2           3        -3   # BR(A -> s       sb     )
     1.64303914E-06    2           4        -4   # BR(A -> c       cb     )
     1.64062050E-01    2           6        -6   # BR(A -> t       tb     )
     1.62348638E-04    2          21        21   # BR(A -> g       g      )
     5.87947877E-07    2          22        22   # BR(A -> gam     gam    )
     1.96611505E-07    2          23        22   # BR(A -> Z       gam    )
     7.56103843E-05    2          23        25   # BR(A -> Z       h      )
     3.30982808E-03    2     1000024  -1000024   # BR(A -> ~chi_1+ ~chi_1-)
     2.19746756E-03    2     1000022   1000022   # BR(A -> ~chi_10 ~chi_10)
     1.62708424E-05    2     1000023   1000023   # BR(A -> ~chi_20 ~chi_20)
     1.80520963E-03    2     1000025   1000025   # BR(A -> ~chi_30 ~chi_30)
     1.49658116E-01    2     1000022   1000023   # BR(A -> ~chi_10 ~chi_20)
     2.20040113E-01    2     1000022   1000025   # BR(A -> ~chi_10 ~chi_30)
     2.76870363E-04    2     1000023   1000025   # BR(A -> ~chi_20 ~chi_30)
#
#         PDG            Width
DECAY        37     8.21764471E+00   # H+ decays
#          BR         NDA      ID1       ID2
     6.28430324E-04    2           4        -5   # BR(H+ -> c       bb     )
     6.78212904E-02    2         -15        16   # BR(H+ -> tau+    nu_tau )
     2.39821135E-04    2         -13        14   # BR(H+ -> mu+     nu_mu  )
     4.02193323E-06    2           2        -5   # BR(H+ -> u       bb     )
     1.40718914E-05    2           2        -3   # BR(H+ -> u       sb     )
     2.91007892E-04    2           4        -3   # BR(H+ -> c       sb     )
     5.54178149E-01    2           6        -5   # BR(H+ -> t       bb     )
     7.61183179E-05    2          24        25   # BR(H+ -> W+      h      )
     8.63283436E-13    2          24        36   # BR(H+ -> W+      A      )
     3.75603192E-01    2     1000024   1000022   # BR(H+ -> ~chi_1+ ~chi_10)
     1.12213826E-03    2     1000024   1000023   # BR(H+ -> ~chi_1+ ~chi_20)
     2.17592079E-05    2     1000024   1000025   # BR(H+ -> ~chi_1+ ~chi_30)
