#
#                              ======================
#                              | THE SUSYHIT OUTPUT |
#                              ======================
#
#
#              ------------------------------------------------------
#              |     This is the output of the SUSY-HIT package     |
#              |  created by A.Djouadi, M.Muehlleitner and M.Spira. |
#              |  In case of problems with SUSY-HIT email to        |
#              |           margarete.muehlleitner@cern.ch           |
#              |           michael.spira@psi.ch                     |
#              |           abdelhak.djouadi@cern.ch                 |
#              ------------------------------------------------------
#
#              ------------------------------------------------------
#              |  SUSY Les Houches Accord - MSSM Spectrum + Decays  |
#              |              based on the decay programs           |
#              |                                                    |
#              |                     SDECAY 1.3b                    |
#              |                                                    |
#              |  Authors: M.Muhlleitner, A.Djouadi and Y.Mambrini  |
#              |  Ref.:    Comput.Phys.Commun.168(2005)46           |
#              |           [hep-ph/0311167]                         |
#              |                                                    |
#              |                     HDECAY 3.4                     |
#              |                                                    |
#              |  By: A.Djouadi,J.Kalinowski,M.Muhlleitner,M.Spira  |
#              |  Ref.:    Comput.Phys.Commun.108(1998)56           |
#              |           [hep-ph/9704448]                         |
#              |                                                    |
#              |                                                    |
#              |  If not stated otherwise all DRbar couplings and   |
#              |  soft SUSY breaking masses are given at the scale  |
#              |  Q=  0.50007358E+04
#              |                                                    |
#              ------------------------------------------------------
#
#
BLOCK DCINFO  # Decay Program information
     1   SDECAY/HDECAY # decay calculator
     2   1.3b  /3.4    # version number
#
BLOCK SPINFO  # Spectrum calculator information
     1    SOFTSUSY    # spectrum calculator                
     2    3.4.0       # version number                     
#
BLOCK MODSEL  # Model selection
     1     0   #  nonUniversal                                     
#
BLOCK SMINPUTS  # Standard Model inputs
         1     1.25778332E+02   # alpha_em^-1(M_Z)^MSbar
         2     1.16570000E-05   # G_F [GeV^-2]
         3     1.17200002E-01   # alpha_S(M_Z)^MSbar
         4     9.11876000E+01   # M_Z pole mass
         5     4.25000000E+00   # mb(mb)^MSbar
         6     1.72500000E+02   # mt pole mass
         7     1.77682000E+00   # mtau pole mass
#
BLOCK MINPAR  # Input parameters - minimal models
         3     1.00000000E+01   # tanb                
#
BLOCK EXTPAR  # Input parameters - non-minimal models
         0    -1.00000000E+00   # Set                 
         1     6.00000000E+01   # M_1(MX)             
         2     3.00000000E+03   # M_2(MX)             
         3     1.66797100E+03   # M_3(MX)             
        11     5.00000000E+03   # At(MX)              
        12     5.00000000E+03   # Ab(MX)              
        13     0.00000000E+00   # Atau(MX)            
        23    -1.05628800E+03   # mu(MX)              
        26     3.00000000E+03   # mA(pole)            
        31     5.00000000E+03   # meL(MX)             
        32     5.00000000E+03   # mmuL(MX)            
        33     5.00000000E+03   # mtauL(MX)           
        34     5.00000000E+03   # meR(MX)             
        35     5.00000000E+03   # mmuR(MX)            
        36     5.00000000E+03   # mtauR(MX)           
        41     5.00000000E+03   # mqL1(MX)            
        42     5.00000000E+03   # mqL2(MX)            
        43     5.00000000E+03   # mqL3(MX)            
        44     5.00000000E+03   # muR(MX)             
        45     5.00000000E+03   # mcR(MX)             
        46     5.00000000E+03   # mtR(MX)             
        47     5.00000000E+03   # mdR(MX)             
        48     5.00000000E+03   # msR(MX)             
        49     5.00000000E+03   # mbR(MX)             
#
BLOCK MASS  # Mass Spectrum
# PDG code           mass       particle
        24     8.00954247E+01   # W+
        25     1.24767822E+02   # h
        35     3.00008327E+03   # H
        36     2.99999735E+03   # A
        37     3.00102215E+03   # H+
         5     4.87878001E+00   # b-quark pole mass calculated from mb(mb)_Msbar
   1000001     5.07190646E+03   # ~d_L
   2000001     5.05411034E+03   # ~d_R
   1000002     5.07143275E+03   # ~u_L
   2000002     5.05382711E+03   # ~u_R
   1000003     5.07190646E+03   # ~s_L
   2000003     5.05411034E+03   # ~s_R
   1000004     5.07143275E+03   # ~c_L
   2000004     5.05382711E+03   # ~c_R
   1000005     5.01766789E+03   # ~b_1
   2000005     5.05268831E+03   # ~b_2
   1000006     4.90872778E+03   # ~t_1
   2000006     5.06280161E+03   # ~t_2
   1000011     5.01906566E+03   # ~e_L
   2000011     5.00592113E+03   # ~e_R
   1000012     5.01811720E+03   # ~nu_eL
   1000013     5.01906566E+03   # ~mu_L
   2000013     5.00592113E+03   # ~mu_R
   1000014     5.01811720E+03   # ~nu_muL
   1000015     5.00457010E+03   # ~tau_1
   2000015     5.01880526E+03   # ~tau_2
   1000016     5.01757234E+03   # ~nu_tauL
   1000021     2.00000010E+03   # ~g
   1000022     6.03009887E+01   # ~chi_10
   1000023     1.09959077E+03   # ~chi_20
   1000025    -1.10186442E+03   # ~chi_30
   1000035     3.07427273E+03   # ~chi_40
   1000024     1.10000081E+03   # ~chi_1+
   1000037     3.07444017E+03   # ~chi_2+
#
BLOCK NMIX  # Neutralino Mixing Matrix
  1  1     9.99178409E-01   # N_11
  1  2     1.73962715E-04   # N_12
  1  3    -4.04777103E-02   # N_13
  1  4     2.00783859E-03   # N_14
  2  1     2.72086139E-02   # N_21
  2  2     2.46698665E-02   # N_22
  2  3     7.06784983E-01   # N_23
  2  4     7.06474400E-01   # N_24
  3  1    -3.00338378E-02   # N_31
  3  2     1.45509847E-02   # N_32
  3  3    -7.06233204E-01   # N_33
  3  4     7.07192265E-01   # N_34
  4  1    -4.08198217E-04   # N_41
  4  2     9.99589734E-01   # N_42
  4  3    -7.15579677E-03   # N_43
  4  4    -2.77306992E-02   # N_44
#
BLOCK UMIX  # Chargino Mixing Matrix U
  1  1     1.01343867E-02   # U_11
  1  2     9.99948646E-01   # U_12
  2  1    -9.99948646E-01   # U_21
  2  2     1.01343867E-02   # U_22
#
BLOCK VMIX  # Chargino Mixing Matrix V
  1  1     3.92467830E-02   # V_11
  1  2    -9.99229548E-01   # V_12
  2  1    -9.99229548E-01   # V_21
  2  2    -3.92467830E-02   # V_22
#
BLOCK STOPMIX  # Stop Mixing Matrix
  1  1    -5.07580189E-01   # cos(theta_t)
  1  2     8.61604522E-01   # sin(theta_t)
  2  1    -8.61604522E-01   # -sin(theta_t)
  2  2    -5.07580189E-01   # cos(theta_t)
#
BLOCK SBOTMIX  # Sbottom Mixing Matrix
  1  1     9.96653795E-01   # cos(theta_b)
  1  2    -8.17386868E-02   # sin(theta_b)
  2  1     8.17386868E-02   # -sin(theta_b)
  2  2     9.96653795E-01   # cos(theta_b)
#
BLOCK STAUMIX  # Stau Mixing Matrix
  1  1    -1.25028905E-01   # cos(theta_tau)
  1  2     9.92153100E-01   # sin(theta_tau)
  2  1    -9.92153100E-01   # -sin(theta_tau)
  2  2    -1.25028905E-01   # cos(theta_tau)
#
BLOCK ALPHA  # Higgs mixing
          -1.05472147E-01   # Mixing angle in the neutral Higgs boson sector
#
BLOCK HMIX Q=  5.00073577E+03  # DRbar Higgs Parameters
         1    -1.07563522E+03   # mu(Q)MSSM           
         2     9.46993433E+00   # tan                 
         3     2.41875686E+02   # higgs               
         4     8.48951315E+06   # mA^2(Q)MSSM         
#
BLOCK GAUGE Q=  5.00073577E+03  # The gauge couplings
     1     3.70775343E-01   # gprime(Q) DRbar
     2     6.32445650E-01   # g(Q) DRbar
     3     9.98502110E-01   # g3(Q) DRbar
#
BLOCK AU Q=  5.00073577E+03  # The trilinear couplings
  1  1     5.00000001E+03   # A_u(Q) DRbar
  2  2     5.00000001E+03   # A_c(Q) DRbar
  3  3     5.00000002E+03   # A_t(Q) DRbar
#
BLOCK AD Q=  5.00073577E+03  # The trilinear couplings
  1  1     5.00000001E+03   # A_d(Q) DRbar
  2  2     5.00000001E+03   # A_s(Q) DRbar
  3  3     5.00000001E+03   # A_b(Q) DRbar
#
BLOCK AE Q=  5.00073577E+03  # The trilinear couplings
  1  1     0.00000000E+00   # A_e(Q) DRbar
  2  2     1.74919441E-07   # A_mu(Q) DRbar
  3  3     1.74558402E-07   # A_tau(Q) DRbar
#
BLOCK Yu Q=  5.00073577E+03  # The Yukawa couplings
  1  1     0.00000000E+00   # y_u(Q) DRbar
  2  2     0.00000000E+00   # y_c(Q) DRbar
  3  3     8.19820375E-01   # y_t(Q) DRbar
#
BLOCK Yd Q=  5.00073577E+03  # The Yukawa couplings
  1  1     0.00000000E+00   # y_d(Q) DRbar
  2  2     0.00000000E+00   # y_s(Q) DRbar
  3  3     1.30758010E-01   # y_b(Q) DRbar
#
BLOCK Ye Q=  5.00073577E+03  # The Yukawa couplings
  1  1     0.00000000E+00   # y_e(Q) DRbar
  2  2     0.00000000E+00   # y_mu(Q) DRbar
  3  3     9.68053681E-02   # y_tau(Q) DRbar
#
BLOCK MSOFT Q=  5.00073577E+03  # The soft SUSY breaking masses at the scale Q
         1     6.00000000E+01   # M_1(Q)              
         2     3.00000000E+03   # M_2(Q)              
         3     1.66797100E+03   # M_3(Q)              
        21     7.53414991E+06   # mH1^2(Q)            
        22    -5.95563118E+05   # mH2^2(Q)            
        31     5.00000000E+03   # meL(Q)              
        32     5.00000000E+03   # mmuL(Q)             
        33     5.00000000E+03   # mtauL(Q)            
        34     5.00000000E+03   # meR(Q)              
        35     5.00000000E+03   # mmuR(Q)             
        36     5.00000000E+03   # mtauR(Q)            
        41     5.00000000E+03   # mqL1(Q)             
        42     5.00000000E+03   # mqL2(Q)             
        43     5.00000000E+03   # mqL3(Q)             
        44     5.00000000E+03   # muR(Q)              
        45     5.00000000E+03   # mcR(Q)              
        46     4.99999999E+03   # mtR(Q)              
        47     5.00000000E+03   # mdR(Q)              
        48     5.00000000E+03   # msR(Q)              
        49     5.00000000E+03   # mbR(Q)              
#
#
#
#                             =================
#                             |The decay table|
#                             =================
#
# - The QCD corrections to the decays gluino -> squark  + quark
#                                     squark -> gaugino + quark_prime
#                                     squark -> squark_prime + Higgs
#                                     squark -> gluino  + quark
#   are included.
#
# - The multi-body decays for the inos, stops and sbottoms are included.
#
# - The loop induced decays for the gluino, neutralinos and stops
#   are included.
#
# - The SUSY decays of the top quark are included.
#
#
#         PDG            Width
DECAY         6     1.40167336E+00   # top decays
#          BR         NDA      ID1       ID2
     1.00000000E+00    2           5        24   # BR(t ->  b    W+)
#
#         PDG            Width
DECAY   1000021     5.42225482E-04   # gluino decays
#          BR         NDA      ID1       ID2
     4.73536457E-06    2     1000022        21   # BR(~g -> ~chi_10 g)
     1.03456332E-02    2     1000023        21   # BR(~g -> ~chi_20 g)
     1.01994427E-02    2     1000025        21   # BR(~g -> ~chi_30 g)
#           BR         NDA      ID1       ID2       ID3
     4.30917482E-02    3     1000022         1        -1   # BR(~g -> ~chi_10 d  db)
     1.73729396E-05    3     1000023         1        -1   # BR(~g -> ~chi_20 d  db)
     7.27183861E-06    3     1000025         1        -1   # BR(~g -> ~chi_30 d  db)
     1.46924861E-01    3     1000022         2        -2   # BR(~g -> ~chi_10 u  ub)
     4.82483645E-05    3     1000023         2        -2   # BR(~g -> ~chi_20 u  ub)
     8.29627737E-06    3     1000025         2        -2   # BR(~g -> ~chi_30 u  ub)
     4.30917482E-02    3     1000022         3        -3   # BR(~g -> ~chi_10 s  sb)
     1.73729396E-05    3     1000023         3        -3   # BR(~g -> ~chi_20 s  sb)
     7.27183861E-06    3     1000025         3        -3   # BR(~g -> ~chi_30 s  sb)
     1.46924861E-01    3     1000022         4        -4   # BR(~g -> ~chi_10 c  cb)
     4.82483645E-05    3     1000023         4        -4   # BR(~g -> ~chi_20 c  cb)
     8.29627737E-06    3     1000025         4        -4   # BR(~g -> ~chi_30 c  cb)
     4.36838594E-02    3     1000022         5        -5   # BR(~g -> ~chi_10 b  bb)
     3.24155955E-03    3     1000023         5        -5   # BR(~g -> ~chi_20 b  bb)
     3.18416291E-03    3     1000025         5        -5   # BR(~g -> ~chi_30 b  bb)
     1.42661718E-01    3     1000022         6        -6   # BR(~g -> ~chi_10 t  tb)
     1.01538068E-01    3     1000023         6        -6   # BR(~g -> ~chi_20 t  tb)
     8.03454720E-02    3     1000025         6        -6   # BR(~g -> ~chi_30 t  tb)
     4.88041302E-05    3     1000024         1        -2   # BR(~g -> ~chi_1+ d  ub)
     4.88041302E-05    3    -1000024         2        -1   # BR(~g -> ~chi_1- u  db)
     4.88041302E-05    3     1000024         3        -4   # BR(~g -> ~chi_1+ s  cb)
     4.88041302E-05    3    -1000024         4        -3   # BR(~g -> ~chi_1- c  sb)
     1.12202268E-01    3     1000024         5        -6   # BR(~g -> ~chi_1+ b  tb)
     1.12202268E-01    3    -1000024         6        -5   # BR(~g -> ~chi_1- t  bb)
#
#         PDG            Width
DECAY   1000006     3.39465194E+02   # stop1 decays
#          BR         NDA      ID1       ID2
     2.60595573E-02    2     1000022         6   # BR(~t_1 -> ~chi_10 t )
     8.79704866E-02    2     1000023         6   # BR(~t_1 -> ~chi_20 t )
     8.45700313E-02    2     1000025         6   # BR(~t_1 -> ~chi_30 t )
     6.14537171E-03    2     1000035         6   # BR(~t_1 -> ~chi_40 t )
     1.27962611E-01    2     1000024         5   # BR(~t_1 -> ~chi_1+ b )
     1.22404591E-02    2     1000037         5   # BR(~t_1 -> ~chi_2+ b )
     6.55051483E-01    2     1000021         6   # BR(~t_1 -> ~g      t )
#
#         PDG            Width
DECAY   2000006     3.47302440E+02   # stop2 decays
#          BR         NDA      ID1       ID2
     1.00529120E-02    2     1000022         6   # BR(~t_2 -> ~chi_10 t )
     8.82640302E-02    2     1000023         6   # BR(~t_2 -> ~chi_20 t )
     9.19008383E-02    2     1000025         6   # BR(~t_2 -> ~chi_30 t )
     1.59613246E-02    2     1000035         6   # BR(~t_2 -> ~chi_40 t )
     5.25857297E-02    2     1000024         5   # BR(~t_2 -> ~chi_1+ b )
     3.17473853E-02    2     1000037         5   # BR(~t_2 -> ~chi_2+ b )
     7.05847889E-01    2     1000021         6   # BR(~t_2 -> ~g      t )
     8.24311359E-04    2     1000006        25   # BR(~t_2 -> ~t_1    h )
     2.81557919E-03    2     1000006        23   # BR(~t_2 -> ~t_1    Z )
#
#         PDG            Width
DECAY   1000005     3.22873520E+02   # sbottom1 decays
#          BR         NDA      ID1       ID2
     2.39688124E-03    2     1000022         5   # BR(~b_1 -> ~chi_10 b )
     2.44278930E-03    2     1000023         5   # BR(~b_1 -> ~chi_20 b )
     2.36610030E-03    2     1000025         5   # BR(~b_1 -> ~chi_30 b )
     2.33225035E-02    2     1000035         5   # BR(~b_1 -> ~chi_40 b )
     1.87652552E-01    2    -1000024         6   # BR(~b_1 -> ~chi_1- t )
     4.68730485E-02    2    -1000037         6   # BR(~b_1 -> ~chi_2- t )
     7.33220153E-01    2     1000021         5   # BR(~b_1 -> ~g      b )
     1.72597254E-03    2     1000006       -24   # BR(~b_1 -> ~t_1    W-)
#
#         PDG            Width
DECAY   2000005     2.46036670E+02   # sbottom2 decays
#          BR         NDA      ID1       ID2
     1.19292221E-02    2     1000022         5   # BR(~b_2 -> ~chi_10 b )
     3.17238940E-03    2     1000023         5   # BR(~b_2 -> ~chi_20 b )
     3.26608513E-03    2     1000025         5   # BR(~b_2 -> ~chi_30 b )
     2.09716966E-04    2     1000035         5   # BR(~b_2 -> ~chi_40 b )
     7.94045129E-03    2    -1000024         6   # BR(~b_2 -> ~chi_1- t )
     4.21409291E-04    2    -1000037         6   # BR(~b_2 -> ~chi_2- t )
     9.72996654E-01    2     1000021         5   # BR(~b_2 -> ~g      b )
     6.40713948E-05    2     1000006       -24   # BR(~b_2 -> ~t_1    W-)
#
#         PDG            Width
DECAY   1000002     2.65200137E+02   # sup_L decays
#          BR         NDA      ID1       ID2
     2.81342067E-03    2     1000022         2   # BR(~u_L -> ~chi_10 u)
     6.02726130E-05    2     1000023         2   # BR(~u_L -> ~chi_20 u)
     5.05009493E-06    2     1000025         2   # BR(~u_L -> ~chi_30 u)
     2.96132305E-02    2     1000035         2   # BR(~u_L -> ~chi_40 u)
     2.06472399E-04    2     1000024         1   # BR(~u_L -> ~chi_1+ d)
     5.91857946E-02    2     1000037         1   # BR(~u_L -> ~chi_2+ d)
     9.08115759E-01    2     1000021         2   # BR(~u_L -> ~g      u)
#
#         PDG            Width
DECAY   2000002     2.51272352E+02   # sup_R decays
#          BR         NDA      ID1       ID2
     4.72586763E-02    2     1000022         2   # BR(~u_R -> ~chi_10 u)
     3.18661889E-05    2     1000023         2   # BR(~u_R -> ~chi_20 u)
     3.88115708E-05    2     1000025         2   # BR(~u_R -> ~chi_30 u)
     3.14861798E-09    2     1000035         2   # BR(~u_R -> ~chi_40 u)
     9.52670643E-01    2     1000021         2   # BR(~u_R -> ~g      u)
#
#         PDG            Width
DECAY   1000001     2.65214652E+02   # sdown_L decays
#          BR         NDA      ID1       ID2
     2.80352378E-03    2     1000022         1   # BR(~d_L -> ~chi_10 d)
     2.51054486E-05    2     1000023         1   # BR(~d_L -> ~chi_20 d)
     2.79397620E-05    2     1000025         1   # BR(~d_L -> ~chi_30 d)
     2.96302170E-02    2     1000035         1   # BR(~d_L -> ~chi_40 d)
     1.37680968E-05    2    -1000024         2   # BR(~d_L -> ~chi_1- u)
     5.92860847E-02    2    -1000037         2   # BR(~d_L -> ~chi_2- u)
     9.08213361E-01    2     1000021         1   # BR(~d_L -> ~g      d)
#
#         PDG            Width
DECAY   2000001     2.42376482E+02   # sdown_R decays
#          BR         NDA      ID1       ID2
     1.22489941E-02    2     1000022         1   # BR(~d_R -> ~chi_10 d)
     8.25949917E-06    2     1000023         1   # BR(~d_R -> ~chi_20 d)
     1.00596953E-05    2     1000025         1   # BR(~d_R -> ~chi_30 d)
     8.16197649E-10    2     1000035         1   # BR(~d_R -> ~chi_40 d)
     9.87732686E-01    2     1000021         1   # BR(~d_R -> ~g      d)
#
#         PDG            Width
DECAY   1000004     2.65200137E+02   # scharm_L decays
#          BR         NDA      ID1       ID2
     2.81342067E-03    2     1000022         4   # BR(~c_L -> ~chi_10 c)
     6.02726130E-05    2     1000023         4   # BR(~c_L -> ~chi_20 c)
     5.05009493E-06    2     1000025         4   # BR(~c_L -> ~chi_30 c)
     2.96132305E-02    2     1000035         4   # BR(~c_L -> ~chi_40 c)
     2.06472399E-04    2     1000024         3   # BR(~c_L -> ~chi_1+ s)
     5.91857946E-02    2     1000037         3   # BR(~c_L -> ~chi_2+ s)
     9.08115759E-01    2     1000021         4   # BR(~c_L -> ~g      c)
#
#         PDG            Width
DECAY   2000004     2.51272352E+02   # scharm_R decays
#          BR         NDA      ID1       ID2
     4.72586763E-02    2     1000022         4   # BR(~c_R -> ~chi_10 c)
     3.18661889E-05    2     1000023         4   # BR(~c_R -> ~chi_20 c)
     3.88115708E-05    2     1000025         4   # BR(~c_R -> ~chi_30 c)
     3.14861798E-09    2     1000035         4   # BR(~c_R -> ~chi_40 c)
     9.52670643E-01    2     1000021         4   # BR(~c_R -> ~g      c)
#
#         PDG            Width
DECAY   1000003     2.65214652E+02   # sstrange_L decays
#          BR         NDA      ID1       ID2
     2.80352378E-03    2     1000022         3   # BR(~s_L -> ~chi_10 s)
     2.51054486E-05    2     1000023         3   # BR(~s_L -> ~chi_20 s)
     2.79397620E-05    2     1000025         3   # BR(~s_L -> ~chi_30 s)
     2.96302170E-02    2     1000035         3   # BR(~s_L -> ~chi_40 s)
     1.37680968E-05    2    -1000024         4   # BR(~s_L -> ~chi_1- c)
     5.92860847E-02    2    -1000037         4   # BR(~s_L -> ~chi_2- c)
     9.08213361E-01    2     1000021         3   # BR(~s_L -> ~g      s)
#
#         PDG            Width
DECAY   2000003     2.42376482E+02   # sstrange_R decays
#          BR         NDA      ID1       ID2
     1.22489941E-02    2     1000022         3   # BR(~s_R -> ~chi_10 s)
     8.25949917E-06    2     1000023         3   # BR(~s_R -> ~chi_20 s)
     1.00596953E-05    2     1000025         3   # BR(~s_R -> ~chi_30 s)
     8.16197649E-10    2     1000035         3   # BR(~s_R -> ~chi_40 s)
     9.87732686E-01    2     1000021         3   # BR(~s_R -> ~g      s)
#
#         PDG            Width
DECAY   1000011     3.02627316E+01   # selectron_L decays
#          BR         NDA      ID1       ID2
     2.26493217E-01    2     1000022        11   # BR(~e_L -> ~chi_10 e-)
     9.86826734E-04    2     1000023        11   # BR(~e_L -> ~chi_20 e-)
     5.58493892E-06    2     1000025        11   # BR(~e_L -> ~chi_30 e-)
     2.57280900E-01    2     1000035        11   # BR(~e_L -> ~chi_40 e-)
     1.22837223E-04    2    -1000024        12   # BR(~e_L -> ~chi_1- nu_e)
     5.15110634E-01    2    -1000037        12   # BR(~e_L -> ~chi_2- nu_e)
#
#         PDG            Width
DECAY   2000011     2.73698621E+01   # selectron_R decays
#          BR         NDA      ID1       ID2
     9.98511938E-01    2     1000022        11   # BR(~e_R -> ~chi_10 e-)
     6.70891286E-04    2     1000023        11   # BR(~e_R -> ~chi_20 e-)
     8.17106510E-04    2     1000025        11   # BR(~e_R -> ~chi_30 e-)
     6.46694457E-08    2     1000035        11   # BR(~e_R -> ~chi_40 e-)
#
#         PDG            Width
DECAY   1000013     3.02627316E+01   # smuon_L decays
#          BR         NDA      ID1       ID2
     2.26493217E-01    2     1000022        13   # BR(~mu_L -> ~chi_10 mu-)
     9.86826734E-04    2     1000023        13   # BR(~mu_L -> ~chi_20 mu-)
     5.58493892E-06    2     1000025        13   # BR(~mu_L -> ~chi_30 mu-)
     2.57280900E-01    2     1000035        13   # BR(~mu_L -> ~chi_40 mu-)
     1.22837223E-04    2    -1000024        14   # BR(~mu_L -> ~chi_1- nu_mu)
     5.15110634E-01    2    -1000037        14   # BR(~mu_L -> ~chi_2- nu_mu)
#
#         PDG            Width
DECAY   2000013     2.73698621E+01   # smuon_R decays
#          BR         NDA      ID1       ID2
     9.98511938E-01    2     1000022        13   # BR(~mu_R -> ~chi_10 mu-)
     6.70891286E-04    2     1000023        13   # BR(~mu_R -> ~chi_20 mu-)
     8.17106510E-04    2     1000025        13   # BR(~mu_R -> ~chi_30 mu-)
     6.46694457E-08    2     1000035        13   # BR(~mu_R -> ~chi_40 mu-)
#
#         PDG            Width
DECAY   1000015     2.90950273E+01   # stau_1 decays
#          BR         NDA      ID1       ID2
     9.28967296E-01    2     1000022        15   # BR(~tau_1 -> ~chi_10  tau-)
     1.53519955E-02    2     1000023        15   # BR(~tau_1 -> ~chi_20  tau-)
     1.44826913E-02    2     1000025        15   # BR(~tau_1 -> ~chi_30  tau-)
     4.04095752E-03    2     1000035        15   # BR(~tau_1 -> ~chi_40  tau-)
     2.90667659E-02    2    -1000024        16   # BR(~tau_1 -> ~chi_1-  nu_tau)
     8.09029359E-03    2    -1000037        16   # BR(~tau_1 -> ~chi_2-  nu_tau)
#
#         PDG            Width
DECAY   2000015     3.10611708E+01   # stau_2 decays
#          BR         NDA      ID1       ID2
     2.30231697E-01    2     1000022        15   # BR(~tau_2 -> ~chi_10  tau-)
     1.44016761E-02    2     1000023        15   # BR(~tau_2 -> ~chi_20  tau-)
     1.43387329E-02    2     1000025        15   # BR(~tau_2 -> ~chi_30  tau-)
     2.46801673E-01    2     1000035        15   # BR(~tau_2 -> ~chi_40  tau-)
     9.61024170E-05    2    -1000024        16   # BR(~tau_2 -> ~chi_1-  nu_tau)
     4.94130119E-01    2    -1000037        16   # BR(~tau_2 -> ~chi_2-  nu_tau)
#
#         PDG            Width
DECAY   1000012     3.02653970E+01   # snu_eL decays
#          BR         NDA      ID1       ID2
     2.26161628E-01    2     1000022        12   # BR(~nu_eL -> ~chi_10 nu_e)
     4.54462897E-05    2     1000023        12   # BR(~nu_eL -> ~chi_20 nu_e)
     6.18032704E-04    2     1000025        12   # BR(~nu_eL -> ~chi_30 nu_e)
     2.57339183E-01    2     1000035        12   # BR(~nu_eL -> ~chi_40 nu_e)
     1.84164654E-03    2     1000024        11   # BR(~nu_eL -> ~chi_1+ e-)
     5.13994063E-01    2     1000037        11   # BR(~nu_eL -> ~chi_2+ e-)
#
#         PDG            Width
DECAY   1000014     3.02653970E+01   # snu_muL decays
#          BR         NDA      ID1       ID2
     2.26161628E-01    2     1000022        14   # BR(~nu_muL -> ~chi_10 nu_mu)
     4.54462897E-05    2     1000023        14   # BR(~nu_muL -> ~chi_20 nu_mu)
     6.18032704E-04    2     1000025        14   # BR(~nu_muL -> ~chi_30 nu_mu)
     2.57339183E-01    2     1000035        14   # BR(~nu_muL -> ~chi_40 nu_mu)
     1.84164654E-03    2     1000024        13   # BR(~nu_muL -> ~chi_1+ mu-)
     5.13994063E-01    2     1000037        13   # BR(~nu_muL -> ~chi_2+ mu-)
#
#         PDG            Width
DECAY   1000016     3.11036903E+01   # snu_tauL decays
#          BR         NDA      ID1       ID2
     2.20042309E-01    2     1000022        16   # BR(~nu_tauL -> ~chi_10 nu_tau)
     4.42156707E-05    2     1000023        16   # BR(~nu_tauL -> ~chi_20 nu_tau)
     6.01297225E-04    2     1000025        16   # BR(~nu_tauL -> ~chi_30 nu_tau)
     2.50310959E-01    2     1000035        16   # BR(~nu_tauL -> ~chi_40 nu_tau)
     2.90451330E-02    2     1000024        15   # BR(~nu_tauL -> ~chi_1+ tau-)
     4.99956086E-01    2     1000037        15   # BR(~nu_tauL -> ~chi_2+ tau-)
#
#         PDG            Width
DECAY   1000024     6.71749301E-01   # chargino1+ decays
#          BR         NDA      ID1       ID2
     1.00000000E+00    2     1000022        24   # BR(~chi_1+ -> ~chi_10  W+)
#
#         PDG            Width
DECAY   1000037     2.00505639E+01   # chargino2+ decays
#          BR         NDA      ID1       ID2
     2.53107642E-01    2     1000024        23   # BR(~chi_2+ -> ~chi_1+  Z )
     2.05836116E-04    2     1000022        24   # BR(~chi_2+ -> ~chi_10  W+)
     2.44062020E-01    2     1000023        24   # BR(~chi_2+ -> ~chi_20  W+)
     2.44036100E-01    2     1000025        24   # BR(~chi_2+ -> ~chi_30  W+)
     2.58587471E-01    2     1000024        25   # BR(~chi_2+ -> ~chi_1+  h )
     9.30524896E-07    2     1000022        37   # BR(~chi_2+ -> ~chi_10  H+)
#
#         PDG            Width
DECAY   1000022     0.00000000E+00   # neutralino1 decays
#
#         PDG            Width
DECAY   1000023     7.02946139E-01   # neutralino2 decays
#          BR         NDA      ID1       ID2
     5.44441345E-01    2     1000022        23   # BR(~chi_20 -> ~chi_10   Z )
     4.55558655E-01    2     1000022        25   # BR(~chi_20 -> ~chi_10   h )
#
#         PDG            Width
DECAY   1000025     7.07418881E-01   # neutralino3 decays
#          BR         NDA      ID1       ID2
     4.43592014E-01    2     1000022        23   # BR(~chi_30 -> ~chi_10   Z )
     5.56407986E-01    2     1000022        25   # BR(~chi_30 -> ~chi_10   h )
#
#         PDG            Width
DECAY   1000035     2.00642350E+01   # neutralino4 decays
#          BR         NDA      ID1       ID2
     5.54574099E-05    2     1000022        23   # BR(~chi_40 -> ~chi_10   Z )
     6.53750414E-02    2     1000023        23   # BR(~chi_40 -> ~chi_20   Z )
     1.87014702E-01    2     1000025        23   # BR(~chi_40 -> ~chi_30   Z )
     2.44699405E-01    2     1000024       -24   # BR(~chi_40 -> ~chi_1+   W-)
     2.44699405E-01    2    -1000024        24   # BR(~chi_40 -> ~chi_1-   W+)
     1.52330334E-04    2     1000022        25   # BR(~chi_40 -> ~chi_10   h )
     8.62342839E-07    2     1000022        35   # BR(~chi_40 -> ~chi_10   H )
     1.09058031E-07    2     1000022        36   # BR(~chi_40 -> ~chi_10   A )
     1.92472759E-01    2     1000023        25   # BR(~chi_40 -> ~chi_20   h )
     6.55299286E-02    2     1000025        25   # BR(~chi_40 -> ~chi_30   h )
#
#         PDG            Width
DECAY        25     4.05523054E-03   # h decays
#          BR         NDA      ID1       ID2
     6.08111239E-01    2           5        -5   # BR(h -> b       bb     )
     6.39560435E-02    2         -15        15   # BR(h -> tau+    tau-   )
     2.26427673E-04    2         -13        13   # BR(h -> mu+     mu-    )
     4.80017555E-04    2           3        -3   # BR(h -> s       sb     )
     2.08003564E-02    2           4        -4   # BR(h -> c       cb     )
     6.72776090E-02    2          21        21   # BR(h -> g       g      )
     2.31303907E-03    2          22        22   # BR(h -> gam     gam    )
     1.49095629E-03    2          22        23   # BR(h -> Z       gam    )
     2.10242106E-01    2          24       -24   # BR(h -> W+      W-     )
     2.50517891E-02    2          23        23   # BR(h -> Z       Z      )
     5.04165871E-05    2     1000022   1000022   # BR(h -> ~chi_10 ~chi_10)
#
#         PDG            Width
DECAY        35     7.95328851E+00   # H decays
#          BR         NDA      ID1       ID2
     4.06940473E-01    2           5        -5   # BR(H -> b       bb     )
     7.00493464E-02    2         -15        15   # BR(H -> tau+    tau-   )
     2.47700053E-04    2         -13        13   # BR(H -> mu+     mu-    )
     3.03642284E-04    2           3        -3   # BR(H -> s       sb     )
     1.69838800E-06    2           4        -4   # BR(H -> c       cb     )
     1.69682414E-01    2           6        -6   # BR(H -> t       tb     )
     5.63716834E-05    2          21        21   # BR(H -> g       g      )
     3.01292021E-07    2          22        22   # BR(H -> gam     gam    )
     1.00190322E-07    2          23        22   # BR(H -> Z       gam    )
     7.76770554E-05    2          24       -24   # BR(H -> W+      W-     )
     3.87893689E-05    2          23        23   # BR(H -> Z       Z      )
     2.89239626E-04    2          25        25   # BR(H -> h       h      )
    -7.65578689E-24    2          36        36   # BR(H -> A       A      )
     9.40763592E-19    2          23        36   # BR(H -> Z       A      )
     1.60377471E-03    2     1000024  -1000024   # BR(H -> ~chi_1+ ~chi_1-)
     1.50031528E-03    2     1000022   1000022   # BR(H -> ~chi_10 ~chi_10)
     5.87073756E-05    2     1000023   1000023   # BR(H -> ~chi_20 ~chi_20)
     3.73203247E-04    2     1000025   1000025   # BR(H -> ~chi_30 ~chi_30)
     2.08867862E-01    2     1000022   1000023   # BR(H -> ~chi_10 ~chi_20)
     1.39565930E-01    2     1000022   1000025   # BR(H -> ~chi_10 ~chi_30)
     3.42453079E-04    2     1000023   1000025   # BR(H -> ~chi_20 ~chi_30)
#
#         PDG            Width
DECAY        36     7.97177023E+00   # A decays
#          BR         NDA      ID1       ID2
     4.06133743E-01    2           5        -5   # BR(A -> b       bb     )
     6.98889524E-02    2         -15        15   # BR(A -> tau+    tau-   )
     2.47132542E-04    2         -13        13   # BR(A -> mu+     mu-    )
     3.03168044E-04    2           3        -3   # BR(A -> s       sb     )
     1.70141436E-06    2           4        -4   # BR(A -> c       cb     )
     1.69890982E-01    2           6        -6   # BR(A -> t       tb     )
     1.68124379E-04    2          21        21   # BR(A -> g       g      )
     5.55137734E-07    2          22        22   # BR(A -> gam     gam    )
     2.03624370E-07    2          23        22   # BR(A -> Z       gam    )
     7.72037903E-05    2          23        25   # BR(A -> Z       h      )
     3.10348699E-03    2     1000024  -1000024   # BR(A -> ~chi_1+ ~chi_1-)
     1.53108660E-03    2     1000022   1000022   # BR(A -> ~chi_10 ~chi_10)
     8.28268281E-05    2     1000023   1000023   # BR(A -> ~chi_20 ~chi_20)
     1.23712445E-03    2     1000025   1000025   # BR(A -> ~chi_30 ~chi_30)
     1.41125672E-01    2     1000022   1000023   # BR(A -> ~chi_10 ~chi_20)
     2.06139326E-01    2     1000022   1000025   # BR(A -> ~chi_10 ~chi_30)
     6.87110843E-05    2     1000023   1000025   # BR(A -> ~chi_20 ~chi_30)
#
#         PDG            Width
DECAY        37     7.93687212E+00   # H+ decays
#          BR         NDA      ID1       ID2
     6.54191193E-04    2           4        -5   # BR(H+ -> c       bb     )
     7.02202305E-02    2         -15        16   # BR(H+ -> tau+    nu_tau )
     2.48303965E-04    2         -13        14   # BR(H+ -> mu+     nu_mu  )
     4.18680202E-06    2           2        -5   # BR(H+ -> u       bb     )
     1.45698658E-05    2           2        -3   # BR(H+ -> u       sb     )
     3.01305658E-04    2           4        -3   # BR(H+ -> c       sb     )
     5.75947414E-01    2           6        -5   # BR(H+ -> t       bb     )
     7.76726074E-05    2          24        25   # BR(H+ -> W+      h      )
     1.87156202E-13    2          24        36   # BR(H+ -> W+      A      )
     3.51810236E-01    2     1000024   1000022   # BR(H+ -> ~chi_1+ ~chi_10)
     6.73785714E-04    2     1000024   1000023   # BR(H+ -> ~chi_1+ ~chi_20)
     4.81035238E-05    2     1000024   1000025   # BR(H+ -> ~chi_1+ ~chi_30)
