#
#                              ======================
#                              | THE SUSYHIT OUTPUT |
#                              ======================
#
#
#              ------------------------------------------------------
#              |     This is the output of the SUSY-HIT package     |
#              |  created by A.Djouadi, M.Muehlleitner and M.Spira. |
#              |  In case of problems with SUSY-HIT email to        |
#              |           margarete.muehlleitner@kit.edu           |
#              |           michael.spira@psi.ch                     |
#              |           abdelhak.djouadi@cern.ch                 |
#              ------------------------------------------------------
#
#              ------------------------------------------------------
#              |  SUSY Les Houches Accord - MSSM Spectrum + Decays  |
#              |              based on the decay programs           |
#              |                                                    |
#              |                     SDECAY 1.5                     |
#              |                                                    |
#              |  Authors: M.Muhlleitner, A.Djouadi and Y.Mambrini  |
#              |  Ref.:    Comput.Phys.Commun.168(2005)46           |
#              |           [hep-ph/0311167]                         |
#              |                                                    |
#              |                     HDECAY 3.4                     |
#              |                                                    |
#              |  By: A.Djouadi,J.Kalinowski,M.Muhlleitner,M.Spira  |
#              |  Ref.:    Comput.Phys.Commun.108(1998)56           |
#              |           [hep-ph/9704448]                         |
#              |                                                    |
#              |                                                    |
#              |  If not stated otherwise all DRbar couplings and   |
#              |  soft SUSY breaking masses are given at the scale  |
#              |  Q=  0.91187600E+02
#              |                                                    |
#              ------------------------------------------------------
#
#
BLOCK DCINFO  # Decay Program information
     1   SDECAY/HDECAY # decay calculator
     2   1.5  /3.4    # version number
#
BLOCK SPINFO  # Spectrum calculator information
     1   SuSpect     # RGE +Spectrum calculator            
     2   2.43         # version number                     
#
BLOCK MODSEL  # Model selection
     1     2   # GMSB                                              
#
BLOCK SMINPUTS  # Standard Model inputs
         1     1.27932904E+02   # alpha_em^-1(M_Z)^MSbar
         2     1.16639000E-05   # G_F [GeV^-2]
         3     1.17200000E-01   # alpha_S(M_Z)^MSbar
         4     9.11870000E+01   # M_Z pole mass
         5     4.25000000E+00   # mb(mb)^MSbar
         6     1.72900000E+02   # mt pole mass
         7     1.77700000E+00   # mtau pole mass
#
BLOCK MINPAR  # Input parameters - minimal models
#
BLOCK EXTPAR  # Input parameters - non-minimal models
         0     9.11876000E+01   # EWSB                
         1     6.57000000E+02   # M_1                 
         2     3.00000000E+03   # M_2                 
         3     2.20000000E+03   # M_3                 
        11     0.00000000E+00   # A_t                 
        12     0.00000000E+00   # A_b                 
        13     0.00000000E+00   # A_tau               
        14     0.00000000E+00   # A_u                 
        15     0.00000000E+00   # A_d                 
        16     0.00000000E+00   # A_e                 
        23     6.50000000E+02   # mu(EWSB)            
        25     1.50000000E+00   # tanbeta(in)         
        26     2.00000000E+03   # MA_pole             
        31     5.00000000E+03   # M_eL                
        32     5.00000000E+03   # M_muL               
        33     5.00000000E+03   # M_tauL              
        34     5.00000000E+03   # M_eR                
        35     5.00000000E+03   # M_muR               
        36     5.00000000E+03   # M_tauR              
        41     5.00000000E+03   # M_q1L               
        42     5.00000000E+03   # M_q2L               
        43     5.00000000E+03   # M_q3L               
        44     5.00000000E+03   # M_uR                
        45     5.00000000E+03   # M_cR                
        46     5.00000000E+03   # M_tR                
        47     5.00000000E+03   # M_dR                
        48     5.00000000E+03   # M_sR                
        49     5.00000000E+03   # M_bR                
#
BLOCK MASS  # Mass Spectrum
# PDG code           mass       particle
        24     8.05394378E+01   # W+
        25     1.26000000E+02   # h
        35     2.00431910E+03   # H
        36     2.00000000E+03   # A
        37     2.00173085E+03   # H+
         5     4.87877839E+00   # b-quark pole mass calculated from mb(mb)_Msbar
   1000001     4.92095286E+03   # ~d_L
   2000001     4.92084230E+03   # ~d_R
   1000002     4.92070572E+03   # ~u_L
   2000002     4.92076423E+03   # ~u_R
   1000003     4.92095286E+03   # ~s_L
   2000003     4.92084230E+03   # ~s_R
   1000004     4.92070572E+03   # ~c_L
   2000004     4.92076423E+03   # ~c_R
   1000005     4.92062354E+03   # ~b_1
   2000005     4.92117309E+03   # ~b_2
   1000006     5.05056235E+03   # ~t_1
   2000006     5.35248350E+03   # ~t_2
   1000011     5.00008233E+03   # ~e_L
   2000011     5.00007603E+03   # ~e_R
   1000012     4.99984164E+03   # ~nu_eL
   1000013     5.00008233E+03   # ~mu_L
   2000013     5.00007603E+03   # ~mu_R
   1000014     4.99984164E+03   # ~nu_muL
   1000015     4.99990613E+03   # ~tau_1
   2000015     5.00025285E+03   # ~tau_2
   1000016     4.99984164E+03   # ~nu_tauL
   1000021     2.23872194E+03   # ~g
   1000022     6.51784894E+02   # ~chi_10
   1000023    -6.96978294E+02   # ~chi_20
   1000025     7.38947823E+02   # ~chi_30
   1000035     3.12900907E+03   # ~chi_40
   1000024     6.94449421E+02   # ~chi_1+
   1000037     3.12900834E+03   # ~chi_2+
   1000039     1.00000000E-09   # ~gravitino
#
BLOCK NMIX  # Neutralino Mixing Matrix
  1  1     6.99099414E-01   # N_11
  1  2    -2.23713234E-02   # N_12
  1  3     5.08717825E-01   # N_13
  1  4    -5.01961859E-01   # N_14
  2  1     6.27120448E-03   # N_21
  2  2    -4.06605262E-03   # N_22
  2  3    -7.06788261E-01   # N_23
  2  4    -7.07385675E-01   # N_24
  3  1     7.14996740E-01   # N_31
  3  2     2.27287237E-02   # N_32
  3  3    -4.91191592E-01   # N_33
  3  4     4.96984796E-01   # N_34
  4  1     5.85988198E-04   # N_41
  4  2    -9.99483065E-01   # N_42
  4  3    -1.96811846E-02   # N_43
  4  4     2.54147864E-02   # N_44
#
BLOCK UMIX  # Chargino Mixing Matrix U
  1  1    -2.78224540E-02   # U_11
  1  2     9.99612881E-01   # U_12
  2  1     9.99612881E-01   # U_21
  2  2     2.78224540E-02   # U_22
#
BLOCK VMIX  # Chargino Mixing Matrix V
  1  1    -3.59335710E-02   # V_11
  1  2     9.99354181E-01   # V_12
  2  1     9.99354181E-01   # V_21
  2  2     3.59335710E-02   # V_22
#
BLOCK STOPMIX  # Stop Mixing Matrix
  1  1     9.99878189E-01   # cos(theta_t)
  1  2    -1.56079199E-02   # sin(theta_t)
  2  1     1.56079199E-02   # -sin(theta_t)
  2  2     9.99878189E-01   # cos(theta_t)
#
BLOCK SBOTMIX  # Sbottom Mixing Matrix
  1  1     6.31988968E-01   # cos(theta_b)
  1  2     7.74977383E-01   # sin(theta_b)
  2  1    -7.74977383E-01   # -sin(theta_b)
  2  2     6.31988968E-01   # cos(theta_b)
#
BLOCK STAUMIX  # Stau Mixing Matrix
  1  1     7.00650405E-01   # cos(theta_tau)
  1  2     7.13504737E-01   # sin(theta_tau)
  2  1    -7.13504737E-01   # -sin(theta_tau)
  2  2     7.00650405E-01   # cos(theta_tau)
#
BLOCK ALPHA  # Higgs mixing
          -5.90210182E-01   # Mixing angle in the neutral Higgs boson sector
#
BLOCK HMIX Q=  9.11876000E+01  # DRbar Higgs Parameters
         1     6.50000000E+02   # mu(Q)               
         2     1.49999979E+00   # tanbeta(Q)          
         3     2.51971362E+02   # vev(Q)              
         4     3.66309874E+06   # MA^2(Q)             
#
BLOCK GAUGE Q=  9.11876000E+01  # The gauge couplings
     1     3.52896880E-01   # gprime(Q) DRbar
     2     6.27899005E-01   # g(Q) DRbar
     3     1.07892659E+00   # g3(Q) DRbar
#
BLOCK AU Q=  9.11876000E+01  # The trilinear couplings
  1  1     0.00000000E+00   # A_u(Q) DRbar
  2  2     0.00000000E+00   # A_c(Q) DRbar
  3  3     0.00000000E+00   # A_t(Q) DRbar
#
BLOCK AD Q=  9.11876000E+01  # The trilinear couplings
  1  1     0.00000000E+00   # A_d(Q) DRbar
  2  2     0.00000000E+00   # A_s(Q) DRbar
  3  3     0.00000000E+00   # A_b(Q) DRbar
#
BLOCK AE Q=  9.11876000E+01  # The trilinear couplings
  1  1     0.00000000E+00   # A_e(Q) DRbar
  2  2     0.00000000E+00   # A_mu(Q) DRbar
  3  3     0.00000000E+00   # A_tau(Q) DRbar
#
BLOCK Yu Q=  9.11876000E+01  # The Yukawa couplings
  1  1     0.00000000E+00   # y_u(Q) DRbar
  2  2     0.00000000E+00   # y_c(Q) DRbar
  3  3     1.02646251E+00   # y_t(Q) DRbar
#
BLOCK Yd Q=  9.11876000E+01  # The Yukawa couplings
  1  1     0.00000000E+00   # y_d(Q) DRbar
  2  2     0.00000000E+00   # y_s(Q) DRbar
  3  3     2.72028708E-02   # y_b(Q) DRbar
#
BLOCK Ye Q=  9.11876000E+01  # The Yukawa couplings
  1  1     0.00000000E+00   # y_e(Q) DRbar
  2  2     0.00000000E+00   # y_mu(Q) DRbar
  3  3     1.79879114E-02   # y_tau(Q) DRbar
#
BLOCK MSOFT Q=  9.11876000E+01  # The soft SUSY breaking masses at the scale Q
         1     6.57000000E+02   # M_1                 
         2     3.00000000E+03   # M_2                 
         3     2.20000000E+03   # M_3                 
        14     0.00000000E+00   # A_u                 
        15     0.00000000E+00   # A_d                 
        16     0.00000000E+00   # A_e                 
        21     2.58271195E+06   # M^2_Hd              
        22    -5.77244105E+06   # M^2_Hu              
        31     5.00000000E+03   # M_eL                
        32     5.00000000E+03   # M_muL               
        33     5.00000000E+03   # M_tauL              
        34     5.00000000E+03   # M_eR                
        35     5.00000000E+03   # M_muR               
        36     5.00000000E+03   # M_tauR              
        41     5.00000000E+03   # M_q1L               
        42     5.00000000E+03   # M_q2L               
        43     5.00000000E+03   # M_q3L               
        44     5.00000000E+03   # M_uR                
        45     5.00000000E+03   # M_cR                
        46     5.00000000E+03   # M_tR                
        47     5.00000000E+03   # M_dR                
        48     5.00000000E+03   # M_sR                
        49     5.00000000E+03   # M_bR                
#
#
#
#                             =================
#                             |The decay table|
#                             =================
#
# - The QCD corrections to the decays gluino -> squark  + quark
#                                     squark -> gaugino + quark_prime
#                                     squark -> squark_prime + Higgs
#                                     squark -> gluino  + quark
#   are included.
#
# - The multi-body decays for the inos, stops and sbottoms are included.
#
# - The loop induced decays for the gluino, neutralinos and stops
#   are included.
#
# - The SUSY decays of the top quark are included.
#
# - Possible decays of the NLSP in GMSB models are included.
#
#
#         PDG            Width
DECAY         6     1.37372055E+00   # top decays
#          BR         NDA      ID1       ID2
     1.00000000E+00    2           5        24   # BR(t ->  b    W+)
#
#         PDG            Width
DECAY   1000021     3.84716498E-03   # gluino decays
#          BR         NDA      ID1       ID2
     4.32554650E-03    2     1000022        21   # BR(~g -> ~chi_10 g)
     8.06678467E-03    2     1000023        21   # BR(~g -> ~chi_20 g)
     3.67433890E-03    2     1000025        21   # BR(~g -> ~chi_30 g)
#          BR         NDA      ID1       ID2
0.0E+00    2     1000039    21 # BR(~g -> ~G      g)
#           BR         NDA      ID1       ID2       ID3
     4.98218755E-03    3     1000022         1        -1   # BR(~g -> ~chi_10 d  db)
     7.76796201E-07    3     1000023         1        -1   # BR(~g -> ~chi_20 d  db)
     3.93080102E-03    3     1000025         1        -1   # BR(~g -> ~chi_30 d  db)
     1.54816223E-02    3     1000022         2        -2   # BR(~g -> ~chi_10 u  ub)
     7.17000490E-07    3     1000023         2        -2   # BR(~g -> ~chi_20 u  ub)
     1.45597419E-02    3     1000025         2        -2   # BR(~g -> ~chi_30 u  ub)
     4.98218755E-03    3     1000022         3        -3   # BR(~g -> ~chi_10 s  sb)
     7.76796201E-07    3     1000023         3        -3   # BR(~g -> ~chi_20 s  sb)
     3.93080102E-03    3     1000025         3        -3   # BR(~g -> ~chi_30 s  sb)
     1.54816223E-02    3     1000022         4        -4   # BR(~g -> ~chi_10 c  cb)
     7.17000490E-07    3     1000023         4        -4   # BR(~g -> ~chi_20 c  cb)
     1.45597419E-02    3     1000025         4        -4   # BR(~g -> ~chi_30 c  cb)
     5.07933394E-03    3     1000022         5        -5   # BR(~g -> ~chi_10 b  bb)
     2.08488386E-04    3     1000023         5        -5   # BR(~g -> ~chi_20 b  bb)
     4.03775423E-03    3     1000025         5        -5   # BR(~g -> ~chi_30 b  bb)
     1.08492591E-01    3     1000022         6        -6   # BR(~g -> ~chi_10 t  tb)
     1.95558587E-01    3     1000023         6        -6   # BR(~g -> ~chi_20 t  tb)
     1.14326811E-01    3     1000025         6        -6   # BR(~g -> ~chi_30 t  tb)
     1.03407581E-04    3     1000024         1        -2   # BR(~g -> ~chi_1+ d  ub)
     1.03407581E-04    3    -1000024         2        -1   # BR(~g -> ~chi_1- u  db)
     1.03407581E-04    3     1000024         3        -4   # BR(~g -> ~chi_1+ s  cb)
     1.03407581E-04    3    -1000024         4        -3   # BR(~g -> ~chi_1- c  sb)
     2.30537952E-01    3     1000024         5        -6   # BR(~g -> ~chi_1+ b  tb)
     2.30537952E-01    3    -1000024         6        -5   # BR(~g -> ~chi_1- t  bb)
#
#         PDG            Width
DECAY   1000006     2.69921140E+02   # stop1 decays
#          BR         NDA      ID1       ID2
     6.39404912E-02    2     1000022         6   # BR(~t_1 -> ~chi_10 t )
     1.29249589E-01    2     1000023         6   # BR(~t_1 -> ~chi_20 t )
     6.74049017E-02    2     1000025         6   # BR(~t_1 -> ~chi_30 t )
     2.71772156E-02    2     1000035         6   # BR(~t_1 -> ~chi_40 t )
     9.30117440E-05    2     1000024         5   # BR(~t_1 -> ~chi_1+ b )
     5.41301872E-02    2     1000037         5   # BR(~t_1 -> ~chi_2+ b )
     6.37652260E-01    2     1000021         6   # BR(~t_1 -> ~g      t )
     8.22889792E-03    2     1000005        24   # BR(~t_1 -> ~b_1    W+)
     1.21234461E-02    2     2000005        24   # BR(~t_1 -> ~b_2    W+)
#
#         PDG            Width
DECAY   2000006     3.50497046E+02   # stop2 decays
#          BR         NDA      ID1       ID2
     7.09320474E-02    2     1000022         6   # BR(~t_2 -> ~chi_10 t )
     1.06702023E-01    2     1000023         6   # BR(~t_2 -> ~chi_20 t )
     6.67557331E-02    2     1000025         6   # BR(~t_2 -> ~chi_30 t )
    -2.74987387E-05    2     1000035         6   # BR(~t_2 -> ~chi_40 t )
     2.13559757E-01    2     1000024         5   # BR(~t_2 -> ~chi_1+ b )
    -5.49014950E-05    2     1000037         5   # BR(~t_2 -> ~chi_2+ b )
     5.41976121E-01    2     1000021         6   # BR(~t_2 -> ~g      t )
    -1.13339079E-04    2     1000006        25   # BR(~t_2 -> ~t_1    h )
     4.01718787E-05    2     1000006        23   # BR(~t_2 -> ~t_1    Z )
     9.19676725E-05    2     1000005        24   # BR(~t_2 -> ~b_1    W+)
     1.37918312E-04    2     2000005        24   # BR(~t_2 -> ~b_2    W+)
#
#         PDG            Width
DECAY   1000005     1.90612366E+02   # sbottom1 decays
#          BR         NDA      ID1       ID2
     6.23998859E-03    2     1000022         5   # BR(~b_1 -> ~chi_10 b )
     1.02584861E-04    2     1000023         5   # BR(~b_1 -> ~chi_20 b )
     4.26459230E-03    2     1000025         5   # BR(~b_1 -> ~chi_30 b )
     1.02607778E-02    2     1000035         5   # BR(~b_1 -> ~chi_40 b )
     9.02866511E-02    2    -1000024         6   # BR(~b_1 -> ~chi_1- t )
     2.05973737E-02    2    -1000037         6   # BR(~b_1 -> ~chi_2- t )
     8.68248032E-01    2     1000021         5   # BR(~b_1 -> ~g      b )
#
#         PDG            Width
DECAY   2000005     2.31326033E+02   # sbottom2 decays
#          BR         NDA      ID1       ID2
     2.10676378E-03    2     1000022         5   # BR(~b_2 -> ~chi_10 b )
     1.25536732E-04    2     1000023         5   # BR(~b_2 -> ~chi_20 b )
     3.04251596E-03    2     1000025         5   # BR(~b_2 -> ~chi_30 b )
     2.02432846E-02    2     1000035         5   # BR(~b_2 -> ~chi_40 b )
     2.18985502E-01    2    -1000024         6   # BR(~b_2 -> ~chi_1- t )
     4.06588538E-02    2    -1000037         6   # BR(~b_2 -> ~chi_2- t )
     7.14837543E-01    2     1000021         5   # BR(~b_2 -> ~g      b )
#
#         PDG            Width
DECAY   1000002     1.86012601E+02   # sup_L decays
#          BR         NDA      ID1       ID2
     1.13678698E-03    2     1000022         2   # BR(~u_L -> ~chi_10 u)
     8.01658962E-07    2     1000023         2   # BR(~u_L -> ~chi_20 u)
     2.34252980E-03    2     1000025         2   # BR(~u_L -> ~chi_30 u)
     3.56651573E-02    2     1000035         2   # BR(~u_L -> ~chi_40 u)
     2.47738781E-04    2     1000024         1   # BR(~u_L -> ~chi_1+ d)
     7.13276322E-02    2     1000037         1   # BR(~u_L -> ~chi_2+ d)
     8.89279353E-01    2     1000021         2   # BR(~u_L -> ~g      u)
#
#         PDG            Width
DECAY   2000002     1.75438296E+02   # sup_R decays
#          BR         NDA      ID1       ID2
     2.80488871E-02    2     1000022         2   # BR(~u_R -> ~chi_10 u)
     2.24572192E-06    2     1000023         2   # BR(~u_R -> ~chi_20 u)
     2.90464875E-02    2     1000025         2   # BR(~u_R -> ~chi_30 u)
     7.30124554E-09    2     1000035         2   # BR(~u_R -> ~chi_40 u)
     9.42902372E-01    2     1000021         2   # BR(~u_R -> ~g      u)
#
#         PDG            Width
DECAY   1000001     1.86018946E+02   # sdown_L decays
#          BR         NDA      ID1       ID2
     2.26649402E-03    2     1000022         1   # BR(~d_L -> ~chi_10 d)
     2.63427168E-06    2     1000023         1   # BR(~d_L -> ~chi_20 d)
     1.18045332E-03    2     1000025         1   # BR(~d_L -> ~chi_30 d)
     3.56862269E-02    2     1000035         1   # BR(~d_L -> ~chi_40 d)
     1.48522819E-04    2    -1000024         2   # BR(~d_L -> ~chi_1- u)
     7.13753596E-02    2    -1000037         2   # BR(~d_L -> ~chi_2- u)
     8.89340309E-01    2     1000021         1   # BR(~d_L -> ~g      d)
#
#         PDG            Width
DECAY   2000001     1.67930871E+02   # sdown_R decays
#          BR         NDA      ID1       ID2
     7.32583251E-03    2     1000022         1   # BR(~d_R -> ~chi_10 d)
     5.86539681E-07    2     1000023         1   # BR(~d_R -> ~chi_20 d)
     7.58638908E-03    2     1000025         1   # BR(~d_R -> ~chi_30 d)
     1.90702441E-09    2     1000035         1   # BR(~d_R -> ~chi_40 d)
     9.85087190E-01    2     1000021         1   # BR(~d_R -> ~g      d)
#
#         PDG            Width
DECAY   1000004     1.86012601E+02   # scharm_L decays
#          BR         NDA      ID1       ID2
     1.13678698E-03    2     1000022         4   # BR(~c_L -> ~chi_10 c)
     8.01658962E-07    2     1000023         4   # BR(~c_L -> ~chi_20 c)
     2.34252980E-03    2     1000025         4   # BR(~c_L -> ~chi_30 c)
     3.56651573E-02    2     1000035         4   # BR(~c_L -> ~chi_40 c)
     2.47738781E-04    2     1000024         3   # BR(~c_L -> ~chi_1+ s)
     7.13276322E-02    2     1000037         3   # BR(~c_L -> ~chi_2+ s)
     8.89279353E-01    2     1000021         4   # BR(~c_L -> ~g      c)
#
#         PDG            Width
DECAY   2000004     1.75438296E+02   # scharm_R decays
#          BR         NDA      ID1       ID2
     2.80488871E-02    2     1000022         4   # BR(~c_R -> ~chi_10 c)
     2.24572192E-06    2     1000023         4   # BR(~c_R -> ~chi_20 c)
     2.90464875E-02    2     1000025         4   # BR(~c_R -> ~chi_30 c)
     7.30124554E-09    2     1000035         4   # BR(~c_R -> ~chi_40 c)
     9.42902372E-01    2     1000021         4   # BR(~c_R -> ~g      c)
#
#         PDG            Width
DECAY   1000003     1.86018946E+02   # sstrange_L decays
#          BR         NDA      ID1       ID2
     2.26649402E-03    2     1000022         3   # BR(~s_L -> ~chi_10 s)
     2.63427168E-06    2     1000023         3   # BR(~s_L -> ~chi_20 s)
     1.18045332E-03    2     1000025         3   # BR(~s_L -> ~chi_30 s)
     3.56862269E-02    2     1000035         3   # BR(~s_L -> ~chi_40 s)
     1.48522819E-04    2    -1000024         4   # BR(~s_L -> ~chi_1- c)
     7.13753596E-02    2    -1000037         4   # BR(~s_L -> ~chi_2- c)
     8.89340309E-01    2     1000021         3   # BR(~s_L -> ~g      s)
#
#         PDG            Width
DECAY   2000003     1.67930871E+02   # sstrange_R decays
#          BR         NDA      ID1       ID2
     7.32583251E-03    2     1000022         3   # BR(~s_R -> ~chi_10 s)
     5.86539681E-07    2     1000023         3   # BR(~s_R -> ~chi_20 s)
     7.58638908E-03    2     1000025         3   # BR(~s_R -> ~chi_30 s)
     1.90702441E-09    2     1000035         3   # BR(~s_R -> ~chi_40 s)
     9.85087190E-01    2     1000021         3   # BR(~s_R -> ~g      s)
#
#         PDG            Width
DECAY   1000011     2.77632916E+01   # selectron_L decays
#          BR         NDA      ID1       ID2
     9.37076456E-02    2     1000022        11   # BR(~e_L -> ~chi_10 e-)
     1.99101575E-07    2     1000023        11   # BR(~e_L -> ~chi_20 e-)
     1.21819749E-01    2     1000025        11   # BR(~e_L -> ~chi_30 e-)
     2.60980187E-01    2     1000035        11   # BR(~e_L -> ~chi_40 e-)
     1.05169114E-03    2    -1000024        12   # BR(~e_L -> ~chi_1- nu_e)
     5.22440528E-01    2    -1000037        12   # BR(~e_L -> ~chi_2- nu_e)
#
#         PDG            Width
DECAY   2000011     2.38207595E+01   # selectron_R decays
#          BR         NDA      ID1       ID2
     4.91211343E-01    2     1000022        11   # BR(~e_R -> ~chi_10 e-)
     3.93310385E-05    2     1000023        11   # BR(~e_R -> ~chi_20 e-)
     5.08749194E-01    2     1000025        11   # BR(~e_R -> ~chi_30 e-)
     1.32193496E-07    2     1000035        11   # BR(~e_R -> ~chi_40 e-)
#
#         PDG            Width
DECAY   1000013     2.77632916E+01   # smuon_L decays
#          BR         NDA      ID1       ID2
     9.37076456E-02    2     1000022        13   # BR(~mu_L -> ~chi_10 mu-)
     1.99101575E-07    2     1000023        13   # BR(~mu_L -> ~chi_20 mu-)
     1.21819749E-01    2     1000025        13   # BR(~mu_L -> ~chi_30 mu-)
     2.60980187E-01    2     1000035        13   # BR(~mu_L -> ~chi_40 mu-)
     1.05169114E-03    2    -1000024        14   # BR(~mu_L -> ~chi_1- nu_mu)
     5.22440528E-01    2    -1000037        14   # BR(~mu_L -> ~chi_2- nu_mu)
#
#         PDG            Width
DECAY   2000013     2.38207595E+01   # smuon_R decays
#          BR         NDA      ID1       ID2
     4.91211343E-01    2     1000022        13   # BR(~mu_R -> ~chi_10 mu-)
     3.93310385E-05    2     1000023        13   # BR(~mu_R -> ~chi_20 mu-)
     5.08749194E-01    2     1000025        13   # BR(~mu_R -> ~chi_30 mu-)
     1.32193496E-07    2     1000035        13   # BR(~mu_R -> ~chi_40 mu-)
#
#         PDG            Width
DECAY   1000015     2.58350120E+01   # stau_1 decays
#          BR         NDA      ID1       ID2
     2.86605933E-01    2     1000022        15   # BR(~tau_1 -> ~chi_10  tau-)
     4.58397806E-04    2     1000023        15   # BR(~tau_1 -> ~chi_20  tau-)
     2.97897285E-01    2     1000025        15   # BR(~tau_1 -> ~chi_30  tau-)
     1.37439474E-01    2     1000035        15   # BR(~tau_1 -> ~chi_40  tau-)
     2.32733904E-03    2    -1000024        16   # BR(~tau_1 -> ~chi_1-  nu_tau)
     2.75132324E-01    2    -1000037        16   # BR(~tau_1 -> ~chi_2-  nu_tau)
     1.39247367E-04    2     1000039        15   # BR(~tau_1 -> ~G       tau-)
#
#         PDG            Width
DECAY   2000015     2.58454674E+01   # stau_2 decays
#          BR         NDA      ID1       ID2
     2.67522524E-01    2     1000022        15   # BR(~tau_2 -> ~chi_10  tau-)
     7.74556855E-04    2     1000023        15   # BR(~tau_2 -> ~chi_20  tau-)
     3.02553150E-01    2     1000025        15   # BR(~tau_2 -> ~chi_30  tau-)
     1.42962689E-01    2     1000035        15   # BR(~tau_2 -> ~chi_40  tau-)
     6.61248923E-08    2    -1000024        16   # BR(~tau_2 -> ~chi_1-  nu_tau)
     2.86187014E-01    2    -1000037        16   # BR(~tau_2 -> ~chi_2-  nu_tau)
#
#         PDG            Width
DECAY   1000012     2.77626500E+01   # snu_eL decays
#          BR         NDA      ID1       ID2
     1.17700832E-01    2     1000022        12   # BR(~nu_eL -> ~chi_10 nu_e)
     3.91279962E-05    2     1000023        12   # BR(~nu_eL -> ~chi_20 nu_e)
     9.71279886E-02    2     1000025        12   # BR(~nu_eL -> ~chi_30 nu_e)
     2.61285468E-01    2     1000035        12   # BR(~nu_eL -> ~chi_40 nu_e)
     1.75422620E-03    2     1000024        11   # BR(~nu_eL -> ~chi_1+ e-)
     5.22092358E-01    2     1000037        11   # BR(~nu_eL -> ~chi_2+ e-)
#
#         PDG            Width
DECAY   1000014     2.77626500E+01   # snu_muL decays
#          BR         NDA      ID1       ID2
     1.17700832E-01    2     1000022        14   # BR(~nu_muL -> ~chi_10 nu_mu)
     3.91279962E-05    2     1000023        14   # BR(~nu_muL -> ~chi_20 nu_mu)
     9.71279886E-02    2     1000025        14   # BR(~nu_muL -> ~chi_30 nu_mu)
     2.61285468E-01    2     1000035        14   # BR(~nu_muL -> ~chi_40 nu_mu)
     1.75422620E-03    2     1000024        13   # BR(~nu_muL -> ~chi_1+ mu-)
     5.22092358E-01    2     1000037        13   # BR(~nu_muL -> ~chi_2+ mu-)
#
#         PDG            Width
DECAY   1000016     2.77935892E+01   # snu_tauL decays
#          BR         NDA      ID1       ID2
     1.17569810E-01    2     1000022        16   # BR(~nu_tauL -> ~chi_10 nu_tau)
     3.90844398E-05    2     1000023        16   # BR(~nu_tauL -> ~chi_20 nu_tau)
     9.70198679E-02    2     1000025        16   # BR(~nu_tauL -> ~chi_30 nu_tau)
     2.60994610E-01    2     1000035        16   # BR(~nu_tauL -> ~chi_40 nu_tau)
     2.86486731E-03    2     1000024        15   # BR(~nu_tauL -> ~chi_1+ tau-)
     5.21511760E-01    2     1000037        15   # BR(~nu_tauL -> ~chi_2+ tau-)
#
#         PDG            Width
DECAY   1000024     8.83135322E-05   # chargino1+ decays
#          BR         NDA      ID1       ID2
     1.00011102E-03    2     1000039        24   # BR(~chi_1+ -> ~G       W+)
#           BR         NDA      ID1       ID2       ID3
     3.33317100E-01    3     1000022         2        -1   # BR(~chi_1+ -> ~chi_10 u    db)
     3.33317100E-01    3     1000022         4        -3   # BR(~chi_1+ -> ~chi_10 c    sb)
     1.11105832E-01    3     1000022       -11        12   # BR(~chi_1+ -> ~chi_10 e+   nu_e)
     1.11105832E-01    3     1000022       -13        14   # BR(~chi_1+ -> ~chi_10 mu+  nu_mu)
     1.10154026E-01    3     1000022       -15        16   # BR(~chi_1+ -> ~chi_10 tau+ nu_tau)
#
#         PDG            Width
DECAY   1000037     3.58750599E+01   # chargino2+ decays
#          BR         NDA      ID1       ID2
     2.34618879E-01    2     1000024        23   # BR(~chi_2+ -> ~chi_1+  Z )
     1.10558955E-01    2     1000022        24   # BR(~chi_2+ -> ~chi_10  W+)
     2.28642658E-01    2     1000023        24   # BR(~chi_2+ -> ~chi_20  W+)
     1.18186588E-01    2     1000025        24   # BR(~chi_2+ -> ~chi_30  W+)
     2.35698806E-01    2     1000024        25   # BR(~chi_2+ -> ~chi_1+  h )
     1.79426414E-02    2     1000024        35   # BR(~chi_2+ -> ~chi_1+  H )
     1.81903307E-02    2     1000024        36   # BR(~chi_2+ -> ~chi_1+  A )
     1.02516164E-02    2     1000022        37   # BR(~chi_2+ -> ~chi_10  H+)
     1.79942717E-02    2     1000023        37   # BR(~chi_2+ -> ~chi_20  H+)
     7.90565781E-03    2     1000025        37   # BR(~chi_2+ -> ~chi_30  H+)
     9.59643288E-06    2     1000039        24   # BR(~chi_2+ -> ~G       W+)
     5.46966069E-10    2     1000039        37   # BR(~chi_2+ -> ~G       H+)
#
#         PDG            Width
DECAY   1000022    1.0E-05    # neutralino1 decays
#          BR         NDA      ID1       ID2
     5.02177717E-01    2     1000039        22   # BR(~chi_10 -> ~G        gam)
     4.87026118E-01    2     1000039        23   # BR(~chi_10 -> ~G        Z)
     1.07961644E-02    2     1000039        25   # BR(~chi_10 -> ~G        h)
#
#         PDG            Width
DECAY   1000023     9.51114770E-05   # neutralino2 decays
#          BR         NDA      ID1       ID2
     4.63645447E-04    2     1000022        22   # BR(~chi_20 -> ~chi_10 gam)
#          BR         NDA      ID1       ID2
     2.40382409E-08    2     1000039        22   # BR(~chi_20 -> ~G        gam)
     3.59621341E-05    2     1000039        23   # BR(~chi_20 -> ~G        Z)
     8.38868338E-04    2     1000039        25   # BR(~chi_20 -> ~G        h)
#           BR         NDA      ID1       ID2       ID3
     1.18763709E-01    3     1000022        -2         2   # BR(~chi_20 -> ~chi_10 ub      u)
     1.53756877E-01    3     1000022        -1         1   # BR(~chi_20 -> ~chi_10 db      d)
     1.18763709E-01    3     1000022        -4         4   # BR(~chi_20 -> ~chi_10 cb      c)
     1.53756877E-01    3     1000022        -3         3   # BR(~chi_20 -> ~chi_10 sb      s)
     1.38398576E-01    3     1000022        -5         5   # BR(~chi_20 -> ~chi_10 bb      b)
     3.51042882E-02    3     1000022       -11        11   # BR(~chi_20 -> ~chi_10 e+      e-)
     3.51042882E-02    3     1000022       -13        13   # BR(~chi_20 -> ~chi_10 mu+     mu-)
     3.47172580E-02    3     1000022       -15        15   # BR(~chi_20 -> ~chi_10 tau+    tau-)
     7.00979181E-02    3     1000022       -12        12   # BR(~chi_20 -> ~chi_10 nu_eb   nu_e)
     7.00979181E-02    3     1000022       -14        14   # BR(~chi_20 -> ~chi_10 nu_mub  nu_mu)
     7.00979181E-02    3     1000022       -16        16   # BR(~chi_20 -> ~chi_10 nu_taub nu_tau)
     4.02497247E-07    3     1000024        -2         1   # BR(~chi_20 -> ~chi_1+ ub      d)
     4.02497247E-07    3    -1000024        -1         2   # BR(~chi_20 -> ~chi_1- db      u)
     4.02497247E-07    3     1000024        -4         3   # BR(~chi_20 -> ~chi_1+ cb      s)
     4.02497247E-07    3    -1000024        -3         4   # BR(~chi_20 -> ~chi_1- sb      c)
     1.34165760E-07    3     1000024       -12        11   # BR(~chi_20 -> ~chi_1+ nu_eb   e-)
     1.34165760E-07    3    -1000024        12       -11   # BR(~chi_20 -> ~chi_1- nu_e    e+)
     1.34165760E-07    3     1000024       -14        13   # BR(~chi_20 -> ~chi_1+ nu_mub  mu-)
     1.34165760E-07    3    -1000024        14       -13   # BR(~chi_20 -> ~chi_1- nu_mu   mu+)
     8.65290586E-09    3     1000024       -16        15   # BR(~chi_20 -> ~chi_1+ nu_taub tau-)
     8.65290586E-09    3    -1000024        16       -15   # BR(~chi_20 -> ~chi_1- nu_tau  tau+)
#
#         PDG            Width
DECAY   1000025     2.74765251E-04   # neutralino3 decays
#          BR         NDA      ID1       ID2
     3.02809215E-04    2     1000022        22   # BR(~chi_30 -> ~chi_10 gam)
     4.79988233E-04    2     1000023        22   # BR(~chi_30 -> ~chi_20 gam)
#          BR         NDA      ID1       ID2
     3.71593441E-04    2     1000039        22   # BR(~chi_30 -> ~G        gam)
     2.99118108E-04    2     1000039        23   # BR(~chi_30 -> ~G        Z)
     7.98750920E-06    2     1000039        25   # BR(~chi_30 -> ~G        h)
#           BR         NDA      ID1       ID2       ID3
     7.18151617E-06    3     1000022        -2         2   # BR(~chi_30 -> ~chi_10 ub      u)
     8.52239662E-06    3     1000022        -1         1   # BR(~chi_30 -> ~chi_10 db      d)
     7.18151617E-06    3     1000022        -4         4   # BR(~chi_30 -> ~chi_10 cb      c)
     8.52239662E-06    3     1000022        -3         3   # BR(~chi_30 -> ~chi_10 sb      s)
     9.18158725E-06    3     1000022        -5         5   # BR(~chi_30 -> ~chi_10 bb      b)
     1.49051443E-06    3     1000022       -11        11   # BR(~chi_30 -> ~chi_10 e+      e-)
     1.49051443E-06    3     1000022       -13        13   # BR(~chi_30 -> ~chi_10 mu+     mu-)
     1.60961315E-06    3     1000022       -15        15   # BR(~chi_30 -> ~chi_10 tau+    tau-)
     4.17283625E-06    3     1000022       -12        12   # BR(~chi_30 -> ~chi_10 nu_eb   nu_e)
     4.17283625E-06    3     1000022       -14        14   # BR(~chi_30 -> ~chi_10 nu_mub  nu_mu)
     4.17283625E-06    3     1000022       -16        16   # BR(~chi_30 -> ~chi_10 nu_taub nu_tau)
     2.68438622E-02    3     1000023        -2         2   # BR(~chi_30 -> ~chi_20 ub      u)
     3.47533715E-02    3     1000023        -1         1   # BR(~chi_30 -> ~chi_20 db      d)
     2.68438622E-02    3     1000023        -4         4   # BR(~chi_30 -> ~chi_20 cb      c)
     3.47533715E-02    3     1000023        -3         3   # BR(~chi_30 -> ~chi_20 sb      s)
     3.07883055E-02    3     1000023        -5         5   # BR(~chi_30 -> ~chi_20 bb      b)
     7.93459984E-03    3     1000023       -11        11   # BR(~chi_30 -> ~chi_20 e+      e-)
     7.93459984E-03    3     1000023       -13        13   # BR(~chi_30 -> ~chi_20 mu+     mu-)
     7.83699241E-03    3     1000023       -15        15   # BR(~chi_30 -> ~chi_20 tau+    tau-)
     1.58440123E-02    3     1000023       -12        12   # BR(~chi_30 -> ~chi_20 nu_eb   nu_e)
     1.58440123E-02    3     1000023       -14        14   # BR(~chi_30 -> ~chi_20 nu_mub  nu_mu)
     1.58440123E-02    3     1000023       -16        16   # BR(~chi_30 -> ~chi_20 nu_taub nu_tau)
     1.28989451E-01    3     1000024        -2         1   # BR(~chi_30 -> ~chi_1+ ub      d)
     1.28989451E-01    3    -1000024        -1         2   # BR(~chi_30 -> ~chi_1- db      u)
     1.28989451E-01    3     1000024        -4         3   # BR(~chi_30 -> ~chi_1+ cb      s)
     1.28989451E-01    3    -1000024        -3         4   # BR(~chi_30 -> ~chi_1- sb      c)
     4.29964089E-02    3     1000024       -12        11   # BR(~chi_30 -> ~chi_1+ nu_eb   e-)
     4.29964089E-02    3    -1000024        12       -11   # BR(~chi_30 -> ~chi_1- nu_e    e+)
     4.29964089E-02    3     1000024       -14        13   # BR(~chi_30 -> ~chi_1+ nu_mub  mu-)
     4.29964089E-02    3    -1000024        14       -13   # BR(~chi_30 -> ~chi_1- nu_mu   mu+)
     4.26581812E-02    3     1000024       -16        15   # BR(~chi_30 -> ~chi_1+ nu_taub tau-)
     4.26581812E-02    3    -1000024        16       -15   # BR(~chi_30 -> ~chi_1- nu_tau  tau+)
#
#         PDG            Width
DECAY   1000035     3.58754648E+01   # neutralino4 decays
#          BR         NDA      ID1       ID2
     1.74998624E-03    2     1000022        23   # BR(~chi_40 -> ~chi_10   Z )
     2.31012468E-01    2     1000023        23   # BR(~chi_40 -> ~chi_20   Z )
     1.96178407E-03    2     1000025        23   # BR(~chi_40 -> ~chi_30   Z )
     2.28512183E-01    2     1000024       -24   # BR(~chi_40 -> ~chi_1+   W-)
     2.28512183E-01    2    -1000024        24   # BR(~chi_40 -> ~chi_1-   W+)
     1.12306639E-01    2     1000022        25   # BR(~chi_40 -> ~chi_10   h )
     1.73404129E-03    2     1000022        35   # BR(~chi_40 -> ~chi_10   H )
     8.48546790E-03    2     1000022        36   # BR(~chi_40 -> ~chi_10   A )
     3.68174366E-03    2     1000023        25   # BR(~chi_40 -> ~chi_20   h )
     1.46176045E-02    2     1000023        35   # BR(~chi_40 -> ~chi_20   H )
     3.28712321E-03    2     1000023        36   # BR(~chi_40 -> ~chi_20   A )
     1.19969645E-01    2     1000025        25   # BR(~chi_40 -> ~chi_30   h )
     1.47231912E-03    2     1000025        35   # BR(~chi_40 -> ~chi_30   H )
     6.40805595E-03    2     1000025        36   # BR(~chi_40 -> ~chi_30   A )
     1.81395795E-02    2     1000024       -37   # BR(~chi_40 -> ~chi_1+   H-)
     1.81395795E-02    2    -1000024        37   # BR(~chi_40 -> ~chi_1-   H+)
     2.30337344E-06    2     1000039        22   # BR(~chi_40 -> ~G        gam)
     7.29220415E-06    2     1000039        23   # BR(~chi_40 -> ~G        Z)
     4.93766613E-10    2     1000039        25   # BR(~chi_40 -> ~G        h)
     5.41181026E-10    2     1000039        35   # BR(~chi_40 -> ~G        H)
     3.05647662E-12    2     1000039        36   # BR(~chi_40 -> ~G        A)
#
#         PDG            Width
DECAY        25     4.21836955E-03   # h decays
#          BR         NDA      ID1       ID2
     6.01823101E-01    2           5        -5   # BR(h -> b       bb     )
     6.22401284E-02    2         -15        15   # BR(h -> tau+    tau-   )
     2.20302920E-04    2         -13        13   # BR(h -> mu+     mu-    )
     4.66118177E-04    2           3        -3   # BR(h -> s       sb     )
     2.01085696E-02    2           4        -4   # BR(h -> c       cb     )
     6.64092900E-02    2          21        21   # BR(h -> g       g      )
     2.30974664E-03    2          22        22   # BR(h -> gam     gam    )
     1.62653876E-03    2          22        23   # BR(h -> Z       gam    )
     2.16715326E-01    2          24       -24   # BR(h -> W+      W-     )
     2.80808782E-02    2          23        23   # BR(h -> Z       Z      )
#
#         PDG            Width
DECAY        35     3.95215219E+01   # H decays
#          BR         NDA      ID1       ID2
     1.40872801E-03    2           5        -5   # BR(H -> b       bb     )
     2.35790332E-04    2         -15        15   # BR(H -> tau+    tau-   )
     8.33606607E-07    2         -13        13   # BR(H -> mu+     mu-    )
     1.06729793E-06    2           3        -3   # BR(H -> s       sb     )
     9.63240676E-06    2           4        -4   # BR(H -> c       cb     )
     9.53090247E-01    2           6        -6   # BR(H -> t       tb     )
     7.63234396E-04    2          21        21   # BR(H -> g       g      )
     2.62676959E-06    2          22        22   # BR(H -> gam     gam    )
     1.10938509E-06    2          23        22   # BR(H -> Z       gam    )
     3.22667042E-04    2          24       -24   # BR(H -> W+      W-     )
     1.60893549E-04    2          23        23   # BR(H -> Z       Z      )
     8.65383735E-04    2          25        25   # BR(H -> h       h      )
     1.02608625E-23    2          36        36   # BR(H -> A       A      )
     4.10329567E-11    2          23        36   # BR(H -> Z       A      )
     7.72679371E-12    2          24       -37   # BR(H -> W+      H-     )
     7.72679371E-12    2         -24        37   # BR(H -> W-      H+     )
     3.34125860E-05    2     1000024  -1000024   # BR(H -> ~chi_1+ ~chi_1-)
     6.01887090E-04    2     1000022   1000022   # BR(H -> ~chi_10 ~chi_10)
     8.43076658E-06    2     1000023   1000023   # BR(H -> ~chi_20 ~chi_20)
     2.93165354E-04    2     1000025   1000025   # BR(H -> ~chi_30 ~chi_30)
     2.36507142E-02    2     1000022   1000023   # BR(H -> ~chi_10 ~chi_20)
     3.02454052E-08    2     1000022   1000025   # BR(H -> ~chi_10 ~chi_30)
     1.85501467E-02    2     1000023   1000025   # BR(H -> ~chi_20 ~chi_30)
#
#         PDG            Width
DECAY        36     3.99688820E+01   # A decays
#          BR         NDA      ID1       ID2
     1.41132316E-03    2           5        -5   # BR(A -> b       bb     )
     2.33336934E-04    2         -15        15   # BR(A -> tau+    tau-   )
     8.24930354E-07    2         -13        13   # BR(A -> mu+     mu-    )
     1.08755158E-06    2           3        -3   # BR(A -> s       sb     )
     9.53041980E-06    2           4        -4   # BR(A -> c       cb     )
     9.53826004E-01    2           6        -6   # BR(A -> t       tb     )
     9.02814434E-04    2          21        21   # BR(A -> g       g      )
     2.76238122E-06    2          22        22   # BR(A -> gam     gam    )
     1.29349860E-06    2          23        22   # BR(A -> Z       gam    )
     3.14295280E-04    2          23        25   # BR(A -> Z       h      )
     6.29390740E-04    2     1000024  -1000024   # BR(A -> ~chi_1+ ~chi_1-)
     2.46423266E-02    2     1000022   1000022   # BR(A -> ~chi_10 ~chi_10)
     6.39973704E-07    2     1000023   1000023   # BR(A -> ~chi_20 ~chi_20)
     1.71245178E-02    2     1000025   1000025   # BR(A -> ~chi_30 ~chi_30)
     4.42314901E-04    2     1000022   1000023   # BR(A -> ~chi_10 ~chi_20)
     5.45281285E-05    2     1000022   1000025   # BR(A -> ~chi_10 ~chi_30)
     4.03008992E-04    2     1000023   1000025   # BR(A -> ~chi_20 ~chi_30)
#
#         PDG            Width
DECAY        37     3.91519148E+01   # H+ decays
#          BR         NDA      ID1       ID2
     2.26414148E-06    2           4        -5   # BR(H+ -> c       bb     )
     2.38412032E-04    2         -15        16   # BR(H+ -> tau+    nu_tau )
     8.42872655E-07    2         -13        14   # BR(H+ -> mu+     nu_mu  )
     1.43949591E-08    2           2        -5   # BR(H+ -> u       bb     )
     5.21984422E-08    2           2        -3   # BR(H+ -> u       sb     )
     1.04007371E-05    2           4        -3   # BR(H+ -> c       sb     )
     9.55984285E-01    2           6        -5   # BR(H+ -> t       bb     )
     3.22144329E-04    2          24        25   # BR(H+ -> W+      h      )
     5.21740677E-13    2          24        36   # BR(H+ -> W+      A      )
     2.17211350E-02    2     1000024   1000022   # BR(H+ -> ~chi_1+ ~chi_10)
     1.47300854E-04    2     1000024   1000023   # BR(H+ -> ~chi_1+ ~chi_20)
     2.15731489E-02    2     1000024   1000025   # BR(H+ -> ~chi_1+ ~chi_30)
