#
#                              ======================
#                              | THE SUSYHIT OUTPUT |
#                              ======================
#
#
#              ------------------------------------------------------
#              |     This is the output of the SUSY-HIT package     |
#              |  created by A.Djouadi, M.Muehlleitner and M.Spira. |
#              |  In case of problems with SUSY-HIT email to        |
#              |           margarete.muehlleitner@kit.edu           |
#              |           michael.spira@psi.ch                     |
#              |           abdelhak.djouadi@cern.ch                 |
#              ------------------------------------------------------
#
#              ------------------------------------------------------
#              |  SUSY Les Houches Accord - MSSM Spectrum + Decays  |
#              |              based on the decay programs           |
#              |                                                    |
#              |                     SDECAY 1.5                     |
#              |                                                    |
#              |  Authors: M.Muhlleitner, A.Djouadi and Y.Mambrini  |
#              |  Ref.:    Comput.Phys.Commun.168(2005)46           |
#              |           [hep-ph/0311167]                         |
#              |                                                    |
#              |                     HDECAY 3.4                     |
#              |                                                    |
#              |  By: A.Djouadi,J.Kalinowski,M.Muhlleitner,M.Spira  |
#              |  Ref.:    Comput.Phys.Commun.108(1998)56           |
#              |           [hep-ph/9704448]                         |
#              |                                                    |
#              |                                                    |
#              |  If not stated otherwise all DRbar couplings and   |
#              |  soft SUSY breaking masses are given at the scale  |
#              |  Q=  0.91187600E+02
#              |                                                    |
#              ------------------------------------------------------
#
#
BLOCK DCINFO  # Decay Program information
     1   SDECAY/HDECAY # decay calculator
     2   1.5  /3.4    # version number
#
BLOCK SPINFO  # Spectrum calculator information
     1   SuSpect     # RGE +Spectrum calculator            
     2   2.43         # version number                     
#
BLOCK MODSEL  # Model selection
     1     2   # GMSB                                              
#
BLOCK SMINPUTS  # Standard Model inputs
         1     1.27932904E+02   # alpha_em^-1(M_Z)^MSbar
         2     1.16639000E-05   # G_F [GeV^-2]
         3     1.17200000E-01   # alpha_S(M_Z)^MSbar
         4     9.11870000E+01   # M_Z pole mass
         5     4.25000000E+00   # mb(mb)^MSbar
         6     1.72900000E+02   # mt pole mass
         7     1.77700000E+00   # mtau pole mass
#
BLOCK MINPAR  # Input parameters - minimal models
#
BLOCK EXTPAR  # Input parameters - non-minimal models
         0     9.11876000E+01   # EWSB                
         1     4.63000000E+02   # M_1                 
         2     3.00000000E+03   # M_2                 
         3     5.00000000E+03   # M_3                 
        11     0.00000000E+00   # A_t                 
        12     0.00000000E+00   # A_b                 
        13     0.00000000E+00   # A_tau               
        14     0.00000000E+00   # A_u                 
        15     0.00000000E+00   # A_d                 
        16     0.00000000E+00   # A_e                 
        23     4.50000000E+02   # mu(EWSB)            
        25     1.50000000E+00   # tanbeta(in)         
        26     2.00000000E+03   # MA_pole             
        31     5.00000000E+03   # M_eL                
        32     5.00000000E+03   # M_muL               
        33     5.00000000E+03   # M_tauL              
        34     5.00000000E+03   # M_eR                
        35     5.00000000E+03   # M_muR               
        36     5.00000000E+03   # M_tauR              
        41     5.00000000E+03   # M_q1L               
        42     5.00000000E+03   # M_q2L               
        43     5.00000000E+03   # M_q3L               
        44     5.00000000E+03   # M_uR                
        45     5.00000000E+03   # M_cR                
        46     5.00000000E+03   # M_tR                
        47     5.00000000E+03   # M_dR                
        48     5.00000000E+03   # M_sR                
        49     5.00000000E+03   # M_bR                
#
BLOCK MASS  # Mass Spectrum
# PDG code           mass       particle
        24     8.05385941E+01   # W+
        25     1.26000000E+02   # h
        35     2.00454519E+03   # H
        36     2.00000000E+03   # A
        37     2.00202749E+03   # H+
         5     4.87877839E+00   # b-quark pole mass calculated from mb(mb)_Msbar
   1000001     4.38578751E+03   # ~d_L
   2000001     4.38566468E+03   # ~d_R
   1000002     4.38551295E+03   # ~u_L
   2000002     4.38557803E+03   # ~u_R
   1000003     4.38578751E+03   # ~s_L
   2000003     4.38566468E+03   # ~s_R
   1000004     4.38551295E+03   # ~c_L
   2000004     4.38557803E+03   # ~c_R
   1000005     4.38551143E+03   # ~b_1
   2000005     4.38594238E+03   # ~b_2
   1000006     4.53147048E+03   # ~t_1
   2000006     4.86719073E+03   # ~t_2
   1000011     5.00008241E+03   # ~e_L
   2000011     5.00007600E+03   # ~e_R
   1000012     4.99984158E+03   # ~nu_eL
   1000013     5.00008241E+03   # ~mu_L
   2000013     5.00007600E+03   # ~mu_R
   1000014     4.99984158E+03   # ~nu_muL
   1000015     4.99995950E+03   # ~tau_1
   2000015     5.00019955E+03   # ~tau_2
   1000016     4.99984158E+03   # ~nu_tauL
   1000021     4.51228032E+03   # ~g
   1000022     4.42327262E+02   # ~chi_10
   1000023    -4.84122214E+02   # ~chi_20
   1000025     5.29902871E+02   # ~chi_30
   1000035     3.12901690E+03   # ~chi_40
   1000024     4.81767377E+02   # ~chi_1+
   1000037     3.12901634E+03   # ~chi_2+
   1000039     1.00000000E-09   # ~gravitino
#
BLOCK NMIX  # Neutralino Mixing Matrix
  1  1     6.70490631E-01   # N_11
  1  2    -2.13975374E-02   # N_12
  1  3     5.29091348E-01   # N_13
  1  4    -5.19660277E-01   # N_14
  2  1     8.97841682E-03   # N_21
  2  2    -4.31377407E-03   # N_22
  2  3    -7.06541164E-01   # N_23
  2  4    -7.07601840E-01   # N_24
  3  1     7.41863500E-01   # N_31
  3  2     2.00631226E-02   # N_32
  3  3    -4.69625938E-01   # N_33
  3  4     4.78212816E-01   # N_34
  4  1     4.98738363E-04   # N_41
  4  2    -9.99560407E-01   # N_42
  4  3    -1.77033380E-02   # N_43
  4  4     2.37767792E-02   # N_44
#
BLOCK UMIX  # Chargino Mixing Matrix U
  1  1    -2.50273316E-02   # U_11
  1  2     9.99686767E-01   # U_12
  2  1     9.99686767E-01   # U_21
  2  2     2.50273316E-02   # U_22
#
BLOCK VMIX  # Chargino Mixing Matrix V
  1  1    -3.36194851E-02   # V_11
  1  2     9.99434705E-01   # V_12
  2  1     9.99434705E-01   # V_21
  2  2     3.36194851E-02   # V_22
#
BLOCK STOPMIX  # Stop Mixing Matrix
  1  1     9.98546601E-01   # cos(theta_t)
  1  2    -5.38951355E-02   # sin(theta_t)
  2  1     5.38951355E-02   # -sin(theta_t)
  2  2     9.98546601E-01   # cos(theta_t)
#
BLOCK SBOTMIX  # Sbottom Mixing Matrix
  1  1     5.97895414E-01   # cos(theta_b)
  1  2     8.01574123E-01   # sin(theta_b)
  2  1    -8.01574123E-01   # -sin(theta_b)
  2  2     5.97895414E-01   # cos(theta_b)
#
BLOCK STAUMIX  # Stau Mixing Matrix
  1  1     6.97596755E-01   # cos(theta_tau)
  1  2     7.16490591E-01   # sin(theta_tau)
  2  1    -7.16490591E-01   # -sin(theta_tau)
  2  2     6.97596755E-01   # cos(theta_tau)
#
BLOCK ALPHA  # Higgs mixing
          -5.90176748E-01   # Mixing angle in the neutral Higgs boson sector
#
BLOCK HMIX Q=  9.11876000E+01  # DRbar Higgs Parameters
         1     4.50000000E+02   # mu(Q)               
         2     1.49999979E+00   # tanbeta(Q)          
         3     2.51884058E+02   # vev(Q)              
         4     3.69956175E+06   # MA^2(Q)             
#
BLOCK GAUGE Q=  9.11876000E+01  # The gauge couplings
     1     3.52960887E-01   # gprime(Q) DRbar
     2     6.28307762E-01   # g(Q) DRbar
     3     1.06610630E+00   # g3(Q) DRbar
#
BLOCK AU Q=  9.11876000E+01  # The trilinear couplings
  1  1     0.00000000E+00   # A_u(Q) DRbar
  2  2     0.00000000E+00   # A_c(Q) DRbar
  3  3     0.00000000E+00   # A_t(Q) DRbar
#
BLOCK AD Q=  9.11876000E+01  # The trilinear couplings
  1  1     0.00000000E+00   # A_d(Q) DRbar
  2  2     0.00000000E+00   # A_s(Q) DRbar
  3  3     0.00000000E+00   # A_b(Q) DRbar
#
BLOCK AE Q=  9.11876000E+01  # The trilinear couplings
  1  1     0.00000000E+00   # A_e(Q) DRbar
  2  2     0.00000000E+00   # A_mu(Q) DRbar
  3  3     0.00000000E+00   # A_tau(Q) DRbar
#
BLOCK Yu Q=  9.11876000E+01  # The Yukawa couplings
  1  1     0.00000000E+00   # y_u(Q) DRbar
  2  2     0.00000000E+00   # y_c(Q) DRbar
  3  3     1.02549424E+00   # y_t(Q) DRbar
#
BLOCK Yd Q=  9.11876000E+01  # The Yukawa couplings
  1  1     0.00000000E+00   # y_d(Q) DRbar
  2  2     0.00000000E+00   # y_s(Q) DRbar
  3  3     2.71659042E-02   # y_b(Q) DRbar
#
BLOCK Ye Q=  9.11876000E+01  # The Yukawa couplings
  1  1     0.00000000E+00   # y_e(Q) DRbar
  2  2     0.00000000E+00   # y_mu(Q) DRbar
  3  3     1.79918276E-02   # y_tau(Q) DRbar
#
BLOCK MSOFT Q=  9.11876000E+01  # The soft SUSY breaking masses at the scale Q
         1     4.63000000E+02   # M_1                 
         2     3.00000000E+03   # M_2                 
         3     5.00000000E+03   # M_3                 
        14     0.00000000E+00   # A_u                 
        15     0.00000000E+00   # A_d                 
        16     0.00000000E+00   # A_e                 
        21     2.83423667E+06   # M^2_Hd              
        22    -4.82094095E+06   # M^2_Hu              
        31     5.00000000E+03   # M_eL                
        32     5.00000000E+03   # M_muL               
        33     5.00000000E+03   # M_tauL              
        34     5.00000000E+03   # M_eR                
        35     5.00000000E+03   # M_muR               
        36     5.00000000E+03   # M_tauR              
        41     5.00000000E+03   # M_q1L               
        42     5.00000000E+03   # M_q2L               
        43     5.00000000E+03   # M_q3L               
        44     5.00000000E+03   # M_uR                
        45     5.00000000E+03   # M_cR                
        46     5.00000000E+03   # M_tR                
        47     5.00000000E+03   # M_dR                
        48     5.00000000E+03   # M_sR                
        49     5.00000000E+03   # M_bR                
#
#
#
#                             =================
#                             |The decay table|
#                             =================
#
# - The QCD corrections to the decays gluino -> squark  + quark
#                                     squark -> gaugino + quark_prime
#                                     squark -> squark_prime + Higgs
#                                     squark -> gluino  + quark
#   are included.
#
# - The multi-body decays for the inos, stops and sbottoms are included.
#
# - The loop induced decays for the gluino, neutralinos and stops
#   are included.
#
# - The SUSY decays of the top quark are included.
#
# - Possible decays of the NLSP in GMSB models are included.
#
#
#         PDG            Width
DECAY         6     1.37554577E+00   # top decays
#          BR         NDA      ID1       ID2
     1.00000000E+00    2           5        24   # BR(t ->  b    W+)
#
#         PDG            Width
DECAY   1000021     1.73404812E+00   # gluino decays
#          BR         NDA      ID1       ID2
     4.98363962E-02    2     1000001        -1   # BR(~g -> ~d_L  db)
     4.98363962E-02    2    -1000001         1   # BR(~g -> ~d_L* d )
     4.99318513E-02    2     2000001        -1   # BR(~g -> ~d_R  db)
     4.99318513E-02    2    -2000001         1   # BR(~g -> ~d_R* d )
     5.00498878E-02    2     1000002        -2   # BR(~g -> ~u_L  ub)
     5.00498878E-02    2    -1000002         2   # BR(~g -> ~u_L* u )
     4.99992430E-02    2     2000002        -2   # BR(~g -> ~u_R  ub)
     4.99992430E-02    2    -2000002         2   # BR(~g -> ~u_R* u )
     4.98363962E-02    2     1000003        -3   # BR(~g -> ~s_L  sb)
     4.98363962E-02    2    -1000003         3   # BR(~g -> ~s_L* s )
     4.99318513E-02    2     2000003        -3   # BR(~g -> ~s_R  sb)
     4.99318513E-02    2    -2000003         3   # BR(~g -> ~s_R* s )
     5.00498878E-02    2     1000004        -4   # BR(~g -> ~c_L  cb)
     5.00498878E-02    2    -1000004         4   # BR(~g -> ~c_L* c )
     4.99992430E-02    2     2000004        -4   # BR(~g -> ~c_R  cb)
     4.99992430E-02    2    -2000004         4   # BR(~g -> ~c_R* c )
     4.96187496E-02    2     1000005        -5   # BR(~g -> ~b_1  bb)
     4.96187496E-02    2    -1000005         5   # BR(~g -> ~b_1* b )
     5.01262870E-02    2     2000005        -5   # BR(~g -> ~b_2  bb)
     5.01262870E-02    2    -2000005         5   # BR(~g -> ~b_2* b )
     1.24041378E-03    2     1000039        21   # BR(~g -> ~G g)
#
#         PDG            Width
DECAY   1000006     7.34239878E+01   # stop1 decays
#          BR         NDA      ID1       ID2
     2.10988699E-01    2     1000022         6   # BR(~t_1 -> ~chi_10 t )
     4.19823775E-01    2     1000023         6   # BR(~t_1 -> ~chi_20 t )
     2.16411992E-01    2     1000025         6   # BR(~t_1 -> ~chi_30 t )
     6.49497613E-02    2     1000035         6   # BR(~t_1 -> ~chi_40 t )
     5.17509842E-03    2     1000024         5   # BR(~t_1 -> ~chi_1+ b )
     1.29667964E-01    2     1000037         5   # BR(~t_1 -> ~chi_2+ b )
    -1.68770914E-02    2     1000005        24   # BR(~t_1 -> ~b_1    W+)
    -3.01401986E-02    2     2000005        24   # BR(~t_1 -> ~b_2    W+)
#
#         PDG            Width
DECAY   2000006     1.48545716E+02   # stop2 decays
#          BR         NDA      ID1       ID2
     1.60228319E-01    2     1000022         6   # BR(~t_2 -> ~chi_10 t )
     2.23349629E-01    2     1000023         6   # BR(~t_2 -> ~chi_20 t )
     1.28688931E-01    2     1000025         6   # BR(~t_2 -> ~chi_30 t )
    -2.62975982E-06    2     1000035         6   # BR(~t_2 -> ~chi_40 t )
     4.43625195E-01    2     1000024         5   # BR(~t_2 -> ~chi_1+ b )
    -8.59679588E-06    2     1000037         5   # BR(~t_2 -> ~chi_2+ b )
     3.70276891E-02    2     1000021         6   # BR(~t_2 -> ~g      t )
    -6.56301142E-04    2     1000006        25   # BR(~t_2 -> ~t_1    h )
     1.52824743E-03    2     1000006        23   # BR(~t_2 -> ~t_1    Z )
     2.23063187E-03    2     1000005        24   # BR(~t_2 -> ~b_1    W+)
     3.98888458E-03    2     2000005        24   # BR(~t_2 -> ~b_2    W+)
#
#         PDG            Width
DECAY   1000005    -1.07640114E+01   # sbottom1 decays
#          BR         NDA      ID1       ID2
    -1.10232422E-01    2     1000022         5   # BR(~b_1 -> ~chi_10 b )
    -1.63519158E-03    2     1000023         5   # BR(~b_1 -> ~chi_20 b )
    -1.10536216E-01    2     1000025         5   # BR(~b_1 -> ~chi_30 b )
     1.29803196E-02    2     1000035         5   # BR(~b_1 -> ~chi_40 b )
     1.18302220E+00    2    -1000024         6   # BR(~b_1 -> ~chi_1- t )
     2.64013121E-02    2    -1000037         6   # BR(~b_1 -> ~chi_2- t )
#
#         PDG            Width
DECAY   2000005     8.60404434E+01   # sbottom2 decays
#          BR         NDA      ID1       ID2
     2.49351826E-03    2     1000022         5   # BR(~b_2 -> ~chi_10 b )
     2.97266030E-04    2     1000023         5   # BR(~b_2 -> ~chi_20 b )
     3.51028195E-03    2     1000025         5   # BR(~b_2 -> ~chi_30 b )
     4.90146333E-02    2     1000035         5   # BR(~b_2 -> ~chi_40 b )
     8.46486286E-01    2    -1000024         6   # BR(~b_2 -> ~chi_1- t )
     9.81980139E-02    2    -1000037         6   # BR(~b_2 -> ~chi_2- t )
#
#         PDG            Width
DECAY   1000002     1.28422186E+01   # sup_L decays
#          BR         NDA      ID1       ID2
     1.37442138E-02    2     1000022         2   # BR(~u_L -> ~chi_10 u)
     8.74612972E-06    2     1000023         2   # BR(~u_L -> ~chi_20 u)
     3.17483832E-02    2     1000025         2   # BR(~u_L -> ~chi_30 u)
     3.17228560E-01    2     1000035         2   # BR(~u_L -> ~chi_40 u)
     2.85353543E-03    2     1000024         1   # BR(~u_L -> ~chi_1+ d)
     6.34416562E-01    2     1000037         1   # BR(~u_L -> ~chi_2+ d)
#
#         PDG            Width
DECAY   2000002     9.08539648E+00   # sup_R decays
#          BR         NDA      ID1       ID2
     4.51681491E-01    2     1000022         2   # BR(~u_R -> ~chi_10 u)
     8.06786775E-05    2     1000023         2   # BR(~u_R -> ~chi_20 u)
     5.48237767E-01    2     1000025         2   # BR(~u_R -> ~chi_30 u)
     6.26461813E-08    2     1000035         2   # BR(~u_R -> ~chi_40 u)
#
#         PDG            Width
DECAY   1000001     1.28307893E+01   # sdown_L decays
#          BR         NDA      ID1       ID2
     2.73847806E-02    2     1000022         1   # BR(~d_L -> ~chi_10 d)
     4.54008571E-05    2     1000023         1   # BR(~d_L -> ~chi_20 d)
     1.77612746E-02    2     1000025         1   # BR(~d_L -> ~chi_30 d)
     3.17727770E-01    2     1000035         1   # BR(~d_L -> ~chi_40 d)
     1.58285282E-03    2    -1000024         2   # BR(~d_L -> ~chi_1- u)
     6.35497921E-01    2    -1000037         2   # BR(~d_L -> ~chi_2- u)
#
#         PDG            Width
DECAY   2000001     2.27138818E+00   # sdown_R decays
#          BR         NDA      ID1       ID2
     4.51681402E-01    2     1000022         1   # BR(~d_R -> ~chi_10 d)
     8.06786748E-05    2     1000023         1   # BR(~d_R -> ~chi_20 d)
     5.48237857E-01    2     1000025         1   # BR(~d_R -> ~chi_30 d)
     6.26512003E-08    2     1000035         1   # BR(~d_R -> ~chi_40 d)
#
#         PDG            Width
DECAY   1000004     1.28422186E+01   # scharm_L decays
#          BR         NDA      ID1       ID2
     1.37442138E-02    2     1000022         4   # BR(~c_L -> ~chi_10 c)
     8.74612972E-06    2     1000023         4   # BR(~c_L -> ~chi_20 c)
     3.17483832E-02    2     1000025         4   # BR(~c_L -> ~chi_30 c)
     3.17228560E-01    2     1000035         4   # BR(~c_L -> ~chi_40 c)
     2.85353543E-03    2     1000024         3   # BR(~c_L -> ~chi_1+ s)
     6.34416562E-01    2     1000037         3   # BR(~c_L -> ~chi_2+ s)
#
#         PDG            Width
DECAY   2000004     9.08539648E+00   # scharm_R decays
#          BR         NDA      ID1       ID2
     4.51681491E-01    2     1000022         4   # BR(~c_R -> ~chi_10 c)
     8.06786775E-05    2     1000023         4   # BR(~c_R -> ~chi_20 c)
     5.48237767E-01    2     1000025         4   # BR(~c_R -> ~chi_30 c)
     6.26461813E-08    2     1000035         4   # BR(~c_R -> ~chi_40 c)
#
#         PDG            Width
DECAY   1000003     1.28307893E+01   # sstrange_L decays
#          BR         NDA      ID1       ID2
     2.73847806E-02    2     1000022         3   # BR(~s_L -> ~chi_10 s)
     4.54008571E-05    2     1000023         3   # BR(~s_L -> ~chi_20 s)
     1.77612746E-02    2     1000025         3   # BR(~s_L -> ~chi_30 s)
     3.17727770E-01    2     1000035         3   # BR(~s_L -> ~chi_40 s)
     1.58285282E-03    2    -1000024         4   # BR(~s_L -> ~chi_1- c)
     6.35497921E-01    2    -1000037         4   # BR(~s_L -> ~chi_2- c)
#
#         PDG            Width
DECAY   2000003     2.27138818E+00   # sstrange_R decays
#          BR         NDA      ID1       ID2
     4.51681402E-01    2     1000022         3   # BR(~s_R -> ~chi_10 s)
     8.06786748E-05    2     1000023         3   # BR(~s_R -> ~chi_20 s)
     5.48237857E-01    2     1000025         3   # BR(~s_R -> ~chi_30 s)
     6.26512003E-08    2     1000035         3   # BR(~s_R -> ~chi_40 s)
#
#         PDG            Width
DECAY   1000011     2.79088593E+01   # selectron_L decays
#          BR         NDA      ID1       ID2
     8.74075465E-02    2     1000022        11   # BR(~e_L -> ~chi_10 e-)
     3.67892651E-07    2     1000023        11   # BR(~e_L -> ~chi_20 e-)
     1.31239792E-01    2     1000025        11   # BR(~e_L -> ~chi_30 e-)
     2.60021263E-01    2     1000035        11   # BR(~e_L -> ~chi_40 e-)
     8.65043197E-04    2    -1000024        12   # BR(~e_L -> ~chi_1- nu_e)
     5.20465987E-01    2    -1000037        12   # BR(~e_L -> ~chi_2- nu_e)
#
#         PDG            Width
DECAY   2000011     2.43066080E+01   # selectron_R decays
#          BR         NDA      ID1       ID2
     4.51259911E-01    2     1000022        11   # BR(~e_R -> ~chi_10 e-)
     8.06647739E-05    2     1000023        11   # BR(~e_R -> ~chi_20 e-)
     5.48659331E-01    2     1000025        11   # BR(~e_R -> ~chi_30 e-)
     9.38780080E-08    2     1000035        11   # BR(~e_R -> ~chi_40 e-)
#
#         PDG            Width
DECAY   1000013     2.79088593E+01   # smuon_L decays
#          BR         NDA      ID1       ID2
     8.74075465E-02    2     1000022        13   # BR(~mu_L -> ~chi_10 mu-)
     3.67892651E-07    2     1000023        13   # BR(~mu_L -> ~chi_20 mu-)
     1.31239792E-01    2     1000025        13   # BR(~mu_L -> ~chi_30 mu-)
     2.60021263E-01    2     1000035        13   # BR(~mu_L -> ~chi_40 mu-)
     8.65043197E-04    2    -1000024        14   # BR(~mu_L -> ~chi_1- nu_mu)
     5.20465987E-01    2    -1000037        14   # BR(~mu_L -> ~chi_2- nu_mu)
#
#         PDG            Width
DECAY   2000013     2.43066080E+01   # smuon_R decays
#          BR         NDA      ID1       ID2
     4.51259911E-01    2     1000022        13   # BR(~mu_R -> ~chi_10 mu-)
     8.06647739E-05    2     1000023        13   # BR(~mu_R -> ~chi_20 mu-)
     5.48659331E-01    2     1000025        13   # BR(~mu_R -> ~chi_30 mu-)
     9.38780080E-08    2     1000035        13   # BR(~mu_R -> ~chi_40 mu-)
#
#         PDG            Width
DECAY   1000015     2.61374191E+01   # stau_1 decays
#          BR         NDA      ID1       ID2
     2.67500382E-01    2     1000022        15   # BR(~tau_1 -> ~chi_10  tau-)
     4.44927039E-04    2     1000023        15   # BR(~tau_1 -> ~chi_20  tau-)
     3.24864882E-01    2     1000025        15   # BR(~tau_1 -> ~chi_30  tau-)
     1.34902040E-01    2     1000035        15   # BR(~tau_1 -> ~chi_40  tau-)
     2.12592313E-03    2    -1000024        16   # BR(~tau_1 -> ~chi_1-  nu_tau)
     2.70024203E-01    2    -1000037        16   # BR(~tau_1 -> ~chi_2-  nu_tau)
     1.37643636E-04    2     1000039        15   # BR(~tau_1 -> ~G       tau-)
#
#         PDG            Width
DECAY   2000015     2.61764309E+01   # stau_2 decays
#          BR         NDA      ID1       ID2
     2.45793191E-01    2     1000022        15   # BR(~tau_2 -> ~chi_10  tau-)
     8.36246061E-04    2     1000023        15   # BR(~tau_2 -> ~chi_20  tau-)
     3.25544108E-01    2     1000025        15   # BR(~tau_2 -> ~chi_30  tau-)
     1.42529771E-01    2     1000035        15   # BR(~tau_2 -> ~chi_40  tau-)
     6.11491859E-06    2    -1000024        16   # BR(~tau_2 -> ~chi_1-  nu_tau)
     2.85290569E-01    2    -1000037        16   # BR(~tau_2 -> ~chi_2-  nu_tau)
#
#         PDG            Width
DECAY   1000012     2.79078143E+01   # snu_eL decays
#          BR         NDA      ID1       ID2
     1.09733005E-01    2     1000022        12   # BR(~nu_eL -> ~chi_10 nu_e)
     6.04527125E-05    2     1000023        12   # BR(~nu_eL -> ~chi_20 nu_e)
     1.08234255E-01    2     1000025        12   # BR(~nu_eL -> ~chi_30 nu_e)
     2.60277884E-01    2     1000035        12   # BR(~nu_eL -> ~chi_40 nu_e)
     1.56093700E-03    2     1000024        11   # BR(~nu_eL -> ~chi_1+ e-)
     5.20133465E-01    2     1000037        11   # BR(~nu_eL -> ~chi_2+ e-)
#
#         PDG            Width
DECAY   1000014     2.79078143E+01   # snu_muL decays
#          BR         NDA      ID1       ID2
     1.09733005E-01    2     1000022        14   # BR(~nu_muL -> ~chi_10 nu_mu)
     6.04527125E-05    2     1000023        14   # BR(~nu_muL -> ~chi_20 nu_mu)
     1.08234255E-01    2     1000025        14   # BR(~nu_muL -> ~chi_30 nu_mu)
     2.60277884E-01    2     1000035        14   # BR(~nu_muL -> ~chi_40 nu_mu)
     1.56093700E-03    2     1000024        13   # BR(~nu_muL -> ~chi_1+ mu-)
     5.20133465E-01    2     1000037        13   # BR(~nu_muL -> ~chi_2+ mu-)
#
#         PDG            Width
DECAY   1000016     2.79394056E+01   # snu_tauL decays
#          BR         NDA      ID1       ID2
     1.09608929E-01    2     1000022        16   # BR(~nu_tauL -> ~chi_10 nu_tau)
     6.03843581E-05    2     1000023        16   # BR(~nu_tauL -> ~chi_20 nu_tau)
     1.08111874E-01    2     1000025        16   # BR(~nu_tauL -> ~chi_30 nu_tau)
     2.59983586E-01    2     1000035        16   # BR(~nu_tauL -> ~chi_40 nu_tau)
     2.68942258E-03    2     1000024        15   # BR(~nu_tauL -> ~chi_1+ tau-)
     5.19545804E-01    2     1000037        15   # BR(~nu_tauL -> ~chi_2+ tau-)
#
#         PDG            Width
DECAY   1000024     6.04989933E-05   # chargino1+ decays
#          BR         NDA      ID1       ID2
     2.21526092E-04    2     1000039        24   # BR(~chi_1+ -> ~G       W+)
#           BR         NDA      ID1       ID2       ID3
     3.33631535E-01    3     1000022         2        -1   # BR(~chi_1+ -> ~chi_10 u    db)
     3.33631535E-01    3     1000022         4        -3   # BR(~chi_1+ -> ~chi_10 c    sb)
     1.11210634E-01    3     1000022       -11        12   # BR(~chi_1+ -> ~chi_10 e+   nu_e)
     1.11210634E-01    3     1000022       -13        14   # BR(~chi_1+ -> ~chi_10 mu+  nu_mu)
     1.10094136E-01    3     1000022       -15        16   # BR(~chi_1+ -> ~chi_10 tau+ nu_tau)
#
#         PDG            Width
DECAY   1000037     3.50036937E+01   # chargino2+ decays
#          BR         NDA      ID1       ID2
     2.21824219E-01    2     1000024        23   # BR(~chi_2+ -> ~chi_1+  Z )
     1.12760201E-01    2     1000022        24   # BR(~chi_2+ -> ~chi_10  W+)
     2.16297413E-01    2     1000023        24   # BR(~chi_2+ -> ~chi_20  W+)
     1.03528745E-01    2     1000025        24   # BR(~chi_2+ -> ~chi_30  W+)
     2.22785709E-01    2     1000024        25   # BR(~chi_2+ -> ~chi_1+  h )
     3.05700429E-02    2     1000024        35   # BR(~chi_2+ -> ~chi_1+  H )
     3.08335536E-02    2     1000024        36   # BR(~chi_2+ -> ~chi_1+  A )
     1.80142726E-02    2     1000022        37   # BR(~chi_2+ -> ~chi_10  H+)
     3.05961558E-02    2     1000023        37   # BR(~chi_2+ -> ~chi_20  H+)
     1.27798520E-02    2     1000025        37   # BR(~chi_2+ -> ~chi_30  H+)
     9.83617714E-06    2     1000039        24   # BR(~chi_2+ -> ~G       W+)
     4.69026607E-10    2     1000039        37   # BR(~chi_2+ -> ~G       H+)
#
#         PDG            Width
DECAY   1000022    1.0E-05    # neutralino1 decays
#          BR         NDA      ID1       ID2
     5.00141920E-01    2     1000039        22   # BR(~chi_10 -> ~G        gam)
     4.89660027E-01    2     1000039        23   # BR(~chi_10 -> ~G        Z)
     1.01980533E-02    2     1000039        25   # BR(~chi_10 -> ~G        h)
#
#         PDG            Width
DECAY   1000023     6.53570238E-05   # neutralino2 decays
#          BR         NDA      ID1       ID2
     7.99233713E-04    2     1000022        22   # BR(~chi_20 -> ~chi_10 gam)
#          BR         NDA      ID1       ID2
     1.53006489E-08    2     1000039        22   # BR(~chi_20 -> ~G        gam)
     7.88155837E-06    2     1000039        23   # BR(~chi_20 -> ~G        Z)
     1.70301784E-04    2     1000039        25   # BR(~chi_20 -> ~G        h)
#           BR         NDA      ID1       ID2       ID3
     1.19106062E-01    3     1000022        -2         2   # BR(~chi_20 -> ~chi_10 ub      u)
     1.54187818E-01    3     1000022        -1         1   # BR(~chi_20 -> ~chi_10 db      d)
     1.19106062E-01    3     1000022        -4         4   # BR(~chi_20 -> ~chi_10 cb      c)
     1.54187818E-01    3     1000022        -3         3   # BR(~chi_20 -> ~chi_10 sb      s)
     1.36439909E-01    3     1000022        -5         5   # BR(~chi_20 -> ~chi_10 bb      b)
     3.51970934E-02    3     1000022       -11        11   # BR(~chi_20 -> ~chi_10 e+      e-)
     3.51970934E-02    3     1000022       -13        13   # BR(~chi_20 -> ~chi_10 mu+     mu-)
     3.47600102E-02    3     1000022       -15        15   # BR(~chi_20 -> ~chi_10 tau+    tau-)
     7.02795012E-02    3     1000022       -12        12   # BR(~chi_20 -> ~chi_10 nu_eb   nu_e)
     7.02795012E-02    3     1000022       -14        14   # BR(~chi_20 -> ~chi_10 nu_mub  nu_mu)
     7.02795012E-02    3     1000022       -16        16   # BR(~chi_20 -> ~chi_10 nu_taub nu_tau)
     4.10425983E-07    3     1000024        -2         1   # BR(~chi_20 -> ~chi_1+ ub      d)
     4.10425983E-07    3    -1000024        -1         2   # BR(~chi_20 -> ~chi_1- db      u)
     4.10425983E-07    3     1000024        -4         3   # BR(~chi_20 -> ~chi_1+ cb      s)
     4.10425983E-07    3    -1000024        -3         4   # BR(~chi_20 -> ~chi_1- sb      c)
     1.36808676E-07    3     1000024       -12        11   # BR(~chi_20 -> ~chi_1+ nu_eb   e-)
     1.36808676E-07    3    -1000024        12       -11   # BR(~chi_20 -> ~chi_1- nu_e    e+)
     1.36808676E-07    3     1000024       -14        13   # BR(~chi_20 -> ~chi_1+ nu_mub  mu-)
     1.36808676E-07    3    -1000024        14       -13   # BR(~chi_20 -> ~chi_1- nu_mu   mu+)
     4.83191218E-09    3     1000024       -16        15   # BR(~chi_20 -> ~chi_1+ nu_taub tau-)
     4.83191218E-09    3    -1000024        16       -15   # BR(~chi_20 -> ~chi_1- nu_tau  tau+)
#
#         PDG            Width
DECAY   1000025     3.75369036E-04   # neutralino3 decays
#          BR         NDA      ID1       ID2
     2.11343984E-04    2     1000022        22   # BR(~chi_30 -> ~chi_10 gam)
     5.22847761E-04    2     1000023        22   # BR(~chi_30 -> ~chi_20 gam)
#          BR         NDA      ID1       ID2
     5.52506170E-05    2     1000039        22   # BR(~chi_30 -> ~G        gam)
     3.82202361E-05    2     1000039        23   # BR(~chi_30 -> ~G        Z)
     9.38543269E-07    2     1000039        25   # BR(~chi_30 -> ~G        h)
#           BR         NDA      ID1       ID2       ID3
     5.35797362E-08    3     1000022        -2         2   # BR(~chi_30 -> ~chi_10 ub      u)
     5.41704586E-08    3     1000022        -1         1   # BR(~chi_30 -> ~chi_10 db      d)
     5.35797362E-08    3     1000022        -4         4   # BR(~chi_30 -> ~chi_10 cb      c)
     5.41704586E-08    3     1000022        -3         3   # BR(~chi_30 -> ~chi_10 sb      s)
     1.06115240E-06    3     1000022        -5         5   # BR(~chi_30 -> ~chi_10 bb      b)
     9.78931736E-08    3     1000022       -11        11   # BR(~chi_30 -> ~chi_10 e+      e-)
     9.78931736E-08    3     1000022       -13        13   # BR(~chi_30 -> ~chi_10 mu+     mu-)
     2.49514515E-07    3     1000022       -15        15   # BR(~chi_30 -> ~chi_10 tau+    tau-)
     9.43683860E-09    3     1000022       -12        12   # BR(~chi_30 -> ~chi_10 nu_eb   nu_e)
     9.43683860E-09    3     1000022       -14        14   # BR(~chi_30 -> ~chi_10 nu_mub  nu_mu)
     9.43683860E-09    3     1000022       -16        16   # BR(~chi_30 -> ~chi_10 nu_taub nu_tau)
     2.75015206E-02    3     1000023        -2         2   # BR(~chi_30 -> ~chi_20 ub      u)
     3.56020465E-02    3     1000023        -1         1   # BR(~chi_30 -> ~chi_20 db      d)
     2.75015206E-02    3     1000023        -4         4   # BR(~chi_30 -> ~chi_20 cb      c)
     3.56020465E-02    3     1000023        -3         3   # BR(~chi_30 -> ~chi_20 sb      s)
     3.21237877E-02    3     1000023        -5         5   # BR(~chi_30 -> ~chi_20 bb      b)
     8.12709855E-03    3     1000023       -11        11   # BR(~chi_30 -> ~chi_20 e+      e-)
     8.12709855E-03    3     1000023       -13        13   # BR(~chi_30 -> ~chi_20 mu+     mu-)
     8.03896150E-03    3     1000023       -15        15   # BR(~chi_30 -> ~chi_20 tau+    tau-)
     1.62274603E-02    3     1000023       -12        12   # BR(~chi_30 -> ~chi_20 nu_eb   nu_e)
     1.62274603E-02    3     1000023       -14        14   # BR(~chi_30 -> ~chi_20 nu_mub  nu_mu)
     1.62274603E-02    3     1000023       -16        16   # BR(~chi_30 -> ~chi_20 nu_taub nu_tau)
     1.28072689E-01    3     1000024        -2         1   # BR(~chi_30 -> ~chi_1+ ub      d)
     1.28072689E-01    3    -1000024        -1         2   # BR(~chi_30 -> ~chi_1- db      u)
     1.28072689E-01    3     1000024        -4         3   # BR(~chi_30 -> ~chi_1+ cb      s)
     1.28072689E-01    3    -1000024        -3         4   # BR(~chi_30 -> ~chi_1- sb      c)
     4.26907999E-02    3     1000024       -12        11   # BR(~chi_30 -> ~chi_1+ nu_eb   e-)
     4.26907999E-02    3    -1000024        12       -11   # BR(~chi_30 -> ~chi_1- nu_e    e+)
     4.26907999E-02    3     1000024       -14        13   # BR(~chi_30 -> ~chi_1+ nu_mub  mu-)
     4.26907999E-02    3    -1000024        14       -13   # BR(~chi_30 -> ~chi_1- nu_mu   mu+)
     4.24046157E-02    3     1000024       -16        15   # BR(~chi_30 -> ~chi_1+ nu_taub tau-)
     4.24046157E-02    3    -1000024        16       -15   # BR(~chi_30 -> ~chi_1- nu_tau  tau+)
#
#         PDG            Width
DECAY   1000035     3.50040901E+01   # neutralino4 decays
#          BR         NDA      ID1       ID2
     2.28818397E-03    2     1000022        23   # BR(~chi_40 -> ~chi_10   Z )
     2.17340312E-01    2     1000023        23   # BR(~chi_40 -> ~chi_20   Z )
     2.32956024E-03    2     1000025        23   # BR(~chi_40 -> ~chi_30   Z )
     2.16109065E-01    2     1000024       -24   # BR(~chi_40 -> ~chi_1+   W-)
     2.16109065E-01    2    -1000024        24   # BR(~chi_40 -> ~chi_1-   W+)
     1.13985764E-01    2     1000022        25   # BR(~chi_40 -> ~chi_10   h )
     1.89747373E-03    2     1000022        35   # BR(~chi_40 -> ~chi_10   H )
     1.60906381E-02    2     1000022        36   # BR(~chi_40 -> ~chi_10   A )
     4.60716789E-03    2     1000023        25   # BR(~chi_40 -> ~chi_20   h )
     2.71919562E-02    2     1000023        35   # BR(~chi_40 -> ~chi_20   H )
     3.30338277E-03    2     1000023        36   # BR(~chi_40 -> ~chi_20   A )
     1.04428560E-01    2     1000025        25   # BR(~chi_40 -> ~chi_30   h )
     1.34922353E-03    2     1000025        35   # BR(~chi_40 -> ~chi_30   H )
     1.14145528E-02    2     1000025        36   # BR(~chi_40 -> ~chi_30   A )
     3.07726294E-02    2     1000024       -37   # BR(~chi_40 -> ~chi_1+   H-)
     3.07726294E-02    2    -1000024        37   # BR(~chi_40 -> ~chi_1-   H+)
     2.36015478E-06    2     1000039        22   # BR(~chi_40 -> ~G        gam)
     7.47518266E-06    2     1000039        23   # BR(~chi_40 -> ~G        Z)
     4.80575493E-10    2     1000039        25   # BR(~chi_40 -> ~G        h)
     4.65320266E-10    2     1000039        35   # BR(~chi_40 -> ~G        H)
     1.43350489E-12    2     1000039        36   # BR(~chi_40 -> ~G        A)
#
#         PDG            Width
DECAY        25     4.21869274E-03   # h decays
#          BR         NDA      ID1       ID2
     6.01808646E-01    2           5        -5   # BR(h -> b       bb     )
     6.22291479E-02    2         -15        15   # BR(h -> tau+    tau-   )
     2.20264054E-04    2         -13        13   # BR(h -> mu+     mu-    )
     4.66036817E-04    2           3        -3   # BR(h -> s       sb     )
     2.01079298E-02    2           4        -4   # BR(h -> c       cb     )
     6.64260384E-02    2          21        21   # BR(h -> g       g      )
     2.31165307E-03    2          22        22   # BR(h -> gam     gam    )
     1.62636143E-03    2          22        23   # BR(h -> Z       gam    )
     2.16725192E-01    2          24       -24   # BR(h -> W+      W-     )
     2.80787311E-02    2          23        23   # BR(h -> Z       Z      )
#
#         PDG            Width
DECAY        35     3.99055774E+01   # H decays
#          BR         NDA      ID1       ID2
     1.39462432E-03    2           5        -5   # BR(H -> b       bb     )
     2.33557863E-04    2         -15        15   # BR(H -> tau+    tau-   )
     8.25713999E-07    2         -13        13   # BR(H -> mu+     mu-    )
     1.05717705E-06    2           3        -3   # BR(H -> s       sb     )
     9.53967818E-06    2           4        -4   # BR(H -> c       cb     )
     9.43921008E-01    2           6        -6   # BR(H -> t       tb     )
     7.55645689E-04    2          21        21   # BR(H -> g       g      )
     2.63593700E-06    2          22        22   # BR(H -> gam     gam    )
     1.09852605E-06    2          23        22   # BR(H -> Z       gam    )
     3.10060750E-04    2          24       -24   # BR(H -> W+      W-     )
     1.54607657E-04    2          23        23   # BR(H -> Z       Z      )
     8.57242151E-04    2          25        25   # BR(H -> h       h      )
     1.32008380E-23    2          36        36   # BR(H -> A       A      )
     5.24451601E-11    2          23        36   # BR(H -> Z       A      )
     6.66496076E-12    2          24       -37   # BR(H -> W+      H-     )
     6.66496076E-12    2         -24        37   # BR(H -> W-      H+     )
     5.65553666E-05    2     1000024  -1000024   # BR(H -> ~chi_1+ ~chi_1-)
     9.95616116E-04    2     1000022   1000022   # BR(H -> ~chi_10 ~chi_10)
     2.27768352E-05    2     1000023   1000023   # BR(H -> ~chi_20 ~chi_20)
     5.62540289E-04    2     1000025   1000025   # BR(H -> ~chi_30 ~chi_30)
     2.57751341E-02    2     1000022   1000023   # BR(H -> ~chi_10 ~chi_20)
     1.26377509E-05    2     1000022   1000025   # BR(H -> ~chi_10 ~chi_30)
     2.49328359E-02    2     1000023   1000025   # BR(H -> ~chi_20 ~chi_30)
#
#         PDG            Width
DECAY        36     4.03522932E+01   # A decays
#          BR         NDA      ID1       ID2
     1.39717454E-03    2           5        -5   # BR(A -> b       bb     )
     2.31119861E-04    2         -15        15   # BR(A -> tau+    tau-   )
     8.17092198E-07    2         -13        13   # BR(A -> mu+     mu-    )
     1.07721810E-06    2           3        -3   # BR(A -> s       sb     )
     9.43986560E-06    2           4        -4   # BR(A -> c       cb     )
     9.44763134E-01    2           6        -6   # BR(A -> t       tb     )
     8.94236255E-04    2          21        21   # BR(A -> g       g      )
     2.66896266E-06    2          22        22   # BR(A -> gam     gam    )
     1.28093898E-06    2          23        22   # BR(A -> Z       gam    )
     3.01950510E-04    2          23        25   # BR(A -> Z       h      )
     6.47346873E-04    2     1000024  -1000024   # BR(A -> ~chi_1+ ~chi_1-)
     2.86074017E-02    2     1000022   1000022   # BR(A -> ~chi_10 ~chi_10)
     1.16225965E-06    2     1000023   1000023   # BR(A -> ~chi_20 ~chi_20)
     2.15241545E-02    2     1000025   1000025   # BR(A -> ~chi_30 ~chi_30)
     6.61474922E-04    2     1000022   1000023   # BR(A -> ~chi_10 ~chi_20)
     1.12651123E-04    2     1000022   1000025   # BR(A -> ~chi_10 ~chi_30)
     8.42908973E-04    2     1000023   1000025   # BR(A -> ~chi_20 ~chi_30)
#
#         PDG            Width
DECAY        37     3.95429181E+01   # H+ decays
#          BR         NDA      ID1       ID2
     2.24052592E-06    2           4        -5   # BR(H+ -> c       bb     )
     2.36089577E-04    2         -15        16   # BR(H+ -> tau+    nu_tau )
     8.34661940E-07    2         -13        14   # BR(H+ -> mu+     nu_mu  )
     1.42447523E-08    2           2        -5   # BR(H+ -> u       bb     )
     5.16889222E-08    2           2        -3   # BR(H+ -> u       sb     )
     1.02992127E-05    2           4        -3   # BR(H+ -> c       sb     )
     9.46654227E-01    2           6        -5   # BR(H+ -> t       bb     )
     3.09509651E-04    2          24        25   # BR(H+ -> W+      h      )
     1.13915138E-12    2          24        36   # BR(H+ -> W+      A      )
     2.39068418E-02    2     1000024   1000022   # BR(H+ -> ~chi_1+ ~chi_10)
     1.46285237E-04    2     1000024   1000023   # BR(H+ -> ~chi_1+ ~chi_20)
     2.87336064E-02    2     1000024   1000025   # BR(H+ -> ~chi_1+ ~chi_30)
