#
#                              ======================
#                              | THE SUSYHIT OUTPUT |
#                              ======================
#
#
#              ------------------------------------------------------
#              |     This is the output of the SUSY-HIT package     |
#              |  created by A.Djouadi, M.Muehlleitner and M.Spira. |
#              |  In case of problems with SUSY-HIT email to        |
#              |           margarete.muehlleitner@cern.ch           |
#              |           michael.spira@psi.ch                     |
#              |           abdelhak.djouadi@cern.ch                 |
#              ------------------------------------------------------
#
#              ------------------------------------------------------
#              |  SUSY Les Houches Accord - MSSM Spectrum + Decays  |
#              |              based on the decay programs           |
#              |                                                    |
#              |                     SDECAY 1.3b                    |
#              |                                                    |
#              |  Authors: M.Muhlleitner, A.Djouadi and Y.Mambrini  |
#              |  Ref.:    Comput.Phys.Commun.168(2005)46           |
#              |           [hep-ph/0311167]                         |
#              |                                                    |
#              |                     HDECAY 3.4                     |
#              |                                                    |
#              |  By: A.Djouadi,J.Kalinowski,M.Muhlleitner,M.Spira  |
#              |  Ref.:    Comput.Phys.Commun.108(1998)56           |
#              |           [hep-ph/9704448]                         |
#              |                                                    |
#              |                                                    |
#              |  If not stated otherwise all DRbar couplings and   |
#              |  soft SUSY breaking masses are given at the scale  |
#              |  Q=  0.50007259E+04
#              |                                                    |
#              ------------------------------------------------------
#
#
BLOCK DCINFO  # Decay Program information
     1   SDECAY/HDECAY # decay calculator
     2   1.3b  /3.4    # version number
#
BLOCK SPINFO  # Spectrum calculator information
     1    SOFTSUSY    # spectrum calculator                
     2    3.4.0       # version number                     
#
BLOCK MODSEL  # Model selection
     1     0   #  nonUniversal                                     
#
BLOCK SMINPUTS  # Standard Model inputs
         1     1.25778332E+02   # alpha_em^-1(M_Z)^MSbar
         2     1.16570000E-05   # G_F [GeV^-2]
         3     1.17200002E-01   # alpha_S(M_Z)^MSbar
         4     9.11876000E+01   # M_Z pole mass
         5     4.25000000E+00   # mb(mb)^MSbar
         6     1.72500000E+02   # mt pole mass
         7     1.77682000E+00   # mtau pole mass
#
BLOCK MINPAR  # Input parameters - minimal models
         3     1.00000000E+01   # tanb                
#
BLOCK EXTPAR  # Input parameters - non-minimal models
         0    -1.00000000E+00   # Set                 
         1     6.00000000E+01   # M_1(MX)             
         2     3.00000000E+03   # M_2(MX)             
         3     1.48350500E+03   # M_3(MX)             
        11     5.00000000E+03   # At(MX)              
        12     5.00000000E+03   # Ab(MX)              
        13     0.00000000E+00   # Atau(MX)            
        23    -1.25129500E+03   # mu(MX)              
        26     3.00000000E+03   # mA(pole)            
        31     5.00000000E+03   # meL(MX)             
        32     5.00000000E+03   # mmuL(MX)            
        33     5.00000000E+03   # mtauL(MX)           
        34     5.00000000E+03   # meR(MX)             
        35     5.00000000E+03   # mmuR(MX)            
        36     5.00000000E+03   # mtauR(MX)           
        41     5.00000000E+03   # mqL1(MX)            
        42     5.00000000E+03   # mqL2(MX)            
        43     5.00000000E+03   # mqL3(MX)            
        44     5.00000000E+03   # muR(MX)             
        45     5.00000000E+03   # mcR(MX)             
        46     5.00000000E+03   # mtR(MX)             
        47     5.00000000E+03   # mdR(MX)             
        48     5.00000000E+03   # msR(MX)             
        49     5.00000000E+03   # mbR(MX)             
#
BLOCK MASS  # Mass Spectrum
# PDG code           mass       particle
        24     8.00956607E+01   # W+
        25     1.24724962E+02   # h
        35     3.00008156E+03   # H
        36     2.99999988E+03   # A
        37     3.00086873E+03   # H+
         5     4.87878001E+00   # b-quark pole mass calculated from mb(mb)_Msbar
   1000001     5.06949402E+03   # ~d_L
   2000001     5.05169854E+03   # ~d_R
   1000002     5.06901953E+03   # ~u_L
   2000002     5.05141946E+03   # ~u_R
   1000003     5.06949402E+03   # ~s_L
   2000003     5.05169854E+03   # ~s_R
   1000004     5.06901953E+03   # ~c_L
   2000004     5.05141946E+03   # ~c_R
   1000005     5.01540504E+03   # ~b_1
   2000005     5.05042081E+03   # ~b_2
   1000006     4.90636191E+03   # ~t_1
   2000006     5.06126251E+03   # ~t_2
   1000011     5.01905744E+03   # ~e_L
   2000011     5.00591554E+03   # ~e_R
   1000012     5.01810917E+03   # ~nu_eL
   1000013     5.01905744E+03   # ~mu_L
   2000013     5.00591554E+03   # ~mu_R
   1000014     5.01810917E+03   # ~nu_muL
   1000015     5.00447635E+03   # ~tau_1
   2000015     5.01889744E+03   # ~tau_2
   1000016     5.01756704E+03   # ~nu_tauL
   1000021     1.80000081E+03   # ~g
   1000022     6.03029214E+01   # ~chi_10
   1000023     1.29950315E+03   # ~chi_20
   1000025    -1.30184366E+03   # ~chi_30
   1000035     3.07430651E+03   # ~chi_40
   1000024     1.30000045E+03   # ~chi_1+
   1000037     3.07447397E+03   # ~chi_2+
#
BLOCK NMIX  # Neutralino Mixing Matrix
  1  1     9.99410389E-01   # N_11
  1  2     1.55328832E-04   # N_12
  1  3    -3.42764024E-02   # N_13
  1  4     1.99483571E-03   # N_14
  2  1     2.28291059E-02   # N_21
  2  2     2.74295639E-02   # N_22
  2  3     7.06875037E-01   # N_23
  2  4     7.06437636E-01   # N_24
  3  1    -2.56422684E-02   # N_31
  3  2     1.38791449E-02   # N_32
  3  3    -7.06442471E-01   # N_33
  3  4     7.07169625E-01   # N_34
  4  1    -4.25738123E-04   # N_41
  4  2     9.99527370E-01   # N_42
  4  3    -9.58366195E-03   # N_43
  4  4    -2.92062996E-02   # N_44
#
BLOCK UMIX  # Chargino Mixing Matrix U
  1  1     1.35676796E-02   # U_11
  1  2     9.99907955E-01   # U_12
  2  1    -9.99907955E-01   # U_21
  2  2     1.35676796E-02   # U_22
#
BLOCK VMIX  # Chargino Mixing Matrix V
  1  1     4.13308133E-02   # V_11
  1  2    -9.99145517E-01   # V_12
  2  1    -9.99145517E-01   # V_21
  2  2    -4.13308133E-02   # V_22
#
BLOCK STOPMIX  # Stop Mixing Matrix
  1  1    -5.09887767E-01   # cos(theta_t)
  1  2     8.60240934E-01   # sin(theta_t)
  2  1    -8.60240934E-01   # -sin(theta_t)
  2  2    -5.09887767E-01   # cos(theta_t)
#
BLOCK SBOTMIX  # Sbottom Mixing Matrix
  1  1     9.95656338E-01   # cos(theta_b)
  1  2    -9.31045466E-02   # sin(theta_b)
  2  1     9.31045466E-02   # -sin(theta_b)
  2  2     9.95656338E-01   # cos(theta_b)
#
BLOCK STAUMIX  # Stau Mixing Matrix
  1  1    -1.46890976E-01   # cos(theta_tau)
  1  2     9.89152689E-01   # sin(theta_tau)
  2  1    -9.89152689E-01   # -sin(theta_tau)
  2  2    -1.46890976E-01   # cos(theta_tau)
#
BLOCK ALPHA  # Higgs mixing
          -1.05462640E-01   # Mixing angle in the neutral Higgs boson sector
#
BLOCK HMIX Q=  5.00072593E+03  # DRbar Higgs Parameters
         1    -1.27414734E+03   # mu(Q)MSSM           
         2     9.47062659E+00   # tan                 
         3     2.41922221E+02   # higgs               
         4     8.44025029E+06   # mA^2(Q)MSSM         
#
BLOCK GAUGE Q=  5.00072593E+03  # The gauge couplings
     1     3.70740145E-01   # gprime(Q) DRbar
     2     6.32267069E-01   # g(Q) DRbar
     3     1.00004297E+00   # g3(Q) DRbar
#
BLOCK AU Q=  5.00072593E+03  # The trilinear couplings
  1  1     5.00000001E+03   # A_u(Q) DRbar
  2  2     5.00000001E+03   # A_c(Q) DRbar
  3  3     5.00000002E+03   # A_t(Q) DRbar
#
BLOCK AD Q=  5.00072593E+03  # The trilinear couplings
  1  1     5.00000000E+03   # A_d(Q) DRbar
  2  2     5.00000000E+03   # A_s(Q) DRbar
  3  3     5.00000001E+03   # A_b(Q) DRbar
#
BLOCK AE Q=  5.00072593E+03  # The trilinear couplings
  1  1     0.00000000E+00   # A_e(Q) DRbar
  2  2     1.44840986E-07   # A_mu(Q) DRbar
  3  3     1.44361574E-07   # A_tau(Q) DRbar
#
BLOCK Yu Q=  5.00072593E+03  # The Yukawa couplings
  1  1     0.00000000E+00   # y_u(Q) DRbar
  2  2     0.00000000E+00   # y_c(Q) DRbar
  3  3     8.18988517E-01   # y_t(Q) DRbar
#
BLOCK Yd Q=  5.00072593E+03  # The Yukawa couplings
  1  1     0.00000000E+00   # y_d(Q) DRbar
  2  2     0.00000000E+00   # y_s(Q) DRbar
  3  3     1.30799068E-01   # y_b(Q) DRbar
#
BLOCK Ye Q=  5.00072593E+03  # The Yukawa couplings
  1  1     0.00000000E+00   # y_e(Q) DRbar
  2  2     0.00000000E+00   # y_mu(Q) DRbar
  3  3     9.67163152E-02   # y_tau(Q) DRbar
#
BLOCK MSOFT Q=  5.00072593E+03  # The soft SUSY breaking masses at the scale Q
         1     6.00000000E+01   # M_1(Q)              
         2     3.00000000E+03   # M_2(Q)              
         3     1.48350500E+03   # M_3(Q)              
        21     7.05662491E+06   # mH1^2(Q)            
        22    -1.06902112E+06   # mH2^2(Q)            
        31     5.00000000E+03   # meL(Q)              
        32     5.00000000E+03   # mmuL(Q)             
        33     5.00000000E+03   # mtauL(Q)            
        34     5.00000000E+03   # meR(Q)              
        35     5.00000000E+03   # mmuR(Q)             
        36     5.00000000E+03   # mtauR(Q)            
        41     5.00000000E+03   # mqL1(Q)             
        42     5.00000000E+03   # mqL2(Q)             
        43     5.00000000E+03   # mqL3(Q)             
        44     5.00000000E+03   # muR(Q)              
        45     5.00000000E+03   # mcR(Q)              
        46     4.99999999E+03   # mtR(Q)              
        47     5.00000000E+03   # mdR(Q)              
        48     5.00000000E+03   # msR(Q)              
        49     5.00000000E+03   # mbR(Q)              
#
#
#
#                             =================
#                             |The decay table|
#                             =================
#
# - The QCD corrections to the decays gluino -> squark  + quark
#                                     squark -> gaugino + quark_prime
#                                     squark -> squark_prime + Higgs
#                                     squark -> gluino  + quark
#   are included.
#
# - The multi-body decays for the inos, stops and sbottoms are included.
#
# - The loop induced decays for the gluino, neutralinos and stops
#   are included.
#
# - The SUSY decays of the top quark are included.
#
#
#         PDG            Width
DECAY         6     1.40087159E+00   # top decays
#          BR         NDA      ID1       ID2
     1.00000000E+00    2           5        24   # BR(t ->  b    W+)
#
#         PDG            Width
DECAY   1000021     1.88399290E-04   # gluino decays
#          BR         NDA      ID1       ID2
     8.86772198E-06    2     1000022        21   # BR(~g -> ~chi_10 g)
     6.93655927E-03    2     1000023        21   # BR(~g -> ~chi_20 g)
     6.83855087E-03    2     1000025        21   # BR(~g -> ~chi_30 g)
#           BR         NDA      ID1       ID2       ID3
     7.20336834E-02    3     1000022         1        -1   # BR(~g -> ~chi_10 d  db)
     4.72373690E-06    3     1000023         1        -1   # BR(~g -> ~chi_20 d  db)
     1.20336784E-06    3     1000025         1        -1   # BR(~g -> ~chi_30 d  db)
     2.45584442E-01    3     1000022         2        -2   # BR(~g -> ~chi_10 u  ub)
     1.04128837E-05    3     1000023         2        -2   # BR(~g -> ~chi_20 u  ub)
     1.27692437E-06    3     1000025         2        -2   # BR(~g -> ~chi_30 u  ub)
     7.20336834E-02    3     1000022         3        -3   # BR(~g -> ~chi_10 s  sb)
     4.72373690E-06    3     1000023         3        -3   # BR(~g -> ~chi_20 s  sb)
     1.20336784E-06    3     1000025         3        -3   # BR(~g -> ~chi_30 s  sb)
     2.45584442E-01    3     1000022         4        -4   # BR(~g -> ~chi_10 c  cb)
     1.04128837E-05    3     1000023         4        -4   # BR(~g -> ~chi_20 c  cb)
     1.27692437E-06    3     1000025         4        -4   # BR(~g -> ~chi_30 c  cb)
     7.29577724E-02    3     1000022         5        -5   # BR(~g -> ~chi_10 b  bb)
     6.98164960E-04    3     1000023         5        -5   # BR(~g -> ~chi_20 b  bb)
     6.75373730E-04    3     1000025         5        -5   # BR(~g -> ~chi_30 b  bb)
     2.31103535E-01    3     1000022         6        -6   # BR(~g -> ~chi_10 t  tb)
     8.95731855E-03    3     1000023         6        -6   # BR(~g -> ~chi_20 t  tb)
     4.34314028E-03    3     1000025         6        -6   # BR(~g -> ~chi_30 t  tb)
     1.26807097E-05    3     1000024         1        -2   # BR(~g -> ~chi_1+ d  ub)
     1.26807097E-05    3    -1000024         2        -1   # BR(~g -> ~chi_1- u  db)
     1.26807097E-05    3     1000024         3        -4   # BR(~g -> ~chi_1+ s  cb)
     1.26807097E-05    3    -1000024         4        -3   # BR(~g -> ~chi_1- c  sb)
     1.60792547E-02    3     1000024         5        -6   # BR(~g -> ~chi_1+ b  tb)
     1.60792547E-02    3    -1000024         6        -5   # BR(~g -> ~chi_1- t  bb)
#
#         PDG            Width
DECAY   1000006     3.52336772E+02   # stop1 decays
#          BR         NDA      ID1       ID2
     2.50263213E-02    2     1000022         6   # BR(~t_1 -> ~chi_10 t )
     8.10739454E-02    2     1000023         6   # BR(~t_1 -> ~chi_20 t )
     7.79472501E-02    2     1000025         6   # BR(~t_1 -> ~chi_30 t )
     6.03399115E-03    2     1000035         6   # BR(~t_1 -> ~chi_40 t )
     1.17266436E-01    2     1000024         5   # BR(~t_1 -> ~chi_1+ b )
     1.20116731E-02    2     1000037         5   # BR(~t_1 -> ~chi_2+ b )
     6.80640383E-01    2     1000021         6   # BR(~t_1 -> ~g      t )
#
#         PDG            Width
DECAY   2000006     3.60526718E+02   # stop2 decays
#          BR         NDA      ID1       ID2
     9.79707799E-03    2     1000022         6   # BR(~t_2 -> ~chi_10 t )
     8.16884877E-02    2     1000023         6   # BR(~t_2 -> ~chi_20 t )
     8.50109537E-02    2     1000025         6   # BR(~t_2 -> ~chi_30 t )
     1.52296597E-02    2     1000035         6   # BR(~t_2 -> ~chi_40 t )
     4.94229326E-02    2     1000024         5   # BR(~t_2 -> ~chi_1+ b )
     3.02709119E-02    2     1000037         5   # BR(~t_2 -> ~chi_2+ b )
     7.25001173E-01    2     1000021         6   # BR(~t_2 -> ~g      t )
     8.00034484E-04    2     1000006        25   # BR(~t_2 -> ~t_1    h )
     2.77876919E-03    2     1000006        23   # BR(~t_2 -> ~t_1    Z )
#
#         PDG            Width
DECAY   1000005     3.36867737E+02   # sbottom1 decays
#          BR         NDA      ID1       ID2
     2.30845285E-03    2     1000022         5   # BR(~b_1 -> ~chi_10 b )
     2.27240096E-03    2     1000023         5   # BR(~b_1 -> ~chi_20 b )
     2.17770335E-03    2     1000025         5   # BR(~b_1 -> ~chi_30 b )
     2.22540455E-02    2     1000035         5   # BR(~b_1 -> ~chi_40 b )
     1.72125026E-01    2    -1000024         6   # BR(~b_1 -> ~chi_1- t )
     4.47551771E-02    2    -1000037         6   # BR(~b_1 -> ~chi_2- t )
     7.52444747E-01    2     1000021         5   # BR(~b_1 -> ~g      b )
     1.66244662E-03    2     1000006       -24   # BR(~b_1 -> ~t_1    W-)
#
#         PDG            Width
DECAY   2000005     2.62715479E+02   # sbottom2 decays
#          BR         NDA      ID1       ID2
     1.11636507E-02    2     1000022         5   # BR(~b_2 -> ~chi_10 b )
     2.84192583E-03    2     1000023         5   # BR(~b_2 -> ~chi_20 b )
     2.94471153E-03    2     1000025         5   # BR(~b_2 -> ~chi_30 b )
     2.59925883E-04    2     1000035         5   # BR(~b_2 -> ~chi_40 b )
     7.59227665E-03    2    -1000024         6   # BR(~b_2 -> ~chi_1- t )
     5.22583959E-04    2    -1000037         6   # BR(~b_2 -> ~chi_2- t )
     9.74596766E-01    2     1000021         5   # BR(~b_2 -> ~g      b )
     7.81591712E-05    2     1000006       -24   # BR(~b_2 -> ~t_1    W-)
#
#         PDG            Width
DECAY   1000002     2.81741596E+02   # sup_L decays
#          BR         NDA      ID1       ID2
     2.64982992E-03    2     1000022         2   # BR(~u_L -> ~chi_10 u)
     6.16580938E-05    2     1000023         2   # BR(~u_L -> ~chi_20 u)
     4.76422221E-06    2     1000025         2   # BR(~u_L -> ~chi_30 u)
     2.78094638E-02    2     1000035         2   # BR(~u_L -> ~chi_40 u)
     2.07094089E-04    2     1000024         1   # BR(~u_L -> ~chi_1+ d)
     5.55786939E-02    2     1000037         1   # BR(~u_L -> ~chi_2+ d)
     9.13688496E-01    2     1000021         2   # BR(~u_L -> ~g      u)
#
#         PDG            Width
DECAY   2000002     2.67910298E+02   # sup_R decays
#          BR         NDA      ID1       ID2
     4.43592245E-02    2     1000022         2   # BR(~u_R -> ~chi_10 u)
     2.02184067E-05    2     1000023         2   # BR(~u_R -> ~chi_20 u)
     2.54953274E-05    2     1000025         2   # BR(~u_R -> ~chi_30 u)
     3.20638688E-09    2     1000035         2   # BR(~u_R -> ~chi_40 u)
     9.55595059E-01    2     1000021         2   # BR(~u_R -> ~g      u)
#
#         PDG            Width
DECAY   1000001     2.81755439E+02   # sdown_L decays
#          BR         NDA      ID1       ID2
     2.64153490E-03    2     1000022         1   # BR(~d_L -> ~chi_10 d)
     3.19811815E-05    2     1000023         1   # BR(~d_L -> ~chi_20 d)
     2.16252240E-05    2     1000025         1   # BR(~d_L -> ~chi_30 d)
     2.78259830E-02    2     1000035         1   # BR(~d_L -> ~chi_40 d)
     2.23183413E-05    2    -1000024         2   # BR(~d_L -> ~chi_1- u)
     5.56780720E-02    2    -1000037         2   # BR(~d_L -> ~chi_2- u)
     9.13778485E-01    2     1000021         1   # BR(~d_L -> ~g      d)
#
#         PDG            Width
DECAY   2000001     2.59010431E+02   # sdown_R decays
#          BR         NDA      ID1       ID2
     1.14715033E-02    2     1000022         1   # BR(~d_R -> ~chi_10 d)
     5.22865518E-06    2     1000023         1   # BR(~d_R -> ~chi_20 d)
     6.59331299E-06    2     1000025         1   # BR(~d_R -> ~chi_30 d)
     8.29293291E-10    2     1000035         1   # BR(~d_R -> ~chi_40 d)
     9.88516674E-01    2     1000021         1   # BR(~d_R -> ~g      d)
#
#         PDG            Width
DECAY   1000004     2.81741596E+02   # scharm_L decays
#          BR         NDA      ID1       ID2
     2.64982992E-03    2     1000022         4   # BR(~c_L -> ~chi_10 c)
     6.16580938E-05    2     1000023         4   # BR(~c_L -> ~chi_20 c)
     4.76422221E-06    2     1000025         4   # BR(~c_L -> ~chi_30 c)
     2.78094638E-02    2     1000035         4   # BR(~c_L -> ~chi_40 c)
     2.07094089E-04    2     1000024         3   # BR(~c_L -> ~chi_1+ s)
     5.55786939E-02    2     1000037         3   # BR(~c_L -> ~chi_2+ s)
     9.13688496E-01    2     1000021         4   # BR(~c_L -> ~g      c)
#
#         PDG            Width
DECAY   2000004     2.67910298E+02   # scharm_R decays
#          BR         NDA      ID1       ID2
     4.43592245E-02    2     1000022         4   # BR(~c_R -> ~chi_10 c)
     2.02184067E-05    2     1000023         4   # BR(~c_R -> ~chi_20 c)
     2.54953274E-05    2     1000025         4   # BR(~c_R -> ~chi_30 c)
     3.20638688E-09    2     1000035         4   # BR(~c_R -> ~chi_40 c)
     9.55595059E-01    2     1000021         4   # BR(~c_R -> ~g      c)
#
#         PDG            Width
DECAY   1000003     2.81755439E+02   # sstrange_L decays
#          BR         NDA      ID1       ID2
     2.64153490E-03    2     1000022         3   # BR(~s_L -> ~chi_10 s)
     3.19811815E-05    2     1000023         3   # BR(~s_L -> ~chi_20 s)
     2.16252240E-05    2     1000025         3   # BR(~s_L -> ~chi_30 s)
     2.78259830E-02    2     1000035         3   # BR(~s_L -> ~chi_40 s)
     2.23183413E-05    2    -1000024         4   # BR(~s_L -> ~chi_1- c)
     5.56780720E-02    2    -1000037         4   # BR(~s_L -> ~chi_2- c)
     9.13778485E-01    2     1000021         3   # BR(~s_L -> ~g      s)
#
#         PDG            Width
DECAY   2000003     2.59010431E+02   # sstrange_R decays
#          BR         NDA      ID1       ID2
     1.14715033E-02    2     1000022         3   # BR(~s_R -> ~chi_10 s)
     5.22865518E-06    2     1000023         3   # BR(~s_R -> ~chi_20 s)
     6.59331299E-06    2     1000025         3   # BR(~s_R -> ~chi_30 s)
     8.29293291E-10    2     1000035         3   # BR(~s_R -> ~chi_40 s)
     9.88516674E-01    2     1000021         3   # BR(~s_R -> ~g      s)
#
#         PDG            Width
DECAY   1000011     3.02494269E+01   # selectron_L decays
#          BR         NDA      ID1       ID2
     2.26640184E-01    2     1000022        11   # BR(~e_L -> ~chi_10 e-)
     9.56735788E-04    2     1000023        11   # BR(~e_L -> ~chi_20 e-)
     7.67876290E-07    2     1000025        11   # BR(~e_L -> ~chi_30 e-)
     2.57203078E-01    2     1000035        11   # BR(~e_L -> ~chi_40 e-)
     2.11411746E-04    2    -1000024        12   # BR(~e_L -> ~chi_1- nu_e)
     5.14987823E-01    2    -1000037        12   # BR(~e_L -> ~chi_2- nu_e)
#
#         PDG            Width
DECAY   2000011     2.73646636E+01   # selectron_R decays
#          BR         NDA      ID1       ID2
     9.98974587E-01    2     1000022        11   # BR(~e_R -> ~chi_10 e-)
     4.53494314E-04    2     1000023        11   # BR(~e_R -> ~chi_20 e-)
     5.71848004E-04    2     1000025        11   # BR(~e_R -> ~chi_30 e-)
     7.03442868E-08    2     1000035        11   # BR(~e_R -> ~chi_40 e-)
#
#         PDG            Width
DECAY   1000013     3.02494269E+01   # smuon_L decays
#          BR         NDA      ID1       ID2
     2.26640184E-01    2     1000022        13   # BR(~mu_L -> ~chi_10 mu-)
     9.56735788E-04    2     1000023        13   # BR(~mu_L -> ~chi_20 mu-)
     7.67876290E-07    2     1000025        13   # BR(~mu_L -> ~chi_30 mu-)
     2.57203078E-01    2     1000035        13   # BR(~mu_L -> ~chi_40 mu-)
     2.11411746E-04    2    -1000024        14   # BR(~mu_L -> ~chi_1- nu_mu)
     5.14987823E-01    2    -1000037        14   # BR(~mu_L -> ~chi_2- nu_mu)
#
#         PDG            Width
DECAY   2000013     2.73646636E+01   # smuon_R decays
#          BR         NDA      ID1       ID2
     9.98974587E-01    2     1000022        13   # BR(~mu_R -> ~chi_10 mu-)
     4.53494314E-04    2     1000023        13   # BR(~mu_R -> ~chi_20 mu-)
     5.71848004E-04    2     1000025        13   # BR(~mu_R -> ~chi_30 mu-)
     7.03442868E-08    2     1000035        13   # BR(~mu_R -> ~chi_40 mu-)
#
#         PDG            Width
DECAY   1000015     2.90365081E+01   # stau_1 decays
#          BR         NDA      ID1       ID2
     9.26858536E-01    2     1000022        15   # BR(~tau_1 -> ~chi_10  tau-)
     1.47490424E-02    2     1000023        15   # BR(~tau_1 -> ~chi_20  tau-)
     1.36758766E-02    2     1000025        15   # BR(~tau_1 -> ~chi_30  tau-)
     5.56553816E-03    2     1000035        15   # BR(~tau_1 -> ~chi_40  tau-)
     2.80075250E-02    2    -1000024        16   # BR(~tau_1 -> ~chi_1-  nu_tau)
     1.11434822E-02    2    -1000037        16   # BR(~tau_1 -> ~chi_2-  nu_tau)
#
#         PDG            Width
DECAY   2000015     3.09958482E+01   # stau_2 decays
#          BR         NDA      ID1       ID2
     2.34705872E-01    2     1000022        15   # BR(~tau_2 -> ~chi_10  tau-)
     1.36782929E-02    2     1000023        15   # BR(~tau_2 -> ~chi_20  tau-)
     1.38141167E-02    2     1000025        15   # BR(~tau_2 -> ~chi_30  tau-)
     2.45718219E-01    2     1000035        15   # BR(~tau_2 -> ~chi_40  tau-)
     9.17318487E-05    2    -1000024        16   # BR(~tau_2 -> ~chi_1-  nu_tau)
     4.91991768E-01    2    -1000037        16   # BR(~tau_2 -> ~chi_2-  nu_tau)
#
#         PDG            Width
DECAY   1000012     3.02518020E+01   # snu_eL decays
#          BR         NDA      ID1       ID2
     2.26339450E-01    2     1000022        12   # BR(~nu_eL -> ~chi_10 nu_e)
     1.13223625E-04    2     1000023        12   # BR(~nu_eL -> ~chi_20 nu_e)
     4.79749469E-04    2     1000025        12   # BR(~nu_eL -> ~chi_30 nu_e)
     2.57274480E-01    2     1000035        12   # BR(~nu_eL -> ~chi_40 nu_e)
     1.96121899E-03    2     1000024        11   # BR(~nu_eL -> ~chi_1+ e-)
     5.13831877E-01    2     1000037        11   # BR(~nu_eL -> ~chi_2+ e-)
#
#         PDG            Width
DECAY   1000014     3.02518020E+01   # snu_muL decays
#          BR         NDA      ID1       ID2
     2.26339450E-01    2     1000022        14   # BR(~nu_muL -> ~chi_10 nu_mu)
     1.13223625E-04    2     1000023        14   # BR(~nu_muL -> ~chi_20 nu_mu)
     4.79749469E-04    2     1000025        14   # BR(~nu_muL -> ~chi_30 nu_mu)
     2.57274480E-01    2     1000035        14   # BR(~nu_muL -> ~chi_40 nu_mu)
     1.96121899E-03    2     1000024        13   # BR(~nu_muL -> ~chi_1+ mu-)
     5.13831877E-01    2     1000037        13   # BR(~nu_muL -> ~chi_2+ mu-)
#
#         PDG            Width
DECAY   1000016     3.10550044E+01   # snu_tauL decays
#          BR         NDA      ID1       ID2
     2.20461604E-01    2     1000022        16   # BR(~nu_tauL -> ~chi_10 nu_tau)
     1.10279883E-04    2     1000023        16   # BR(~nu_tauL -> ~chi_20 nu_tau)
     4.67276231E-04    2     1000025        16   # BR(~nu_tauL -> ~chi_30 nu_tau)
     2.50528220E-01    2     1000035        16   # BR(~nu_tauL -> ~chi_40 nu_tau)
     2.80740907E-02    2     1000024        15   # BR(~nu_tauL -> ~chi_1+ tau-)
     5.00358530E-01    2     1000037        15   # BR(~nu_tauL -> ~chi_2+ tau-)
#
#         PDG            Width
DECAY   1000024     7.97309163E-01   # chargino1+ decays
#          BR         NDA      ID1       ID2
     1.00000000E+00    2     1000022        24   # BR(~chi_1+ -> ~chi_10  W+)
#
#         PDG            Width
DECAY   1000037     1.92781480E+01   # chargino2+ decays
#          BR         NDA      ID1       ID2
     2.52919900E-01    2     1000024        23   # BR(~chi_2+ -> ~chi_1+  Z )
     2.27531046E-04    2     1000022        24   # BR(~chi_2+ -> ~chi_10  W+)
     2.43968765E-01    2     1000023        24   # BR(~chi_2+ -> ~chi_20  W+)
     2.43881027E-01    2     1000025        24   # BR(~chi_2+ -> ~chi_30  W+)
     2.59002185E-01    2     1000024        25   # BR(~chi_2+ -> ~chi_1+  h )
     5.92066579E-07    2     1000022        37   # BR(~chi_2+ -> ~chi_10  H+)
#
#         PDG            Width
DECAY   1000022     0.00000000E+00   # neutralino1 decays
#
#         PDG            Width
DECAY   1000023     8.36491741E-01   # neutralino2 decays
#          BR         NDA      ID1       ID2
     5.51248840E-01    2     1000022        23   # BR(~chi_20 -> ~chi_10   Z )
     4.48751160E-01    2     1000022        25   # BR(~chi_20 -> ~chi_10   h )
#
#         PDG            Width
DECAY   1000025     8.43594905E-01   # neutralino3 decays
#          BR         NDA      ID1       ID2
     4.33581129E-01    2     1000022        23   # BR(~chi_30 -> ~chi_10   Z )
     5.66418871E-01    2     1000022        25   # BR(~chi_30 -> ~chi_10   h )
#
#         PDG            Width
DECAY   1000035     1.92869506E+01   # neutralino4 decays
#          BR         NDA      ID1       ID2
     7.23328301E-05    2     1000022        23   # BR(~chi_40 -> ~chi_10   Z )
     5.16769993E-02    2     1000023        23   # BR(~chi_40 -> ~chi_20   Z )
     2.00570460E-01    2     1000025        23   # BR(~chi_40 -> ~chi_30   Z )
     2.44524679E-01    2     1000024       -24   # BR(~chi_40 -> ~chi_1+   W-)
     2.44524679E-01    2    -1000024        24   # BR(~chi_40 -> ~chi_1-   W+)
     1.59116120E-04    2     1000022        25   # BR(~chi_40 -> ~chi_10   h )
     5.39840559E-07    2     1000022        35   # BR(~chi_40 -> ~chi_10   H )
     7.33091684E-08    2     1000022        36   # BR(~chi_40 -> ~chi_10   A )
     2.06734413E-01    2     1000023        25   # BR(~chi_40 -> ~chi_20   h )
     5.17367083E-02    2     1000025        25   # BR(~chi_40 -> ~chi_30   h )
#
#         PDG            Width
DECAY        25     4.04778124E-03   # h decays
#          BR         NDA      ID1       ID2
     6.08631083E-01    2           5        -5   # BR(h -> b       bb     )
     6.40494367E-02    2         -15        15   # BR(h -> tau+    tau-   )
     2.26758508E-04    2         -13        13   # BR(h -> mu+     mu-    )
     4.80751314E-04    2           3        -3   # BR(h -> s       sb     )
     2.08328839E-02    2           4        -4   # BR(h -> c       cb     )
     6.73330920E-02    2          21        21   # BR(h -> g       g      )
     2.31406274E-03    2          22        22   # BR(h -> gam     gam    )
     1.48794710E-03    2          22        23   # BR(h -> Z       gam    )
     2.09641315E-01    2          24       -24   # BR(h -> W+      W-     )
     2.49629788E-02    2          23        23   # BR(h -> Z       Z      )
     3.96907262E-05    2     1000022   1000022   # BR(h -> ~chi_10 ~chi_10)
#
#         PDG            Width
DECAY        35     7.62307625E+00   # H decays
#          BR         NDA      ID1       ID2
     4.26312698E-01    2           5        -5   # BR(H -> b       bb     )
     7.30943788E-02    2         -15        15   # BR(H -> tau+    tau-   )
     2.58467529E-04    2         -13        13   # BR(H -> mu+     mu-    )
     3.16841597E-04    2           3        -3   # BR(H -> s       sb     )
     1.77163587E-06    2           4        -4   # BR(H -> c       cb     )
     1.77000455E-01    2           6        -6   # BR(H -> t       tb     )
     5.87770360E-05    2          21        21   # BR(H -> g       g      )
     3.62506948E-07    2          22        22   # BR(H -> gam     gam    )
     1.04510652E-07    2          23        22   # BR(H -> Z       gam    )
     7.98985383E-05    2          24       -24   # BR(H -> W+      W-     )
     3.98987054E-05    2          23        23   # BR(H -> Z       Z      )
     3.00178265E-04    2          25        25   # BR(H -> h       h      )
    -4.58552523E-24    2          36        36   # BR(H -> A       A      )
     9.74677492E-19    2          23        36   # BR(H -> Z       A      )
     7.43880230E-04    2     1000024  -1000024   # BR(H -> ~chi_1+ ~chi_1-)
     1.12095092E-03    2     1000022   1000022   # BR(H -> ~chi_10 ~chi_10)
     5.61639575E-05    2     1000023   1000023   # BR(H -> ~chi_20 ~chi_20)
     1.24103288E-04    2     1000025   1000025   # BR(H -> ~chi_30 ~chi_30)
     1.91262177E-01    2     1000022   1000023   # BR(H -> ~chi_10 ~chi_20)
     1.29105896E-01    2     1000022   1000025   # BR(H -> ~chi_10 ~chi_30)
     1.22996698E-04    2     1000023   1000025   # BR(H -> ~chi_20 ~chi_30)
#
#         PDG            Width
DECAY        36     7.64411965E+00   # A decays
#          BR         NDA      ID1       ID2
     4.25282260E-01    2           5        -5   # BR(A -> b       bb     )
     7.28953266E-02    2         -15        15   # BR(A -> tau+    tau-   )
     2.57763305E-04    2         -13        13   # BR(A -> mu+     mu-    )
     3.16209199E-04    2           3        -3   # BR(A -> s       sb     )
     1.77408416E-06    2           4        -4   # BR(A -> c       cb     )
     1.77147264E-01    2           6        -6   # BR(A -> t       tb     )
     1.75315705E-04    2          21        21   # BR(A -> g       g      )
     4.87425960E-07    2          22        22   # BR(A -> gam     gam    )
     2.12342067E-07    2          23        22   # BR(A -> Z       gam    )
     7.93777787E-05    2          23        25   # BR(A -> Z       h      )
     2.59382858E-03    2     1000024  -1000024   # BR(A -> ~chi_1+ ~chi_1-)
     1.14760649E-03    2     1000022   1000022   # BR(A -> ~chi_10 ~chi_10)
     1.46876416E-04    2     1000023   1000023   # BR(A -> ~chi_20 ~chi_20)
     7.66980792E-04    2     1000025   1000025   # BR(A -> ~chi_30 ~chi_30)
     1.30352223E-01    2     1000022   1000023   # BR(A -> ~chi_10 ~chi_20)
     1.88829523E-01    2     1000022   1000025   # BR(A -> ~chi_10 ~chi_30)
     6.97198563E-06    2     1000023   1000025   # BR(A -> ~chi_20 ~chi_30)
#
#         PDG            Width
DECAY        37     7.61459811E+00   # H+ decays
#          BR         NDA      ID1       ID2
     6.85063412E-04    2           4        -5   # BR(H+ -> c       bb     )
     7.31991329E-02    2         -15        16   # BR(H+ -> tau+    nu_tau )
     2.58837586E-04    2         -13        14   # BR(H+ -> mu+     nu_mu  )
     4.38438329E-06    2           2        -5   # BR(H+ -> u       bb     )
     1.51880533E-05    2           2        -3   # BR(H+ -> u       sb     )
     3.14089312E-04    2           4        -3   # BR(H+ -> c       sb     )
     6.02277403E-01    2           6        -5   # BR(H+ -> t       bb     )
     7.98059471E-05    2          24        25   # BR(H+ -> W+      h      )
     8.54586103E-14    2          24        36   # BR(H+ -> W+      A      )
     3.22743605E-01    2     1000024   1000022   # BR(H+ -> ~chi_1+ ~chi_10)
     3.56272383E-04    2     1000024   1000023   # BR(H+ -> ~chi_1+ ~chi_20)
     6.62174726E-05    2     1000024   1000025   # BR(H+ -> ~chi_1+ ~chi_30)
