#
#                              ======================
#                              | THE SUSYHIT OUTPUT |
#                              ======================
#
#
#              ------------------------------------------------------
#              |     This is the output of the SUSY-HIT package     |
#              |  created by A.Djouadi, M.Muehlleitner and M.Spira. |
#              |  In case of problems with SUSY-HIT email to        |
#              |           margarete.muehlleitner@cern.ch           |
#              |           michael.spira@psi.ch                     |
#              |           abdelhak.djouadi@cern.ch                 |
#              ------------------------------------------------------
#
#              ------------------------------------------------------
#              |  SUSY Les Houches Accord - MSSM Spectrum + Decays  |
#              |              based on the decay programs           |
#              |                                                    |
#              |                     SDECAY 1.3b                    |
#              |                                                    |
#              |  Authors: M.Muhlleitner, A.Djouadi and Y.Mambrini  |
#              |  Ref.:    Comput.Phys.Commun.168(2005)46           |
#              |           [hep-ph/0311167]                         |
#              |                                                    |
#              |                     HDECAY 3.4                     |
#              |                                                    |
#              |  By: A.Djouadi,J.Kalinowski,M.Muhlleitner,M.Spira  |
#              |  Ref.:    Comput.Phys.Commun.108(1998)56           |
#              |           [hep-ph/9704448]                         |
#              |                                                    |
#              |                                                    |
#              |  If not stated otherwise all DRbar couplings and   |
#              |  soft SUSY breaking masses are given at the scale  |
#              |  Q=  0.50007292E+04
#              |                                                    |
#              ------------------------------------------------------
#
#
BLOCK DCINFO  # Decay Program information
     1   SDECAY/HDECAY # decay calculator
     2   1.3b  /3.4    # version number
#
BLOCK SPINFO  # Spectrum calculator information
     1    SOFTSUSY    # spectrum calculator                
     2    3.4.0       # version number                     
#
BLOCK MODSEL  # Model selection
     1     0   #  nonUniversal                                     
#
BLOCK SMINPUTS  # Standard Model inputs
         1     1.25778332E+02   # alpha_em^-1(M_Z)^MSbar
         2     1.16570000E-05   # G_F [GeV^-2]
         3     1.17200002E-01   # alpha_S(M_Z)^MSbar
         4     9.11876000E+01   # M_Z pole mass
         5     4.25000000E+00   # mb(mb)^MSbar
         6     1.72500000E+02   # mt pole mass
         7     1.77682000E+00   # mtau pole mass
#
BLOCK MINPAR  # Input parameters - minimal models
         3     1.00000000E+01   # tanb                
#
BLOCK EXTPAR  # Input parameters - non-minimal models
         0    -1.00000000E+00   # Set                 
         1     6.00000000E+01   # M_1(MX)             
         2     3.00000000E+03   # M_2(MX)             
         3     6.88106000E+02   # M_3(MX)             
        11     5.00000000E+03   # At(MX)              
        12     5.00000000E+03   # Ab(MX)              
        13     0.00000000E+00   # Atau(MX)            
        23    -8.62334000E+02   # mu(MX)              
        26     3.00000000E+03   # mA(pole)            
        31     5.00000000E+03   # meL(MX)             
        32     5.00000000E+03   # mmuL(MX)            
        33     5.00000000E+03   # mtauL(MX)           
        34     5.00000000E+03   # meR(MX)             
        35     5.00000000E+03   # mmuR(MX)            
        36     5.00000000E+03   # mtauR(MX)           
        41     5.00000000E+03   # mqL1(MX)            
        42     5.00000000E+03   # mqL2(MX)            
        43     5.00000000E+03   # mqL3(MX)            
        44     5.00000000E+03   # muR(MX)             
        45     5.00000000E+03   # mcR(MX)             
        46     5.00000000E+03   # mtR(MX)             
        47     5.00000000E+03   # mdR(MX)             
        48     5.00000000E+03   # msR(MX)             
        49     5.00000000E+03   # mbR(MX)             
#
BLOCK MASS  # Mass Spectrum
# PDG code           mass       particle
        24     8.00915156E+01   # W+
        25     1.24218840E+02   # h
        35     3.00007618E+03   # H
        36     2.99999419E+03   # A
        37     3.00118938E+03   # H+
         5     4.87878001E+00   # b-quark pole mass calculated from mb(mb)_Msbar
   1000001     5.06346972E+03   # ~d_L
   2000001     5.04562806E+03   # ~d_R
   1000002     5.06299230E+03   # ~u_L
   2000002     5.04533890E+03   # ~u_R
   1000003     5.06346972E+03   # ~s_L
   2000003     5.04562806E+03   # ~s_R
   1000004     5.06299230E+03   # ~c_L
   2000004     5.04533890E+03   # ~c_R
   1000005     5.00997885E+03   # ~b_1
   2000005     5.04415603E+03   # ~b_2
   1000006     4.90049448E+03   # ~t_1
   2000006     5.05578763E+03   # ~t_2
   1000011     5.01907953E+03   # ~e_L
   2000011     5.00592785E+03   # ~e_R
   1000012     5.01812990E+03   # ~nu_eL
   1000013     5.01907953E+03   # ~mu_L
   2000013     5.00592785E+03   # ~mu_R
   1000014     5.01812990E+03   # ~nu_muL
   1000015     5.00465101E+03   # ~tau_1
   2000015     5.01873290E+03   # ~tau_2
   1000016     5.01758244E+03   # ~nu_tauL
   1000021     9.00000263E+02   # ~g
   1000022     6.02942079E+01   # ~chi_10
   1000023     8.99732707E+02   # ~chi_20
   1000025    -9.01976308E+02   # ~chi_30
   1000035     3.07423911E+03   # ~chi_40
   1000024     9.00000813E+02   # ~chi_1+
   1000037     3.07440669E+03   # ~chi_2+
#
BLOCK NMIX  # Neutralino Mixing Matrix
  1  1     9.98774961E-01   # N_11
  1  2     1.95941180E-04   # N_12
  1  3    -4.94485615E-02   # N_13
  1  4     1.83828821E-03   # N_14
  2  1     3.36772985E-02   # N_21
  2  2     2.24334782E-02   # N_22
  2  3     7.06575684E-01   # N_23
  2  4     7.06479569E-01   # N_24
  3  1    -3.62527238E-02   # N_31
  3  2     1.52944839E-02   # N_32
  3  3    -7.05889631E-01   # N_33
  3  4     7.07228144E-01   # N_34
  4  1    -3.96879708E-04   # N_41
  4  2     9.99631322E-01   # N_42
  4  3    -5.04690433E-03   # N_43
  4  4    -2.66756784E-02   # N_44
#
BLOCK UMIX  # Chargino Mixing Matrix U
  1  1     7.14978987E-03   # U_11
  1  2     9.99974440E-01   # U_12
  2  1    -9.99974440E-01   # U_21
  2  2     7.14978987E-03   # U_22
#
BLOCK VMIX  # Chargino Mixing Matrix V
  1  1     3.77544339E-02   # V_11
  1  2    -9.99287047E-01   # V_12
  2  1    -9.99287047E-01   # V_21
  2  2    -3.77544339E-02   # V_22
#
BLOCK STOPMIX  # Stop Mixing Matrix
  1  1    -5.09969079E-01   # cos(theta_t)
  1  2     8.60192733E-01   # sin(theta_t)
  2  1    -8.60192733E-01   # -sin(theta_t)
  2  2    -5.09969079E-01   # cos(theta_t)
#
BLOCK SBOTMIX  # Sbottom Mixing Matrix
  1  1     9.97403520E-01   # cos(theta_b)
  1  2    -7.20154032E-02   # sin(theta_b)
  2  1     7.20154032E-02   # -sin(theta_b)
  2  2     9.97403520E-01   # cos(theta_b)
#
BLOCK STAUMIX  # Stau Mixing Matrix
  1  1    -1.02708661E-01   # cos(theta_tau)
  1  2     9.94711481E-01   # sin(theta_tau)
  2  1    -9.94711481E-01   # -sin(theta_tau)
  2  2    -1.02708661E-01   # cos(theta_tau)
#
BLOCK ALPHA  # Higgs mixing
          -1.05416305E-01   # Mixing angle in the neutral Higgs boson sector
#
BLOCK HMIX Q=  5.00072922E+03  # DRbar Higgs Parameters
         1    -8.77584756E+02   # mu(Q)MSSM           
         2     9.47499896E+00   # tan                 
         3     2.41920840E+02   # higgs               
         4     8.53817708E+06   # mA^2(Q)MSSM         
#
BLOCK GAUGE Q=  5.00072922E+03  # The gauge couplings
     1     3.70843151E-01   # gprime(Q) DRbar
     2     6.32722541E-01   # g(Q) DRbar
     3     1.01019556E+00   # g3(Q) DRbar
#
BLOCK AU Q=  5.00072922E+03  # The trilinear couplings
  1  1     5.00000001E+03   # A_u(Q) DRbar
  2  2     5.00000001E+03   # A_c(Q) DRbar
  3  3     5.00000001E+03   # A_t(Q) DRbar
#
BLOCK AD Q=  5.00072922E+03  # The trilinear couplings
  1  1     5.00000000E+03   # A_d(Q) DRbar
  2  2     5.00000000E+03   # A_s(Q) DRbar
  3  3     5.00000001E+03   # A_b(Q) DRbar
#
BLOCK AE Q=  5.00072922E+03  # The trilinear couplings
  1  1     0.00000000E+00   # A_e(Q) DRbar
  2  2     0.00000000E+00   # A_mu(Q) DRbar
  3  3    -1.21723209E-09   # A_tau(Q) DRbar
#
BLOCK Yu Q=  5.00072922E+03  # The Yukawa couplings
  1  1     0.00000000E+00   # y_u(Q) DRbar
  2  2     0.00000000E+00   # y_c(Q) DRbar
  3  3     8.13230234E-01   # y_t(Q) DRbar
#
BLOCK Yd Q=  5.00072922E+03  # The Yukawa couplings
  1  1     0.00000000E+00   # y_d(Q) DRbar
  2  2     0.00000000E+00   # y_s(Q) DRbar
  3  3     1.29116385E-01   # y_b(Q) DRbar
#
BLOCK Ye Q=  5.00072922E+03  # The Yukawa couplings
  1  1     0.00000000E+00   # y_e(Q) DRbar
  2  2     0.00000000E+00   # y_mu(Q) DRbar
  3  3     9.69250591E-02   # y_tau(Q) DRbar
#
BLOCK MSOFT Q=  5.00072922E+03  # The soft SUSY breaking masses at the scale Q
         1     6.00000000E+01   # M_1(Q)              
         2     3.00000000E+03   # M_2(Q)              
         3     6.88106000E+02   # M_3(Q)              
        21     7.93088229E+06   # mH1^2(Q)            
        22    -2.09128859E+05   # mH2^2(Q)            
        31     5.00000000E+03   # meL(Q)              
        32     5.00000000E+03   # mmuL(Q)             
        33     5.00000000E+03   # mtauL(Q)            
        34     5.00000000E+03   # meR(Q)              
        35     5.00000000E+03   # mmuR(Q)             
        36     5.00000000E+03   # mtauR(Q)            
        41     5.00000000E+03   # mqL1(Q)             
        42     5.00000000E+03   # mqL2(Q)             
        43     5.00000000E+03   # mqL3(Q)             
        44     5.00000000E+03   # muR(Q)              
        45     5.00000000E+03   # mcR(Q)              
        46     5.00000000E+03   # mtR(Q)              
        47     5.00000000E+03   # mdR(Q)              
        48     5.00000000E+03   # msR(Q)              
        49     5.00000000E+03   # mbR(Q)              
#
#
#
#                             =================
#                             |The decay table|
#                             =================
#
# - The QCD corrections to the decays gluino -> squark  + quark
#                                     squark -> gaugino + quark_prime
#                                     squark -> squark_prime + Higgs
#                                     squark -> gluino  + quark
#   are included.
#
# - The multi-body decays for the inos, stops and sbottoms are included.
#
# - The loop induced decays for the gluino, neutralinos and stops
#   are included.
#
# - The SUSY decays of the top quark are included.
#
#
#         PDG            Width
DECAY         6     1.40307193E+00   # top decays
#          BR         NDA      ID1       ID2
     1.00000000E+00    2           5        24   # BR(t ->  b    W+)
#
#         PDG            Width
DECAY   1000021     4.85057777E-06   # gluino decays
#          BR         NDA      ID1       ID2
     2.29063779E-05    2     1000022        21   # BR(~g -> ~chi_10 g)
     5.85075025E-11    2     1000023        21   # BR(~g -> ~chi_20 g)
#           BR         NDA      ID1       ID2       ID3
     8.50542724E-02    3     1000022         1        -1   # BR(~g -> ~chi_10 d  db)
     8.05910969E-21    3     1000023         1        -1   # BR(~g -> ~chi_20 d  db)
     2.89984442E-01    3     1000022         2        -2   # BR(~g -> ~chi_10 u  ub)
     2.91576041E-20    3     1000023         2        -2   # BR(~g -> ~chi_20 u  ub)
     8.50542724E-02    3     1000022         3        -3   # BR(~g -> ~chi_10 s  sb)
     8.05910969E-21    3     1000023         3        -3   # BR(~g -> ~chi_20 s  sb)
     2.89984442E-01    3     1000022         4        -4   # BR(~g -> ~chi_10 c  cb)
     2.91576041E-20    3     1000023         4        -4   # BR(~g -> ~chi_20 c  cb)
     8.63556760E-02    3     1000022         5        -5   # BR(~g -> ~chi_10 b  bb)
     1.63543988E-01    3     1000022         6        -6   # BR(~g -> ~chi_10 t  tb)
#
#         PDG            Width
DECAY   1000006     4.23266167E+02   # stop1 decays
#          BR         NDA      ID1       ID2
     2.07503091E-02    2     1000022         6   # BR(~t_1 -> ~chi_10 t )
     7.23657299E-02    2     1000023         6   # BR(~t_1 -> ~chi_20 t )
     6.94063435E-02    2     1000025         6   # BR(~t_1 -> ~chi_30 t )
     4.99158052E-03    2     1000035         6   # BR(~t_1 -> ~chi_40 t )
     1.04143520E-01    2     1000024         5   # BR(~t_1 -> ~chi_1+ b )
     9.94673476E-03    2     1000037         5   # BR(~t_1 -> ~chi_2+ b )
     7.18395782E-01    2     1000021         6   # BR(~t_1 -> ~g      t )
#
#         PDG            Width
DECAY   2000006     4.23219613E+02   # stop2 decays
#          BR         NDA      ID1       ID2
     8.45913852E-03    2     1000022         6   # BR(~t_2 -> ~chi_10 t )
     7.37743549E-02    2     1000023         6   # BR(~t_2 -> ~chi_20 t )
     7.70276038E-02    2     1000025         6   # BR(~t_2 -> ~chi_30 t )
     1.29138608E-02    2     1000035         6   # BR(~t_2 -> ~chi_40 t )
     4.49242252E-02    2     1000024         5   # BR(~t_2 -> ~chi_1+ b )
     2.56996836E-02    2     1000037         5   # BR(~t_2 -> ~chi_2+ b )
     7.54151076E-01    2     1000021         6   # BR(~t_2 -> ~g      t )
     6.81002515E-04    2     1000006        25   # BR(~t_2 -> ~t_1    h )
     2.36905489E-03    2     1000006        23   # BR(~t_2 -> ~t_1    Z )
#
#         PDG            Width
DECAY   1000005     4.01658464E+02   # sbottom1 decays
#          BR         NDA      ID1       ID2
     1.93033596E-03    2     1000022         5   # BR(~b_1 -> ~chi_10 b )
     1.97181502E-03    2     1000023         5   # BR(~b_1 -> ~chi_20 b )
     1.92619128E-03    2     1000025         5   # BR(~b_1 -> ~chi_30 b )
     1.86667672E-02    2     1000035         5   # BR(~b_1 -> ~chi_40 b )
     1.54300324E-01    2    -1000024         6   # BR(~b_1 -> ~chi_1- t )
     3.74965108E-02    2    -1000037         6   # BR(~b_1 -> ~chi_2- t )
     7.82294694E-01    2     1000021         5   # BR(~b_1 -> ~g      b )
     1.41336249E-03    2     1000006       -24   # BR(~b_1 -> ~t_1    W-)
#
#         PDG            Width
DECAY   2000005     3.22973468E+02   # sbottom2 decays
#          BR         NDA      ID1       ID2
     9.10856167E-03    2     1000022         5   # BR(~b_2 -> ~chi_10 b )
     2.45767368E-03    2     1000023         5   # BR(~b_2 -> ~chi_20 b )
     2.51949322E-03    2     1000025         5   # BR(~b_2 -> ~chi_30 b )
     1.25615460E-04    2     1000035         5   # BR(~b_2 -> ~chi_40 b )
     5.88465284E-03    2    -1000024         6   # BR(~b_2 -> ~chi_1- t )
     2.52296175E-04    2    -1000037         6   # BR(~b_2 -> ~chi_2- t )
     9.79614704E-01    2     1000021         5   # BR(~b_2 -> ~g      b )
     3.70032537E-05    2     1000006       -24   # BR(~b_2 -> ~t_1    W-)
#
#         PDG            Width
DECAY   1000002     3.41860450E+02   # sup_L decays
#          BR         NDA      ID1       ID2
     2.18630806E-03    2     1000022         2   # BR(~u_L -> ~chi_10 u)
     4.52534012E-05    2     1000023         2   # BR(~u_L -> ~chi_20 u)
     3.62413140E-06    2     1000025         2   # BR(~u_L -> ~chi_30 u)
     2.28350041E-02    2     1000035         2   # BR(~u_L -> ~chi_40 u)
     1.53255317E-04    2     1000024         1   # BR(~u_L -> ~chi_1+ d)
     4.56398532E-02    2     1000037         1   # BR(~u_L -> ~chi_2+ d)
     9.29136702E-01    2     1000021         2   # BR(~u_L -> ~g      u)
#
#         PDG            Width
DECAY   2000002     3.28303057E+02   # sup_R decays
#          BR         NDA      ID1       ID2
     3.62253720E-02    2     1000022         2   # BR(~u_R -> ~chi_10 u)
     3.86214580E-05    2     1000023         2   # BR(~u_R -> ~chi_20 u)
     4.47396361E-05    2     1000025         2   # BR(~u_R -> ~chi_30 u)
     2.26282899E-09    2     1000035         2   # BR(~u_R -> ~chi_40 u)
     9.63691265E-01    2     1000021         2   # BR(~u_R -> ~g      u)
#
#         PDG            Width
DECAY   1000001     3.41869223E+02   # sdown_L decays
#          BR         NDA      ID1       ID2
     2.17769402E-03    2     1000022         1   # BR(~d_L -> ~chi_10 d)
     1.35138238E-05    2     1000023         1   # BR(~d_L -> ~chi_20 d)
     2.69134334E-05    2     1000025         1   # BR(~d_L -> ~chi_30 d)
     2.28486613E-02    2     1000035         1   # BR(~d_L -> ~chi_40 d)
     5.49669187E-06    2    -1000024         2   # BR(~d_L -> ~chi_1- u)
     4.57158138E-02    2    -1000037         2   # BR(~d_L -> ~chi_2- u)
     9.29211907E-01    2     1000021         1   # BR(~d_L -> ~g      d)
#
#         PDG            Width
DECAY   2000001     3.19383543E+02   # sdown_R decays
#          BR         NDA      ID1       ID2
     9.30979690E-03    2     1000022         1   # BR(~d_R -> ~chi_10 d)
     9.92565696E-06    2     1000023         1   # BR(~d_R -> ~chi_20 d)
     1.14980200E-05    2     1000025         1   # BR(~d_R -> ~chi_30 d)
     5.81617516E-10    2     1000035         1   # BR(~d_R -> ~chi_40 d)
     9.90668779E-01    2     1000021         1   # BR(~d_R -> ~g      d)
#
#         PDG            Width
DECAY   1000004     3.41860450E+02   # scharm_L decays
#          BR         NDA      ID1       ID2
     2.18630806E-03    2     1000022         4   # BR(~c_L -> ~chi_10 c)
     4.52534012E-05    2     1000023         4   # BR(~c_L -> ~chi_20 c)
     3.62413140E-06    2     1000025         4   # BR(~c_L -> ~chi_30 c)
     2.28350041E-02    2     1000035         4   # BR(~c_L -> ~chi_40 c)
     1.53255317E-04    2     1000024         3   # BR(~c_L -> ~chi_1+ s)
     4.56398532E-02    2     1000037         3   # BR(~c_L -> ~chi_2+ s)
     9.29136702E-01    2     1000021         4   # BR(~c_L -> ~g      c)
#
#         PDG            Width
DECAY   2000004     3.28303057E+02   # scharm_R decays
#          BR         NDA      ID1       ID2
     3.62253720E-02    2     1000022         4   # BR(~c_R -> ~chi_10 c)
     3.86214580E-05    2     1000023         4   # BR(~c_R -> ~chi_20 c)
     4.47396361E-05    2     1000025         4   # BR(~c_R -> ~chi_30 c)
     2.26282899E-09    2     1000035         4   # BR(~c_R -> ~chi_40 c)
     9.63691265E-01    2     1000021         4   # BR(~c_R -> ~g      c)
#
#         PDG            Width
DECAY   1000003     3.41869223E+02   # sstrange_L decays
#          BR         NDA      ID1       ID2
     2.17769402E-03    2     1000022         3   # BR(~s_L -> ~chi_10 s)
     1.35138238E-05    2     1000023         3   # BR(~s_L -> ~chi_20 s)
     2.69134334E-05    2     1000025         3   # BR(~s_L -> ~chi_30 s)
     2.28486613E-02    2     1000035         3   # BR(~s_L -> ~chi_40 s)
     5.49669187E-06    2    -1000024         4   # BR(~s_L -> ~chi_1- c)
     4.57158138E-02    2    -1000037         4   # BR(~s_L -> ~chi_2- c)
     9.29211907E-01    2     1000021         3   # BR(~s_L -> ~g      s)
#
#         PDG            Width
DECAY   2000003     3.19383543E+02   # sstrange_R decays
#          BR         NDA      ID1       ID2
     9.30979690E-03    2     1000022         3   # BR(~s_R -> ~chi_10 s)
     9.92565696E-06    2     1000023         3   # BR(~s_R -> ~chi_20 s)
     1.14980200E-05    2     1000025         3   # BR(~s_R -> ~chi_30 s)
     5.81617516E-10    2     1000035         3   # BR(~s_R -> ~chi_40 s)
     9.90668779E-01    2     1000021         3   # BR(~s_R -> ~g      s)
#
#         PDG            Width
DECAY   1000011     3.02852276E+01   # selectron_L decays
#          BR         NDA      ID1       ID2
     2.26242676E-01    2     1000022        11   # BR(~e_L -> ~chi_10 e-)
     1.09950581E-03    2     1000023        11   # BR(~e_L -> ~chi_20 e-)
     2.19053046E-05    2     1000025        11   # BR(~e_L -> ~chi_30 e-)
     2.57348995E-01    2     1000035        11   # BR(~e_L -> ~chi_40 e-)
     6.32046299E-05    2    -1000024        12   # BR(~e_L -> ~chi_1- nu_e)
     5.15223713E-01    2    -1000037        12   # BR(~e_L -> ~chi_2- nu_e)
#
#         PDG            Width
DECAY   2000011     2.73798906E+01   # selectron_R decays
#          BR         NDA      ID1       ID2
     9.97706540E-01    2     1000022        11   # BR(~e_R -> ~chi_10 e-)
     1.06254131E-03    2     1000023        11   # BR(~e_R -> ~chi_20 e-)
     1.23085761E-03    2     1000025        11   # BR(~e_R -> ~chi_30 e-)
     6.11347238E-08    2     1000035        11   # BR(~e_R -> ~chi_40 e-)
#
#         PDG            Width
DECAY   1000013     3.02852276E+01   # smuon_L decays
#          BR         NDA      ID1       ID2
     2.26242676E-01    2     1000022        13   # BR(~mu_L -> ~chi_10 mu-)
     1.09950581E-03    2     1000023        13   # BR(~mu_L -> ~chi_20 mu-)
     2.19053046E-05    2     1000025        13   # BR(~mu_L -> ~chi_30 mu-)
     2.57348995E-01    2     1000035        13   # BR(~mu_L -> ~chi_40 mu-)
     6.32046299E-05    2    -1000024        14   # BR(~mu_L -> ~chi_1- nu_mu)
     5.15223713E-01    2    -1000037        14   # BR(~mu_L -> ~chi_2- nu_mu)
#
#         PDG            Width
DECAY   2000013     2.73798906E+01   # smuon_R decays
#          BR         NDA      ID1       ID2
     9.97706540E-01    2     1000022        13   # BR(~mu_R -> ~chi_10 mu-)
     1.06254131E-03    2     1000023        13   # BR(~mu_R -> ~chi_20 mu-)
     1.23085761E-03    2     1000025        13   # BR(~mu_R -> ~chi_30 mu-)
     6.11347238E-08    2     1000035        13   # BR(~mu_R -> ~chi_40 mu-)
#
#         PDG            Width
DECAY   1000015     2.91523602E+01   # stau_1 decays
#          BR         NDA      ID1       ID2
     9.30349411E-01    2     1000022        15   # BR(~tau_1 -> ~chi_10  tau-)
     1.60521750E-02    2     1000023        15   # BR(~tau_1 -> ~chi_20  tau-)
     1.53792949E-02    2     1000025        15   # BR(~tau_1 -> ~chi_30  tau-)
     2.73389375E-03    2     1000035        15   # BR(~tau_1 -> ~chi_40  tau-)
     3.00120830E-02    2    -1000024        16   # BR(~tau_1 -> ~chi_1-  nu_tau)
     5.47314180E-03    2    -1000037        16   # BR(~tau_1 -> ~chi_2-  nu_tau)
#
#         PDG            Width
DECAY   2000015     3.11284090E+01   # stau_2 decays
#          BR         NDA      ID1       ID2
     2.26310623E-01    2     1000022        15   # BR(~tau_2 -> ~chi_10  tau-)
     1.51105063E-02    2     1000023        15   # BR(~tau_2 -> ~chi_20  tau-)
     1.47795951E-02    2     1000025        15   # BR(~tau_2 -> ~chi_30  tau-)
     2.47734407E-01    2     1000035        15   # BR(~tau_2 -> ~chi_40  tau-)
     8.94017507E-05    2    -1000024        16   # BR(~tau_2 -> ~chi_1-  nu_tau)
     4.95975467E-01    2    -1000037        16   # BR(~tau_2 -> ~chi_2-  nu_tau)
#
#         PDG            Width
DECAY   1000012     3.02881371E+01   # snu_eL decays
#          BR         NDA      ID1       ID2
     2.25875495E-01    2     1000022        12   # BR(~nu_eL -> ~chi_10 nu_e)
     4.48873953E-06    2     1000023        12   # BR(~nu_eL -> ~chi_20 nu_e)
     8.25023342E-04    2     1000025        12   # BR(~nu_eL -> ~chi_30 nu_e)
     2.57398132E-01    2     1000035        12   # BR(~nu_eL -> ~chi_40 nu_e)
     1.76182773E-03    2     1000024        11   # BR(~nu_eL -> ~chi_1+ e-)
     5.14135034E-01    2     1000037        11   # BR(~nu_eL -> ~chi_2+ e-)
#
#         PDG            Width
DECAY   1000014     3.02881371E+01   # snu_muL decays
#          BR         NDA      ID1       ID2
     2.25875495E-01    2     1000022        14   # BR(~nu_muL -> ~chi_10 nu_mu)
     4.48873953E-06    2     1000023        14   # BR(~nu_muL -> ~chi_20 nu_mu)
     8.25023342E-04    2     1000025        14   # BR(~nu_muL -> ~chi_30 nu_mu)
     2.57398132E-01    2     1000035        14   # BR(~nu_muL -> ~chi_40 nu_mu)
     1.76182773E-03    2     1000024        13   # BR(~nu_muL -> ~chi_1+ mu-)
     5.14135034E-01    2     1000037        13   # BR(~nu_muL -> ~chi_2+ mu-)
#
#         PDG            Width
DECAY   1000016     3.11570997E+01   # snu_tauL decays
#          BR         NDA      ID1       ID2
     2.19551923E-01    2     1000022        16   # BR(~nu_tauL -> ~chi_10 nu_tau)
     4.36301057E-06    2     1000023        16   # BR(~nu_tauL -> ~chi_20 nu_tau)
     8.01914494E-04    2     1000025        16   # BR(~nu_tauL -> ~chi_30 nu_tau)
     2.50126472E-01    2     1000035        16   # BR(~nu_tauL -> ~chi_40 nu_tau)
     2.99054395E-02    2     1000024        15   # BR(~nu_tauL -> ~chi_1+ tau-)
     4.99609889E-01    2     1000037        15   # BR(~nu_tauL -> ~chi_2+ tau-)
#
#         PDG            Width
DECAY   1000024     5.46598526E-01   # chargino1+ decays
#          BR         NDA      ID1       ID2
     1.00000000E+00    2     1000022        24   # BR(~chi_1+ -> ~chi_10  W+)
#
#         PDG            Width
DECAY   1000037     2.07823733E+01   # chargino2+ decays
#          BR         NDA      ID1       ID2
     2.53305382E-01    2     1000024        23   # BR(~chi_2+ -> ~chi_1+  Z )
     1.91072851E-04    2     1000022        24   # BR(~chi_2+ -> ~chi_10  W+)
     2.44317217E-01    2     1000023        24   # BR(~chi_2+ -> ~chi_20  W+)
     2.44215144E-01    2     1000025        24   # BR(~chi_2+ -> ~chi_30  W+)
     2.57969692E-01    2     1000024        25   # BR(~chi_2+ -> ~chi_1+  h )
     1.49285642E-06    2     1000022        37   # BR(~chi_2+ -> ~chi_10  H+)
#
#         PDG            Width
DECAY   1000022     0.00000000E+00   # neutralino1 decays
#
#         PDG            Width
DECAY   1000023     5.69311420E-01   # neutralino2 decays
#          BR         NDA      ID1       ID2
     5.35266858E-01    2     1000022        23   # BR(~chi_20 -> ~chi_10   Z )
     4.64733142E-01    2     1000022        25   # BR(~chi_20 -> ~chi_10   h )
#
#         PDG            Width
DECAY   1000025     5.70810265E-01   # neutralino3 decays
#          BR         NDA      ID1       ID2
     4.58796641E-01    2     1000022        23   # BR(~chi_30 -> ~chi_10   Z )
     5.41203359E-01    2     1000022        25   # BR(~chi_30 -> ~chi_10   h )
#
#         PDG            Width
DECAY   1000035     2.07980715E+01   # neutralino4 decays
#          BR         NDA      ID1       ID2
     4.00295976E-05    2     1000022        23   # BR(~chi_40 -> ~chi_10   Z )
     8.03572667E-02    2     1000023        23   # BR(~chi_40 -> ~chi_20   Z )
     1.72253709E-01    2     1000025        23   # BR(~chi_40 -> ~chi_30   Z )
     2.44913900E-01    2     1000024       -24   # BR(~chi_40 -> ~chi_1+   W-)
     2.44913900E-01    2    -1000024        24   # BR(~chi_40 -> ~chi_1-   W+)
     1.50839473E-04    2     1000022        25   # BR(~chi_40 -> ~chi_10   h )
     1.40499304E-06    2     1000022        35   # BR(~chi_40 -> ~chi_10   H )
     1.68046916E-07    2     1000022        36   # BR(~chi_40 -> ~chi_10   A )
     1.76825671E-01    2     1000023        25   # BR(~chi_40 -> ~chi_20   h )
     8.05431099E-02    2     1000025        25   # BR(~chi_40 -> ~chi_30   h )
#
#         PDG            Width
DECAY        25     4.00831735E-03   # h decays
#          BR         NDA      ID1       ID2
     6.18878242E-01    2           5        -5   # BR(h -> b       bb     )
     6.44193340E-02    2         -15        15   # BR(h -> tau+    tau-   )
     2.28070341E-04    2         -13        13   # BR(h -> mu+     mu-    )
     4.83915679E-04    2           3        -3   # BR(h -> s       sb     )
     2.09692689E-02    2           4        -4   # BR(h -> c       cb     )
     6.71883142E-02    2          21        21   # BR(h -> g       g      )
     2.29726113E-03    2          22        22   # BR(h -> gam     gam    )
     1.43484615E-03    2          22        23   # BR(h -> Z       gam    )
     2.00401816E-01    2          24       -24   # BR(h -> W+      W-     )
     2.36462970E-02    2          23        23   # BR(h -> Z       Z      )
     5.26347597E-05    2     1000022   1000022   # BR(h -> ~chi_10 ~chi_10)
#
#         PDG            Width
DECAY        35     8.24112233E+00   # H decays
#          BR         NDA      ID1       ID2
     3.90872063E-01    2           5        -5   # BR(H -> b       bb     )
     6.76749368E-02    2         -15        15   # BR(H -> tau+    tau-   )
     2.39303952E-04    2         -13        13   # BR(H -> mu+     mu-    )
     2.93350133E-04    2           3        -3   # BR(H -> s       sb     )
     1.63731783E-06    2           4        -4   # BR(H -> c       cb     )
     1.63581012E-01    2           6        -6   # BR(H -> t       tb     )
     5.43323020E-05    2          21        21   # BR(H -> g       g      )
     2.37575312E-07    2          22        22   # BR(H -> gam     gam    )
     9.64471133E-08    2          23        22   # BR(H -> Z       gam    )
     7.49524407E-05    2          24       -24   # BR(H -> W+      W-     )
     3.74287700E-05    2          23        23   # BR(H -> Z       Z      )
     2.80208572E-04    2          25        25   # BR(H -> h       h      )
     3.81656724E-23    2          36        36   # BR(H -> A       A      )
     3.50783942E-19    2          23        36   # BR(H -> Z       A      )
     2.30037187E-03    2     1000024  -1000024   # BR(H -> ~chi_1+ ~chi_1-)
     2.16535806E-03    2     1000022   1000022   # BR(H -> ~chi_10 ~chi_10)
     1.59450394E-05    2     1000023   1000023   # BR(H -> ~chi_20 ~chi_20)
     7.55104174E-04    2     1000025   1000025   # BR(H -> ~chi_30 ~chi_30)
     2.23187055E-01    2     1000022   1000023   # BR(H -> ~chi_10 ~chi_20)
     1.47722942E-01    2     1000022   1000025   # BR(H -> ~chi_10 ~chi_30)
     7.43664346E-04    2     1000023   1000025   # BR(H -> ~chi_20 ~chi_30)
#
#         PDG            Width
DECAY        36     8.25524149E+00   # A decays
#          BR         NDA      ID1       ID2
     3.90336317E-01    2           5        -5   # BR(A -> b       bb     )
     6.75612182E-02    2         -15        15   # BR(A -> tau+    tau-   )
     2.38901500E-04    2         -13        13   # BR(A -> mu+     mu-    )
     2.93070577E-04    2           3        -3   # BR(A -> s       sb     )
     1.64123315E-06    2           4        -4   # BR(A -> c       cb     )
     1.63881719E-01    2           6        -6   # BR(A -> t       tb     )
     1.62249938E-04    2          21        21   # BR(A -> g       g      )
     5.87596241E-07    2          22        22   # BR(A -> gam     gam    )
     1.96301613E-07    2          23        22   # BR(A -> Z       gam    )
     7.45448538E-05    2          23        25   # BR(A -> Z       h      )
     3.31225452E-03    2     1000024  -1000024   # BR(A -> ~chi_1+ ~chi_1-)
     2.19950816E-03    2     1000022   1000022   # BR(A -> ~chi_10 ~chi_10)
     1.62681003E-05    2     1000023   1000023   # BR(A -> ~chi_20 ~chi_20)
     1.80631210E-03    2     1000025   1000025   # BR(A -> ~chi_30 ~chi_30)
     1.49738240E-01    2     1000022   1000023   # BR(A -> ~chi_10 ~chi_20)
     2.20099798E-01    2     1000022   1000025   # BR(A -> ~chi_10 ~chi_30)
     2.77172604E-04    2     1000023   1000025   # BR(A -> ~chi_20 ~chi_30)
#
#         PDG            Width
DECAY        37     8.18929453E+00   # H+ decays
#          BR         NDA      ID1       ID2
     6.25148480E-04    2           4        -5   # BR(H+ -> c       bb     )
     6.81324099E-02    2         -15        16   # BR(H+ -> tau+    nu_tau )
     2.40921276E-04    2         -13        14   # BR(H+ -> mu+     nu_mu  )
     4.00092941E-06    2           2        -5   # BR(H+ -> u       bb     )
     1.41365657E-05    2           2        -3   # BR(H+ -> u       sb     )
     2.92341589E-04    2           4        -3   # BR(H+ -> c       sb     )
     5.52488280E-01    2           6        -5   # BR(H+ -> t       bb     )
     7.52834008E-05    2          24        25   # BR(H+ -> W+      h      )
     3.91360705E-13    2          24        36   # BR(H+ -> W+      A      )
     3.76978931E-01    2     1000024   1000022   # BR(H+ -> ~chi_1+ ~chi_10)
     1.12672168E-03    2     1000024   1000023   # BR(H+ -> ~chi_1+ ~chi_20)
     2.18255698E-05    2     1000024   1000025   # BR(H+ -> ~chi_1+ ~chi_30)
