#
#                              ======================
#                              | THE SUSYHIT OUTPUT |
#                              ======================
#
#
#              ------------------------------------------------------
#              |     This is the output of the SUSY-HIT package     |
#              |  created by A.Djouadi, M.Muehlleitner and M.Spira. |
#              |  In case of problems with SUSY-HIT email to        |
#              |           margarete.muehlleitner@cern.ch           |
#              |           michael.spira@psi.ch                     |
#              |           abdelhak.djouadi@cern.ch                 |
#              ------------------------------------------------------
#
#              ------------------------------------------------------
#              |  SUSY Les Houches Accord - MSSM Spectrum + Decays  |
#              |              based on the decay programs           |
#              |                                                    |
#              |                     SDECAY 1.3b                    |
#              |                                                    |
#              |  Authors: M.Muhlleitner, A.Djouadi and Y.Mambrini  |
#              |  Ref.:    Comput.Phys.Commun.168(2005)46           |
#              |           [hep-ph/0311167]                         |
#              |                                                    |
#              |                     HDECAY 3.4                     |
#              |                                                    |
#              |  By: A.Djouadi,J.Kalinowski,M.Muhlleitner,M.Spira  |
#              |  Ref.:    Comput.Phys.Commun.108(1998)56           |
#              |           [hep-ph/9704448]                         |
#              |                                                    |
#              |                                                    |
#              |  If not stated otherwise all DRbar couplings and   |
#              |  soft SUSY breaking masses are given at the scale  |
#              |  Q=  0.50006993E+04
#              |                                                    |
#              ------------------------------------------------------
#
#
BLOCK DCINFO  # Decay Program information
     1   SDECAY/HDECAY # decay calculator
     2   1.3b  /3.4    # version number
#
BLOCK SPINFO  # Spectrum calculator information
     1    SOFTSUSY    # spectrum calculator                
     2    3.4.0       # version number                     
#
BLOCK MODSEL  # Model selection
     1     0   #  nonUniversal                                     
#
BLOCK SMINPUTS  # Standard Model inputs
         1     1.25778332E+02   # alpha_em^-1(M_Z)^MSbar
         2     1.16570000E-05   # G_F [GeV^-2]
         3     1.17200002E-01   # alpha_S(M_Z)^MSbar
         4     9.11876000E+01   # M_Z pole mass
         5     4.25000000E+00   # mb(mb)^MSbar
         6     1.72500000E+02   # mt pole mass
         7     1.77682000E+00   # mtau pole mass
#
BLOCK MINPAR  # Input parameters - minimal models
         3     1.00000000E+01   # tanb                
#
BLOCK EXTPAR  # Input parameters - non-minimal models
         0    -1.00000000E+00   # Set                 
         1     6.00000000E+01   # M_1(MX)             
         2     3.00000000E+03   # M_2(MX)             
         3     1.85479300E+03   # M_3(MX)             
        11     5.00000000E+03   # At(MX)              
        12     5.00000000E+03   # Ab(MX)              
        13     0.00000000E+00   # Atau(MX)            
        23    -1.93699800E+03   # mu(MX)              
        26     3.00000000E+03   # mA(pole)            
        31     5.00000000E+03   # meL(MX)             
        32     5.00000000E+03   # mmuL(MX)            
        33     5.00000000E+03   # mtauL(MX)           
        34     5.00000000E+03   # meR(MX)             
        35     5.00000000E+03   # mmuR(MX)            
        36     5.00000000E+03   # mtauR(MX)           
        41     5.00000000E+03   # mqL1(MX)            
        42     5.00000000E+03   # mqL2(MX)            
        43     5.00000000E+03   # mqL3(MX)            
        44     5.00000000E+03   # muR(MX)             
        45     5.00000000E+03   # mcR(MX)             
        46     5.00000000E+03   # mtR(MX)             
        47     5.00000000E+03   # mdR(MX)             
        48     5.00000000E+03   # msR(MX)             
        49     5.00000000E+03   # mbR(MX)             
#
BLOCK MASS  # Mass Spectrum
# PDG code           mass       particle
        24     8.00975694E+01   # W+
        25     1.24804097E+02   # h
        35     3.00007613E+03   # H
        36     2.99999995E+03   # A
        37     3.00087273E+03   # H+
         5     4.87878001E+00   # b-quark pole mass calculated from mb(mb)_Msbar
   1000001     5.07471144E+03   # ~d_L
   2000001     5.05696221E+03   # ~d_R
   1000002     5.07423856E+03   # ~u_L
   2000002     5.05669402E+03   # ~u_R
   1000003     5.07471144E+03   # ~s_L
   2000003     5.05696221E+03   # ~s_R
   1000004     5.07423856E+03   # ~c_L
   2000004     5.05669402E+03   # ~c_R
   1000005     5.02144130E+03   # ~b_1
   2000005     5.05621075E+03   # ~b_2
   1000006     4.91397439E+03   # ~t_1
   2000006     5.06840870E+03   # ~t_2
   1000011     5.01903243E+03   # ~e_L
   2000011     5.00590193E+03   # ~e_R
   1000012     5.01808470E+03   # ~nu_eL
   1000013     5.01903243E+03   # ~mu_L
   2000013     5.00590193E+03   # ~mu_R
   1000014     5.01808470E+03   # ~nu_muL
   1000015     5.00405777E+03   # ~tau_1
   2000015     5.01933163E+03   # ~tau_2
   1000016     5.01755649E+03   # ~nu_tauL
   1000021     2.20000102E+03   # ~g
   1000022     6.02992820E+01   # ~chi_10
   1000023     1.99938220E+03   # ~chi_20
   1000025    -2.00239674E+03   # ~chi_30
   1000035     3.07449804E+03   # ~chi_40
   1000024     2.00000005E+03   # ~chi_1+
   1000037     3.07466594E+03   # ~chi_2+
#
BLOCK NMIX  # Neutralino Mixing Matrix
  1  1     9.99749443E-01   # N_11
  1  2     1.11635888E-04   # N_12
  1  3    -2.23212539E-02   # N_13
  1  4     1.67372124E-03   # N_14
  2  1     1.45912877E-02   # N_21
  2  2     4.52825354E-02   # N_22
  2  3     7.06689857E-01   # N_23
  2  4     7.05922115E-01   # N_24
  3  1    -1.69652933E-02   # N_31
  3  2     1.19413972E-02   # N_32
  3  3    -7.06777896E-01   # N_33
  3  4     7.07131238E-01   # N_34
  4  1    -5.70374906E-04   # N_41
  4  2     9.98902839E-01   # N_42
  4  3    -2.35841767E-02   # N_43
  4  4    -4.04546502E-02   # N_44
#
BLOCK UMIX  # Chargino Mixing Matrix U
  1  1     3.32832620E-02   # U_11
  1  2     9.99445959E-01   # U_12
  2  1    -9.99445959E-01   # U_21
  2  2     3.32832620E-02   # U_22
#
BLOCK VMIX  # Chargino Mixing Matrix V
  1  1     5.71428085E-02   # V_11
  1  2    -9.98366015E-01   # V_12
  2  1    -9.98366015E-01   # V_21
  2  2    -5.71428085E-02   # V_22
#
BLOCK STOPMIX  # Stop Mixing Matrix
  1  1    -5.15817180E-01   # cos(theta_t)
  1  2     8.56698685E-01   # sin(theta_t)
  2  1    -8.56698685E-01   # -sin(theta_t)
  2  2    -5.15817180E-01   # cos(theta_t)
#
BLOCK SBOTMIX  # Sbottom Mixing Matrix
  1  1     9.90692764E-01   # cos(theta_b)
  1  2    -1.36117036E-01   # sin(theta_b)
  2  1     1.36117036E-01   # -sin(theta_b)
  2  2     9.90692764E-01   # cos(theta_b)
#
BLOCK STAUMIX  # Stau Mixing Matrix
  1  1    -2.18667299E-01   # cos(theta_tau)
  1  2     9.75799473E-01   # sin(theta_tau)
  2  1    -9.75799473E-01   # -sin(theta_tau)
  2  2    -2.18667299E-01   # cos(theta_tau)
#
BLOCK ALPHA  # Higgs mixing
          -1.05459075E-01   # Mixing angle in the neutral Higgs boson sector
#
BLOCK HMIX Q=  5.00069927E+03  # DRbar Higgs Parameters
         1    -1.97261713E+03   # mu(Q)MSSM           
         2     9.47049499E+00   # tan                 
         3     2.42056736E+02   # higgs               
         4     8.32933459E+06   # mA^2(Q)MSSM         
#
BLOCK GAUGE Q=  5.00069927E+03  # The gauge couplings
     1     3.70630605E-01   # gprime(Q) DRbar
     2     6.31752818E-01   # g(Q) DRbar
     3     9.97091718E-01   # g3(Q) DRbar
#
BLOCK AU Q=  5.00069927E+03  # The trilinear couplings
  1  1     5.00000001E+03   # A_u(Q) DRbar
  2  2     5.00000001E+03   # A_c(Q) DRbar
  3  3     5.00000002E+03   # A_t(Q) DRbar
#
BLOCK AD Q=  5.00069927E+03  # The trilinear couplings
  1  1     5.00000001E+03   # A_d(Q) DRbar
  2  2     5.00000001E+03   # A_s(Q) DRbar
  3  3     5.00000001E+03   # A_b(Q) DRbar
#
BLOCK AE Q=  5.00069927E+03  # The trilinear couplings
  1  1     0.00000000E+00   # A_e(Q) DRbar
  2  2     2.09991128E-07   # A_mu(Q) DRbar
  3  3     2.09754959E-07   # A_tau(Q) DRbar
#
BLOCK Yu Q=  5.00069927E+03  # The Yukawa couplings
  1  1     0.00000000E+00   # y_u(Q) DRbar
  2  2     0.00000000E+00   # y_c(Q) DRbar
  3  3     8.19865734E-01   # y_t(Q) DRbar
#
BLOCK Yd Q=  5.00069927E+03  # The Yukawa couplings
  1  1     0.00000000E+00   # y_d(Q) DRbar
  2  2     0.00000000E+00   # y_s(Q) DRbar
  3  3     1.32189756E-01   # y_b(Q) DRbar
#
BLOCK Ye Q=  5.00069927E+03  # The Yukawa couplings
  1  1     0.00000000E+00   # y_e(Q) DRbar
  2  2     0.00000000E+00   # y_mu(Q) DRbar
  3  3     9.64538831E-02   # y_tau(Q) DRbar
#
BLOCK MSOFT Q=  5.00069927E+03  # The soft SUSY breaking masses at the scale Q
         1     6.00000000E+01   # M_1(Q)              
         2     3.00000000E+03   # M_2(Q)              
         3     1.85479300E+03   # M_3(Q)              
        21     4.75179102E+06   # mH1^2(Q)            
        22    -3.35967826E+06   # mH2^2(Q)            
        31     5.00000000E+03   # meL(Q)              
        32     5.00000000E+03   # mmuL(Q)             
        33     5.00000000E+03   # mtauL(Q)            
        34     5.00000000E+03   # meR(Q)              
        35     5.00000000E+03   # mmuR(Q)             
        36     5.00000000E+03   # mtauR(Q)            
        41     5.00000000E+03   # mqL1(Q)             
        42     5.00000000E+03   # mqL2(Q)             
        43     4.99999999E+03   # mqL3(Q)             
        44     5.00000000E+03   # muR(Q)              
        45     5.00000000E+03   # mcR(Q)              
        46     4.99999999E+03   # mtR(Q)              
        47     5.00000000E+03   # mdR(Q)              
        48     5.00000000E+03   # msR(Q)              
        49     5.00000000E+03   # mbR(Q)              
#
#
#
#                             =================
#                             |The decay table|
#                             =================
#
# - The QCD corrections to the decays gluino -> squark  + quark
#                                     squark -> gaugino + quark_prime
#                                     squark -> squark_prime + Higgs
#                                     squark -> gluino  + quark
#   are included.
#
# - The multi-body decays for the inos, stops and sbottoms are included.
#
# - The loop induced decays for the gluino, neutralinos and stops
#   are included.
#
# - The SUSY decays of the top quark are included.
#
#
#         PDG            Width
DECAY         6     1.39851052E+00   # top decays
#          BR         NDA      ID1       ID2
     1.00000000E+00    2           5        24   # BR(t ->  b    W+)
#
#         PDG            Width
DECAY   1000021     5.07850275E-04   # gluino decays
#          BR         NDA      ID1       ID2
     7.23345201E-06    2     1000022        21   # BR(~g -> ~chi_10 g)
     2.52506021E-04    2     1000023        21   # BR(~g -> ~chi_20 g)
     2.47032335E-04    2     1000025        21   # BR(~g -> ~chi_30 g)
#           BR         NDA      ID1       ID2       ID3
     7.56868625E-02    3     1000022         1        -1   # BR(~g -> ~chi_10 d  db)
     8.94182954E-08    3     1000023         1        -1   # BR(~g -> ~chi_20 d  db)
     4.21021222E-09    3     1000025         1        -1   # BR(~g -> ~chi_30 d  db)
     2.58022933E-01    3     1000022         2        -2   # BR(~g -> ~chi_10 u  ub)
     1.19525434E-07    3     1000023         2        -2   # BR(~g -> ~chi_20 u  ub)
     3.84546801E-09    3     1000025         2        -2   # BR(~g -> ~chi_30 u  ub)
     7.56868625E-02    3     1000022         3        -3   # BR(~g -> ~chi_10 s  sb)
     8.94182954E-08    3     1000023         3        -3   # BR(~g -> ~chi_20 s  sb)
     4.21021222E-09    3     1000025         3        -3   # BR(~g -> ~chi_30 s  sb)
     2.58022933E-01    3     1000022         4        -4   # BR(~g -> ~chi_10 c  cb)
     1.19525434E-07    3     1000023         4        -4   # BR(~g -> ~chi_20 c  cb)
     3.84546801E-09    3     1000025         4        -4   # BR(~g -> ~chi_30 c  cb)
     7.65572837E-02    3     1000022         5        -5   # BR(~g -> ~chi_10 b  bb)
     4.57131997E-06    3     1000023         5        -5   # BR(~g -> ~chi_20 b  bb)
     4.06535014E-06    3     1000025         5        -5   # BR(~g -> ~chi_30 b  bb)
     2.55504908E-01    3     1000022         6        -6   # BR(~g -> ~chi_10 t  tb)
     2.01102078E-07    3     1000024         1        -2   # BR(~g -> ~chi_1+ d  ub)
     2.01102078E-07    3    -1000024         2        -1   # BR(~g -> ~chi_1- u  db)
     2.01102078E-07    3     1000024         3        -4   # BR(~g -> ~chi_1+ s  cb)
     2.01102078E-07    3    -1000024         4        -3   # BR(~g -> ~chi_1- c  sb)
     7.85031360E-07    3     1000024         5        -6   # BR(~g -> ~chi_1+ b  tb)
     7.85031360E-07    3    -1000024         6        -5   # BR(~g -> ~chi_1- t  bb)
#
#         PDG            Width
DECAY   1000006     2.97102515E+02   # stop1 decays
#          BR         NDA      ID1       ID2
     2.94802478E-02    2     1000022         6   # BR(~t_1 -> ~chi_10 t )
     7.69684864E-02    2     1000023         6   # BR(~t_1 -> ~chi_20 t )
     7.38453604E-02    2     1000025         6   # BR(~t_1 -> ~chi_30 t )
     7.79715822E-03    2     1000035         6   # BR(~t_1 -> ~chi_40 t )
     1.09585772E-01    2     1000024         5   # BR(~t_1 -> ~chi_1+ b )
     1.54469237E-02    2     1000037         5   # BR(~t_1 -> ~chi_2+ b )
     6.86876051E-01    2     1000021         6   # BR(~t_1 -> ~g      t )
#
#         PDG            Width
DECAY   2000006     3.13630340E+02   # stop2 decays
#          BR         NDA      ID1       ID2
     1.14285414E-02    2     1000022         6   # BR(~t_2 -> ~chi_10 t )
     7.69906207E-02    2     1000023         6   # BR(~t_2 -> ~chi_20 t )
     8.02768625E-02    2     1000025         6   # BR(~t_2 -> ~chi_30 t )
     1.70742276E-02    2     1000035         6   # BR(~t_2 -> ~chi_40 t )
     4.88593949E-02    2     1000024         5   # BR(~t_2 -> ~chi_1+ b )
     3.37419195E-02    2     1000037         5   # BR(~t_2 -> ~chi_2+ b )
     7.27510310E-01    2     1000021         6   # BR(~t_2 -> ~g      t )
     8.83718903E-04    2     1000006        25   # BR(~t_2 -> ~t_1    h )
     3.23440444E-03    2     1000006        23   # BR(~t_2 -> ~t_1    Z )
#
#         PDG            Width
DECAY   1000005     2.90684203E+02   # sbottom1 decays
#          BR         NDA      ID1       ID2
     2.73979730E-03    2     1000022         5   # BR(~b_1 -> ~chi_10 b )
     2.31359708E-03    2     1000023         5   # BR(~b_1 -> ~chi_20 b )
     2.08271158E-03    2     1000025         5   # BR(~b_1 -> ~chi_30 b )
     2.55338296E-02    2     1000035         5   # BR(~b_1 -> ~chi_40 b )
     1.60381213E-01    2    -1000024         6   # BR(~b_1 -> ~chi_1- t )
     5.16326196E-02    2    -1000037         6   # BR(~b_1 -> ~chi_2- t )
     7.53515547E-01    2     1000021         5   # BR(~b_1 -> ~g      b )
     1.80068549E-03    2     1000006       -24   # BR(~b_1 -> ~t_1    W-)
#
#         PDG            Width
DECAY   2000005     2.28548645E+02   # sbottom2 decays
#          BR         NDA      ID1       ID2
     1.27264520E-02    2     1000022         5   # BR(~b_2 -> ~chi_10 b )
     2.62294506E-03    2     1000023         5   # BR(~b_2 -> ~chi_20 b )
     2.82048793E-03    2     1000025         5   # BR(~b_2 -> ~chi_30 b )
     6.70507209E-04    2     1000035         5   # BR(~b_2 -> ~chi_40 b )
     9.16041589E-03    2    -1000024         6   # BR(~b_2 -> ~chi_1- t )
     1.35407090E-03    2    -1000037         6   # BR(~b_2 -> ~chi_2- t )
     9.70456272E-01    2     1000021         5   # BR(~b_2 -> ~g      b )
     1.88849021E-04    2     1000006       -24   # BR(~b_2 -> ~t_1    W-)
#
#         PDG            Width
DECAY   1000002     2.47574225E+02   # sup_L decays
#          BR         NDA      ID1       ID2
     3.01112785E-03    2     1000022         2   # BR(~u_L -> ~chi_10 u)
     1.30553122E-04    2     1000023         2   # BR(~u_L -> ~chi_20 u)
     4.18559710E-06    2     1000025         2   # BR(~u_L -> ~chi_30 u)
     3.16566499E-02    2     1000035         2   # BR(~u_L -> ~chi_40 u)
     3.67877208E-04    2     1000024         1   # BR(~u_L -> ~chi_1+ d)
     6.32514392E-02    2     1000037         1   # BR(~u_L -> ~chi_2+ d)
     9.01578167E-01    2     1000021         2   # BR(~u_L -> ~g      u)
#
#         PDG            Width
DECAY   2000002     2.33596952E+02   # sup_R decays
#          BR         NDA      ID1       ID2
     5.08235628E-02    2     1000022         2   # BR(~u_R -> ~chi_10 u)
     7.73248120E-06    2     1000023         2   # BR(~u_R -> ~chi_20 u)
     1.04416866E-05    2     1000025         2   # BR(~u_R -> ~chi_30 u)
     6.61835269E-09    2     1000035         2   # BR(~u_R -> ~chi_40 u)
     9.49158256E-01    2     1000021         2   # BR(~u_R -> ~g      u)
#
#         PDG            Width
DECAY   1000001     2.47592133E+02   # sdown_L decays
#          BR         NDA      ID1       ID2
     3.00432501E-03    2     1000022         1   # BR(~d_L -> ~chi_10 d)
     1.01441297E-04    2     1000023         1   # BR(~d_L -> ~chi_20 d)
     1.31058040E-05    2     1000025         1   # BR(~d_L -> ~chi_30 d)
     3.16782557E-02    2     1000035         1   # BR(~d_L -> ~chi_40 d)
     1.24816060E-04    2    -1000024         2   # BR(~d_L -> ~chi_1- u)
     6.34032925E-02    2    -1000037         2   # BR(~d_L -> ~chi_2- u)
     9.01674764E-01    2     1000021         1   # BR(~d_L -> ~g      d)
#
#         PDG            Width
DECAY   2000001     2.24712496E+02   # sdown_R decays
#          BR         NDA      ID1       ID2
     1.32089543E-02    2     1000022         1   # BR(~d_R -> ~chi_10 d)
     2.00973604E-06    2     1000023         1   # BR(~d_R -> ~chi_20 d)
     2.71388138E-06    2     1000025         1   # BR(~d_R -> ~chi_30 d)
     1.72030940E-09    2     1000035         1   # BR(~d_R -> ~chi_40 d)
     9.86786320E-01    2     1000021         1   # BR(~d_R -> ~g      d)
#
#         PDG            Width
DECAY   1000004     2.47574225E+02   # scharm_L decays
#          BR         NDA      ID1       ID2
     3.01112785E-03    2     1000022         4   # BR(~c_L -> ~chi_10 c)
     1.30553122E-04    2     1000023         4   # BR(~c_L -> ~chi_20 c)
     4.18559710E-06    2     1000025         4   # BR(~c_L -> ~chi_30 c)
     3.16566499E-02    2     1000035         4   # BR(~c_L -> ~chi_40 c)
     3.67877208E-04    2     1000024         3   # BR(~c_L -> ~chi_1+ s)
     6.32514392E-02    2     1000037         3   # BR(~c_L -> ~chi_2+ s)
     9.01578167E-01    2     1000021         4   # BR(~c_L -> ~g      c)
#
#         PDG            Width
DECAY   2000004     2.33596952E+02   # scharm_R decays
#          BR         NDA      ID1       ID2
     5.08235628E-02    2     1000022         4   # BR(~c_R -> ~chi_10 c)
     7.73248120E-06    2     1000023         4   # BR(~c_R -> ~chi_20 c)
     1.04416866E-05    2     1000025         4   # BR(~c_R -> ~chi_30 c)
     6.61835269E-09    2     1000035         4   # BR(~c_R -> ~chi_40 c)
     9.49158256E-01    2     1000021         4   # BR(~c_R -> ~g      c)
#
#         PDG            Width
DECAY   1000003     2.47592133E+02   # sstrange_L decays
#          BR         NDA      ID1       ID2
     3.00432501E-03    2     1000022         3   # BR(~s_L -> ~chi_10 s)
     1.01441297E-04    2     1000023         3   # BR(~s_L -> ~chi_20 s)
     1.31058040E-05    2     1000025         3   # BR(~s_L -> ~chi_30 s)
     3.16782557E-02    2     1000035         3   # BR(~s_L -> ~chi_40 s)
     1.24816060E-04    2    -1000024         4   # BR(~s_L -> ~chi_1- c)
     6.34032925E-02    2    -1000037         4   # BR(~s_L -> ~chi_2- c)
     9.01674764E-01    2     1000021         3   # BR(~s_L -> ~g      s)
#
#         PDG            Width
DECAY   2000003     2.24712496E+02   # sstrange_R decays
#          BR         NDA      ID1       ID2
     1.32089543E-02    2     1000022         3   # BR(~s_R -> ~chi_10 s)
     2.00973604E-06    2     1000023         3   # BR(~s_R -> ~chi_20 s)
     2.71388138E-06    2     1000025         3   # BR(~s_R -> ~chi_30 s)
     1.72030940E-09    2     1000035         3   # BR(~s_R -> ~chi_40 s)
     9.86786320E-01    2     1000021         3   # BR(~s_R -> ~g      s)
#
#         PDG            Width
DECAY   1000011     3.02185279E+01   # selectron_L decays
#          BR         NDA      ID1       ID2
     2.26856733E-01    2     1000022        11   # BR(~e_L -> ~chi_10 e-)
     1.35303173E-03    2     1000023        11   # BR(~e_L -> ~chi_20 e-)
     1.84310325E-06    2     1000025        11   # BR(~e_L -> ~chi_30 e-)
     2.56639773E-01    2     1000035        11   # BR(~e_L -> ~chi_40 e-)
     1.03379166E-03    2    -1000024        12   # BR(~e_L -> ~chi_1- nu_e)
     5.14114828E-01    2    -1000037        12   # BR(~e_L -> ~chi_2- nu_e)
#
#         PDG            Width
DECAY   2000011     2.73485938E+01   # selectron_R decays
#          BR         NDA      ID1       ID2
     9.99646239E-01    2     1000022        11   # BR(~e_R -> ~chi_10 e-)
     1.50462250E-04    2     1000023        11   # BR(~e_R -> ~chi_20 e-)
     2.03172725E-04    2     1000025        11   # BR(~e_R -> ~chi_30 e-)
     1.26238965E-07    2     1000035        11   # BR(~e_R -> ~chi_40 e-)
#
#         PDG            Width
DECAY   1000013     3.02185279E+01   # smuon_L decays
#          BR         NDA      ID1       ID2
     2.26856733E-01    2     1000022        13   # BR(~mu_L -> ~chi_10 mu-)
     1.35303173E-03    2     1000023        13   # BR(~mu_L -> ~chi_20 mu-)
     1.84310325E-06    2     1000025        13   # BR(~mu_L -> ~chi_30 mu-)
     2.56639773E-01    2     1000035        13   # BR(~mu_L -> ~chi_40 mu-)
     1.03379166E-03    2    -1000024        14   # BR(~mu_L -> ~chi_1- nu_mu)
     5.14114828E-01    2    -1000037        14   # BR(~mu_L -> ~chi_2- nu_mu)
#
#         PDG            Width
DECAY   2000013     2.73485938E+01   # smuon_R decays
#          BR         NDA      ID1       ID2
     9.99646239E-01    2     1000022        13   # BR(~mu_R -> ~chi_10 mu-)
     1.50462250E-04    2     1000023        13   # BR(~mu_R -> ~chi_20 mu-)
     2.03172725E-04    2     1000025        13   # BR(~mu_R -> ~chi_30 mu-)
     1.26238965E-07    2     1000035        13   # BR(~mu_R -> ~chi_40 mu-)
#
#         PDG            Width
DECAY   1000015     2.87880987E+01   # stau_1 decays
#          BR         NDA      ID1       ID2
     9.16117179E-01    2     1000022        15   # BR(~tau_1 -> ~chi_10  tau-)
     1.27163771E-02    2     1000023        15   # BR(~tau_1 -> ~chi_20  tau-)
     1.08253937E-02    2     1000025        15   # BR(~tau_1 -> ~chi_30  tau-)
     1.21766435E-02    2     1000035        15   # BR(~tau_1 -> ~chi_40  tau-)
     2.37681700E-02    2    -1000024        16   # BR(~tau_1 -> ~chi_1-  nu_tau)
     2.43962367E-02    2    -1000037        16   # BR(~tau_1 -> ~chi_2-  nu_tau)
#
#         PDG            Width
DECAY   2000015     3.07301823E+01   # stau_2 decays
#          BR         NDA      ID1       ID2
     2.54313198E-01    2     1000022        15   # BR(~tau_2 -> ~chi_10  tau-)
     1.08633762E-02    2     1000023        15   # BR(~tau_2 -> ~chi_20  tau-)
     1.13428758E-02    2     1000025        15   # BR(~tau_2 -> ~chi_30  tau-)
     2.40902822E-01    2     1000035        15   # BR(~tau_2 -> ~chi_40  tau-)
     7.25492997E-07    2    -1000024        16   # BR(~tau_2 -> ~chi_1-  nu_tau)
     4.82577002E-01    2    -1000037        16   # BR(~tau_2 -> ~chi_2-  nu_tau)
#
#         PDG            Width
DECAY   1000012     3.02195425E+01   # snu_eL decays
#          BR         NDA      ID1       ID2
     2.26633645E-01    2     1000022        12   # BR(~nu_eL -> ~chi_10 nu_e)
     6.29148065E-04    2     1000023        12   # BR(~nu_eL -> ~chi_20 nu_e)
     2.23391469E-04    2     1000025        12   # BR(~nu_eL -> ~chi_30 nu_e)
     2.56810163E-01    2     1000035        12   # BR(~nu_eL -> ~chi_40 nu_e)
     3.04611213E-03    2     1000024        11   # BR(~nu_eL -> ~chi_1+ e-)
     5.12657540E-01    2     1000037        11   # BR(~nu_eL -> ~chi_2+ e-)
#
#         PDG            Width
DECAY   1000014     3.02195425E+01   # snu_muL decays
#          BR         NDA      ID1       ID2
     2.26633645E-01    2     1000022        14   # BR(~nu_muL -> ~chi_10 nu_mu)
     6.29148065E-04    2     1000023        14   # BR(~nu_muL -> ~chi_20 nu_mu)
     2.23391469E-04    2     1000025        14   # BR(~nu_muL -> ~chi_30 nu_mu)
     2.56810163E-01    2     1000035        14   # BR(~nu_muL -> ~chi_40 nu_mu)
     3.04611213E-03    2     1000024        13   # BR(~nu_muL -> ~chi_1+ mu-)
     5.12657540E-01    2     1000037        13   # BR(~nu_muL -> ~chi_2+ mu-)
#
#         PDG            Width
DECAY   1000016     3.08672010E+01   # snu_tauL decays
#          BR         NDA      ID1       ID2
     2.21855028E-01    2     1000022        16   # BR(~nu_tauL -> ~chi_10 nu_tau)
     6.15833444E-04    2     1000023        16   # BR(~nu_tauL -> ~chi_20 nu_tau)
     2.18663787E-04    2     1000025        16   # BR(~nu_tauL -> ~chi_30 nu_tau)
     2.51331665E-01    2     1000035        16   # BR(~nu_tauL -> ~chi_40 nu_tau)
     2.42486249E-02    2     1000024        15   # BR(~nu_tauL -> ~chi_1+ tau-)
     5.01730186E-01    2     1000037        15   # BR(~nu_tauL -> ~chi_2+ tau-)
#
#         PDG            Width
DECAY   1000024     1.23496557E+00   # chargino1+ decays
#          BR         NDA      ID1       ID2
     1.00000000E+00    2     1000022        24   # BR(~chi_1+ -> ~chi_10  W+)
#
#         PDG            Width
DECAY   1000037     1.53626444E+01   # chargino2+ decays
#          BR         NDA      ID1       ID2
     2.51881493E-01    2     1000024        23   # BR(~chi_2+ -> ~chi_1+  Z )
     4.76619780E-04    2     1000022        24   # BR(~chi_2+ -> ~chi_10  W+)
     2.45384196E-01    2     1000023        24   # BR(~chi_2+ -> ~chi_20  W+)
     2.42771469E-01    2     1000025        24   # BR(~chi_2+ -> ~chi_30  W+)
     2.59486179E-01    2     1000024        25   # BR(~chi_2+ -> ~chi_1+  h )
     4.32280572E-08    2     1000022        37   # BR(~chi_2+ -> ~chi_10  H+)
#
#         PDG            Width
DECAY   1000022     0.00000000E+00   # neutralino1 decays
#
#         PDG            Width
DECAY   1000023     1.30081909E+00   # neutralino2 decays
#          BR         NDA      ID1       ID2
     5.65491727E-01    2     1000022        23   # BR(~chi_20 -> ~chi_10   Z )
     4.34508273E-01    2     1000022        25   # BR(~chi_20 -> ~chi_10   h )
#
#         PDG            Width
DECAY   1000025     1.31714433E+00   # neutralino3 decays
#          BR         NDA      ID1       ID2
     4.15226194E-01    2     1000022        23   # BR(~chi_30 -> ~chi_10   Z )
     5.84773806E-01    2     1000022        25   # BR(~chi_30 -> ~chi_10   h )
#
#         PDG            Width
DECAY   1000035     1.53160138E+01   # neutralino4 decays
#          BR         NDA      ID1       ID2
     2.14706696E-04    2     1000022        23   # BR(~chi_40 -> ~chi_10   Z )
     1.67163453E-02    2     1000023        23   # BR(~chi_40 -> ~chi_20   Z )
     2.35825997E-01    2     1000025        23   # BR(~chi_40 -> ~chi_30   Z )
     2.43574580E-01    2     1000024       -24   # BR(~chi_40 -> ~chi_1+   W-)
     2.43574580E-01    2    -1000024        24   # BR(~chi_40 -> ~chi_1-   W+)
     2.82173498E-04    2     1000022        25   # BR(~chi_40 -> ~chi_10   h )
     3.23318816E-08    2     1000022        35   # BR(~chi_40 -> ~chi_10   H )
     1.24555440E-08    2     1000022        36   # BR(~chi_40 -> ~chi_10   A )
     2.43348591E-01    2     1000023        25   # BR(~chi_40 -> ~chi_20   h )
     1.64629819E-02    2     1000025        25   # BR(~chi_40 -> ~chi_30   h )
#
#         PDG            Width
DECAY        25     4.03242694E-03   # h decays
#          BR         NDA      ID1       ID2
     6.04958863E-01    2           5        -5   # BR(h -> b       bb     )
     6.43281088E-02    2         -15        15   # BR(h -> tau+    tau-   )
     2.27744759E-04    2         -13        13   # BR(h -> mu+     mu-    )
     4.82783205E-04    2           3        -3   # BR(h -> s       sb     )
     2.09229080E-02    2           4        -4   # BR(h -> c       cb     )
     6.77151647E-02    2          21        21   # BR(h -> g       g      )
     2.32922425E-03    2          22        22   # BR(h -> gam     gam    )
     1.50441388E-03    2          22        23   # BR(h -> Z       gam    )
     2.12201050E-01    2          24       -24   # BR(h -> W+      W-     )
     2.53085637E-02    2          23        23   # BR(h -> Z       Z      )
     2.11757250E-05    2     1000022   1000022   # BR(h -> ~chi_10 ~chi_10)
#
#         PDG            Width
DECAY        35     6.35925137E+00   # H decays
#          BR         NDA      ID1       ID2
     5.19615276E-01    2           5        -5   # BR(H -> b       bb     )
     8.76185086E-02    2         -15        15   # BR(H -> tau+    tau-   )
     3.09826006E-04    2         -13        13   # BR(H -> mu+     mu-    )
     3.79799314E-04    2           3        -3   # BR(H -> s       sb     )
     2.12358151E-06    2           4        -4   # BR(H -> c       cb     )
     2.12162603E-01    2           6        -6   # BR(H -> t       tb     )
     7.03684236E-05    2          21        21   # BR(H -> g       g      )
     3.97968698E-07    2          22        22   # BR(H -> gam     gam    )
     1.25332387E-07    2          23        22   # BR(H -> Z       gam    )
     9.21557568E-05    2          24       -24   # BR(H -> W+      W-     )
     4.60195669E-05    2          23        23   # BR(H -> Z       Z      )
     3.53104711E-04    2          25        25   # BR(H -> h       h      )
     2.76204381E-23    2          36        36   # BR(H -> A       A      )
     2.75536781E-19    2          23        36   # BR(H -> Z       A      )
     5.68195527E-04    2     1000022   1000022   # BR(H -> ~chi_10 ~chi_10)
     1.04416436E-01    2     1000022   1000023   # BR(H -> ~chi_10 ~chi_20)
     7.43650604E-02    2     1000022   1000025   # BR(H -> ~chi_10 ~chi_30)
#
#         PDG            Width
DECAY        36     6.36261703E+00   # A decays
#          BR         NDA      ID1       ID2
     5.19513137E-01    2           5        -5   # BR(A -> b       bb     )
     8.75748333E-02    2         -15        15   # BR(A -> tau+    tau-   )
     3.09671134E-04    2         -13        13   # BR(A -> mu+     mu-    )
     3.79886743E-04    2           3        -3   # BR(A -> s       sb     )
     2.13146393E-06    2           4        -4   # BR(A -> c       cb     )
     2.12832635E-01    2           6        -6   # BR(A -> t       tb     )
     2.10629679E-04    2          21        21   # BR(A -> g       g      )
     4.11703485E-07    2          22        22   # BR(A -> gam     gam    )
     2.55229998E-07    2          23        22   # BR(A -> Z       gam    )
     9.17591984E-05    2          23        25   # BR(A -> Z       h      )
     5.87157519E-04    2     1000022   1000022   # BR(A -> ~chi_10 ~chi_10)
     7.52931539E-02    2     1000022   1000023   # BR(A -> ~chi_10 ~chi_20)
     1.03204338E-01    2     1000022   1000025   # BR(A -> ~chi_10 ~chi_30)
#
#         PDG            Width
DECAY        37     6.38457501E+00   # H+ decays
#          BR         NDA      ID1       ID2
     8.38914707E-04    2           4        -5   # BR(H+ -> c       bb     )
     8.72990341E-02    2         -15        16   # BR(H+ -> tau+    nu_tau )
     3.08695887E-04    2         -13        14   # BR(H+ -> mu+     nu_mu  )
     5.36902707E-06    2           2        -5   # BR(H+ -> u       bb     )
     1.81136320E-05    2           2        -3   # BR(H+ -> u       sb     )
     3.74590463E-04    2           4        -3   # BR(H+ -> c       sb     )
     7.31964109E-01    2           6        -5   # BR(H+ -> t       bb     )
     9.15821634E-05    2          24        25   # BR(H+ -> W+      h      )
     1.04249802E-13    2          24        36   # BR(H+ -> W+      A      )
     1.79099591E-01    2     1000024   1000022   # BR(H+ -> ~chi_1+ ~chi_10)
