#
#                              ======================
#                              | THE SUSYHIT OUTPUT |
#                              ======================
#
#
#              ------------------------------------------------------
#              |     This is the output of the SUSY-HIT package     |
#              |  created by A.Djouadi, M.Muehlleitner and M.Spira. |
#              |  In case of problems with SUSY-HIT email to        |
#              |           margarete.muehlleitner@kit.edu           |
#              |           michael.spira@psi.ch                     |
#              |           abdelhak.djouadi@cern.ch                 |
#              ------------------------------------------------------
#
#              ------------------------------------------------------
#              |  SUSY Les Houches Accord - MSSM Spectrum + Decays  |
#              |              based on the decay programs           |
#              |                                                    |
#              |                     SDECAY 1.5                     |
#              |                                                    |
#              |  Authors: M.Muhlleitner, A.Djouadi and Y.Mambrini  |
#              |  Ref.:    Comput.Phys.Commun.168(2005)46           |
#              |           [hep-ph/0311167]                         |
#              |                                                    |
#              |                     HDECAY 3.4                     |
#              |                                                    |
#              |  By: A.Djouadi,J.Kalinowski,M.Muhlleitner,M.Spira  |
#              |  Ref.:    Comput.Phys.Commun.108(1998)56           |
#              |           [hep-ph/9704448]                         |
#              |                                                    |
#              |                                                    |
#              |  If not stated otherwise all DRbar couplings and   |
#              |  soft SUSY breaking masses are given at the scale  |
#              |  Q=  0.91187600E+02
#              |                                                    |
#              ------------------------------------------------------
#
#
BLOCK DCINFO  # Decay Program information
     1   SDECAY/HDECAY # decay calculator
     2   1.5  /3.4    # version number
#
BLOCK SPINFO  # Spectrum calculator information
     1   SuSpect     # RGE +Spectrum calculator            
     2   2.43         # version number                     
#
BLOCK MODSEL  # Model selection
     1     2   # GMSB                                              
#
BLOCK SMINPUTS  # Standard Model inputs
         1     1.27932904E+02   # alpha_em^-1(M_Z)^MSbar
         2     1.16639000E-05   # G_F [GeV^-2]
         3     1.17200000E-01   # alpha_S(M_Z)^MSbar
         4     9.11870000E+01   # M_Z pole mass
         5     4.25000000E+00   # mb(mb)^MSbar
         6     1.72900000E+02   # mt pole mass
         7     1.77700000E+00   # mtau pole mass
#
BLOCK MINPAR  # Input parameters - minimal models
#
BLOCK EXTPAR  # Input parameters - non-minimal models
         0     9.11876000E+01   # EWSB                
         1     1.64200000E+03   # M_1                 
         2     3.00000000E+03   # M_2                 
         3     2.40000000E+03   # M_3                 
        11     0.00000000E+00   # A_t                 
        12     0.00000000E+00   # A_b                 
        13     0.00000000E+00   # A_tau               
        14     0.00000000E+00   # A_u                 
        15     0.00000000E+00   # A_d                 
        16     0.00000000E+00   # A_e                 
        23     1.65000000E+03   # mu(EWSB)            
        25     1.50000000E+00   # tanbeta(in)         
        26     2.00000000E+03   # MA_pole             
        31     5.00000000E+03   # M_eL                
        32     5.00000000E+03   # M_muL               
        33     5.00000000E+03   # M_tauL              
        34     5.00000000E+03   # M_eR                
        35     5.00000000E+03   # M_muR               
        36     5.00000000E+03   # M_tauR              
        41     5.00000000E+03   # M_q1L               
        42     5.00000000E+03   # M_q2L               
        43     5.00000000E+03   # M_q3L               
        44     5.00000000E+03   # M_uR                
        45     5.00000000E+03   # M_cR                
        46     5.00000000E+03   # M_tR                
        47     5.00000000E+03   # M_dR                
        48     5.00000000E+03   # M_sR                
        49     5.00000000E+03   # M_bR                
#
BLOCK MASS  # Mass Spectrum
# PDG code           mass       particle
        24     8.05416884E+01   # W+
        25     1.26000000E+02   # h
        35     2.00400316E+03   # H
        36     2.00000000E+03   # A
        37     2.00151698E+03   # H+
         5     4.87877839E+00   # b-quark pole mass calculated from mb(mb)_Msbar
   1000001     4.89730085E+03   # ~d_L
   2000001     4.89719010E+03   # ~d_R
   1000002     4.89705321E+03   # ~u_L
   2000002     4.89711169E+03   # ~u_R
   1000003     4.89730085E+03   # ~s_L
   2000003     4.89719010E+03   # ~s_R
   1000004     4.89705321E+03   # ~c_L
   2000004     4.89711169E+03   # ~c_R
   1000005     4.89655942E+03   # ~b_1
   2000005     4.89793292E+03   # ~b_2
   1000006     5.01373461E+03   # ~t_1
   2000006     5.30870996E+03   # ~t_2
   1000011     5.00008216E+03   # ~e_L
   2000011     5.00007613E+03   # ~e_R
   1000012     4.99984170E+03   # ~nu_eL
   1000013     5.00008216E+03   # ~mu_L
   2000013     5.00007613E+03   # ~mu_R
   1000014     4.99984170E+03   # ~nu_muL
   1000015     4.99963923E+03   # ~tau_1
   2000015     5.00051965E+03   # ~tau_2
   1000016     4.99984170E+03   # ~nu_tauL
   1000021     2.41236284E+03   # ~g
   1000022     1.70131851E+03   # ~chi_10
   1000023    -1.75207496E+03   # ~chi_20
   1000025     1.78859257E+03   # ~chi_30
   1000035     3.12643783E+03   # ~chi_40
   1000024     1.74767921E+03   # ~chi_1+
   1000037     3.12643356E+03   # ~chi_2+
   1000039     1.00000000E-09   # ~gravitino
#
BLOCK NMIX  # Neutralino Mixing Matrix
  1  1     7.28450712E-01   # N_11
  1  2    -3.73112895E-02   # N_12
  1  3     4.85136473E-01   # N_13
  1  4    -4.82296621E-01   # N_14
  2  1     2.49823523E-03   # N_21
  2  2    -3.18304537E-03   # N_22
  2  3    -7.07029194E-01   # N_23
  2  4    -7.07172784E-01   # N_24
  3  1     6.85091300E-01   # N_31
  3  2     4.23030880E-02   # N_32
  3  3    -5.13163842E-01   # N_33
  3  4     5.15289463E-01   # N_34
  4  1     1.79696026E-03   # N_41
  4  2    -9.98402817E-01   # N_42
  4  3    -3.76190611E-02   # N_43
  4  4     4.21116675E-02   # N_44
#
BLOCK UMIX  # Chargino Mixing Matrix U
  1  1    -5.31471571E-02   # U_11
  1  2     9.98586691E-01   # U_12
  2  1     9.98586691E-01   # U_21
  2  2     5.31471571E-02   # U_22
#
BLOCK VMIX  # Chargino Mixing Matrix V
  1  1    -5.94999652E-02   # V_11
  1  2     9.98228308E-01   # V_12
  2  1     9.98228308E-01   # V_21
  2  2     5.94999652E-02   # V_22
#
BLOCK STOPMIX  # Stop Mixing Matrix
  1  1     9.99966655E-01   # cos(theta_t)
  1  2     8.16632648E-03   # sin(theta_t)
  2  1    -8.16632648E-03   # -sin(theta_t)
  2  2     9.99966655E-01   # cos(theta_t)
#
BLOCK SBOTMIX  # Sbottom Mixing Matrix
  1  1     6.77999102E-01   # cos(theta_b)
  1  2     7.35062730E-01   # sin(theta_b)
  2  1    -7.35062730E-01   # -sin(theta_b)
  2  2     6.77999102E-01   # cos(theta_b)
#
BLOCK STAUMIX  # Stau Mixing Matrix
  1  1     7.04680425E-01   # cos(theta_tau)
  1  2     7.09524840E-01   # sin(theta_tau)
  2  1    -7.09524840E-01   # -sin(theta_tau)
  2  2     7.04680425E-01   # cos(theta_tau)
#
BLOCK ALPHA  # Higgs mixing
          -5.90201587E-01   # Mixing angle in the neutral Higgs boson sector
#
BLOCK HMIX Q=  9.11876000E+01  # DRbar Higgs Parameters
         1     1.65000000E+03   # mu(Q)               
         2     1.49999979E+00   # tanbeta(Q)          
         3     2.52259113E+02   # vev(Q)              
         4     3.18315795E+06   # MA^2(Q)             
#
BLOCK GAUGE Q=  9.11876000E+01  # The gauge couplings
     1     3.52737304E-01   # gprime(Q) DRbar
     2     6.26886659E-01   # g(Q) DRbar
     3     1.07754617E+00   # g3(Q) DRbar
#
BLOCK AU Q=  9.11876000E+01  # The trilinear couplings
  1  1     0.00000000E+00   # A_u(Q) DRbar
  2  2     0.00000000E+00   # A_c(Q) DRbar
  3  3     0.00000000E+00   # A_t(Q) DRbar
#
BLOCK AD Q=  9.11876000E+01  # The trilinear couplings
  1  1     0.00000000E+00   # A_d(Q) DRbar
  2  2     0.00000000E+00   # A_s(Q) DRbar
  3  3     0.00000000E+00   # A_b(Q) DRbar
#
BLOCK AE Q=  9.11876000E+01  # The trilinear couplings
  1  1     0.00000000E+00   # A_e(Q) DRbar
  2  2     0.00000000E+00   # A_mu(Q) DRbar
  3  3     0.00000000E+00   # A_tau(Q) DRbar
#
BLOCK Yu Q=  9.11876000E+01  # The Yukawa couplings
  1  1     0.00000000E+00   # y_u(Q) DRbar
  2  2     0.00000000E+00   # y_c(Q) DRbar
  3  3     1.02511281E+00   # y_t(Q) DRbar
#
BLOCK Yd Q=  9.11876000E+01  # The Yukawa couplings
  1  1     0.00000000E+00   # y_d(Q) DRbar
  2  2     0.00000000E+00   # y_s(Q) DRbar
  3  3     2.71417880E-02   # y_b(Q) DRbar
#
BLOCK Ye Q=  9.11876000E+01  # The Yukawa couplings
  1  1     0.00000000E+00   # y_e(Q) DRbar
  2  2     0.00000000E+00   # y_mu(Q) DRbar
  3  3     1.79759257E-02   # y_tau(Q) DRbar
#
BLOCK MSOFT Q=  9.11876000E+01  # The soft SUSY breaking masses at the scale Q
         1     1.64200000E+03   # M_1                 
         2     3.00000000E+03   # M_2                 
         3     2.40000000E+03   # M_3                 
        14     0.00000000E+00   # A_u                 
        15     0.00000000E+00   # A_d                 
        16     0.00000000E+00   # A_e                 
        21    -2.22302810E+03   # M^2_Hd              
        22    -7.86351638E+06   # M^2_Hu              
        31     5.00000000E+03   # M_eL                
        32     5.00000000E+03   # M_muL               
        33     5.00000000E+03   # M_tauL              
        34     5.00000000E+03   # M_eR                
        35     5.00000000E+03   # M_muR               
        36     5.00000000E+03   # M_tauR              
        41     5.00000000E+03   # M_q1L               
        42     5.00000000E+03   # M_q2L               
        43     5.00000000E+03   # M_q3L               
        44     5.00000000E+03   # M_uR                
        45     5.00000000E+03   # M_cR                
        46     5.00000000E+03   # M_tR                
        47     5.00000000E+03   # M_dR                
        48     5.00000000E+03   # M_sR                
        49     5.00000000E+03   # M_bR                
#
#
#
#                             =================
#                             |The decay table|
#                             =================
#
# - The QCD corrections to the decays gluino -> squark  + quark
#                                     squark -> gaugino + quark_prime
#                                     squark -> squark_prime + Higgs
#                                     squark -> gluino  + quark
#   are included.
#
# - The multi-body decays for the inos, stops and sbottoms are included.
#
# - The loop induced decays for the gluino, neutralinos and stops
#   are included.
#
# - The SUSY decays of the top quark are included.
#
# - Possible decays of the NLSP in GMSB models are included.
#
#
#         PDG            Width
DECAY         6     1.36919872E+00   # top decays
#          BR         NDA      ID1       ID2
     1.00000000E+00    2           5        24   # BR(t ->  b    W+)
#
#         PDG            Width
DECAY   1000021     2.25127687E-04   # gluino decays
#          BR         NDA      ID1       ID2
     1.57272914E-02    2     1000022        21   # BR(~g -> ~chi_10 g)
     2.78926921E-02    2     1000023        21   # BR(~g -> ~chi_20 g)
     1.26118136E-02    2     1000025        21   # BR(~g -> ~chi_30 g)
#          BR         NDA      ID1       ID2
0.0E+00    2     1000039    21 # BR(~g -> ~G      g)
#           BR         NDA      ID1       ID2       ID3
     6.08806078E-03    3     1000022         1        -1   # BR(~g -> ~chi_10 d  db)
     2.07440414E-07    3     1000023         1        -1   # BR(~g -> ~chi_20 d  db)
     2.41402158E-03    3     1000025         1        -1   # BR(~g -> ~chi_30 d  db)
     1.79045889E-02    3     1000022         2        -2   # BR(~g -> ~chi_10 u  ub)
     1.58854639E-07    3     1000023         2        -2   # BR(~g -> ~chi_20 u  ub)
     9.63911843E-03    3     1000025         2        -2   # BR(~g -> ~chi_30 u  ub)
     6.08806078E-03    3     1000022         3        -3   # BR(~g -> ~chi_10 s  sb)
     2.07440414E-07    3     1000023         3        -3   # BR(~g -> ~chi_20 s  sb)
     2.41402158E-03    3     1000025         3        -3   # BR(~g -> ~chi_30 s  sb)
     1.79045889E-02    3     1000022         4        -4   # BR(~g -> ~chi_10 c  cb)
     1.58854639E-07    3     1000023         4        -4   # BR(~g -> ~chi_20 c  cb)
     9.63911843E-03    3     1000025         4        -4   # BR(~g -> ~chi_30 c  cb)
     6.14833206E-03    3     1000022         5        -5   # BR(~g -> ~chi_10 b  bb)
     1.59684614E-04    3     1000023         5        -5   # BR(~g -> ~chi_20 b  bb)
     2.49908004E-03    3     1000025         5        -5   # BR(~g -> ~chi_30 b  bb)
     5.80094388E-02    3     1000022         6        -6   # BR(~g -> ~chi_10 t  tb)
     6.75702423E-02    3     1000023         6        -6   # BR(~g -> ~chi_20 t  tb)
     4.68211011E-02    3     1000025         6        -6   # BR(~g -> ~chi_30 t  tb)
     2.75451468E-04    3     1000024         1        -2   # BR(~g -> ~chi_1+ d  ub)
     2.75451468E-04    3    -1000024         2        -1   # BR(~g -> ~chi_1- u  db)
     2.75451468E-04    3     1000024         3        -4   # BR(~g -> ~chi_1+ s  cb)
     2.75451468E-04    3    -1000024         4        -3   # BR(~g -> ~chi_1- c  sb)
     1.35782039E-01    3     1000024         5        -6   # BR(~g -> ~chi_1+ b  tb)
     1.35782039E-01    3    -1000024         6        -5   # BR(~g -> ~chi_1- t  bb)
#
#         PDG            Width
DECAY   1000006     2.37695355E+02   # stop1 decays
#          BR         NDA      ID1       ID2
     5.43676281E-02    2     1000022         6   # BR(~t_1 -> ~chi_10 t )
     1.15989586E-01    2     1000023         6   # BR(~t_1 -> ~chi_20 t )
     6.36048053E-02    2     1000025         6   # BR(~t_1 -> ~chi_30 t )
     3.02601606E-02    2     1000035         6   # BR(~t_1 -> ~chi_40 t )
    -1.31310194E-04    2     1000024         5   # BR(~t_1 -> ~chi_1+ b )
     5.98070932E-02    2     1000037         5   # BR(~t_1 -> ~chi_2+ b )
     6.62834125E-01    2     1000021         6   # BR(~t_1 -> ~g      t )
     6.32120939E-03    2     1000005        24   # BR(~t_1 -> ~b_1    W+)
     6.94670320E-03    2     2000005        24   # BR(~t_1 -> ~b_2    W+)
#
#         PDG            Width
DECAY   2000006     3.05879722E+02   # stop2 decays
#          BR         NDA      ID1       ID2
     6.26424161E-02    2     1000022         6   # BR(~t_2 -> ~chi_10 t )
     9.92488431E-02    2     1000023         6   # BR(~t_2 -> ~chi_20 t )
     6.55216964E-02    2     1000025         6   # BR(~t_2 -> ~chi_30 t )
     3.70082515E-05    2     1000035         6   # BR(~t_2 -> ~chi_40 t )
     1.98847700E-01    2     1000024         5   # BR(~t_2 -> ~chi_1+ b )
     7.59879924E-05    2     1000037         5   # BR(~t_2 -> ~chi_2+ b )
     5.73656576E-01    2     1000021         6   # BR(~t_2 -> ~g      t )
    -1.28405724E-04    2     1000006        25   # BR(~t_2 -> ~t_1    h )
     1.33437503E-05    2     1000006        23   # BR(~t_2 -> ~t_1    Z )
     3.92368475E-05    2     1000005        24   # BR(~t_2 -> ~b_1    W+)
     4.55969585E-05    2     2000005        24   # BR(~t_2 -> ~b_2    W+)
#
#         PDG            Width
DECAY   1000005     1.84085811E+02   # sbottom1 decays
#          BR         NDA      ID1       ID2
     5.20122725E-03    2     1000022         5   # BR(~b_1 -> ~chi_10 b )
     8.98950434E-05    2     1000023         5   # BR(~b_1 -> ~chi_20 b )
     2.40134767E-03    2     1000025         5   # BR(~b_1 -> ~chi_30 b )
     1.53870125E-02    2     1000035         5   # BR(~b_1 -> ~chi_40 b )
     1.23897395E-01    2    -1000024         6   # BR(~b_1 -> ~chi_1- t )
     3.11449105E-02    2    -1000037         6   # BR(~b_1 -> ~chi_2- t )
     8.21878212E-01    2     1000021         5   # BR(~b_1 -> ~g      b )
#
#         PDG            Width
DECAY   2000005     1.93770429E+02   # sbottom2 decays
#          BR         NDA      ID1       ID2
     2.87391058E-03    2     1000022         5   # BR(~b_2 -> ~chi_10 b )
     1.09742501E-04    2     1000023         5   # BR(~b_2 -> ~chi_20 b )
     3.07475581E-03    2     1000025         5   # BR(~b_2 -> ~chi_30 b )
     1.89371548E-02    2     1000035         5   # BR(~b_2 -> ~chi_40 b )
     1.56496077E-01    2    -1000024         6   # BR(~b_2 -> ~chi_1- t )
     3.83413416E-02    2    -1000037         6   # BR(~b_2 -> ~chi_2- t )
     7.80167017E-01    2     1000021         5   # BR(~b_2 -> ~g      b )
#
#         PDG            Width
DECAY   1000002     1.71345849E+02   # sup_L decays
#          BR         NDA      ID1       ID2
     8.21044408E-04    2     1000022         2   # BR(~u_L -> ~chi_10 u)
     6.03240002E-07    2     1000023         2   # BR(~u_L -> ~chi_20 u)
     2.35906329E-03    2     1000025         2   # BR(~u_L -> ~chi_30 u)
     3.78868428E-02    2     1000035         2   # BR(~u_L -> ~chi_40 u)
     5.80518456E-04    2     1000024         1   # BR(~u_L -> ~chi_1+ d)
     7.57986481E-02    2     1000037         1   # BR(~u_L -> ~chi_2+ d)
     8.82553280E-01    2     1000021         2   # BR(~u_L -> ~g      u)
#
#         PDG            Width
DECAY   2000002     1.59146525E+02   # sup_R decays
#          BR         NDA      ID1       ID2
     2.67673101E-02    2     1000022         2   # BR(~u_R -> ~chi_10 u)
     3.09650561E-07    2     1000023         2   # BR(~u_R -> ~chi_20 u)
     2.30013077E-02    2     1000025         2   # BR(~u_R -> ~chi_30 u)
     7.44294809E-08    2     1000035         2   # BR(~u_R -> ~chi_40 u)
     9.50230998E-01    2     1000021         2   # BR(~u_R -> ~g      u)
#
#         PDG            Width
DECAY   1000001     1.71354647E+02   # sdown_L decays
#          BR         NDA      ID1       ID2
     2.51841592E-03    2     1000022         1   # BR(~d_L -> ~chi_10 d)
     1.09169446E-06    2     1000023         1   # BR(~d_L -> ~chi_20 d)
     6.00793066E-04    2     1000025         1   # BR(~d_L -> ~chi_30 d)
     3.79432389E-02    2     1000035         1   # BR(~d_L -> ~chi_40 d)
     4.63185942E-04    2    -1000024         2   # BR(~d_L -> ~chi_1- u)
     7.58634861E-02    2    -1000037         2   # BR(~d_L -> ~chi_2- u)
     8.82609788E-01    2     1000021         1   # BR(~d_L -> ~g      d)
#
#         PDG            Width
DECAY   2000001     1.53211677E+02   # sdown_R decays
#          BR         NDA      ID1       ID2
     6.95121740E-03    2     1000022         1   # BR(~d_R -> ~chi_10 d)
     8.04133720E-08    2     1000023         1   # BR(~d_R -> ~chi_20 d)
     5.97322846E-03    2     1000025         1   # BR(~d_R -> ~chi_30 d)
     1.93293037E-08    2     1000035         1   # BR(~d_R -> ~chi_40 d)
     9.87075454E-01    2     1000021         1   # BR(~d_R -> ~g      d)
#
#         PDG            Width
DECAY   1000004     1.71345849E+02   # scharm_L decays
#          BR         NDA      ID1       ID2
     8.21044408E-04    2     1000022         4   # BR(~c_L -> ~chi_10 c)
     6.03240002E-07    2     1000023         4   # BR(~c_L -> ~chi_20 c)
     2.35906329E-03    2     1000025         4   # BR(~c_L -> ~chi_30 c)
     3.78868428E-02    2     1000035         4   # BR(~c_L -> ~chi_40 c)
     5.80518456E-04    2     1000024         3   # BR(~c_L -> ~chi_1+ s)
     7.57986481E-02    2     1000037         3   # BR(~c_L -> ~chi_2+ s)
     8.82553280E-01    2     1000021         4   # BR(~c_L -> ~g      c)
#
#         PDG            Width
DECAY   2000004     1.59146525E+02   # scharm_R decays
#          BR         NDA      ID1       ID2
     2.67673101E-02    2     1000022         4   # BR(~c_R -> ~chi_10 c)
     3.09650561E-07    2     1000023         4   # BR(~c_R -> ~chi_20 c)
     2.30013077E-02    2     1000025         4   # BR(~c_R -> ~chi_30 c)
     7.44294809E-08    2     1000035         4   # BR(~c_R -> ~chi_40 c)
     9.50230998E-01    2     1000021         4   # BR(~c_R -> ~g      c)
#
#         PDG            Width
DECAY   1000003     1.71354647E+02   # sstrange_L decays
#          BR         NDA      ID1       ID2
     2.51841592E-03    2     1000022         3   # BR(~s_L -> ~chi_10 s)
     1.09169446E-06    2     1000023         3   # BR(~s_L -> ~chi_20 s)
     6.00793066E-04    2     1000025         3   # BR(~s_L -> ~chi_30 s)
     3.79432389E-02    2     1000035         3   # BR(~s_L -> ~chi_40 s)
     4.63185942E-04    2    -1000024         4   # BR(~s_L -> ~chi_1- c)
     7.58634861E-02    2    -1000037         4   # BR(~s_L -> ~chi_2- c)
     8.82609788E-01    2     1000021         3   # BR(~s_L -> ~g      s)
#
#         PDG            Width
DECAY   2000003     1.53211677E+02   # sstrange_R decays
#          BR         NDA      ID1       ID2
     6.95121740E-03    2     1000022         3   # BR(~s_R -> ~chi_10 s)
     8.04133720E-08    2     1000023         3   # BR(~s_R -> ~chi_20 s)
     5.97322846E-03    2     1000025         3   # BR(~s_R -> ~chi_30 s)
     1.93293037E-08    2     1000035         3   # BR(~s_R -> ~chi_40 s)
     9.87075454E-01    2     1000021         3   # BR(~s_R -> ~g      s)
#
#         PDG            Width
DECAY   1000011     2.65975440E+01   # selectron_L decays
#          BR         NDA      ID1       ID2
     7.97561817E-02    2     1000022        11   # BR(~e_L -> ~chi_10 e-)
     1.78633590E-06    2     1000023        11   # BR(~e_L -> ~chi_20 e-)
     1.02270803E-01    2     1000025        11   # BR(~e_L -> ~chi_30 e-)
     2.71156656E-01    2     1000035        11   # BR(~e_L -> ~chi_40 e-)
     3.19906779E-03    2    -1000024        12   # BR(~e_L -> ~chi_1- nu_e)
     5.43615505E-01    2    -1000037        12   # BR(~e_L -> ~chi_2- nu_e)
#
#         PDG            Width
DECAY   2000011     1.91050933E+01   # selectron_R decays
#          BR         NDA      ID1       ID2
     5.37545776E-01    2     1000022        11   # BR(~e_R -> ~chi_10 e-)
     6.22253321E-06    2     1000023        11   # BR(~e_R -> ~chi_20 e-)
     4.62446449E-01    2     1000025        11   # BR(~e_R -> ~chi_30 e-)
     1.55181854E-06    2     1000035        11   # BR(~e_R -> ~chi_40 e-)
#
#         PDG            Width
DECAY   1000013     2.65975440E+01   # smuon_L decays
#          BR         NDA      ID1       ID2
     7.97561817E-02    2     1000022        13   # BR(~mu_L -> ~chi_10 mu-)
     1.78633590E-06    2     1000023        13   # BR(~mu_L -> ~chi_20 mu-)
     1.02270803E-01    2     1000025        13   # BR(~mu_L -> ~chi_30 mu-)
     2.71156656E-01    2     1000035        13   # BR(~mu_L -> ~chi_40 mu-)
     3.19906779E-03    2    -1000024        14   # BR(~mu_L -> ~chi_1- nu_mu)
     5.43615505E-01    2    -1000037        14   # BR(~mu_L -> ~chi_2- nu_mu)
#
#         PDG            Width
DECAY   2000013     1.91050933E+01   # smuon_R decays
#          BR         NDA      ID1       ID2
     5.37545776E-01    2     1000022        13   # BR(~mu_R -> ~chi_10 mu-)
     6.22253321E-06    2     1000023        13   # BR(~mu_R -> ~chi_20 mu-)
     4.62446449E-01    2     1000025        13   # BR(~mu_R -> ~chi_30 mu-)
     1.55181854E-06    2     1000035        13   # BR(~mu_R -> ~chi_40 mu-)
#
#         PDG            Width
DECAY   1000015     2.29031170E+01   # stau_1 decays
#          BR         NDA      ID1       ID2
     2.77877058E-01    2     1000022        15   # BR(~tau_1 -> ~chi_10  tau-)
     4.57169287E-04    2     1000023        15   # BR(~tau_1 -> ~chi_20  tau-)
     2.48853263E-01    2     1000025        15   # BR(~tau_1 -> ~chi_30  tau-)
     1.55838636E-01    2     1000035        15   # BR(~tau_1 -> ~chi_40  tau-)
     4.38867819E-03    2    -1000024        16   # BR(~tau_1 -> ~chi_1-  nu_tau)
     3.12428165E-01    2    -1000037        16   # BR(~tau_1 -> ~chi_2-  nu_tau)
     1.57030911E-04    2     1000039        15   # BR(~tau_1 -> ~G       tau-)
#
#         PDG            Width
DECAY   2000015     2.28773157E+01   # stau_2 decays
#          BR         NDA      ID1       ID2
     2.63957860E-01    2     1000022        15   # BR(~tau_2 -> ~chi_10  tau-)
     6.30497674E-04    2     1000023        15   # BR(~tau_2 -> ~chi_20  tau-)
     2.56528440E-01    2     1000025        15   # BR(~tau_2 -> ~chi_30  tau-)
     1.59240434E-01    2     1000035        15   # BR(~tau_2 -> ~chi_40  tau-)
     4.04742522E-04    2    -1000024        16   # BR(~tau_2 -> ~chi_1-  nu_tau)
     3.19238026E-01    2    -1000037        16   # BR(~tau_2 -> ~chi_2-  nu_tau)
#
#         PDG            Width
DECAY   1000012     2.65994788E+01   # snu_eL decays
#          BR         NDA      ID1       ID2
     1.14887484E-01    2     1000022        12   # BR(~nu_eL -> ~chi_10 nu_e)
     1.19055621E-05    2     1000023        12   # BR(~nu_eL -> ~chi_20 nu_e)
     6.58081700E-02    2     1000025        12   # BR(~nu_eL -> ~chi_30 nu_e)
     2.72190807E-01    2     1000035        12   # BR(~nu_eL -> ~chi_40 nu_e)
     4.00896887E-03    2     1000024        11   # BR(~nu_eL -> ~chi_1+ e-)
     5.43092664E-01    2     1000037        11   # BR(~nu_eL -> ~chi_2+ e-)
#
#         PDG            Width
DECAY   1000014     2.65994788E+01   # snu_muL decays
#          BR         NDA      ID1       ID2
     1.14887484E-01    2     1000022        14   # BR(~nu_muL -> ~chi_10 nu_mu)
     1.19055621E-05    2     1000023        14   # BR(~nu_muL -> ~chi_20 nu_mu)
     6.58081700E-02    2     1000025        14   # BR(~nu_muL -> ~chi_30 nu_mu)
     2.72190807E-01    2     1000035        14   # BR(~nu_muL -> ~chi_40 nu_mu)
     4.00896887E-03    2     1000024        13   # BR(~nu_muL -> ~chi_1+ mu-)
     5.43092664E-01    2     1000037        13   # BR(~nu_muL -> ~chi_2+ mu-)
#
#         PDG            Width
DECAY   1000016     2.66242030E+01   # snu_tauL decays
#          BR         NDA      ID1       ID2
     1.14780795E-01    2     1000022        16   # BR(~nu_tauL -> ~chi_10 nu_tau)
     1.18945062E-05    2     1000023        16   # BR(~nu_tauL -> ~chi_20 nu_tau)
     6.57470582E-02    2     1000025        16   # BR(~nu_tauL -> ~chi_30 nu_tau)
     2.71938041E-01    2     1000035        16   # BR(~nu_tauL -> ~chi_40 nu_tau)
     4.93177682E-03    2     1000024        15   # BR(~nu_tauL -> ~chi_1+ tau-)
     5.42590434E-01    2     1000037        15   # BR(~nu_tauL -> ~chi_2+ tau-)
#
#         PDG            Width
DECAY   1000024     1.43454242E-04   # chargino1+ decays
#          BR         NDA      ID1       ID2
     6.50897416E-02    2     1000039        24   # BR(~chi_1+ -> ~G       W+)
#           BR         NDA      ID1       ID2       ID3
     3.11887282E-01    3     1000022         2        -1   # BR(~chi_1+ -> ~chi_10 u    db)
     3.11887282E-01    3     1000022         4        -3   # BR(~chi_1+ -> ~chi_10 c    sb)
     1.03962537E-01    3     1000022       -11        12   # BR(~chi_1+ -> ~chi_10 e+   nu_e)
     1.03962537E-01    3     1000022       -13        14   # BR(~chi_1+ -> ~chi_10 mu+  nu_mu)
     1.03210621E-01    3     1000022       -15        16   # BR(~chi_1+ -> ~chi_10 tau+ nu_tau)
#
#         PDG            Width
DECAY   1000037     3.82356837E+01   # chargino2+ decays
#          BR         NDA      ID1       ID2
     2.53461924E-01    2     1000024        23   # BR(~chi_2+ -> ~chi_1+  Z )
     1.08605515E-01    2     1000022        24   # BR(~chi_2+ -> ~chi_10  W+)
     2.46189602E-01    2     1000023        24   # BR(~chi_2+ -> ~chi_20  W+)
     1.38497757E-01    2     1000025        24   # BR(~chi_2+ -> ~chi_30  W+)
     2.53236243E-01    2     1000024        25   # BR(~chi_2+ -> ~chi_1+  h )
     8.95749411E-06    2     1000039        24   # BR(~chi_2+ -> ~G       W+)
     1.66093727E-09    2     1000039        37   # BR(~chi_2+ -> ~G       H+)
#
#         PDG            Width
DECAY   1000022    1.0E-05    # neutralino1 decays
#          BR         NDA      ID1       ID2
     4.99657254E-01    2     1000039        22   # BR(~chi_10 -> ~G        gam)
     4.89358090E-01    2     1000039        23   # BR(~chi_10 -> ~G        Z)
     1.09846558E-02    2     1000039        25   # BR(~chi_10 -> ~G        h)
#
#         PDG            Width
DECAY   1000023     1.81052163E-04   # neutralino2 decays
#          BR         NDA      ID1       ID2
     4.15074509E-04    2     1000022        22   # BR(~chi_20 -> ~chi_10 gam)
#          BR         NDA      ID1       ID2
     3.98811841E-08    2     1000039        22   # BR(~chi_20 -> ~G        gam)
     2.00089824E-03    2     1000039        23   # BR(~chi_20 -> ~G        Z)
     4.94840667E-02    2     1000039        25   # BR(~chi_20 -> ~G        h)
#           BR         NDA      ID1       ID2       ID3
     1.12381531E-01    3     1000022        -2         2   # BR(~chi_20 -> ~chi_10 ub      u)
     1.45522527E-01    3     1000022        -1         1   # BR(~chi_20 -> ~chi_10 db      d)
     1.12381531E-01    3     1000022        -4         4   # BR(~chi_20 -> ~chi_10 cb      c)
     1.45522527E-01    3     1000022        -3         3   # BR(~chi_20 -> ~chi_10 sb      s)
     1.33734383E-01    3     1000022        -5         5   # BR(~chi_20 -> ~chi_10 bb      b)
     3.32374538E-02    3     1000022       -11        11   # BR(~chi_20 -> ~chi_10 e+      e-)
     3.32374538E-02    3     1000022       -13        13   # BR(~chi_20 -> ~chi_10 mu+     mu-)
     3.29275982E-02    3     1000022       -15        15   # BR(~chi_20 -> ~chi_10 tau+    tau-)
     6.63787047E-02    3     1000022       -12        12   # BR(~chi_20 -> ~chi_10 nu_eb   nu_e)
     6.63787047E-02    3     1000022       -14        14   # BR(~chi_20 -> ~chi_10 nu_mub  nu_mu)
     6.63787047E-02    3     1000022       -16        16   # BR(~chi_20 -> ~chi_10 nu_taub nu_tau)
     3.33553854E-06    3     1000024        -2         1   # BR(~chi_20 -> ~chi_1+ ub      d)
     3.33553854E-06    3    -1000024        -1         2   # BR(~chi_20 -> ~chi_1- db      u)
     3.33553854E-06    3     1000024        -4         3   # BR(~chi_20 -> ~chi_1+ cb      s)
     3.33553854E-06    3    -1000024        -3         4   # BR(~chi_20 -> ~chi_1- sb      c)
     1.11184625E-06    3     1000024       -12        11   # BR(~chi_20 -> ~chi_1+ nu_eb   e-)
     1.11184625E-06    3    -1000024        12       -11   # BR(~chi_20 -> ~chi_1- nu_e    e+)
     1.11184625E-06    3     1000024       -14        13   # BR(~chi_20 -> ~chi_1+ nu_mub  mu-)
     1.11184625E-06    3    -1000024        14       -13   # BR(~chi_20 -> ~chi_1- nu_mu   mu+)
     5.06716872E-07    3     1000024       -16        15   # BR(~chi_20 -> ~chi_1+ nu_taub tau-)
     5.06716872E-07    3    -1000024        16       -15   # BR(~chi_20 -> ~chi_1- nu_tau  tau+)
#
#         PDG            Width
DECAY   1000025     2.03906372E-04   # neutralino3 decays
#          BR         NDA      ID1       ID2
     4.10276812E-04    2     1000022        22   # BR(~chi_30 -> ~chi_10 gam)
     7.55103424E-06    2     1000023        22   # BR(~chi_30 -> ~chi_20 gam)
#          BR         NDA      ID1       ID2
     3.94474288E-02    2     1000039        22   # BR(~chi_30 -> ~G        gam)
     3.51764917E-02    2     1000039        23   # BR(~chi_30 -> ~G        Z)
     1.02904322E-03    2     1000039        25   # BR(~chi_30 -> ~G        h)
#           BR         NDA      ID1       ID2       ID3
     1.23019869E-05    3     1000022        -2         2   # BR(~chi_30 -> ~chi_10 ub      u)
     1.45315928E-05    3     1000022        -1         1   # BR(~chi_30 -> ~chi_10 db      d)
     1.23019869E-05    3     1000022        -4         4   # BR(~chi_30 -> ~chi_10 cb      c)
     1.45315928E-05    3     1000022        -3         3   # BR(~chi_30 -> ~chi_10 sb      s)
     3.99917061E-05    3     1000022        -5         5   # BR(~chi_30 -> ~chi_10 bb      b)
     2.50906341E-06    3     1000022       -11        11   # BR(~chi_30 -> ~chi_10 e+      e-)
     2.50906341E-06    3     1000022       -13        13   # BR(~chi_30 -> ~chi_10 mu+     mu-)
     6.39039224E-06    3     1000022       -15        15   # BR(~chi_30 -> ~chi_10 tau+    tau-)
     7.12526591E-06    3     1000022       -12        12   # BR(~chi_30 -> ~chi_10 nu_eb   nu_e)
     7.12526591E-06    3     1000022       -14        14   # BR(~chi_30 -> ~chi_10 nu_mub  nu_mu)
     7.12526591E-06    3     1000022       -16        16   # BR(~chi_30 -> ~chi_10 nu_taub nu_tau)
     1.98333234E-02    3     1000023        -2         2   # BR(~chi_30 -> ~chi_20 ub      u)
     2.56821439E-02    3     1000023        -1         1   # BR(~chi_30 -> ~chi_20 db      d)
     1.98333234E-02    3     1000023        -4         4   # BR(~chi_30 -> ~chi_20 cb      c)
     2.56821439E-02    3     1000023        -3         3   # BR(~chi_30 -> ~chi_20 sb      s)
     2.19194297E-02    3     1000023        -5         5   # BR(~chi_30 -> ~chi_20 bb      b)
     5.86582778E-03    3     1000023       -11        11   # BR(~chi_30 -> ~chi_20 e+      e-)
     5.86582778E-03    3     1000023       -13        13   # BR(~chi_30 -> ~chi_20 mu+     mu-)
     5.77639205E-03    3     1000023       -15        15   # BR(~chi_30 -> ~chi_20 tau+    tau-)
     1.17146203E-02    3     1000023       -12        12   # BR(~chi_30 -> ~chi_20 nu_eb   nu_e)
     1.17146203E-02    3     1000023       -14        14   # BR(~chi_30 -> ~chi_20 nu_mub  nu_mu)
     1.17146203E-02    3     1000023       -16        16   # BR(~chi_30 -> ~chi_20 nu_taub nu_tau)
     1.26497770E-01    3     1000024        -2         1   # BR(~chi_30 -> ~chi_1+ ub      d)
     1.26497770E-01    3    -1000024        -1         2   # BR(~chi_30 -> ~chi_1- db      u)
     1.26497770E-01    3     1000024        -4         3   # BR(~chi_30 -> ~chi_1+ cb      s)
     1.26497770E-01    3    -1000024        -3         4   # BR(~chi_30 -> ~chi_1- sb      c)
     4.21658611E-02    3     1000024       -12        11   # BR(~chi_30 -> ~chi_1+ nu_eb   e-)
     4.21658611E-02    3    -1000024        12       -11   # BR(~chi_30 -> ~chi_1- nu_e    e+)
     4.21658611E-02    3     1000024       -14        13   # BR(~chi_30 -> ~chi_1+ nu_mub  mu-)
     4.21658611E-02    3    -1000024        14       -13   # BR(~chi_30 -> ~chi_1- nu_mu   mu+)
     4.17729841E-02    3     1000024       -16        15   # BR(~chi_30 -> ~chi_1+ nu_taub tau-)
     4.17729841E-02    3    -1000024        16       -15   # BR(~chi_30 -> ~chi_1- nu_tau  tau+)
#
#         PDG            Width
DECAY   1000035     3.82354839E+01   # neutralino4 decays
#          BR         NDA      ID1       ID2
     3.68074134E-04    2     1000022        23   # BR(~chi_40 -> ~chi_10   Z )
     2.52208069E-01    2     1000023        23   # BR(~chi_40 -> ~chi_20   Z )
     4.34702766E-04    2     1000025        23   # BR(~chi_40 -> ~chi_30   Z )
     2.46631324E-01    2     1000024       -24   # BR(~chi_40 -> ~chi_1+   W-)
     2.46631324E-01    2    -1000024        24   # BR(~chi_40 -> ~chi_1-   W+)
     1.11143917E-01    2     1000022        25   # BR(~chi_40 -> ~chi_10   h )
     7.84472585E-04    2     1000023        25   # BR(~chi_40 -> ~chi_20   h )
     1.41789158E-01    2     1000025        25   # BR(~chi_40 -> ~chi_30   h )
     2.14220620E-06    2     1000039        22   # BR(~chi_40 -> ~G        gam)
     6.81418362E-06    2     1000039        23   # BR(~chi_40 -> ~G        Z)
     8.82177663E-10    2     1000039        25   # BR(~chi_40 -> ~G        h)
     1.62045368E-09    2     1000039        35   # BR(~chi_40 -> ~G        H)
     3.45496712E-11    2     1000039        36   # BR(~chi_40 -> ~G        A)
#
#         PDG            Width
DECAY        25     4.22189940E-03   # h decays
#          BR         NDA      ID1       ID2
     6.02229150E-01    2           5        -5   # BR(h -> b       bb     )
     6.21864948E-02    2         -15        15   # BR(h -> tau+    tau-   )
     2.20113080E-04    2         -13        13   # BR(h -> mu+     mu-    )
     4.65716738E-04    2           3        -3   # BR(h -> s       sb     )
     2.00919886E-02    2           4        -4   # BR(h -> c       cb     )
     6.63554562E-02    2          21        21   # BR(h -> g       g      )
     2.30467934E-03    2          22        22   # BR(h -> gam     gam    )
     1.62530676E-03    2          22        23   # BR(h -> Z       gam    )
     2.16463693E-01    2          24       -24   # BR(h -> W+      W-     )
     2.80574014E-02    2          23        23   # BR(h -> Z       Z      )
#
#         PDG            Width
DECAY        35     3.78097593E+01   # H decays
#          BR         NDA      ID1       ID2
     1.46639446E-03    2           5        -5   # BR(H -> b       bb     )
     2.46429262E-04    2         -15        15   # BR(H -> tau+    tau-   )
     8.71219189E-07    2         -13        13   # BR(H -> mu+     mu-    )
     1.11547942E-06    2           3        -3   # BR(H -> s       sb     )
     1.00668693E-05    2           4        -4   # BR(H -> c       cb     )
     9.96069966E-01    2           6        -6   # BR(H -> t       tb     )
     7.97743200E-04    2          21        21   # BR(H -> g       g      )
     2.71630644E-06    2          22        22   # BR(H -> gam     gam    )
     1.16021497E-06    2          23        22   # BR(H -> Z       gam    )
     3.34494468E-04    2          24       -24   # BR(H -> W+      W-     )
     1.66791082E-04    2          23        23   # BR(H -> Z       Z      )
     9.02251638E-04    2          25        25   # BR(H -> h       h      )
     7.41151529E-24    2          36        36   # BR(H -> A       A      )
     2.93397384E-11    2          23        36   # BR(H -> Z       A      )
     6.60501856E-12    2          24       -37   # BR(H -> W+      H-     )
     6.60501856E-12    2         -24        37   # BR(H -> W-      H+     )
#
#         PDG            Width
DECAY        36     3.82380476E+01   # A decays
#          BR         NDA      ID1       ID2
     1.46932737E-03    2           5        -5   # BR(A -> b       bb     )
     2.43898865E-04    2         -15        15   # BR(A -> tau+    tau-   )
     8.62270594E-07    2         -13        13   # BR(A -> mu+     mu-    )
     1.13677929E-06    2           3        -3   # BR(A -> s       sb     )
     9.96181157E-06    2           4        -4   # BR(A -> c       cb     )
     9.97000670E-01    2           6        -6   # BR(A -> t       tb     )
     9.43680075E-04    2          21        21   # BR(A -> g       g      )
     3.14150863E-06    2          22        22   # BR(A -> gam     gam    )
     1.35280677E-06    2          23        22   # BR(A -> Z       gam    )
     3.25968539E-04    2          23        25   # BR(A -> Z       h      )
#
#         PDG            Width
DECAY        37     3.74471589E+01   # H+ decays
#          BR         NDA      ID1       ID2
     2.35397493E-06    2           4        -5   # BR(H+ -> c       bb     )
     2.49238942E-04    2         -15        16   # BR(H+ -> tau+    nu_tau )
     8.81149693E-07    2         -13        14   # BR(H+ -> mu+     nu_mu  )
     1.49655529E-08    2           2        -5   # BR(H+ -> u       bb     )
     5.45696984E-08    2           2        -3   # BR(H+ -> u       sb     )
     1.08732193E-05    2           4        -3   # BR(H+ -> c       sb     )
     9.99402499E-01    2           6        -5   # BR(H+ -> t       bb     )
     3.34083679E-04    2          24        25   # BR(H+ -> W+      h      )
     2.82119759E-13    2          24        36   # BR(H+ -> W+      A      )
