#
#                              ======================
#                              | THE SUSYHIT OUTPUT |
#                              ======================
#
#
#              ------------------------------------------------------
#              |     This is the output of the SUSY-HIT package     |
#              |  created by A.Djouadi, M.Muehlleitner and M.Spira. |
#              |  In case of problems with SUSY-HIT email to        |
#              |           margarete.muehlleitner@cern.ch           |
#              |           michael.spira@psi.ch                     |
#              |           abdelhak.djouadi@cern.ch                 |
#              ------------------------------------------------------
#
#              ------------------------------------------------------
#              |  SUSY Les Houches Accord - MSSM Spectrum + Decays  |
#              |              based on the decay programs           |
#              |                                                    |
#              |                     SDECAY 1.3b                    |
#              |                                                    |
#              |  Authors: M.Muhlleitner, A.Djouadi and Y.Mambrini  |
#              |  Ref.:    Comput.Phys.Commun.168(2005)46           |
#              |           [hep-ph/0311167]                         |
#              |                                                    |
#              |                     HDECAY 3.4                     |
#              |                                                    |
#              |  By: A.Djouadi,J.Kalinowski,M.Muhlleitner,M.Spira  |
#              |  Ref.:    Comput.Phys.Commun.108(1998)56           |
#              |           [hep-ph/9704448]                         |
#              |                                                    |
#              |                                                    |
#              |  If not stated otherwise all DRbar couplings and   |
#              |  soft SUSY breaking masses are given at the scale  |
#              |  Q=  0.50007731E+04
#              |                                                    |
#              ------------------------------------------------------
#
#
BLOCK DCINFO  # Decay Program information
     1   SDECAY/HDECAY # decay calculator
     2   1.3b  /3.4    # version number
#
BLOCK SPINFO  # Spectrum calculator information
     1    SOFTSUSY    # spectrum calculator                
     2    3.4.0       # version number                     
#
BLOCK MODSEL  # Model selection
     1     0   #  nonUniversal                                     
#
BLOCK SMINPUTS  # Standard Model inputs
         1     1.25778332E+02   # alpha_em^-1(M_Z)^MSbar
         2     1.16570000E-05   # G_F [GeV^-2]
         3     1.17200002E-01   # alpha_S(M_Z)^MSbar
         4     9.11876000E+01   # M_Z pole mass
         5     4.25000000E+00   # mb(mb)^MSbar
         6     1.72500000E+02   # mt pole mass
         7     1.77682000E+00   # mtau pole mass
#
BLOCK MINPAR  # Input parameters - minimal models
         3     1.00000000E+01   # tanb                
#
BLOCK EXTPAR  # Input parameters - non-minimal models
         0    -1.00000000E+00   # Set                 
         1     6.00000000E+01   # M_1(MX)             
         2     3.00000000E+03   # M_2(MX)             
         3     1.85477900E+03   # M_3(MX)             
        11     5.00000000E+03   # At(MX)              
        12     5.00000000E+03   # Ab(MX)              
        13     0.00000000E+00   # Atau(MX)            
        23    -1.87273000E+02   # mu(MX)              
        26     3.00000000E+03   # mA(pole)            
        31     5.00000000E+03   # meL(MX)             
        32     5.00000000E+03   # mmuL(MX)            
        33     5.00000000E+03   # mtauL(MX)           
        34     5.00000000E+03   # meR(MX)             
        35     5.00000000E+03   # mmuR(MX)            
        36     5.00000000E+03   # mtauR(MX)           
        41     5.00000000E+03   # mqL1(MX)            
        42     5.00000000E+03   # mqL2(MX)            
        43     5.00000000E+03   # mqL3(MX)            
        44     5.00000000E+03   # muR(MX)             
        45     5.00000000E+03   # mcR(MX)             
        46     5.00000000E+03   # mtR(MX)             
        47     5.00000000E+03   # mdR(MX)             
        48     5.00000000E+03   # msR(MX)             
        49     5.00000000E+03   # mbR(MX)             
#
BLOCK MASS  # Mass Spectrum
# PDG code           mass       particle
        24     8.00909059E+01   # W+
        25     1.24777076E+02   # h
        35     3.00009106E+03   # H
        36     2.99999978E+03   # A
        37     3.00148188E+03   # H+
         5     4.87878001E+00   # b-quark pole mass calculated from mb(mb)_Msbar
   1000001     5.07486930E+03   # ~d_L
   2000001     5.05698073E+03   # ~d_R
   1000002     5.07439454E+03   # ~u_L
   2000002     5.05667072E+03   # ~u_R
   1000003     5.07486930E+03   # ~s_L
   2000003     5.05698073E+03   # ~s_R
   1000004     5.07439454E+03   # ~c_L
   2000004     5.05667072E+03   # ~c_R
   1000005     5.02088661E+03   # ~b_1
   2000005     5.05505952E+03   # ~b_2
   1000006     4.91233950E+03   # ~t_1
   2000006     5.06398729E+03   # ~t_2
   1000011     5.01916355E+03   # ~e_L
   2000011     5.00596025E+03   # ~e_R
   1000012     5.01821086E+03   # ~nu_eL
   1000013     5.01916355E+03   # ~mu_L
   2000013     5.00596025E+03   # ~mu_R
   1000014     5.01821086E+03   # ~nu_muL
   1000015     5.00483289E+03   # ~tau_1
   2000015     5.01862894E+03   # ~tau_2
   1000016     5.01765594E+03   # ~nu_tauL
   1000021     2.20000088E+03   # ~g
   1000022     5.87059462E+01   # ~chi_10
   1000023     2.04233207E+02   # ~chi_20
   1000025    -2.05084178E+02   # ~chi_30
   1000035     3.07430876E+03   # ~chi_40
   1000024     2.00000964E+02   # ~chi_1+
   1000037     3.07447690E+03   # ~chi_2+
#
BLOCK NMIX  # Neutralino Mixing Matrix
  1  1     9.72112884E-01   # N_11
  1  2    -5.01177138E-04   # N_12
  1  3    -2.30088673E-01   # N_13
  1  4    -4.53375417E-02   # N_14
  2  1     1.94542327E-01   # N_21
  2  2     1.71133958E-02   # N_22
  2  3     6.83259086E-01   # N_23
  2  4     7.03574755E-01   # N_24
  3  1    -1.30956699E-01   # N_31
  3  2     1.85834339E-02   # N_32
  3  3    -6.92975526E-01   # N_33
  3  4     7.08724149E-01   # N_34
  4  1    -4.08584386E-04   # N_41
  4  2     9.99680717E-01   # N_42
  4  3     1.07000814E-03   # N_43
  4  4    -2.52418631E-02   # N_44
#
BLOCK UMIX  # Chargino Mixing Matrix U
  1  1    -1.50927700E-03   # U_11
  1  2     9.99998861E-01   # U_12
  2  1    -9.99998861E-01   # U_21
  2  2    -1.50927700E-03   # U_22
#
BLOCK VMIX  # Chargino Mixing Matrix V
  1  1     3.57071231E-02   # V_11
  1  2    -9.99362297E-01   # V_12
  2  1    -9.99362297E-01   # V_21
  2  2    -3.57071231E-02   # V_22
#
BLOCK STOPMIX  # Stop Mixing Matrix
  1  1    -5.01576035E-01   # cos(theta_t)
  1  2     8.65113565E-01   # sin(theta_t)
  2  1    -8.65113565E-01   # -sin(theta_t)
  2  2    -5.01576035E-01   # cos(theta_t)
#
BLOCK SBOTMIX  # Sbottom Mixing Matrix
  1  1     9.99404086E-01   # cos(theta_b)
  1  2    -3.45177184E-02   # sin(theta_b)
  2  1     3.45177184E-02   # -sin(theta_b)
  2  2     9.99404086E-01   # cos(theta_b)
#
BLOCK STAUMIX  # Stau Mixing Matrix
  1  1    -2.21877674E-02   # cos(theta_tau)
  1  2     9.99753821E-01   # sin(theta_tau)
  2  1    -9.99753821E-01   # -sin(theta_tau)
  2  2    -2.21877674E-02   # cos(theta_tau)
#
BLOCK ALPHA  # Higgs mixing
          -1.05497587E-01   # Mixing angle in the neutral Higgs boson sector
#
BLOCK HMIX Q=  5.00077314E+03  # DRbar Higgs Parameters
         1    -1.90689507E+02   # mu(Q)MSSM           
         2     9.46849110E+00   # tan                 
         3     2.41663034E+02   # higgs               
         4     8.78998020E+06   # mA^2(Q)MSSM         
#
BLOCK GAUGE Q=  5.00077314E+03  # The gauge couplings
     1     3.71155415E-01   # gprime(Q) DRbar
     2     6.34347280E-01   # g(Q) DRbar
     3     9.97108096E-01   # g3(Q) DRbar
#
BLOCK AU Q=  5.00077314E+03  # The trilinear couplings
  1  1     5.00000001E+03   # A_u(Q) DRbar
  2  2     5.00000001E+03   # A_c(Q) DRbar
  3  3     5.00000002E+03   # A_t(Q) DRbar
#
BLOCK AD Q=  5.00077314E+03  # The trilinear couplings
  1  1     5.00000001E+03   # A_d(Q) DRbar
  2  2     5.00000001E+03   # A_s(Q) DRbar
  3  3     5.00000001E+03   # A_b(Q) DRbar
#
BLOCK AE Q=  5.00077314E+03  # The trilinear couplings
  1  1     0.00000000E+00   # A_e(Q) DRbar
  2  2     2.01006842E-07   # A_mu(Q) DRbar
  3  3     2.00748634E-07   # A_tau(Q) DRbar
#
BLOCK Yu Q=  5.00077314E+03  # The Yukawa couplings
  1  1     0.00000000E+00   # y_u(Q) DRbar
  2  2     0.00000000E+00   # y_c(Q) DRbar
  3  3     8.21045442E-01   # y_t(Q) DRbar
#
BLOCK Yd Q=  5.00077314E+03  # The Yukawa couplings
  1  1     0.00000000E+00   # y_d(Q) DRbar
  2  2     0.00000000E+00   # y_s(Q) DRbar
  3  3     1.29850113E-01   # y_b(Q) DRbar
#
BLOCK Ye Q=  5.00077314E+03  # The Yukawa couplings
  1  1     0.00000000E+00   # y_e(Q) DRbar
  2  2     0.00000000E+00   # y_mu(Q) DRbar
  3  3     9.73495654E-02   # y_tau(Q) DRbar
#
BLOCK MSOFT Q=  5.00077314E+03  # The soft SUSY breaking masses at the scale Q
         1     6.00000000E+01   # M_1(Q)              
         2     3.00000000E+03   # M_2(Q)              
         3     1.85477900E+03   # M_3(Q)              
        21     8.69785872E+06   # mH1^2(Q)            
        22     5.43941026E+05   # mH2^2(Q)            
        31     5.00000000E+03   # meL(Q)              
        32     5.00000000E+03   # mmuL(Q)             
        33     5.00000000E+03   # mtauL(Q)            
        34     5.00000000E+03   # meR(Q)              
        35     5.00000000E+03   # mmuR(Q)             
        36     5.00000000E+03   # mtauR(Q)            
        41     5.00000000E+03   # mqL1(Q)             
        42     5.00000000E+03   # mqL2(Q)             
        43     4.99999999E+03   # mqL3(Q)             
        44     5.00000000E+03   # muR(Q)              
        45     5.00000000E+03   # mcR(Q)              
        46     4.99999999E+03   # mtR(Q)              
        47     5.00000000E+03   # mdR(Q)              
        48     5.00000000E+03   # msR(Q)              
        49     5.00000000E+03   # mbR(Q)              
#
#
#
#                             =================
#                             |The decay table|
#                             =================
#
# - The QCD corrections to the decays gluino -> squark  + quark
#                                     squark -> gaugino + quark_prime
#                                     squark -> squark_prime + Higgs
#                                     squark -> gluino  + quark
#   are included.
#
# - The multi-body decays for the inos, stops and sbottoms are included.
#
# - The loop induced decays for the gluino, neutralinos and stops
#   are included.
#
# - The SUSY decays of the top quark are included.
#
#
#         PDG            Width
DECAY         6     1.41031375E+00   # top decays
#          BR         NDA      ID1       ID2
     1.00000000E+00    2           5        24   # BR(t ->  b    W+)
#
#         PDG            Width
DECAY   1000021     4.28132981E-03   # gluino decays
#          BR         NDA      ID1       ID2
     1.61199259E-05    2     1000022        21   # BR(~g -> ~chi_10 g)
     4.99074948E-03    2     1000023        21   # BR(~g -> ~chi_20 g)
     4.86274474E-03    2     1000025        21   # BR(~g -> ~chi_30 g)
#           BR         NDA      ID1       ID2       ID3
     8.51532762E-03    3     1000022         1        -1   # BR(~g -> ~chi_10 d  db)
     3.05273605E-04    3     1000023         1        -1   # BR(~g -> ~chi_20 d  db)
     1.62956352E-04    3     1000025         1        -1   # BR(~g -> ~chi_30 d  db)
     2.89832750E-02    3     1000022         2        -2   # BR(~g -> ~chi_10 u  ub)
     1.28443277E-03    3     1000023         2        -2   # BR(~g -> ~chi_20 u  ub)
     3.77574814E-04    3     1000025         2        -2   # BR(~g -> ~chi_30 u  ub)
     8.51532762E-03    3     1000022         3        -3   # BR(~g -> ~chi_10 s  sb)
     3.05273605E-04    3     1000023         3        -3   # BR(~g -> ~chi_20 s  sb)
     1.62956352E-04    3     1000025         3        -3   # BR(~g -> ~chi_30 s  sb)
     2.89832750E-02    3     1000022         4        -4   # BR(~g -> ~chi_10 c  cb)
     1.28443277E-03    3     1000023         4        -4   # BR(~g -> ~chi_20 c  cb)
     3.77574814E-04    3     1000025         4        -4   # BR(~g -> ~chi_30 c  cb)
     9.27127997E-03    3     1000022         5        -5   # BR(~g -> ~chi_10 b  bb)
     5.36928388E-03    3     1000023         5        -5   # BR(~g -> ~chi_20 b  bb)
     5.37595417E-03    3     1000025         5        -5   # BR(~g -> ~chi_30 b  bb)
     2.74417455E-02    3     1000022         6        -6   # BR(~g -> ~chi_10 t  tb)
     2.15806548E-01    3     1000023         6        -6   # BR(~g -> ~chi_20 t  tb)
     2.03107334E-01    3     1000025         6        -6   # BR(~g -> ~chi_30 t  tb)
     5.31673664E-05    3     1000024         1        -2   # BR(~g -> ~chi_1+ d  ub)
     5.31673664E-05    3    -1000024         2        -1   # BR(~g -> ~chi_1- u  db)
     5.31673664E-05    3     1000024         3        -4   # BR(~g -> ~chi_1+ s  cb)
     5.31673664E-05    3    -1000024         4        -3   # BR(~g -> ~chi_1- c  sb)
     2.22143945E-01    3     1000024         5        -6   # BR(~g -> ~chi_1+ b  tb)
     2.22143945E-01    3    -1000024         6        -5   # BR(~g -> ~chi_1- t  bb)
#
#         PDG            Width
DECAY   1000006     3.32722076E+02   # stop1 decays
#          BR         NDA      ID1       ID2
     2.33743528E-02    2     1000022         6   # BR(~t_1 -> ~chi_10 t )
     1.05300315E-01    2     1000023         6   # BR(~t_1 -> ~chi_20 t )
     9.33868174E-02    2     1000025         6   # BR(~t_1 -> ~chi_30 t )
     6.05760796E-03    2     1000035         6   # BR(~t_1 -> ~chi_40 t )
     1.46471103E-01    2     1000024         5   # BR(~t_1 -> ~chi_1+ b )
     1.20763541E-02    2     1000037         5   # BR(~t_1 -> ~chi_2+ b )
     6.13333450E-01    2     1000021         6   # BR(~t_1 -> ~g      t )
#
#         PDG            Width
DECAY   2000006     3.37476628E+02   # stop2 decays
#          BR         NDA      ID1       ID2
     1.24779842E-02    2     1000022         6   # BR(~t_2 -> ~chi_10 t )
     9.36684938E-02    2     1000023         6   # BR(~t_2 -> ~chi_20 t )
     1.07787894E-01    2     1000025         6   # BR(~t_2 -> ~chi_30 t )
     1.67960315E-02    2     1000035         6   # BR(~t_2 -> ~chi_40 t )
     5.75302298E-02    2     1000024         5   # BR(~t_2 -> ~chi_1+ b )
     3.34486210E-02    2     1000037         5   # BR(~t_2 -> ~chi_2+ b )
     6.74790484E-01    2     1000021         6   # BR(~t_2 -> ~g      t )
     8.16789167E-04    2     1000006        25   # BR(~t_2 -> ~t_1    h )
     2.68347290E-03    2     1000006        23   # BR(~t_2 -> ~t_1    Z )
#
#         PDG            Width
DECAY   1000005     3.12167111E+02   # sbottom1 decays
#          BR         NDA      ID1       ID2
     2.69625204E-03    2     1000022         5   # BR(~b_1 -> ~chi_10 b )
     2.47086493E-03    2     1000023         5   # BR(~b_1 -> ~chi_20 b )
     2.63673684E-03    2     1000025         5   # BR(~b_1 -> ~chi_30 b )
     2.44607787E-02    2     1000035         5   # BR(~b_1 -> ~chi_40 b )
     2.15239638E-01    2    -1000024         6   # BR(~b_1 -> ~chi_1- t )
     4.91051981E-02    2    -1000037         6   # BR(~b_1 -> ~chi_2- t )
     7.01651168E-01    2     1000021         5   # BR(~b_1 -> ~g      b )
     1.73936326E-03    2     1000006       -24   # BR(~b_1 -> ~t_1    W-)
#
#         PDG            Width
DECAY   2000005     2.28146870E+02   # sbottom2 decays
#          BR         NDA      ID1       ID2
     1.25055947E-02    2     1000022         5   # BR(~b_2 -> ~chi_10 b )
     4.07195861E-03    2     1000023         5   # BR(~b_2 -> ~chi_20 b )
     3.90214893E-03    2     1000025         5   # BR(~b_2 -> ~chi_30 b )
     3.38880466E-05    2     1000035         5   # BR(~b_2 -> ~chi_40 b )
     7.73329385E-03    2    -1000024         6   # BR(~b_2 -> ~chi_1- t )
     6.80559694E-05    2    -1000037         6   # BR(~b_2 -> ~chi_2- t )
     9.71673296E-01    2     1000021         5   # BR(~b_2 -> ~g      b )
     1.17638943E-05    2     1000006       -24   # BR(~b_2 -> ~t_1    W-)
#
#         PDG            Width
DECAY   1000002     2.47780776E+02   # sup_L decays
#          BR         NDA      ID1       ID2
     2.83445612E-03    2     1000022         2   # BR(~u_L -> ~chi_10 u)
     2.39660724E-04    2     1000023         2   # BR(~u_L -> ~chi_20 u)
     3.82718221E-06    2     1000025         2   # BR(~u_L -> ~chi_30 u)
     3.19500645E-02    2     1000035         2   # BR(~u_L -> ~chi_40 u)
     2.01645323E-04    2     1000024         1   # BR(~u_L -> ~chi_1+ d)
     6.38615692E-02    2     1000037         1   # BR(~u_L -> ~chi_2+ d)
     9.00908777E-01    2     1000021         2   # BR(~u_L -> ~g      u)
#
#         PDG            Width
DECAY   2000002     2.33635783E+02   # sup_R decays
#          BR         NDA      ID1       ID2
     4.81809115E-02    2     1000022         2   # BR(~u_R -> ~chi_10 u)
     1.92458379E-03    2     1000023         2   # BR(~u_R -> ~chi_20 u)
     8.72073577E-04    2     1000025         2   # BR(~u_R -> ~chi_30 u)
     3.40568648E-09    2     1000035         2   # BR(~u_R -> ~chi_40 u)
     9.49022428E-01    2     1000021         2   # BR(~u_R -> ~g      u)
#
#         PDG            Width
DECAY   1000001     2.47795008E+02   # sdown_L decays
#          BR         NDA      ID1       ID2
     2.86469332E-03    2     1000022         1   # BR(~d_L -> ~chi_10 d)
     3.43033848E-05    2     1000023         1   # BR(~d_L -> ~chi_20 d)
     1.53941610E-04    2     1000025         1   # BR(~d_L -> ~chi_30 d)
     3.19682978E-02    2     1000035         1   # BR(~d_L -> ~chi_40 d)
     3.60273917E-07    2    -1000024         2   # BR(~d_L -> ~chi_1- u)
     6.39590478E-02    2    -1000037         2   # BR(~d_L -> ~chi_2- u)
     9.01019356E-01    2     1000021         1   # BR(~d_L -> ~g      d)
#
#         PDG            Width
DECAY   2000001     2.24729617E+02   # sdown_R decays
#          BR         NDA      ID1       ID2
     1.25233664E-02    2     1000022         1   # BR(~d_R -> ~chi_10 d)
     5.00245321E-04    2     1000023         1   # BR(~d_R -> ~chi_20 d)
     2.26672764E-04    2     1000025         1   # BR(~d_R -> ~chi_30 d)
     8.85344651E-10    2     1000035         1   # BR(~d_R -> ~chi_40 d)
     9.86749715E-01    2     1000021         1   # BR(~d_R -> ~g      d)
#
#         PDG            Width
DECAY   1000004     2.47780776E+02   # scharm_L decays
#          BR         NDA      ID1       ID2
     2.83445612E-03    2     1000022         4   # BR(~c_L -> ~chi_10 c)
     2.39660724E-04    2     1000023         4   # BR(~c_L -> ~chi_20 c)
     3.82718221E-06    2     1000025         4   # BR(~c_L -> ~chi_30 c)
     3.19500645E-02    2     1000035         4   # BR(~c_L -> ~chi_40 c)
     2.01645323E-04    2     1000024         3   # BR(~c_L -> ~chi_1+ s)
     6.38615692E-02    2     1000037         3   # BR(~c_L -> ~chi_2+ s)
     9.00908777E-01    2     1000021         4   # BR(~c_L -> ~g      c)
#
#         PDG            Width
DECAY   2000004     2.33635783E+02   # scharm_R decays
#          BR         NDA      ID1       ID2
     4.81809115E-02    2     1000022         4   # BR(~c_R -> ~chi_10 c)
     1.92458379E-03    2     1000023         4   # BR(~c_R -> ~chi_20 c)
     8.72073577E-04    2     1000025         4   # BR(~c_R -> ~chi_30 c)
     3.40568648E-09    2     1000035         4   # BR(~c_R -> ~chi_40 c)
     9.49022428E-01    2     1000021         4   # BR(~c_R -> ~g      c)
#
#         PDG            Width
DECAY   1000003     2.47795008E+02   # sstrange_L decays
#          BR         NDA      ID1       ID2
     2.86469332E-03    2     1000022         3   # BR(~s_L -> ~chi_10 s)
     3.43033848E-05    2     1000023         3   # BR(~s_L -> ~chi_20 s)
     1.53941610E-04    2     1000025         3   # BR(~s_L -> ~chi_30 s)
     3.19682978E-02    2     1000035         3   # BR(~s_L -> ~chi_40 s)
     3.60273917E-07    2    -1000024         4   # BR(~s_L -> ~chi_1- c)
     6.39590478E-02    2    -1000037         4   # BR(~s_L -> ~chi_2- c)
     9.01019356E-01    2     1000021         3   # BR(~s_L -> ~g      s)
#
#         PDG            Width
DECAY   2000003     2.24729617E+02   # sstrange_R decays
#          BR         NDA      ID1       ID2
     1.25233664E-02    2     1000022         3   # BR(~s_R -> ~chi_10 s)
     5.00245321E-04    2     1000023         3   # BR(~s_R -> ~chi_20 s)
     2.26672764E-04    2     1000025         3   # BR(~s_R -> ~chi_30 s)
     8.85344651E-10    2     1000035         3   # BR(~s_R -> ~chi_40 s)
     9.86749715E-01    2     1000021         3   # BR(~s_R -> ~g      s)
#
#         PDG            Width
DECAY   1000011     3.04164266E+01   # selectron_L decays
#          BR         NDA      ID1       ID2
     2.13247419E-01    2     1000022        11   # BR(~e_L -> ~chi_10 e-)
     1.12870680E-02    2     1000023        11   # BR(~e_L -> ~chi_20 e-)
     2.21751848E-03    2     1000025        11   # BR(~e_L -> ~chi_30 e-)
     2.57579387E-01    2     1000035        11   # BR(~e_L -> ~chi_40 e-)
     2.99961222E-06    2    -1000024        12   # BR(~e_L -> ~chi_1- nu_e)
     5.15665608E-01    2    -1000037        12   # BR(~e_L -> ~chi_2- nu_e)
#
#         PDG            Width
DECAY   2000011     2.74262559E+01   # selectron_R decays
#          BR         NDA      ID1       ID2
     9.45162650E-01    2     1000022        11   # BR(~e_R -> ~chi_10 e-)
     3.77375653E-02    2     1000023        11   # BR(~e_R -> ~chi_20 e-)
     1.70997204E-02    2     1000025        11   # BR(~e_R -> ~chi_30 e-)
     6.47911588E-08    2     1000035        11   # BR(~e_R -> ~chi_40 e-)
#
#         PDG            Width
DECAY   1000013     3.04164266E+01   # smuon_L decays
#          BR         NDA      ID1       ID2
     2.13247419E-01    2     1000022        13   # BR(~mu_L -> ~chi_10 mu-)
     1.12870680E-02    2     1000023        13   # BR(~mu_L -> ~chi_20 mu-)
     2.21751848E-03    2     1000025        13   # BR(~mu_L -> ~chi_30 mu-)
     2.57579387E-01    2     1000035        13   # BR(~mu_L -> ~chi_40 mu-)
     2.99961222E-06    2    -1000024        14   # BR(~mu_L -> ~chi_1- nu_mu)
     5.15665608E-01    2    -1000037        14   # BR(~mu_L -> ~chi_2- nu_mu)
#
#         PDG            Width
DECAY   2000013     2.74262559E+01   # smuon_R decays
#          BR         NDA      ID1       ID2
     9.45162650E-01    2     1000022        13   # BR(~mu_R -> ~chi_10 mu-)
     3.77375653E-02    2     1000023        13   # BR(~mu_R -> ~chi_20 mu-)
     1.70997204E-02    2     1000025        13   # BR(~mu_R -> ~chi_30 mu-)
     6.47911588E-08    2     1000035        13   # BR(~mu_R -> ~chi_40 mu-)
#
#         PDG            Width
DECAY   1000015     2.93018450E+01   # stau_1 decays
#          BR         NDA      ID1       ID2
     8.86704039E-01    2     1000022        15   # BR(~tau_1 -> ~chi_10  tau-)
     4.98510710E-02    2     1000023        15   # BR(~tau_1 -> ~chi_20  tau-)
     3.09752071E-02    2     1000025        15   # BR(~tau_1 -> ~chi_30  tau-)
     1.33160324E-04    2     1000035        15   # BR(~tau_1 -> ~chi_40  tau-)
     3.20700890E-02    2    -1000024        16   # BR(~tau_1 -> ~chi_1-  nu_tau)
     2.66433130E-04    2    -1000037        16   # BR(~tau_1 -> ~chi_2-  nu_tau)
#
#         PDG            Width
DECAY   2000015     3.13497102E+01   # stau_2 decays
#          BR         NDA      ID1       ID2
     2.07972535E-01    2     1000022        15   # BR(~tau_2 -> ~chi_10  tau-)
     2.54115203E-02    2     1000023        15   # BR(~tau_2 -> ~chi_20  tau-)
     1.70085135E-02    2     1000025        15   # BR(~tau_2 -> ~chi_30  tau-)
     2.49695042E-01    2     1000035        15   # BR(~tau_2 -> ~chi_40  tau-)
     3.08470020E-05    2    -1000024        16   # BR(~tau_2 -> ~chi_1-  nu_tau)
     4.99881542E-01    2    -1000037        16   # BR(~tau_2 -> ~chi_2-  nu_tau)
#
#         PDG            Width
DECAY   1000012     3.04193675E+01   # snu_eL decays
#          BR         NDA      ID1       ID2
     2.13939023E-01    2     1000022        12   # BR(~nu_eL -> ~chi_10 nu_e)
     6.15577142E-03    2     1000023        12   # BR(~nu_eL -> ~chi_20 nu_e)
     5.96525955E-03    2     1000025        12   # BR(~nu_eL -> ~chi_30 nu_e)
     2.57634508E-01    2     1000035        12   # BR(~nu_eL -> ~chi_40 nu_e)
     1.67846377E-03    2     1000024        11   # BR(~nu_eL -> ~chi_1+ e-)
     5.14626974E-01    2     1000037        11   # BR(~nu_eL -> ~chi_2+ e-)
#
#         PDG            Width
DECAY   1000014     3.04193675E+01   # snu_muL decays
#          BR         NDA      ID1       ID2
     2.13939023E-01    2     1000022        14   # BR(~nu_muL -> ~chi_10 nu_mu)
     6.15577142E-03    2     1000023        14   # BR(~nu_muL -> ~chi_20 nu_mu)
     5.96525955E-03    2     1000025        14   # BR(~nu_muL -> ~chi_30 nu_mu)
     2.57634508E-01    2     1000035        14   # BR(~nu_muL -> ~chi_40 nu_mu)
     1.67846377E-03    2     1000024        13   # BR(~nu_muL -> ~chi_1+ mu-)
     5.14626974E-01    2     1000037        13   # BR(~nu_muL -> ~chi_2+ mu-)
#
#         PDG            Width
DECAY   1000016     3.13527788E+01   # snu_tauL decays
#          BR         NDA      ID1       ID2
     2.07546826E-01    2     1000022        16   # BR(~nu_tauL -> ~chi_10 nu_tau)
     5.97184161E-03    2     1000023        16   # BR(~nu_tauL -> ~chi_20 nu_tau)
     5.78702205E-03    2     1000025        16   # BR(~nu_tauL -> ~chi_30 nu_tau)
     2.49870338E-01    2     1000035        16   # BR(~nu_tauL -> ~chi_40 nu_tau)
     3.17061452E-02    2     1000024        15   # BR(~nu_tauL -> ~chi_1+ tau-)
     4.99117827E-01    2     1000037        15   # BR(~nu_tauL -> ~chi_2+ tau-)
#
#         PDG            Width
DECAY   1000024     8.35984146E-02   # chargino1+ decays
#          BR         NDA      ID1       ID2
     1.00000000E+00    2     1000022        24   # BR(~chi_1+ -> ~chi_10  W+)
#
#         PDG            Width
DECAY   1000037     2.33006016E+01   # chargino2+ decays
#          BR         NDA      ID1       ID2
     2.53775745E-01    2     1000024        23   # BR(~chi_2+ -> ~chi_1+  Z )
     7.55841876E-04    2     1000022        24   # BR(~chi_2+ -> ~chi_10  W+)
     2.44845642E-01    2     1000023        24   # BR(~chi_2+ -> ~chi_20  W+)
     2.44869699E-01    2     1000025        24   # BR(~chi_2+ -> ~chi_30  W+)
     2.55715574E-01    2     1000024        25   # BR(~chi_2+ -> ~chi_1+  h )
     3.74980725E-05    2     1000022        37   # BR(~chi_2+ -> ~chi_10  H+)
#
#         PDG            Width
DECAY   1000022     0.00000000E+00   # neutralino1 decays
#
#         PDG            Width
DECAY   1000023     6.58486410E-02   # neutralino2 decays
#          BR         NDA      ID1       ID2
     5.81733013E-01    2     1000022        23   # BR(~chi_20 -> ~chi_10   Z )
     4.18266987E-01    2     1000022        25   # BR(~chi_20 -> ~chi_10   h )
#
#         PDG            Width
DECAY   1000025     4.88260153E-02   # neutralino3 decays
#          BR         NDA      ID1       ID2
     9.02071555E-01    2     1000022        23   # BR(~chi_30 -> ~chi_10   Z )
     9.79284450E-02    2     1000022        25   # BR(~chi_30 -> ~chi_10   h )
#
#         PDG            Width
DECAY   1000035     2.33028391E+01   # neutralino4 decays
#          BR         NDA      ID1       ID2
     7.78253985E-04    2     1000022        23   # BR(~chi_40 -> ~chi_10   Z )
     1.35969678E-01    2     1000023        23   # BR(~chi_40 -> ~chi_20   Z )
     1.16845264E-01    2     1000025        23   # BR(~chi_40 -> ~chi_30   Z )
     2.45448454E-01    2     1000024       -24   # BR(~chi_40 -> ~chi_1+   W-)
     2.45448454E-01    2    -1000024        24   # BR(~chi_40 -> ~chi_1-   W+)
     1.15475216E-05    2     1000022        25   # BR(~chi_40 -> ~chi_10   h )
     3.59752852E-05    2     1000022        35   # BR(~chi_40 -> ~chi_10   H )
     3.92636679E-06    2     1000022        36   # BR(~chi_40 -> ~chi_10   A )
     1.18324919E-01    2     1000023        25   # BR(~chi_40 -> ~chi_20   h )
     1.37133527E-01    2     1000025        25   # BR(~chi_40 -> ~chi_30   h )
#
#         PDG            Width
DECAY        25     4.08457864E-03   # h decays
#          BR         NDA      ID1       ID2
     6.09352926E-01    2           5        -5   # BR(h -> b       bb     )
     6.35126075E-02    2         -15        15   # BR(h -> tau+    tau-   )
     2.24857707E-04    2         -13        13   # BR(h -> mu+     mu-    )
     4.76681282E-04    2           3        -3   # BR(h -> s       sb     )
     2.06520945E-02    2           4        -4   # BR(h -> c       cb     )
     6.68094477E-02    2          21        21   # BR(h -> g       g      )
     2.29397566E-03    2          22        22   # BR(h -> gam     gam    )
     1.48123993E-03    2          22        23   # BR(h -> Z       gam    )
     2.09078898E-01    2          24       -24   # BR(h -> W+      W-     )
     2.49007369E-02    2          23        23   # BR(h -> Z       Z      )
     1.21653463E-03    2     1000022   1000022   # BR(h -> ~chi_10 ~chi_10)
#
#         PDG            Width
DECAY        35     8.81518198E+00   # H decays
#          BR         NDA      ID1       ID2
     3.59151777E-01    2           5        -5   # BR(H -> b       bb     )
     6.31811325E-02    2         -15        15   # BR(H -> tau+    tau-   )
     2.23413503E-04    2         -13        13   # BR(H -> mu+     mu-    )
     2.73870571E-04    2           3        -3   # BR(H -> s       sb     )
     1.53307537E-06    2           4        -4   # BR(H -> c       cb     )
     1.53166382E-01    2           6        -6   # BR(H -> t       tb     )
     5.09723719E-05    2          21        21   # BR(H -> g       g      )
     1.46785288E-07    2          22        22   # BR(H -> gam     gam    )
     9.03421757E-08    2          23        22   # BR(H -> Z       gam    )
     7.52159074E-05    2          24       -24   # BR(H -> W+      W-     )
     3.75603346E-05    2          23        23   # BR(H -> Z       Z      )
     2.67090460E-04    2          25        25   # BR(H -> h       h      )
    -1.95678471E-24    2          36        36   # BR(H -> A       A      )
     8.60536957E-19    2          23        36   # BR(H -> Z       A      )
     3.48376622E-03    2     1000024  -1000024   # BR(H -> ~chi_1+ ~chi_1-)
     4.37354225E-02    2     1000022   1000022   # BR(H -> ~chi_10 ~chi_10)
     1.24637608E-02    2     1000023   1000023   # BR(H -> ~chi_20 ~chi_20)
     8.49002101E-03    2     1000025   1000025   # BR(H -> ~chi_30 ~chi_30)
     2.02422198E-01    2     1000022   1000023   # BR(H -> ~chi_10 ~chi_20)
     1.31766080E-01    2     1000022   1000025   # BR(H -> ~chi_10 ~chi_30)
     2.12095662E-02    2     1000023   1000025   # BR(H -> ~chi_20 ~chi_30)
#
#         PDG            Width
DECAY        36     8.82016999E+00   # A decays
#          BR         NDA      ID1       ID2
     3.59071730E-01    2           5        -5   # BR(A -> b       bb     )
     6.31472317E-02    2         -15        15   # BR(A -> tau+    tau-   )
     2.23293315E-04    2         -13        13   # BR(A -> mu+     mu-    )
     2.73923454E-04    2           3        -3   # BR(A -> s       sb     )
     1.53822761E-06    2           4        -4   # BR(A -> c       cb     )
     1.53596328E-01    2           6        -6   # BR(A -> t       tb     )
     1.51979773E-04    2          21        21   # BR(A -> g       g      )
     5.33782964E-07    2          22        22   # BR(A -> gam     gam    )
     1.83881946E-07    2          23        22   # BR(A -> Z       gam    )
     7.48884865E-05    2          23        25   # BR(A -> Z       h      )
     3.60881955E-03    2     1000024  -1000024   # BR(A -> ~chi_1+ ~chi_1-)
     4.02774619E-02    2     1000022   1000022   # BR(A -> ~chi_10 ~chi_10)
     8.19677417E-03    2     1000023   1000023   # BR(A -> ~chi_20 ~chi_20)
     1.33511729E-02    2     1000025   1000025   # BR(A -> ~chi_30 ~chi_30)
     1.28584195E-01    2     1000022   1000023   # BR(A -> ~chi_10 ~chi_20)
     2.08658328E-01    2     1000022   1000025   # BR(A -> ~chi_10 ~chi_30)
     2.07816176E-02    2     1000023   1000025   # BR(A -> ~chi_20 ~chi_30)
#
#         PDG            Width
DECAY        37     8.75680381E+00   # H+ decays
#          BR         NDA      ID1       ID2
     5.75039599E-04    2           4        -5   # BR(H+ -> c       bb     )
     6.36356017E-02    2         -15        16   # BR(H+ -> tau+    nu_tau )
     2.25020227E-04    2         -13        14   # BR(H+ -> mu+     nu_mu  )
     3.68023397E-06    2           2        -5   # BR(H+ -> u       bb     )
     1.32033713E-05    2           2        -3   # BR(H+ -> u       sb     )
     2.73047379E-04    2           4        -3   # BR(H+ -> c       sb     )
     5.10917044E-01    2           6        -5   # BR(H+ -> t       bb     )
     7.55909598E-05    2          24        25   # BR(H+ -> W+      h      )
     1.07312185E-12    2          24        36   # BR(H+ -> W+      A      )
     3.98249957E-01    2     1000024   1000022   # BR(H+ -> ~chi_1+ ~chi_10)
     2.17859418E-02    2     1000024   1000023   # BR(H+ -> ~chi_1+ ~chi_20)
     4.24587302E-03    2     1000024   1000025   # BR(H+ -> ~chi_1+ ~chi_30)
