#
#                              ======================
#                              | THE SUSYHIT OUTPUT |
#                              ======================
#
#
#              ------------------------------------------------------
#              |     This is the output of the SUSY-HIT package     |
#              |  created by A.Djouadi, M.Muehlleitner and M.Spira. |
#              |  In case of problems with SUSY-HIT email to        |
#              |           margarete.muehlleitner@cern.ch           |
#              |           michael.spira@psi.ch                     |
#              |           abdelhak.djouadi@cern.ch                 |
#              ------------------------------------------------------
#
#              ------------------------------------------------------
#              |  SUSY Les Houches Accord - MSSM Spectrum + Decays  |
#              |              based on the decay programs           |
#              |                                                    |
#              |                     SDECAY 1.3b                    |
#              |                                                    |
#              |  Authors: M.Muhlleitner, A.Djouadi and Y.Mambrini  |
#              |  Ref.:    Comput.Phys.Commun.168(2005)46           |
#              |           [hep-ph/0311167]                         |
#              |                                                    |
#              |                     HDECAY 3.4                     |
#              |                                                    |
#              |  By: A.Djouadi,J.Kalinowski,M.Muhlleitner,M.Spira  |
#              |  Ref.:    Comput.Phys.Commun.108(1998)56           |
#              |           [hep-ph/9704448]                         |
#              |                                                    |
#              |                                                    |
#              |  If not stated otherwise all DRbar couplings and   |
#              |  soft SUSY breaking masses are given at the scale  |
#              |  Q=  0.50007601E+04
#              |                                                    |
#              ------------------------------------------------------
#
#
BLOCK DCINFO  # Decay Program information
     1   SDECAY/HDECAY # decay calculator
     2   1.3b  /3.4    # version number
#
BLOCK SPINFO  # Spectrum calculator information
     1    SOFTSUSY    # spectrum calculator                
     2    3.4.0       # version number                     
#
BLOCK MODSEL  # Model selection
     1     0   #  nonUniversal                                     
#
BLOCK SMINPUTS  # Standard Model inputs
         1     1.25778332E+02   # alpha_em^-1(M_Z)^MSbar
         2     1.16570000E-05   # G_F [GeV^-2]
         3     1.17200002E-01   # alpha_S(M_Z)^MSbar
         4     9.11876000E+01   # M_Z pole mass
         5     4.25000000E+00   # mb(mb)^MSbar
         6     1.72500000E+02   # mt pole mass
         7     1.77682000E+00   # mtau pole mass
#
BLOCK MINPAR  # Input parameters - minimal models
         3     1.00000000E+01   # tanb                
#
BLOCK EXTPAR  # Input parameters - non-minimal models
         0    -1.00000000E+00   # Set                 
         1     6.00000000E+01   # M_1(MX)             
         2     3.00000000E+03   # M_2(MX)             
         3     1.66796800E+03   # M_3(MX)             
        11     5.00000000E+03   # At(MX)              
        12     5.00000000E+03   # Ab(MX)              
        13     0.00000000E+00   # Atau(MX)            
        23    -4.74906000E+02   # mu(MX)              
        26     3.00000000E+03   # mA(pole)            
        31     5.00000000E+03   # meL(MX)             
        32     5.00000000E+03   # mmuL(MX)            
        33     5.00000000E+03   # mtauL(MX)           
        34     5.00000000E+03   # meR(MX)             
        35     5.00000000E+03   # mmuR(MX)            
        36     5.00000000E+03   # mtauR(MX)           
        41     5.00000000E+03   # mqL1(MX)            
        42     5.00000000E+03   # mqL2(MX)            
        43     5.00000000E+03   # mqL3(MX)            
        44     5.00000000E+03   # muR(MX)             
        45     5.00000000E+03   # mcR(MX)             
        46     5.00000000E+03   # mtR(MX)             
        47     5.00000000E+03   # mdR(MX)             
        48     5.00000000E+03   # msR(MX)             
        49     5.00000000E+03   # mbR(MX)             
#
BLOCK MASS  # Mass Spectrum
# PDG code           mass       particle
        24     8.00929367E+01   # W+
        25     1.24750548E+02   # h
        35     3.00008580E+03   # H
        36     2.99999945E+03   # A
        37     3.00142985E+03   # H+
         5     4.87878001E+00   # b-quark pole mass calculated from mb(mb)_Msbar
   1000001     5.07196068E+03   # ~d_L
   2000001     5.05411745E+03   # ~d_R
   1000002     5.07148624E+03   # ~u_L
   2000002     5.05381717E+03   # ~u_R
   1000003     5.07196068E+03   # ~s_L
   2000003     5.05411745E+03   # ~s_R
   1000004     5.07148624E+03   # ~c_L
   2000004     5.05381717E+03   # ~c_R
   1000005     5.01782074E+03   # ~b_1
   2000005     5.05235199E+03   # ~b_2
   1000006     4.90886488E+03   # ~t_1
   2000006     5.06175886E+03   # ~t_2
   1000011     5.01910901E+03   # ~e_L
   2000011     5.00594389E+03   # ~e_R
   1000012     5.01815878E+03   # ~nu_eL
   1000013     5.01910901E+03   # ~mu_L
   2000013     5.00594389E+03   # ~mu_R
   1000014     5.01815878E+03   # ~nu_muL
   1000015     5.00477449E+03   # ~tau_1
   2000015     5.01863327E+03   # ~tau_2
   1000016     5.01760710E+03   # ~nu_tauL
   1000021     2.00000090E+03   # ~g
   1000022     6.02023099E+01   # ~chi_10
   1000023     5.00512195E+02   # ~chi_20
   1000025    -5.02707242E+02   # ~chi_30
   1000035     3.07418111E+03   # ~chi_40
   1000024     5.00000091E+02   # ~chi_1+
   1000037     3.07434882E+03   # ~chi_2+
#
BLOCK NMIX  # Neutralino Mixing Matrix
  1  1     9.96029183E-01   # N_11
  1  2     2.24944802E-04   # N_12
  1  3    -8.90140426E-02   # N_13
  1  4    -1.52222465E-03   # N_14
  2  1     6.40546810E-02   # N_21
  2  2     1.90071041E-02   # N_22
  2  3     7.04713536E-01   # N_23
  2  4     7.06338842E-01   # N_24
  3  1    -6.18280966E-02   # N_31
  3  2     1.70145311E-02   # N_32
  3  3    -7.03884491E-01   # N_33
  3  4     7.07413893E-01   # N_34
  4  1    -3.89696340E-04   # N_41
  4  2     9.99674540E-01   # N_42
  4  3    -1.39873101E-03   # N_43
  4  4    -2.54697186E-02   # N_44
#
BLOCK UMIX  # Chargino Mixing Matrix U
  1  1     1.98335605E-03   # U_11
  1  2     9.99998033E-01   # U_12
  2  1    -9.99998033E-01   # U_21
  2  2     1.98335605E-03   # U_22
#
BLOCK VMIX  # Chargino Mixing Matrix V
  1  1     3.60398949E-02   # V_11
  1  2    -9.99350352E-01   # V_12
  2  1    -9.99350352E-01   # V_21
  2  2    -3.60398949E-02   # V_22
#
BLOCK STOPMIX  # Stop Mixing Matrix
  1  1    -5.03849506E-01   # cos(theta_t)
  1  2     8.63791454E-01   # sin(theta_t)
  2  1    -8.63791454E-01   # -sin(theta_t)
  2  2    -5.03849506E-01   # cos(theta_t)
#
BLOCK SBOTMIX  # Sbottom Mixing Matrix
  1  1     9.98757107E-01   # cos(theta_b)
  1  2    -4.98421630E-02   # sin(theta_b)
  2  1     4.98421630E-02   # -sin(theta_b)
  2  2     9.98757107E-01   # cos(theta_b)
#
BLOCK STAUMIX  # Stau Mixing Matrix
  1  1    -5.69170201E-02   # cos(theta_tau)
  1  2     9.98378912E-01   # sin(theta_tau)
  2  1    -9.98378912E-01   # -sin(theta_tau)
  2  2    -5.69170201E-02   # cos(theta_tau)
#
BLOCK ALPHA  # Higgs mixing
          -1.05484809E-01   # Mixing angle in the neutral Higgs boson sector
#
BLOCK HMIX Q=  5.00076011E+03  # DRbar Higgs Parameters
         1    -4.83580672E+02   # mu(Q)MSSM           
         2     9.46930288E+00   # tan                 
         3     2.41750146E+02   # higgs               
         4     8.67775616E+06   # mA^2(Q)MSSM         
#
BLOCK GAUGE Q=  5.00076011E+03  # The gauge couplings
     1     3.70955950E-01   # gprime(Q) DRbar
     2     6.33330922E-01   # g(Q) DRbar
     3     9.98506545E-01   # g3(Q) DRbar
#
BLOCK AU Q=  5.00076011E+03  # The trilinear couplings
  1  1     5.00000001E+03   # A_u(Q) DRbar
  2  2     5.00000001E+03   # A_c(Q) DRbar
  3  3     5.00000002E+03   # A_t(Q) DRbar
#
BLOCK AD Q=  5.00076011E+03  # The trilinear couplings
  1  1     5.00000001E+03   # A_d(Q) DRbar
  2  2     5.00000001E+03   # A_s(Q) DRbar
  3  3     5.00000001E+03   # A_b(Q) DRbar
#
BLOCK AE Q=  5.00076011E+03  # The trilinear couplings
  1  1     0.00000000E+00   # A_e(Q) DRbar
  2  2     1.72493946E-07   # A_mu(Q) DRbar
  3  3     1.72125666E-07   # A_tau(Q) DRbar
#
BLOCK Yu Q=  5.00076011E+03  # The Yukawa couplings
  1  1     0.00000000E+00   # y_u(Q) DRbar
  2  2     0.00000000E+00   # y_c(Q) DRbar
  3  3     8.20198587E-01   # y_t(Q) DRbar
#
BLOCK Yd Q=  5.00076011E+03  # The Yukawa couplings
  1  1     0.00000000E+00   # y_d(Q) DRbar
  2  2     0.00000000E+00   # y_s(Q) DRbar
  3  3     1.30053986E-01   # y_b(Q) DRbar
#
BLOCK Ye Q=  5.00076011E+03  # The Yukawa couplings
  1  1     0.00000000E+00   # y_e(Q) DRbar
  2  2     0.00000000E+00   # y_mu(Q) DRbar
  3  3     9.71408677E-02   # y_tau(Q) DRbar
#
BLOCK MSOFT Q=  5.00076011E+03  # The soft SUSY breaking masses at the scale Q
         1     6.00000000E+01   # M_1(Q)              
         2     3.00000000E+03   # M_2(Q)              
         3     1.66796800E+03   # M_3(Q)              
        21     8.49006753E+06   # mH1^2(Q)            
        22     3.42036978E+05   # mH2^2(Q)            
        31     5.00000000E+03   # meL(Q)              
        32     5.00000000E+03   # mmuL(Q)             
        33     5.00000000E+03   # mtauL(Q)            
        34     5.00000000E+03   # meR(Q)              
        35     5.00000000E+03   # mmuR(Q)             
        36     5.00000000E+03   # mtauR(Q)            
        41     5.00000000E+03   # mqL1(Q)             
        42     5.00000000E+03   # mqL2(Q)             
        43     5.00000000E+03   # mqL3(Q)             
        44     5.00000000E+03   # muR(Q)              
        45     5.00000000E+03   # mcR(Q)              
        46     4.99999999E+03   # mtR(Q)              
        47     5.00000000E+03   # mdR(Q)              
        48     5.00000000E+03   # msR(Q)              
        49     5.00000000E+03   # mbR(Q)              
#
#
#
#                             =================
#                             |The decay table|
#                             =================
#
# - The QCD corrections to the decays gluino -> squark  + quark
#                                     squark -> gaugino + quark_prime
#                                     squark -> squark_prime + Higgs
#                                     squark -> gluino  + quark
#   are included.
#
# - The multi-body decays for the inos, stops and sbottoms are included.
#
# - The loop induced decays for the gluino, neutralinos and stops
#   are included.
#
# - The SUSY decays of the top quark are included.
#
#
#         PDG            Width
DECAY         6     1.40570914E+00   # top decays
#          BR         NDA      ID1       ID2
     1.00000000E+00    2           5        24   # BR(t ->  b    W+)
#
#         PDG            Width
DECAY   1000021     1.82050708E-03   # gluino decays
#          BR         NDA      ID1       ID2
     4.29872562E-07    2     1000022        21   # BR(~g -> ~chi_10 g)
     7.31844587E-03    2     1000023        21   # BR(~g -> ~chi_20 g)
     7.12041007E-03    2     1000025        21   # BR(~g -> ~chi_30 g)
#           BR         NDA      ID1       ID2       ID3
     1.27640790E-02    3     1000022         1        -1   # BR(~g -> ~chi_10 d  db)
     3.67288241E-05    3     1000023         1        -1   # BR(~g -> ~chi_20 d  db)
     3.95509167E-05    3     1000025         1        -1   # BR(~g -> ~chi_30 d  db)
     4.35269234E-02    3     1000022         2        -2   # BR(~g -> ~chi_10 u  ub)
     1.91649028E-04    3     1000023         2        -2   # BR(~g -> ~chi_20 u  ub)
     6.58119146E-05    3     1000025         2        -2   # BR(~g -> ~chi_30 u  ub)
     1.27640790E-02    3     1000022         3        -3   # BR(~g -> ~chi_10 s  sb)
     3.67288241E-05    3     1000023         3        -3   # BR(~g -> ~chi_20 s  sb)
     3.95509167E-05    3     1000025         3        -3   # BR(~g -> ~chi_30 s  sb)
     4.35269234E-02    3     1000022         4        -4   # BR(~g -> ~chi_10 c  cb)
     1.91649028E-04    3     1000023         4        -4   # BR(~g -> ~chi_20 c  cb)
     6.58119146E-05    3     1000025         4        -4   # BR(~g -> ~chi_30 c  cb)
     1.30617828E-02    3     1000022         5        -5   # BR(~g -> ~chi_10 b  bb)
     5.33469498E-03    3     1000023         5        -5   # BR(~g -> ~chi_20 b  bb)
     5.29901090E-03    3     1000025         5        -5   # BR(~g -> ~chi_30 b  bb)
     4.20188076E-02    3     1000022         6        -6   # BR(~g -> ~chi_10 t  tb)
     2.00848030E-01    3     1000023         6        -6   # BR(~g -> ~chi_20 t  tb)
     1.84303383E-01    3     1000025         6        -6   # BR(~g -> ~chi_30 t  tb)
     5.52939569E-05    3     1000024         1        -2   # BR(~g -> ~chi_1+ d  ub)
     5.52939569E-05    3    -1000024         2        -1   # BR(~g -> ~chi_1- u  db)
     5.52939569E-05    3     1000024         3        -4   # BR(~g -> ~chi_1+ s  cb)
     5.52939569E-05    3    -1000024         4        -3   # BR(~g -> ~chi_1- c  sb)
     2.10612171E-01    3     1000024         5        -6   # BR(~g -> ~chi_1+ b  tb)
     2.10612171E-01    3    -1000024         6        -5   # BR(~g -> ~chi_1- t  bb)
#
#         PDG            Width
DECAY   1000006     3.48761022E+02   # stop1 decays
#          BR         NDA      ID1       ID2
     2.51712628E-02    2     1000022         6   # BR(~t_1 -> ~chi_10 t )
     9.41208061E-02    2     1000023         6   # BR(~t_1 -> ~chi_20 t )
     8.90213407E-02    2     1000025         6   # BR(~t_1 -> ~chi_30 t )
     5.83065885E-03    2     1000035         6   # BR(~t_1 -> ~chi_40 t )
     1.36520151E-01    2     1000024         5   # BR(~t_1 -> ~chi_1+ b )
     1.16232059E-02    2     1000037         5   # BR(~t_1 -> ~chi_2+ b )
     6.37712575E-01    2     1000021         6   # BR(~t_1 -> ~g      t )
#
#         PDG            Width
DECAY   2000006     3.53419691E+02   # stop2 decays
#          BR         NDA      ID1       ID2
     9.88491077E-03    2     1000022         6   # BR(~t_2 -> ~chi_10 t )
     9.27522272E-02    2     1000023         6   # BR(~t_2 -> ~chi_20 t )
     9.83988466E-02    2     1000025         6   # BR(~t_2 -> ~chi_30 t )
     1.58783242E-02    2     1000035         6   # BR(~t_2 -> ~chi_40 t )
     5.46794469E-02    2     1000024         5   # BR(~t_2 -> ~chi_1+ b )
     3.16161396E-02    2     1000037         5   # BR(~t_2 -> ~chi_2+ b )
     6.93341074E-01    2     1000021         6   # BR(~t_2 -> ~g      t )
     7.97682026E-04    2     1000006        25   # BR(~t_2 -> ~t_1    h )
     2.65134840E-03    2     1000006        23   # BR(~t_2 -> ~t_1    Z )
#
#         PDG            Width
DECAY   1000005     3.28473220E+02   # sbottom1 decays
#          BR         NDA      ID1       ID2
     2.36819988E-03    2     1000022         5   # BR(~b_1 -> ~chi_10 b )
     2.49823837E-03    2     1000023         5   # BR(~b_1 -> ~chi_20 b )
     2.49853347E-03    2     1000025         5   # BR(~b_1 -> ~chi_30 b )
     2.30976049E-02    2     1000035         5   # BR(~b_1 -> ~chi_40 b )
     2.00687994E-01    2    -1000024         6   # BR(~b_1 -> ~chi_1- t )
     4.63745935E-02    2    -1000037         6   # BR(~b_1 -> ~chi_2- t )
     7.20789456E-01    2     1000021         5   # BR(~b_1 -> ~g      b )
     1.68538057E-03    2     1000006       -24   # BR(~b_1 -> ~t_1    W-)
#
#         PDG            Width
DECAY   2000005     2.45891078E+02   # sbottom2 decays
#          BR         NDA      ID1       ID2
     1.19244264E-02    2     1000022         5   # BR(~b_2 -> ~chi_10 b )
     3.46412584E-03    2     1000023         5   # BR(~b_2 -> ~chi_20 b )
     3.50590251E-03    2     1000025         5   # BR(~b_2 -> ~chi_30 b )
     7.24932803E-05    2     1000035         5   # BR(~b_2 -> ~chi_40 b )
     7.42290945E-03    2    -1000024         6   # BR(~b_2 -> ~chi_1- t )
     1.45561576E-04    2    -1000037         6   # BR(~b_2 -> ~chi_2- t )
     9.73441363E-01    2     1000021         5   # BR(~b_2 -> ~g      b )
     2.32183753E-05    2     1000006       -24   # BR(~b_2 -> ~t_1    W-)
#
#         PDG            Width
DECAY   1000002     2.65274271E+02   # sup_L decays
#          BR         NDA      ID1       ID2
     2.79917314E-03    2     1000022         2   # BR(~u_L -> ~chi_10 u)
     7.20003450E-05    2     1000023         2   # BR(~u_L -> ~chi_20 u)
     1.77128060E-06    2     1000025         2   # BR(~u_L -> ~chi_30 u)
     2.96962202E-02    2     1000035         2   # BR(~u_L -> ~chi_40 u)
     1.88349334E-04    2     1000024         1   # BR(~u_L -> ~chi_1+ d)
     5.93554900E-02    2     1000037         1   # BR(~u_L -> ~chi_2+ d)
     9.07886996E-01    2     1000021         2   # BR(~u_L -> ~g      u)
#
#         PDG            Width
DECAY   2000002     2.51285350E+02   # sup_R decays
#          BR         NDA      ID1       ID2
     4.70044993E-02    2     1000022         2   # BR(~u_R -> ~chi_10 u)
     1.90831734E-04    2     1000023         2   # BR(~u_R -> ~chi_20 u)
     1.77765120E-04    2     1000025         2   # BR(~u_R -> ~chi_30 u)
     2.87248775E-09    2     1000035         2   # BR(~u_R -> ~chi_40 u)
     9.52626901E-01    2     1000021         2   # BR(~u_R -> ~g      u)
#
#         PDG            Width
DECAY   1000001     2.65287873E+02   # sdown_L decays
#          BR         NDA      ID1       ID2
     2.78637239E-03    2     1000022         1   # BR(~d_L -> ~chi_10 d)
     3.06431633E-06    2     1000023         1   # BR(~d_L -> ~chi_20 d)
     6.13283911E-05    2     1000025         1   # BR(~d_L -> ~chi_30 d)
     2.97129313E-02    2     1000035         1   # BR(~d_L -> ~chi_40 d)
     5.70451545E-07    2    -1000024         2   # BR(~d_L -> ~chi_1- u)
     5.94477979E-02    2    -1000037         2   # BR(~d_L -> ~chi_2- u)
     9.07987935E-01    2     1000021         1   # BR(~d_L -> ~g      d)
#
#         PDG            Width
DECAY   2000001     2.42382192E+02   # sdown_R decays
#          BR         NDA      ID1       ID2
     1.21834986E-02    2     1000022         1   # BR(~d_R -> ~chi_10 d)
     4.94634194E-05    2     1000023         1   # BR(~d_R -> ~chi_20 d)
     4.60765653E-05    2     1000025         1   # BR(~d_R -> ~chi_30 d)
     7.44647377E-10    2     1000035         1   # BR(~d_R -> ~chi_40 d)
     9.87720961E-01    2     1000021         1   # BR(~d_R -> ~g      d)
#
#         PDG            Width
DECAY   1000004     2.65274271E+02   # scharm_L decays
#          BR         NDA      ID1       ID2
     2.79917314E-03    2     1000022         4   # BR(~c_L -> ~chi_10 c)
     7.20003450E-05    2     1000023         4   # BR(~c_L -> ~chi_20 c)
     1.77128060E-06    2     1000025         4   # BR(~c_L -> ~chi_30 c)
     2.96962202E-02    2     1000035         4   # BR(~c_L -> ~chi_40 c)
     1.88349334E-04    2     1000024         3   # BR(~c_L -> ~chi_1+ s)
     5.93554900E-02    2     1000037         3   # BR(~c_L -> ~chi_2+ s)
     9.07886996E-01    2     1000021         4   # BR(~c_L -> ~g      c)
#
#         PDG            Width
DECAY   2000004     2.51285350E+02   # scharm_R decays
#          BR         NDA      ID1       ID2
     4.70044993E-02    2     1000022         4   # BR(~c_R -> ~chi_10 c)
     1.90831734E-04    2     1000023         4   # BR(~c_R -> ~chi_20 c)
     1.77765120E-04    2     1000025         4   # BR(~c_R -> ~chi_30 c)
     2.87248775E-09    2     1000035         4   # BR(~c_R -> ~chi_40 c)
     9.52626901E-01    2     1000021         4   # BR(~c_R -> ~g      c)
#
#         PDG            Width
DECAY   1000003     2.65287873E+02   # sstrange_L decays
#          BR         NDA      ID1       ID2
     2.78637239E-03    2     1000022         3   # BR(~s_L -> ~chi_10 s)
     3.06431633E-06    2     1000023         3   # BR(~s_L -> ~chi_20 s)
     6.13283911E-05    2     1000025         3   # BR(~s_L -> ~chi_30 s)
     2.97129313E-02    2     1000035         3   # BR(~s_L -> ~chi_40 s)
     5.70451545E-07    2    -1000024         4   # BR(~s_L -> ~chi_1- c)
     5.94477979E-02    2    -1000037         4   # BR(~s_L -> ~chi_2- c)
     9.07987935E-01    2     1000021         3   # BR(~s_L -> ~g      s)
#
#         PDG            Width
DECAY   2000003     2.42382192E+02   # sstrange_R decays
#          BR         NDA      ID1       ID2
     1.21834986E-02    2     1000022         3   # BR(~s_R -> ~chi_10 s)
     4.94634194E-05    2     1000023         3   # BR(~s_R -> ~chi_20 s)
     4.60765653E-05    2     1000025         3   # BR(~s_R -> ~chi_30 s)
     7.44647377E-10    2     1000035         3   # BR(~s_R -> ~chi_40 s)
     9.87720961E-01    2     1000021         3   # BR(~s_R -> ~g      s)
#
#         PDG            Width
DECAY   1000011     3.03347494E+01   # selectron_L decays
#          BR         NDA      ID1       ID2
     2.24794171E-01    2     1000022        11   # BR(~e_L -> ~chi_10 e-)
     2.06753793E-03    2     1000023        11   # BR(~e_L -> ~chi_20 e-)
     2.38491325E-04    2     1000025        11   # BR(~e_L -> ~chi_30 e-)
     2.57464518E-01    2     1000035        11   # BR(~e_L -> ~chi_40 e-)
     5.09115337E-06    2    -1000024        12   # BR(~e_L -> ~chi_1- nu_e)
     5.15430191E-01    2    -1000037        12   # BR(~e_L -> ~chi_2- nu_e)
#
#         PDG            Width
DECAY   2000011     2.73966420E+01   # selectron_R decays
#          BR         NDA      ID1       ID2
     9.92229100E-01    2     1000022        11   # BR(~e_R -> ~chi_10 e-)
     4.02317090E-03    2     1000023        11   # BR(~e_R -> ~chi_20 e-)
     3.74767039E-03    2     1000025        11   # BR(~e_R -> ~chi_30 e-)
     5.89448622E-08    2     1000035        11   # BR(~e_R -> ~chi_40 e-)
#
#         PDG            Width
DECAY   1000013     3.03347494E+01   # smuon_L decays
#          BR         NDA      ID1       ID2
     2.24794171E-01    2     1000022        13   # BR(~mu_L -> ~chi_10 mu-)
     2.06753793E-03    2     1000023        13   # BR(~mu_L -> ~chi_20 mu-)
     2.38491325E-04    2     1000025        13   # BR(~mu_L -> ~chi_30 mu-)
     2.57464518E-01    2     1000035        13   # BR(~mu_L -> ~chi_40 mu-)
     5.09115337E-06    2    -1000024        14   # BR(~mu_L -> ~chi_1- nu_mu)
     5.15430191E-01    2    -1000037        14   # BR(~mu_L -> ~chi_2- nu_mu)
#
#         PDG            Width
DECAY   2000013     2.73966420E+01   # smuon_R decays
#          BR         NDA      ID1       ID2
     9.92229100E-01    2     1000022        13   # BR(~mu_R -> ~chi_10 mu-)
     4.02317090E-03    2     1000023        13   # BR(~mu_R -> ~chi_20 mu-)
     3.74767039E-03    2     1000025        13   # BR(~mu_R -> ~chi_30 mu-)
     5.89448622E-08    2     1000035        13   # BR(~mu_R -> ~chi_40 mu-)
#
#         PDG            Width
DECAY   1000015     2.92395019E+01   # stau_1 decays
#          BR         NDA      ID1       ID2
     9.28345261E-01    2     1000022        15   # BR(~tau_1 -> ~chi_10  tau-)
     1.91873882E-02    2     1000023        15   # BR(~tau_1 -> ~chi_20  tau-)
     1.84835420E-02    2     1000025        15   # BR(~tau_1 -> ~chi_30  tau-)
     8.47864192E-04    2     1000035        15   # BR(~tau_1 -> ~chi_40  tau-)
     3.14387252E-02    2    -1000024        16   # BR(~tau_1 -> ~chi_1-  nu_tau)
     1.69721926E-03    2    -1000037        16   # BR(~tau_1 -> ~chi_2-  nu_tau)
#
#         PDG            Width
DECAY   2000015     3.12421137E+01   # stau_2 decays
#          BR         NDA      ID1       ID2
     2.19782804E-01    2     1000022        15   # BR(~tau_2 -> ~chi_10  tau-)
     1.68948106E-02    2     1000023        15   # BR(~tau_2 -> ~chi_20  tau-)
     1.54642301E-02    2     1000025        15   # BR(~tau_2 -> ~chi_30  tau-)
     2.49105171E-01    2     1000035        15   # BR(~tau_2 -> ~chi_40  tau-)
     5.72475793E-05    2    -1000024        16   # BR(~tau_2 -> ~chi_1-  nu_tau)
     4.98695737E-01    2    -1000037        16   # BR(~tau_2 -> ~chi_2-  nu_tau)
#
#         PDG            Width
DECAY   1000012     3.03379456E+01   # snu_eL decays
#          BR         NDA      ID1       ID2
     2.24381576E-01    2     1000022        12   # BR(~nu_eL -> ~chi_10 nu_e)
     2.21667528E-04    2     1000023        12   # BR(~nu_eL -> ~chi_20 nu_e)
     1.83252251E-03    2     1000025        12   # BR(~nu_eL -> ~chi_30 nu_e)
     2.57506685E-01    2     1000035        12   # BR(~nu_eL -> ~chi_40 nu_e)
     1.68054659E-03    2     1000024        11   # BR(~nu_eL -> ~chi_1+ e-)
     5.14377002E-01    2     1000037        11   # BR(~nu_eL -> ~chi_2+ e-)
#
#         PDG            Width
DECAY   1000014     3.03379456E+01   # snu_muL decays
#          BR         NDA      ID1       ID2
     2.24381576E-01    2     1000022        14   # BR(~nu_muL -> ~chi_10 nu_mu)
     2.21667528E-04    2     1000023        14   # BR(~nu_muL -> ~chi_20 nu_mu)
     1.83252251E-03    2     1000025        14   # BR(~nu_muL -> ~chi_30 nu_mu)
     2.57506685E-01    2     1000035        14   # BR(~nu_muL -> ~chi_40 nu_mu)
     1.68054659E-03    2     1000024        13   # BR(~nu_muL -> ~chi_1+ mu-)
     5.14377002E-01    2     1000037        13   # BR(~nu_muL -> ~chi_2+ mu-)
#
#         PDG            Width
DECAY   1000016     3.12517763E+01   # snu_tauL decays
#          BR         NDA      ID1       ID2
     2.17796492E-01    2     1000022        16   # BR(~nu_tauL -> ~chi_10 nu_tau)
     2.15161158E-04    2     1000023        16   # BR(~nu_tauL -> ~chi_20 nu_tau)
     1.77873437E-03    2     1000025        16   # BR(~nu_tauL -> ~chi_30 nu_tau)
     2.49883433E-01    2     1000035        16   # BR(~nu_tauL -> ~chi_40 nu_tau)
     3.11773502E-02    2     1000024        15   # BR(~nu_tauL -> ~chi_1+ tau-)
     4.99148829E-01    2     1000037        15   # BR(~nu_tauL -> ~chi_2+ tau-)
#
#         PDG            Width
DECAY   1000024     2.94097616E-01   # chargino1+ decays
#          BR         NDA      ID1       ID2
     1.00000000E+00    2     1000022        24   # BR(~chi_1+ -> ~chi_10  W+)
#
#         PDG            Width
DECAY   1000037     2.21642781E+01   # chargino2+ decays
#          BR         NDA      ID1       ID2
     2.53560733E-01    2     1000024        23   # BR(~chi_2+ -> ~chi_1+  Z )
     1.56227006E-04    2     1000022        24   # BR(~chi_2+ -> ~chi_10  W+)
     2.44971818E-01    2     1000023        24   # BR(~chi_2+ -> ~chi_20  W+)
     2.44378007E-01    2     1000025        24   # BR(~chi_2+ -> ~chi_30  W+)
     2.56928034E-01    2     1000024        25   # BR(~chi_2+ -> ~chi_1+  h )
     5.18138489E-06    2     1000022        37   # BR(~chi_2+ -> ~chi_10  H+)
#
#         PDG            Width
DECAY   1000022     0.00000000E+00   # neutralino1 decays
#
#         PDG            Width
DECAY   1000023     2.97432442E-01   # neutralino2 decays
#          BR         NDA      ID1       ID2
     5.04329043E-01    2     1000022        23   # BR(~chi_20 -> ~chi_10   Z )
     4.95670957E-01    2     1000022        25   # BR(~chi_20 -> ~chi_10   h )
#
#         PDG            Width
DECAY   1000025     2.90336048E-01   # neutralino3 decays
#          BR         NDA      ID1       ID2
     5.33674426E-01    2     1000022        23   # BR(~chi_30 -> ~chi_10   Z )
     4.66325574E-01    2     1000022        25   # BR(~chi_30 -> ~chi_10   h )
#
#         PDG            Width
DECAY   1000035     2.21752337E+01   # neutralino4 decays
#          BR         NDA      ID1       ID2
     3.09991764E-06    2     1000022        23   # BR(~chi_40 -> ~chi_10   Z )
     1.12719468E-01    2     1000023        23   # BR(~chi_40 -> ~chi_20   Z )
     1.40402465E-01    2     1000025        23   # BR(~chi_40 -> ~chi_30   Z )
     2.45154939E-01    2     1000024       -24   # BR(~chi_40 -> ~chi_1+   W-)
     2.45154939E-01    2    -1000024        24   # BR(~chi_40 -> ~chi_1-   W+)
     1.45569133E-04    2     1000022        25   # BR(~chi_40 -> ~chi_10   h )
     4.98431027E-06    2     1000022        35   # BR(~chi_40 -> ~chi_10   H )
     5.44105083E-07    2     1000022        36   # BR(~chi_40 -> ~chi_10   A )
     1.43421546E-01    2     1000023        25   # BR(~chi_40 -> ~chi_20   h )
     1.12992445E-01    2     1000025        25   # BR(~chi_40 -> ~chi_30   h )
#
#         PDG            Width
DECAY        25     4.06941015E-03   # h decays
#          BR         NDA      ID1       ID2
     6.09851108E-01    2           5        -5   # BR(h -> b       bb     )
     6.37311855E-02    2         -15        15   # BR(h -> tau+    tau-   )
     2.25631669E-04    2         -13        13   # BR(h -> mu+     mu-    )
     4.78342289E-04    2           3        -3   # BR(h -> s       sb     )
     2.07255444E-02    2           4        -4   # BR(h -> c       cb     )
     6.70163334E-02    2          21        21   # BR(h -> g       g      )
     2.30284977E-03    2          22        22   # BR(h -> gam     gam    )
     1.48331583E-03    2          22        23   # BR(h -> Z       gam    )
     2.09191552E-01    2          24       -24   # BR(h -> W+      W-     )
     2.49103379E-02    2          23        23   # BR(h -> Z       Z      )
     8.37995844E-05    2     1000022   1000022   # BR(h -> ~chi_10 ~chi_10)
#
#         PDG            Width
DECAY        35     8.66150161E+00   # H decays
#          BR         NDA      ID1       ID2
     3.68387133E-01    2           5        -5   # BR(H -> b       bb     )
     6.43131166E-02    2         -15        15   # BR(H -> tau+    tau-   )
     2.27416289E-04    2         -13        13   # BR(H -> mu+     mu-    )
     2.78777453E-04    2           3        -3   # BR(H -> s       sb     )
     1.55989475E-06    2           4        -4   # BR(H -> c       cb     )
     1.55845845E-01    2           6        -6   # BR(H -> t       tb     )
     5.18327909E-05    2          21        21   # BR(H -> g       g      )
     1.49108639E-07    2          22        22   # BR(H -> gam     gam    )
     9.19663189E-08    2          23        22   # BR(H -> Z       gam    )
     7.44299182E-05    2          24       -24   # BR(H -> W+      W-     )
     3.71678455E-05    2          23        23   # BR(H -> Z       Z      )
     2.69715645E-04    2          25        25   # BR(H -> h       h      )
     7.31143426E-24    2          36        36   # BR(H -> A       A      )
     7.25798635E-19    2          23        36   # BR(H -> Z       A      )
     3.17441476E-03    2     1000024  -1000024   # BR(H -> ~chi_1+ ~chi_1-)
     6.71482910E-03    2     1000022   1000022   # BR(H -> ~chi_10 ~chi_10)
     3.68904801E-04    2     1000023   1000023   # BR(H -> ~chi_20 ~chi_20)
     2.44840222E-03    2     1000025   1000025   # BR(H -> ~chi_30 ~chi_30)
     2.39549012E-01    2     1000022   1000023   # BR(H -> ~chi_10 ~chi_20)
     1.54933396E-01    2     1000022   1000025   # BR(H -> ~chi_10 ~chi_30)
     3.32380578E-03    2     1000023   1000025   # BR(H -> ~chi_20 ~chi_30)
#
#         PDG            Width
DECAY        36     8.66853632E+00   # A decays
#          BR         NDA      ID1       ID2
     3.68213892E-01    2           5        -5   # BR(A -> b       bb     )
     6.42628402E-02    2         -15        15   # BR(A -> tau+    tau-   )
     2.27238190E-04    2         -13        13   # BR(A -> mu+     mu-    )
     2.78762784E-04    2           3        -3   # BR(A -> s       sb     )
     1.56486644E-06    2           4        -4   # BR(A -> c       cb     )
     1.56256290E-01    2           6        -6   # BR(A -> t       tb     )
     1.54622778E-04    2          21        21   # BR(A -> g       g      )
     5.93741961E-07    2          22        22   # BR(A -> gam     gam    )
     1.87165265E-07    2          23        22   # BR(A -> Z       gam    )
     7.40882251E-05    2          23        25   # BR(A -> Z       h      )
     3.48633305E-03    2     1000024  -1000024   # BR(A -> ~chi_1+ ~chi_1-)
     6.67196094E-03    2     1000022   1000022   # BR(A -> ~chi_10 ~chi_10)
     2.71050298E-04    2     1000023   1000023   # BR(A -> ~chi_20 ~chi_20)
     4.22296733E-03    2     1000025   1000025   # BR(A -> ~chi_30 ~chi_30)
     1.58334493E-01    2     1000022   1000023   # BR(A -> ~chi_10 ~chi_20)
     2.35180488E-01    2     1000022   1000025   # BR(A -> ~chi_10 ~chi_30)
     2.36262742E-03    2     1000023   1000025   # BR(A -> ~chi_20 ~chi_30)
#
#         PDG            Width
DECAY        37     8.61325988E+00   # H+ decays
#          BR         NDA      ID1       ID2
     5.90723068E-04    2           4        -5   # BR(H+ -> c       bb     )
     6.47060904E-02    2         -15        16   # BR(H+ -> tau+    nu_tau )
     2.28805555E-04    2         -13        14   # BR(H+ -> mu+     nu_mu  )
     3.78060781E-06    2           2        -5   # BR(H+ -> u       bb     )
     1.34255108E-05    2           2        -3   # BR(H+ -> u       sb     )
     2.77640733E-04    2           4        -3   # BR(H+ -> c       sb     )
     5.23209812E-01    2           6        -5   # BR(H+ -> t       bb     )
     7.47185236E-05    2          24        25   # BR(H+ -> W+      h      )
     9.13552916E-13    2          24        36   # BR(H+ -> W+      A      )
     4.07098333E-01    2     1000024   1000022   # BR(H+ -> ~chi_1+ ~chi_10)
     3.46684144E-03    2     1000024   1000023   # BR(H+ -> ~chi_1+ ~chi_20)
     3.29829532E-04    2     1000024   1000025   # BR(H+ -> ~chi_1+ ~chi_30)
