#
#                              ======================
#                              | THE SUSYHIT OUTPUT |
#                              ======================
#
#
#              ------------------------------------------------------
#              |     This is the output of the SUSY-HIT package     |
#              |  created by A.Djouadi, M.Muehlleitner and M.Spira. |
#              |  In case of problems with SUSY-HIT email to        |
#              |           margarete.muehlleitner@cern.ch           |
#              |           michael.spira@psi.ch                     |
#              |           abdelhak.djouadi@cern.ch                 |
#              ------------------------------------------------------
#
#              ------------------------------------------------------
#              |  SUSY Les Houches Accord - MSSM Spectrum + Decays  |
#              |              based on the decay programs           |
#              |                                                    |
#              |                     SDECAY 1.3b                    |
#              |                                                    |
#              |  Authors: M.Muhlleitner, A.Djouadi and Y.Mambrini  |
#              |  Ref.:    Comput.Phys.Commun.168(2005)46           |
#              |           [hep-ph/0311167]                         |
#              |                                                    |
#              |                     HDECAY 3.4                     |
#              |                                                    |
#              |  By: A.Djouadi,J.Kalinowski,M.Muhlleitner,M.Spira  |
#              |  Ref.:    Comput.Phys.Commun.108(1998)56           |
#              |           [hep-ph/9704448]                         |
#              |                                                    |
#              |                                                    |
#              |  If not stated otherwise all DRbar couplings and   |
#              |  soft SUSY breaking masses are given at the scale  |
#              |  Q=  0.50007414E+04
#              |                                                    |
#              ------------------------------------------------------
#
#
BLOCK DCINFO  # Decay Program information
     1   SDECAY/HDECAY # decay calculator
     2   1.3b  /3.4    # version number
#
BLOCK SPINFO  # Spectrum calculator information
     1    SOFTSUSY    # spectrum calculator                
     2    3.4.0       # version number                     
#
BLOCK MODSEL  # Model selection
     1     0   #  nonUniversal                                     
#
BLOCK SMINPUTS  # Standard Model inputs
         1     1.25778332E+02   # alpha_em^-1(M_Z)^MSbar
         2     1.16570000E-05   # G_F [GeV^-2]
         3     1.17200002E-01   # alpha_S(M_Z)^MSbar
         4     9.11876000E+01   # M_Z pole mass
         5     4.25000000E+00   # mb(mb)^MSbar
         6     1.72500000E+02   # mt pole mass
         7     1.77682000E+00   # mtau pole mass
#
BLOCK MINPAR  # Input parameters - minimal models
         3     1.00000000E+01   # tanb                
#
BLOCK EXTPAR  # Input parameters - non-minimal models
         0    -1.00000000E+00   # Set                 
         1     6.00000000E+01   # M_1(MX)             
         2     3.00000000E+03   # M_2(MX)             
         3     1.39219600E+03   # M_3(MX)             
        11     5.00000000E+03   # At(MX)              
        12     5.00000000E+03   # Ab(MX)              
        13     0.00000000E+00   # Atau(MX)            
        23    -8.61931000E+02   # mu(MX)              
        26     3.00000000E+03   # mA(pole)            
        31     5.00000000E+03   # meL(MX)             
        32     5.00000000E+03   # mmuL(MX)            
        33     5.00000000E+03   # mtauL(MX)           
        34     5.00000000E+03   # meR(MX)             
        35     5.00000000E+03   # mmuR(MX)            
        36     5.00000000E+03   # mtauR(MX)           
        41     5.00000000E+03   # mqL1(MX)            
        42     5.00000000E+03   # mqL2(MX)            
        43     5.00000000E+03   # mqL3(MX)            
        44     5.00000000E+03   # muR(MX)             
        45     5.00000000E+03   # mcR(MX)             
        46     5.00000000E+03   # mtR(MX)             
        47     5.00000000E+03   # mdR(MX)             
        48     5.00000000E+03   # msR(MX)             
        49     5.00000000E+03   # mbR(MX)             
#
BLOCK MASS  # Mass Spectrum
# PDG code           mass       particle
        24     8.00942841E+01   # W+
        25     1.24689052E+02   # h
        35     3.00007518E+03   # H
        36     2.99998207E+03   # A
        37     3.00133901E+03   # H+
         5     4.87878001E+00   # b-quark pole mass calculated from mb(mb)_Msbar
   1000001     5.06847760E+03   # ~d_L
   2000001     5.05065616E+03   # ~d_R
   1000002     5.06800255E+03   # ~u_L
   2000002     5.05036747E+03   # ~u_R
   1000003     5.06847760E+03   # ~s_L
   2000003     5.05065616E+03   # ~s_R
   1000004     5.06800255E+03   # ~c_L
   2000004     5.05036747E+03   # ~c_R
   1000005     5.01432349E+03   # ~b_1
   2000005     5.04912798E+03   # ~b_2
   1000006     4.90500232E+03   # ~t_1
   2000006     5.05942532E+03   # ~t_2
   1000011     5.01907736E+03   # ~e_L
   2000011     5.00592775E+03   # ~e_R
   1000012     5.01812839E+03   # ~nu_eL
   1000013     5.01907736E+03   # ~mu_L
   2000013     5.00592775E+03   # ~mu_R
   1000014     5.01812839E+03   # ~nu_muL
   1000015     5.00465127E+03   # ~tau_1
   2000015     5.01873073E+03   # ~tau_2
   1000016     5.01758106E+03   # ~nu_tauL
   1000021     1.70000013E+03   # ~g
   1000022     6.02944711E+01   # ~chi_10
   1000023     8.99733388E+02   # ~chi_20
   1000025    -9.01973372E+02   # ~chi_30
   1000035     3.07423544E+03   # ~chi_40
   1000024     9.00000104E+02   # ~chi_1+
   1000037     3.07440294E+03   # ~chi_2+
#
BLOCK NMIX  # Neutralino Mixing Matrix
  1  1     9.98775533E-01   # N_11
  1  2     1.95983741E-04   # N_12
  1  3    -4.94369377E-02   # N_13
  1  4     1.84003992E-03   # N_14
  2  1     3.36678047E-02   # N_21
  2  2     2.24262704E-02   # N_22
  2  3     7.06575462E-01   # N_23
  2  4     7.06480473E-01   # N_24
  3  1    -3.62457793E-02   # N_31
  3  2     1.52909428E-02   # N_32
  3  3    -7.05890687E-01   # N_33
  3  4     7.07227523E-01   # N_34
  4  1    -3.96701090E-04   # N_41
  4  2     9.99631538E-01   # N_42
  4  3    -5.04428807E-03   # N_43
  4  4    -2.66680845E-02   # N_44
#
BLOCK UMIX  # Chargino Mixing Matrix U
  1  1     7.14608284E-03   # U_11
  1  2     9.99974466E-01   # U_12
  2  1    -9.99974466E-01   # U_21
  2  2     7.14608284E-03   # U_22
#
BLOCK VMIX  # Chargino Mixing Matrix V
  1  1     3.77437047E-02   # V_11
  1  2    -9.99287453E-01   # V_12
  2  1    -9.99287453E-01   # V_21
  2  2    -3.77437047E-02   # V_22
#
BLOCK STOPMIX  # Stop Mixing Matrix
  1  1    -5.07278970E-01   # cos(theta_t)
  1  2     8.61781902E-01   # sin(theta_t)
  2  1    -8.61781902E-01   # -sin(theta_t)
  2  2    -5.07278970E-01   # cos(theta_t)
#
BLOCK SBOTMIX  # Sbottom Mixing Matrix
  1  1     9.97470715E-01   # cos(theta_b)
  1  2    -7.10786376E-02   # sin(theta_b)
  2  1     7.10786376E-02   # -sin(theta_b)
  2  2     9.97470715E-01   # cos(theta_b)
#
BLOCK STAUMIX  # Stau Mixing Matrix
  1  1    -1.02682305E-01   # cos(theta_tau)
  1  2     9.94714202E-01   # sin(theta_tau)
  2  1    -9.94714202E-01   # -sin(theta_tau)
  2  2    -1.02682305E-01   # cos(theta_tau)
#
BLOCK ALPHA  # Higgs mixing
          -1.05466969E-01   # Mixing angle in the neutral Higgs boson sector
#
BLOCK HMIX Q=  5.00074144E+03  # DRbar Higgs Parameters
         1    -8.77624262E+02   # mu(Q)MSSM           
         2     9.47053705E+00   # tan                 
         3     2.41844778E+02   # higgs               
         4     8.54392307E+06   # mA^2(Q)MSSM         
#
BLOCK GAUGE Q=  5.00074144E+03  # The gauge couplings
     1     3.70827459E-01   # gprime(Q) DRbar
     2     6.32687936E-01   # g(Q) DRbar
     3     1.00088181E+00   # g3(Q) DRbar
#
BLOCK AU Q=  5.00074144E+03  # The trilinear couplings
  1  1     5.00000001E+03   # A_u(Q) DRbar
  2  2     5.00000001E+03   # A_c(Q) DRbar
  3  3     5.00000001E+03   # A_t(Q) DRbar
#
BLOCK AD Q=  5.00074144E+03  # The trilinear couplings
  1  1     5.00000000E+03   # A_d(Q) DRbar
  2  2     5.00000000E+03   # A_s(Q) DRbar
  3  3     5.00000001E+03   # A_b(Q) DRbar
#
BLOCK AE Q=  5.00074144E+03  # The trilinear couplings
  1  1     0.00000000E+00   # A_e(Q) DRbar
  2  2     1.28076930E-07   # A_mu(Q) DRbar
  3  3     1.27534117E-07   # A_tau(Q) DRbar
#
BLOCK Yu Q=  5.00074144E+03  # The Yukawa couplings
  1  1     0.00000000E+00   # y_u(Q) DRbar
  2  2     0.00000000E+00   # y_c(Q) DRbar
  3  3     8.18808593E-01   # y_t(Q) DRbar
#
BLOCK Yd Q=  5.00074144E+03  # The Yukawa couplings
  1  1     0.00000000E+00   # y_d(Q) DRbar
  2  2     0.00000000E+00   # y_s(Q) DRbar
  3  3     1.30238808E-01   # y_b(Q) DRbar
#
BLOCK Ye Q=  5.00074144E+03  # The Yukawa couplings
  1  1     0.00000000E+00   # y_e(Q) DRbar
  2  2     0.00000000E+00   # y_mu(Q) DRbar
  3  3     9.69106206E-02   # y_tau(Q) DRbar
#
BLOCK MSOFT Q=  5.00074144E+03  # The soft SUSY breaking masses at the scale Q
         1     6.00000000E+01   # M_1(Q)              
         2     3.00000000E+03   # M_2(Q)              
         3     1.39219600E+03   # M_3(Q)              
        21     7.93212664E+06   # mH1^2(Q)            
        22    -2.04327608E+05   # mH2^2(Q)            
        31     5.00000000E+03   # meL(Q)              
        32     5.00000000E+03   # mmuL(Q)             
        33     5.00000000E+03   # mtauL(Q)            
        34     5.00000000E+03   # meR(Q)              
        35     5.00000000E+03   # mmuR(Q)             
        36     5.00000000E+03   # mtauR(Q)            
        41     5.00000000E+03   # mqL1(Q)             
        42     5.00000000E+03   # mqL2(Q)             
        43     5.00000000E+03   # mqL3(Q)             
        44     5.00000000E+03   # muR(Q)              
        45     5.00000000E+03   # mcR(Q)              
        46     4.99999999E+03   # mtR(Q)              
        47     5.00000000E+03   # mdR(Q)              
        48     5.00000000E+03   # msR(Q)              
        49     5.00000000E+03   # mbR(Q)              
#
#
#
#                             =================
#                             |The decay table|
#                             =================
#
# - The QCD corrections to the decays gluino -> squark  + quark
#                                     squark -> gaugino + quark_prime
#                                     squark -> squark_prime + Higgs
#                                     squark -> gluino  + quark
#   are included.
#
# - The multi-body decays for the inos, stops and sbottoms are included.
#
# - The loop induced decays for the gluino, neutralinos and stops
#   are included.
#
# - The SUSY decays of the top quark are included.
#
#
#         PDG            Width
DECAY         6     1.40279738E+00   # top decays
#          BR         NDA      ID1       ID2
     1.00000000E+00    2           5        24   # BR(t ->  b    W+)
#
#         PDG            Width
DECAY   1000021     2.42444159E-04   # gluino decays
#          BR         NDA      ID1       ID2
     5.07533926E-06    2     1000022        21   # BR(~g -> ~chi_10 g)
     1.49603864E-02    2     1000023        21   # BR(~g -> ~chi_20 g)
     1.46626517E-02    2     1000025        21   # BR(~g -> ~chi_30 g)
#           BR         NDA      ID1       ID2       ID3
     4.17332323E-02    3     1000022         1        -1   # BR(~g -> ~chi_10 d  db)
     1.69893107E-05    3     1000023         1        -1   # BR(~g -> ~chi_20 d  db)
     1.03821342E-05    3     1000025         1        -1   # BR(~g -> ~chi_30 d  db)
     1.42295894E-01    3     1000022         2        -2   # BR(~g -> ~chi_10 u  ub)
     6.14715257E-05    3     1000023         2        -2   # BR(~g -> ~chi_20 u  ub)
     1.30075761E-05    3     1000025         2        -2   # BR(~g -> ~chi_30 u  ub)
     4.17332323E-02    3     1000022         3        -3   # BR(~g -> ~chi_10 s  sb)
     1.69893107E-05    3     1000023         3        -3   # BR(~g -> ~chi_20 s  sb)
     1.03821342E-05    3     1000025         3        -3   # BR(~g -> ~chi_30 s  sb)
     1.42295894E-01    3     1000022         4        -4   # BR(~g -> ~chi_10 c  cb)
     6.14715257E-05    3     1000023         4        -4   # BR(~g -> ~chi_20 c  cb)
     1.30075761E-05    3     1000025         4        -4   # BR(~g -> ~chi_30 c  cb)
     4.23594464E-02    3     1000022         5        -5   # BR(~g -> ~chi_10 b  bb)
     3.60048174E-03    3     1000023         5        -5   # BR(~g -> ~chi_20 b  bb)
     3.53728292E-03    3     1000025         5        -5   # BR(~g -> ~chi_30 b  bb)
     1.31333478E-01    3     1000022         6        -6   # BR(~g -> ~chi_10 t  tb)
     1.04112460E-01    3     1000023         6        -6   # BR(~g -> ~chi_20 t  tb)
     7.78466894E-02    3     1000025         6        -6   # BR(~g -> ~chi_30 t  tb)
     4.70373006E-05    3     1000024         1        -2   # BR(~g -> ~chi_1+ d  ub)
     4.70373006E-05    3    -1000024         2        -1   # BR(~g -> ~chi_1- u  db)
     4.70373006E-05    3     1000024         3        -4   # BR(~g -> ~chi_1+ s  cb)
     4.70373006E-05    3    -1000024         4        -3   # BR(~g -> ~chi_1- c  sb)
     1.19565973E-01    3     1000024         5        -6   # BR(~g -> ~chi_1+ b  tb)
     1.19565973E-01    3    -1000024         6        -5   # BR(~g -> ~chi_1- t  bb)
#
#         PDG            Width
DECAY   1000006     3.68762466E+02   # stop1 decays
#          BR         NDA      ID1       ID2
     2.39565679E-02    2     1000022         6   # BR(~t_1 -> ~chi_10 t )
     8.39200183E-02    2     1000023         6   # BR(~t_1 -> ~chi_20 t )
     8.05273820E-02    2     1000025         6   # BR(~t_1 -> ~chi_30 t )
     5.63190805E-03    2     1000035         6   # BR(~t_1 -> ~chi_40 t )
     1.21845690E-01    2     1000024         5   # BR(~t_1 -> ~chi_1+ b )
     1.12223154E-02    2     1000037         5   # BR(~t_1 -> ~chi_2+ b )
     6.72896118E-01    2     1000021         6   # BR(~t_1 -> ~g      t )
#
#         PDG            Width
DECAY   2000006     3.73663466E+02   # stop2 decays
#          BR         NDA      ID1       ID2
     9.38606091E-03    2     1000022         6   # BR(~t_2 -> ~chi_10 t )
     8.45191019E-02    2     1000023         6   # BR(~t_2 -> ~chi_20 t )
     8.82073030E-02    2     1000025         6   # BR(~t_2 -> ~chi_30 t )
     1.48165997E-02    2     1000035         6   # BR(~t_2 -> ~chi_40 t )
     5.04227447E-02    2     1000024         5   # BR(~t_2 -> ~chi_1+ b )
     2.94851783E-02    2     1000037         5   # BR(~t_2 -> ~chi_2+ b )
     7.19768980E-01    2     1000021         6   # BR(~t_2 -> ~g      t )
     7.71167140E-04    2     1000006        25   # BR(~t_2 -> ~t_1    h )
     2.62286482E-03    2     1000006        23   # BR(~t_2 -> ~t_1    Z )
#
#         PDG            Width
DECAY   1000005     3.49689987E+02   # sbottom1 decays
#          BR         NDA      ID1       ID2
     2.21118248E-03    2     1000022         5   # BR(~b_1 -> ~chi_10 b )
     2.29785229E-03    2     1000023         5   # BR(~b_1 -> ~chi_20 b )
     2.24656506E-03    2     1000025         5   # BR(~b_1 -> ~chi_30 b )
     2.15376804E-02    2     1000035         5   # BR(~b_1 -> ~chi_40 b )
     1.79244063E-01    2    -1000024         6   # BR(~b_1 -> ~chi_1- t )
     4.32653963E-02    2    -1000037         6   # BR(~b_1 -> ~chi_2- t )
     7.47582837E-01    2     1000021         5   # BR(~b_1 -> ~g      b )
     1.61442298E-03    2     1000006       -24   # BR(~b_1 -> ~t_1    W-)
#
#         PDG            Width
DECAY   2000005     2.70526548E+02   # sbottom2 decays
#          BR         NDA      ID1       ID2
     1.08643599E-02    2     1000022         5   # BR(~b_2 -> ~chi_10 b )
     2.97804231E-03    2     1000023         5   # BR(~b_2 -> ~chi_20 b )
     3.05014427E-03    2     1000025         5   # BR(~b_2 -> ~chi_30 b )
     1.42891141E-04    2     1000035         5   # BR(~b_2 -> ~chi_40 b )
     7.06556551E-03    2    -1000024         6   # BR(~b_2 -> ~chi_1- t )
     2.87014222E-04    2    -1000037         6   # BR(~b_2 -> ~chi_2- t )
     9.75568191E-01    2     1000021         5   # BR(~b_2 -> ~g      b )
     4.37916265E-05    2     1000006       -24   # BR(~b_2 -> ~t_1    W-)
#
#         PDG            Width
DECAY   1000002     2.89634003E+02   # sup_L decays
#          BR         NDA      ID1       ID2
     2.57725808E-03    2     1000022         2   # BR(~u_L -> ~chi_10 u)
     5.33699522E-05    2     1000023         2   # BR(~u_L -> ~chi_20 u)
     4.27444521E-06    2     1000025         2   # BR(~u_L -> ~chi_30 u)
     2.70753871E-02    2     1000035         2   # BR(~u_L -> ~chi_40 u)
     1.80752138E-04    2     1000024         1   # BR(~u_L -> ~chi_1+ d)
     5.41150712E-02    2     1000037         1   # BR(~u_L -> ~chi_2+ d)
     9.15993887E-01    2     1000021         2   # BR(~u_L -> ~g      u)
#
#         PDG            Width
DECAY   2000002     2.75815969E+02   # sup_R decays
#          BR         NDA      ID1       ID2
     4.30634903E-02    2     1000022         2   # BR(~u_R -> ~chi_10 u)
     4.59370810E-05    2     1000023         2   # BR(~u_R -> ~chi_20 u)
     5.32239802E-05    2     1000025         2   # BR(~u_R -> ~chi_30 u)
     2.70349838E-09    2     1000035         2   # BR(~u_R -> ~chi_40 u)
     9.56837346E-01    2     1000021         2   # BR(~u_R -> ~g      u)
#
#         PDG            Width
DECAY   1000001     2.89646502E+02   # sdown_L decays
#          BR         NDA      ID1       ID2
     2.56705672E-03    2     1000022         1   # BR(~d_L -> ~chi_10 d)
     1.59362906E-05    2     1000023         1   # BR(~d_L -> ~chi_20 d)
     3.17461316E-05    2     1000025         1   # BR(~d_L -> ~chi_30 d)
     2.70910277E-02    2     1000035         1   # BR(~d_L -> ~chi_40 d)
     6.47974572E-06    2    -1000024         2   # BR(~d_L -> ~chi_1- u)
     5.42039979E-02    2    -1000037         2   # BR(~d_L -> ~chi_2- u)
     9.16083756E-01    2     1000021         1   # BR(~d_L -> ~g      d)
#
#         PDG            Width
DECAY   2000001     2.66910226E+02   # sdown_R decays
#          BR         NDA      ID1       ID2
     1.11257288E-02    2     1000022         1   # BR(~d_R -> ~chi_10 d)
     1.18682260E-05    2     1000023         1   # BR(~d_R -> ~chi_20 d)
     1.37508574E-05    2     1000025         1   # BR(~d_R -> ~chi_30 d)
     6.98559169E-10    2     1000035         1   # BR(~d_R -> ~chi_40 d)
     9.88848651E-01    2     1000021         1   # BR(~d_R -> ~g      d)
#
#         PDG            Width
DECAY   1000004     2.89634003E+02   # scharm_L decays
#          BR         NDA      ID1       ID2
     2.57725808E-03    2     1000022         4   # BR(~c_L -> ~chi_10 c)
     5.33699522E-05    2     1000023         4   # BR(~c_L -> ~chi_20 c)
     4.27444521E-06    2     1000025         4   # BR(~c_L -> ~chi_30 c)
     2.70753871E-02    2     1000035         4   # BR(~c_L -> ~chi_40 c)
     1.80752138E-04    2     1000024         3   # BR(~c_L -> ~chi_1+ s)
     5.41150712E-02    2     1000037         3   # BR(~c_L -> ~chi_2+ s)
     9.15993887E-01    2     1000021         4   # BR(~c_L -> ~g      c)
#
#         PDG            Width
DECAY   2000004     2.75815969E+02   # scharm_R decays
#          BR         NDA      ID1       ID2
     4.30634903E-02    2     1000022         4   # BR(~c_R -> ~chi_10 c)
     4.59370810E-05    2     1000023         4   # BR(~c_R -> ~chi_20 c)
     5.32239802E-05    2     1000025         4   # BR(~c_R -> ~chi_30 c)
     2.70349838E-09    2     1000035         4   # BR(~c_R -> ~chi_40 c)
     9.56837346E-01    2     1000021         4   # BR(~c_R -> ~g      c)
#
#         PDG            Width
DECAY   1000003     2.89646502E+02   # sstrange_L decays
#          BR         NDA      ID1       ID2
     2.56705672E-03    2     1000022         3   # BR(~s_L -> ~chi_10 s)
     1.59362906E-05    2     1000023         3   # BR(~s_L -> ~chi_20 s)
     3.17461316E-05    2     1000025         3   # BR(~s_L -> ~chi_30 s)
     2.70910277E-02    2     1000035         3   # BR(~s_L -> ~chi_40 s)
     6.47974572E-06    2    -1000024         4   # BR(~s_L -> ~chi_1- c)
     5.42039979E-02    2    -1000037         4   # BR(~s_L -> ~chi_2- c)
     9.16083756E-01    2     1000021         3   # BR(~s_L -> ~g      s)
#
#         PDG            Width
DECAY   2000003     2.66910226E+02   # sstrange_R decays
#          BR         NDA      ID1       ID2
     1.11257288E-02    2     1000022         3   # BR(~s_R -> ~chi_10 s)
     1.18682260E-05    2     1000023         3   # BR(~s_R -> ~chi_20 s)
     1.37508574E-05    2     1000025         3   # BR(~s_R -> ~chi_30 s)
     6.98559169E-10    2     1000035         3   # BR(~s_R -> ~chi_40 s)
     9.88848651E-01    2     1000021         3   # BR(~s_R -> ~g      s)
#
#         PDG            Width
DECAY   1000011     3.02821080E+01   # selectron_L decays
#          BR         NDA      ID1       ID2
     2.26247027E-01    2     1000022        11   # BR(~e_L -> ~chi_10 e-)
     1.09884500E-03    2     1000023        11   # BR(~e_L -> ~chi_20 e-)
     2.19032053E-05    2     1000025        11   # BR(~e_L -> ~chi_30 e-)
     2.57347878E-01    2     1000035        11   # BR(~e_L -> ~chi_40 e-)
     6.31386794E-05    2    -1000024        12   # BR(~e_L -> ~chi_1- nu_e)
     5.15221208E-01    2    -1000037        12   # BR(~e_L -> ~chi_2- nu_e)
#
#         PDG            Width
DECAY   2000011     2.73775749E+01   # selectron_R decays
#          BR         NDA      ID1       ID2
     9.97707610E-01    2     1000022        11   # BR(~e_R -> ~chi_10 e-)
     1.06194214E-03    2     1000023        11   # BR(~e_R -> ~chi_20 e-)
     1.23038654E-03    2     1000025        11   # BR(~e_R -> ~chi_30 e-)
     6.10798775E-08    2     1000035        11   # BR(~e_R -> ~chi_40 e-)
#
#         PDG            Width
DECAY   1000013     3.02821080E+01   # smuon_L decays
#          BR         NDA      ID1       ID2
     2.26247027E-01    2     1000022        13   # BR(~mu_L -> ~chi_10 mu-)
     1.09884500E-03    2     1000023        13   # BR(~mu_L -> ~chi_20 mu-)
     2.19032053E-05    2     1000025        13   # BR(~mu_L -> ~chi_30 mu-)
     2.57347878E-01    2     1000035        13   # BR(~mu_L -> ~chi_40 mu-)
     6.31386794E-05    2    -1000024        14   # BR(~mu_L -> ~chi_1- nu_mu)
     5.15221208E-01    2    -1000037        14   # BR(~mu_L -> ~chi_2- nu_mu)
#
#         PDG            Width
DECAY   2000013     2.73775749E+01   # smuon_R decays
#          BR         NDA      ID1       ID2
     9.97707610E-01    2     1000022        13   # BR(~mu_R -> ~chi_10 mu-)
     1.06194214E-03    2     1000023        13   # BR(~mu_R -> ~chi_20 mu-)
     1.23038654E-03    2     1000025        13   # BR(~mu_R -> ~chi_30 mu-)
     6.10798775E-08    2     1000035        13   # BR(~mu_R -> ~chi_40 mu-)
#
#         PDG            Width
DECAY   1000015     2.91495025E+01   # stau_1 decays
#          BR         NDA      ID1       ID2
     9.30366216E-01    2     1000022        15   # BR(~tau_1 -> ~chi_10  tau-)
     1.60485581E-02    2     1000023        15   # BR(~tau_1 -> ~chi_20  tau-)
     1.53763474E-02    2     1000025        15   # BR(~tau_1 -> ~chi_30  tau-)
     2.73249064E-03    2     1000035        15   # BR(~tau_1 -> ~chi_40  tau-)
     3.00060574E-02    2    -1000024        16   # BR(~tau_1 -> ~chi_1-  nu_tau)
     5.47033001E-03    2    -1000037        16   # BR(~tau_1 -> ~chi_2-  nu_tau)
#
#         PDG            Width
DECAY   2000015     3.11250522E+01   # stau_2 decays
#          BR         NDA      ID1       ID2
     2.26312935E-01    2     1000022        15   # BR(~tau_2 -> ~chi_10  tau-)
     1.51072277E-02    2     1000023        15   # BR(~tau_2 -> ~chi_20  tau-)
     1.47765745E-02    2     1000025        15   # BR(~tau_2 -> ~chi_30  tau-)
     2.47735834E-01    2     1000035        15   # BR(~tau_2 -> ~chi_40  tau-)
     8.93631756E-05    2    -1000024        16   # BR(~tau_2 -> ~chi_1-  nu_tau)
     4.95978066E-01    2    -1000037        16   # BR(~tau_2 -> ~chi_2-  nu_tau)
#
#         PDG            Width
DECAY   1000012     3.02850163E+01   # snu_eL decays
#          BR         NDA      ID1       ID2
     2.25879813E-01    2     1000022        12   # BR(~nu_eL -> ~chi_10 nu_e)
     4.48242309E-06    2     1000023        12   # BR(~nu_eL -> ~chi_20 nu_e)
     8.24686412E-04    2     1000025        12   # BR(~nu_eL -> ~chi_30 nu_e)
     2.57397033E-01    2     1000035        12   # BR(~nu_eL -> ~chi_40 nu_e)
     1.76081492E-03    2     1000024        11   # BR(~nu_eL -> ~chi_1+ e-)
     5.14133171E-01    2     1000037        11   # BR(~nu_eL -> ~chi_2+ e-)
#
#         PDG            Width
DECAY   1000014     3.02850163E+01   # snu_muL decays
#          BR         NDA      ID1       ID2
     2.25879813E-01    2     1000022        14   # BR(~nu_muL -> ~chi_10 nu_mu)
     4.48242309E-06    2     1000023        14   # BR(~nu_muL -> ~chi_20 nu_mu)
     8.24686412E-04    2     1000025        14   # BR(~nu_muL -> ~chi_30 nu_mu)
     2.57397033E-01    2     1000035        14   # BR(~nu_muL -> ~chi_40 nu_mu)
     1.76081492E-03    2     1000024        13   # BR(~nu_muL -> ~chi_1+ mu-)
     5.14133171E-01    2     1000037        13   # BR(~nu_muL -> ~chi_2+ mu-)
#
#         PDG            Width
DECAY   1000016     3.11537203E+01   # snu_tauL decays
#          BR         NDA      ID1       ID2
     2.19557317E-01    2     1000022        16   # BR(~nu_tauL -> ~chi_10 nu_tau)
     4.35689482E-06    2     1000023        16   # BR(~nu_tauL -> ~chi_20 nu_tau)
     8.01591374E-04    2     1000025        16   # BR(~nu_tauL -> ~chi_30 nu_tau)
     2.50126783E-01    2     1000035        16   # BR(~nu_tauL -> ~chi_40 nu_tau)
     2.98991181E-02    2     1000024        15   # BR(~nu_tauL -> ~chi_1+ tau-)
     4.99610833E-01    2     1000037        15   # BR(~nu_tauL -> ~chi_2+ tau-)
#
#         PDG            Width
DECAY   1000024     5.46244671E-01   # chargino1+ decays
#          BR         NDA      ID1       ID2
     1.00000000E+00    2     1000022        24   # BR(~chi_1+ -> ~chi_10  W+)
#
#         PDG            Width
DECAY   1000037     2.07698767E+01   # chargino2+ decays
#          BR         NDA      ID1       ID2
     2.53282779E-01    2     1000024        23   # BR(~chi_2+ -> ~chi_1+  Z )
     1.91042718E-04    2     1000022        24   # BR(~chi_2+ -> ~chi_10  W+)
     2.44276687E-01    2     1000023        24   # BR(~chi_2+ -> ~chi_20  W+)
     2.44174454E-01    2     1000025        24   # BR(~chi_2+ -> ~chi_30  W+)
     2.58073557E-01    2     1000024        25   # BR(~chi_2+ -> ~chi_1+  h )
     1.47989928E-06    2     1000022        37   # BR(~chi_2+ -> ~chi_10  H+)
#
#         PDG            Width
DECAY   1000022     0.00000000E+00   # neutralino1 decays
#
#         PDG            Width
DECAY   1000023     5.69035362E-01   # neutralino2 decays
#          BR         NDA      ID1       ID2
     5.35266111E-01    2     1000022        23   # BR(~chi_20 -> ~chi_10   Z )
     4.64733889E-01    2     1000022        25   # BR(~chi_20 -> ~chi_10   h )
#
#         PDG            Width
DECAY   1000025     5.70533726E-01   # neutralino3 decays
#          BR         NDA      ID1       ID2
     4.58710641E-01    2     1000022        23   # BR(~chi_30 -> ~chi_10   Z )
     5.41289359E-01    2     1000022        25   # BR(~chi_30 -> ~chi_10   h )
#
#         PDG            Width
DECAY   1000035     2.07855870E+01   # neutralino4 decays
#          BR         NDA      ID1       ID2
     4.00077347E-05    2     1000022        23   # BR(~chi_40 -> ~chi_10   Z )
     8.03601368E-02    2     1000023        23   # BR(~chi_40 -> ~chi_20   Z )
     1.72227921E-01    2     1000025        23   # BR(~chi_40 -> ~chi_30   Z )
     2.44873379E-01    2     1000024       -24   # BR(~chi_40 -> ~chi_1+   W-)
     2.44873379E-01    2    -1000024        24   # BR(~chi_40 -> ~chi_1-   W+)
     1.50892182E-04    2     1000022        25   # BR(~chi_40 -> ~chi_10   h )
     1.40480758E-06    2     1000022        35   # BR(~chi_40 -> ~chi_10   H )
     1.68214612E-07    2     1000022        36   # BR(~chi_40 -> ~chi_10   A )
     1.76886665E-01    2     1000023        25   # BR(~chi_40 -> ~chi_20   h )
     8.05860465E-02    2     1000025        25   # BR(~chi_40 -> ~chi_30   h )
#
#         PDG            Width
DECAY        25     4.05455718E-03   # h decays
#          BR         NDA      ID1       ID2
     6.10234350E-01    2           5        -5   # BR(h -> b       bb     )
     6.39279761E-02    2         -15        15   # BR(h -> tau+    tau-   )
     2.26328651E-04    2         -13        13   # BR(h -> mu+     mu-    )
     4.79866499E-04    2           3        -3   # BR(h -> s       sb     )
     2.07932348E-02    2           4        -4   # BR(h -> c       cb     )
     6.71639835E-02    2          21        21   # BR(h -> g       g      )
     2.30717616E-03    2          22        22   # BR(h -> gam     gam    )
     1.48057726E-03    2          22        23   # BR(h -> Z       gam    )
     2.08515421E-01    2          24       -24   # BR(h -> W+      W-     )
     2.48088857E-02    2          23        23   # BR(h -> Z       Z      )
     6.21996251E-05    2     1000022   1000022   # BR(h -> ~chi_10 ~chi_10)
#
#         PDG            Width
DECAY        35     8.24098741E+00   # H decays
#          BR         NDA      ID1       ID2
     3.90855529E-01    2           5        -5   # BR(H -> b       bb     )
     6.76122751E-02    2         -15        15   # BR(H -> tau+    tau-   )
     2.39082375E-04    2         -13        13   # BR(H -> mu+     mu-    )
     2.93078446E-04    2           3        -3   # BR(H -> s       sb     )
     1.63892956E-06    2           4        -4   # BR(H -> c       cb     )
     1.63742035E-01    2           6        -6   # BR(H -> t       tb     )
     5.44133764E-05    2          21        21   # BR(H -> g       g      )
     2.37894122E-07    2          22        22   # BR(H -> gam     gam    )
     9.66495929E-08    2          23        22   # BR(H -> Z       gam    )
     7.57986915E-05    2          24       -24   # BR(H -> W+      W-     )
     3.78513709E-05    2          23        23   # BR(H -> Z       Z      )
     2.80530321E-04    2          25        25   # BR(H -> h       h      )
     4.03126739E-24    2          36        36   # BR(H -> A       A      )
     1.30163847E-18    2          23        36   # BR(H -> Z       A      )
     2.29926022E-03    2     1000024  -1000024   # BR(H -> ~chi_1+ ~chi_1-)
     2.16381989E-03    2     1000022   1000022   # BR(H -> ~chi_10 ~chi_10)
     1.59533567E-05    2     1000023   1000023   # BR(H -> ~chi_20 ~chi_20)
     7.54635894E-04    2     1000025   1000025   # BR(H -> ~chi_30 ~chi_30)
     2.23156852E-01    2     1000022   1000023   # BR(H -> ~chi_10 ~chi_20)
     1.47673618E-01    2     1000022   1000025   # BR(H -> ~chi_10 ~chi_30)
     7.43293597E-04    2     1000023   1000025   # BR(H -> ~chi_20 ~chi_30)
#
#         PDG            Width
DECAY        36     8.25503051E+00   # A decays
#          BR         NDA      ID1       ID2
     3.90321918E-01    2           5        -5   # BR(A -> b       bb     )
     6.74990545E-02    2         -15        15   # BR(A -> tau+    tau-   )
     2.38681684E-04    2         -13        13   # BR(A -> mu+     mu-    )
     2.92801197E-04    2           3        -3   # BR(A -> s       sb     )
     1.64281623E-06    2           4        -4   # BR(A -> c       cb     )
     1.64039791E-01    2           6        -6   # BR(A -> t       tb     )
     1.62343512E-04    2          21        21   # BR(A -> g       g      )
     5.87928733E-07    2          22        22   # BR(A -> gam     gam    )
     1.96566503E-07    2          23        22   # BR(A -> Z       gam    )
     7.53834202E-05    2          23        25   # BR(A -> Z       h      )
     3.31060007E-03    2     1000024  -1000024   # BR(A -> ~chi_1+ ~chi_1-)
     2.19801611E-03    2     1000022   1000022   # BR(A -> ~chi_10 ~chi_10)
     1.62733387E-05    2     1000023   1000023   # BR(A -> ~chi_20 ~chi_20)
     1.80556081E-03    2     1000025   1000025   # BR(A -> ~chi_30 ~chi_30)
     1.49688075E-01    2     1000022   1000023   # BR(A -> ~chi_10 ~chi_20)
     2.20072129E-01    2     1000022   1000025   # BR(A -> ~chi_10 ~chi_30)
     2.76945523E-04    2     1000023   1000025   # BR(A -> ~chi_20 ~chi_30)
#
#         PDG            Width
DECAY        37     8.20783332E+00   # H+ decays
#          BR         NDA      ID1       ID2
     6.27290116E-04    2           4        -5   # BR(H+ -> c       bb     )
     6.79178982E-02    2         -15        16   # BR(H+ -> tau+    nu_tau )
     2.40162747E-04    2         -13        14   # BR(H+ -> mu+     nu_mu  )
     4.01463589E-06    2           2        -5   # BR(H+ -> u       bb     )
     1.40919664E-05    2           2        -3   # BR(H+ -> u       sb     )
     2.91422267E-04    2           4        -3   # BR(H+ -> c       sb     )
     5.53618009E-01    2           6        -5   # BR(H+ -> t       bb     )
     7.59687164E-05    2          24        25   # BR(H+ -> W+      h      )
     7.36541318E-13    2          24        36   # BR(H+ -> W+      A      )
     3.76065765E-01    2     1000024   1000022   # BR(H+ -> ~chi_1+ ~chi_10)
     1.12359349E-03    2     1000024   1000023   # BR(H+ -> ~chi_1+ ~chi_20)
     2.17836241E-05    2     1000024   1000025   # BR(H+ -> ~chi_1+ ~chi_30)
