#
#                              ======================
#                              | THE SUSYHIT OUTPUT |
#                              ======================
#
#
#              ------------------------------------------------------
#              |     This is the output of the SUSY-HIT package     |
#              |  created by A.Djouadi, M.Muehlleitner and M.Spira. |
#              |  In case of problems with SUSY-HIT email to        |
#              |           margarete.muehlleitner@cern.ch           |
#              |           michael.spira@psi.ch                     |
#              |           abdelhak.djouadi@cern.ch                 |
#              ------------------------------------------------------
#
#              ------------------------------------------------------
#              |  SUSY Les Houches Accord - MSSM Spectrum + Decays  |
#              |              based on the decay programs           |
#              |                                                    |
#              |                     SDECAY 1.3b                    |
#              |                                                    |
#              |  Authors: M.Muhlleitner, A.Djouadi and Y.Mambrini  |
#              |  Ref.:    Comput.Phys.Commun.168(2005)46           |
#              |           [hep-ph/0311167]                         |
#              |                                                    |
#              |                     HDECAY 3.4                     |
#              |                                                    |
#              |  By: A.Djouadi,J.Kalinowski,M.Muhlleitner,M.Spira  |
#              |  Ref.:    Comput.Phys.Commun.108(1998)56           |
#              |           [hep-ph/9704448]                         |
#              |                                                    |
#              |                                                    |
#              |  If not stated otherwise all DRbar couplings and   |
#              |  soft SUSY breaking masses are given at the scale  |
#              |  Q=  0.50007702E+04
#              |                                                    |
#              ------------------------------------------------------
#
#
BLOCK DCINFO  # Decay Program information
     1   SDECAY/HDECAY # decay calculator
     2   1.3b  /3.4    # version number
#
BLOCK SPINFO  # Spectrum calculator information
     1    SOFTSUSY    # spectrum calculator                
     2    3.4.0       # version number                     
#
BLOCK MODSEL  # Model selection
     1     0   #  nonUniversal                                     
#
BLOCK SMINPUTS  # Standard Model inputs
         1     1.25778332E+02   # alpha_em^-1(M_Z)^MSbar
         2     1.16570000E-05   # G_F [GeV^-2]
         3     1.17200002E-01   # alpha_S(M_Z)^MSbar
         4     9.11876000E+01   # M_Z pole mass
         5     4.25000000E+00   # mb(mb)^MSbar
         6     1.72500000E+02   # mt pole mass
         7     1.77682000E+00   # mtau pole mass
#
BLOCK MINPAR  # Input parameters - minimal models
         3     1.00000000E+01   # tanb                
#
BLOCK EXTPAR  # Input parameters - non-minimal models
         0    -1.00000000E+00   # Set                 
         1     6.00000000E+01   # M_1(MX)             
         2     3.00000000E+03   # M_2(MX)             
         3     1.48349800E+03   # M_3(MX)             
        11     5.00000000E+03   # At(MX)              
        12     5.00000000E+03   # Ab(MX)              
        13     0.00000000E+00   # Atau(MX)            
        23    -1.87289000E+02   # mu(MX)              
        26     3.00000000E+03   # mA(pole)            
        31     5.00000000E+03   # meL(MX)             
        32     5.00000000E+03   # mmuL(MX)            
        33     5.00000000E+03   # mtauL(MX)           
        34     5.00000000E+03   # meR(MX)             
        35     5.00000000E+03   # mmuR(MX)            
        36     5.00000000E+03   # mtauR(MX)           
        41     5.00000000E+03   # mqL1(MX)            
        42     5.00000000E+03   # mqL2(MX)            
        43     5.00000000E+03   # mqL3(MX)            
        44     5.00000000E+03   # muR(MX)             
        45     5.00000000E+03   # mcR(MX)             
        46     5.00000000E+03   # mtR(MX)             
        47     5.00000000E+03   # mdR(MX)             
        48     5.00000000E+03   # msR(MX)             
        49     5.00000000E+03   # mbR(MX)             
#
BLOCK MASS  # Mass Spectrum
# PDG code           mass       particle
        24     8.00904052E+01   # W+
        25     1.24702492E+02   # h
        35     3.00009091E+03   # H
        36     2.99999978E+03   # A
        37     3.00148199E+03   # H+
         5     4.87878001E+00   # b-quark pole mass calculated from mb(mb)_Msbar
   1000001     5.06962111E+03   # ~d_L
   2000001     5.05171214E+03   # ~d_R
   1000002     5.06914457E+03   # ~u_L
   2000002     5.05140139E+03   # ~u_R
   1000003     5.06962111E+03   # ~s_L
   2000003     5.05171214E+03   # ~s_R
   1000004     5.06914457E+03   # ~c_L
   2000004     5.05140139E+03   # ~c_R
   1000005     5.01574246E+03   # ~b_1
   2000005     5.04980242E+03   # ~b_2
   1000006     4.90668774E+03   # ~t_1
   2000006     5.05939517E+03   # ~t_2
   1000011     5.01916491E+03   # ~e_L
   2000011     5.00596049E+03   # ~e_R
   1000012     5.01821208E+03   # ~nu_eL
   1000013     5.01916491E+03   # ~mu_L
   2000013     5.00596049E+03   # ~mu_R
   1000014     5.01821208E+03   # ~nu_muL
   1000015     5.00483300E+03   # ~tau_1
   2000015     5.01863024E+03   # ~tau_2
   1000016     5.01765709E+03   # ~nu_tauL
   1000021     1.80000042E+03   # ~g
   1000022     5.87057345E+01   # ~chi_10
   1000023     2.04232840E+02   # ~chi_20
   1000025    -2.05084369E+02   # ~chi_30
   1000035     3.07431370E+03   # ~chi_40
   1000024     2.00000599E+02   # ~chi_1+
   1000037     3.07448187E+03   # ~chi_2+
#
BLOCK NMIX  # Neutralino Mixing Matrix
  1  1     9.72111068E-01   # N_11
  1  2    -5.01304555E-04   # N_12
  1  3    -2.30095779E-01   # N_13
  1  4    -4.53404142E-02   # N_14
  2  1     1.94549472E-01   # N_21
  2  2     1.71143603E-02   # N_22
  2  3     6.83258031E-01   # N_23
  2  4     7.03573781E-01   # N_24
  3  1    -1.30959566E-01   # N_31
  3  2     1.85842535E-02   # N_32
  3  3    -6.92974207E-01   # N_33
  3  4     7.08724888E-01   # N_34
  4  1    -4.08610762E-04   # N_41
  4  2     9.99680685E-01   # N_42
  4  3     1.06987776E-03   # N_43
  4  4    -2.52431281E-02   # N_44
#
BLOCK UMIX  # Chargino Mixing Matrix U
  1  1    -1.50909142E-03   # U_11
  1  2     9.99998861E-01   # U_12
  2  1    -9.99998861E-01   # U_21
  2  2    -1.50909142E-03   # U_22
#
BLOCK VMIX  # Chargino Mixing Matrix V
  1  1     3.57089219E-02   # V_11
  1  2    -9.99362233E-01   # V_12
  2  1    -9.99362233E-01   # V_21
  2  2    -3.57089219E-02   # V_22
#
BLOCK STOPMIX  # Stop Mixing Matrix
  1  1    -5.03123872E-01   # cos(theta_t)
  1  2     8.64214308E-01   # sin(theta_t)
  2  1    -8.64214308E-01   # -sin(theta_t)
  2  2    -5.03123872E-01   # cos(theta_t)
#
BLOCK SBOTMIX  # Sbottom Mixing Matrix
  1  1     9.99394258E-01   # cos(theta_b)
  1  2    -3.48011074E-02   # sin(theta_b)
  2  1     3.48011074E-02   # -sin(theta_b)
  2  2     9.99394258E-01   # cos(theta_b)
#
BLOCK STAUMIX  # Stau Mixing Matrix
  1  1    -2.21875912E-02   # cos(theta_tau)
  1  2     9.99753825E-01   # sin(theta_tau)
  2  1    -9.99753825E-01   # -sin(theta_tau)
  2  2    -2.21875912E-02   # cos(theta_tau)
#
BLOCK ALPHA  # Higgs mixing
          -1.05487752E-01   # Mixing angle in the neutral Higgs boson sector
#
BLOCK HMIX Q=  5.00077021E+03  # DRbar Higgs Parameters
         1    -1.90686809E+02   # mu(Q)MSSM           
         2     9.46936060E+00   # tan                 
         3     2.41671804E+02   # higgs               
         4     8.78960296E+06   # mA^2(Q)MSSM         
#
BLOCK GAUGE Q=  5.00077021E+03  # The gauge couplings
     1     3.71163144E-01   # gprime(Q) DRbar
     2     6.34370398E-01   # g(Q) DRbar
     3     1.00005149E+00   # g3(Q) DRbar
#
BLOCK AU Q=  5.00077021E+03  # The trilinear couplings
  1  1     5.00000001E+03   # A_u(Q) DRbar
  2  2     5.00000001E+03   # A_c(Q) DRbar
  3  3     5.00000002E+03   # A_t(Q) DRbar
#
BLOCK AD Q=  5.00077021E+03  # The trilinear couplings
  1  1     5.00000001E+03   # A_d(Q) DRbar
  2  2     5.00000001E+03   # A_s(Q) DRbar
  3  3     5.00000001E+03   # A_b(Q) DRbar
#
BLOCK AE Q=  5.00077021E+03  # The trilinear couplings
  1  1     0.00000000E+00   # A_e(Q) DRbar
  2  2     1.41151481E-07   # A_mu(Q) DRbar
  3  3     1.40655350E-07   # A_tau(Q) DRbar
#
BLOCK Yu Q=  5.00077021E+03  # The Yukawa couplings
  1  1     0.00000000E+00   # y_u(Q) DRbar
  2  2     0.00000000E+00   # y_c(Q) DRbar
  3  3     8.19781217E-01   # y_t(Q) DRbar
#
BLOCK Yd Q=  5.00077021E+03  # The Yukawa couplings
  1  1     0.00000000E+00   # y_d(Q) DRbar
  2  2     0.00000000E+00   # y_s(Q) DRbar
  3  3     1.29639341E-01   # y_b(Q) DRbar
#
BLOCK Ye Q=  5.00077021E+03  # The Yukawa couplings
  1  1     0.00000000E+00   # y_e(Q) DRbar
  2  2     0.00000000E+00   # y_mu(Q) DRbar
  3  3     9.73549295E-02   # y_tau(Q) DRbar
#
BLOCK MSOFT Q=  5.00077021E+03  # The soft SUSY breaking masses at the scale Q
         1     6.00000000E+01   # M_1(Q)              
         2     3.00000000E+03   # M_2(Q)              
         3     1.48349800E+03   # M_3(Q)              
        21     8.69776835E+06   # mH1^2(Q)            
        22     5.42475860E+05   # mH2^2(Q)            
        31     5.00000000E+03   # meL(Q)              
        32     5.00000000E+03   # mmuL(Q)             
        33     5.00000000E+03   # mtauL(Q)            
        34     5.00000000E+03   # meR(Q)              
        35     5.00000000E+03   # mmuR(Q)             
        36     5.00000000E+03   # mtauR(Q)            
        41     5.00000000E+03   # mqL1(Q)             
        42     5.00000000E+03   # mqL2(Q)             
        43     5.00000000E+03   # mqL3(Q)             
        44     5.00000000E+03   # muR(Q)              
        45     5.00000000E+03   # mcR(Q)              
        46     4.99999999E+03   # mtR(Q)              
        47     5.00000000E+03   # mdR(Q)              
        48     5.00000000E+03   # msR(Q)              
        49     5.00000000E+03   # mbR(Q)              
#
#
#
#                             =================
#                             |The decay table|
#                             =================
#
# - The QCD corrections to the decays gluino -> squark  + quark
#                                     squark -> gaugino + quark_prime
#                                     squark -> squark_prime + Higgs
#                                     squark -> gluino  + quark
#   are included.
#
# - The multi-body decays for the inos, stops and sbottoms are included.
#
# - The loop induced decays for the gluino, neutralinos and stops
#   are included.
#
# - The SUSY decays of the top quark are included.
#
#
#         PDG            Width
DECAY         6     1.41043856E+00   # top decays
#          BR         NDA      ID1       ID2
     1.00000000E+00    2           5        24   # BR(t ->  b    W+)
#
#         PDG            Width
DECAY   1000021     1.41297655E-03   # gluino decays
#          BR         NDA      ID1       ID2
     2.66129314E-05    2     1000022        21   # BR(~g -> ~chi_10 g)
     7.78631851E-03    2     1000023        21   # BR(~g -> ~chi_20 g)
     7.59330694E-03    2     1000025        21   # BR(~g -> ~chi_30 g)
#           BR         NDA      ID1       ID2       ID3
     9.11057755E-03    3     1000022         1        -1   # BR(~g -> ~chi_10 d  db)
     3.22204504E-04    3     1000023         1        -1   # BR(~g -> ~chi_20 d  db)
     1.61087485E-04    3     1000025         1        -1   # BR(~g -> ~chi_30 d  db)
     3.10072946E-02    3     1000022         2        -2   # BR(~g -> ~chi_10 u  ub)
     1.35569323E-03    3     1000023         2        -2   # BR(~g -> ~chi_20 u  ub)
     3.73168361E-04    3     1000025         2        -2   # BR(~g -> ~chi_30 u  ub)
     9.11057755E-03    3     1000022         3        -3   # BR(~g -> ~chi_10 s  sb)
     3.22204504E-04    3     1000023         3        -3   # BR(~g -> ~chi_20 s  sb)
     1.61087485E-04    3     1000025         3        -3   # BR(~g -> ~chi_30 s  sb)
     3.10072946E-02    3     1000022         4        -4   # BR(~g -> ~chi_10 c  cb)
     1.35569323E-03    3     1000023         4        -4   # BR(~g -> ~chi_20 c  cb)
     3.73168361E-04    3     1000025         4        -4   # BR(~g -> ~chi_30 c  cb)
     9.91735464E-03    3     1000022         5        -5   # BR(~g -> ~chi_10 b  bb)
     5.50071169E-03    3     1000023         5        -5   # BR(~g -> ~chi_20 b  bb)
     5.49239975E-03    3     1000025         5        -5   # BR(~g -> ~chi_30 b  bb)
     2.74519512E-02    3     1000022         6        -6   # BR(~g -> ~chi_10 t  tb)
     2.12483063E-01    3     1000023         6        -6   # BR(~g -> ~chi_20 t  tb)
     1.95356739E-01    3     1000025         6        -6   # BR(~g -> ~chi_30 t  tb)
     5.45672662E-05    3     1000024         1        -2   # BR(~g -> ~chi_1+ d  ub)
     5.45672662E-05    3    -1000024         2        -1   # BR(~g -> ~chi_1- u  db)
     5.45672662E-05    3     1000024         3        -4   # BR(~g -> ~chi_1+ s  cb)
     5.45672662E-05    3    -1000024         4        -3   # BR(~g -> ~chi_1- c  sb)
     2.21756611E-01    3     1000024         5        -6   # BR(~g -> ~chi_1+ b  tb)
     2.21756611E-01    3    -1000024         6        -5   # BR(~g -> ~chi_1- t  bb)
#
#         PDG            Width
DECAY   1000006     3.68281076E+02   # stop1 decays
#          BR         NDA      ID1       ID2
     2.10340147E-02    2     1000022         6   # BR(~t_1 -> ~chi_10 t )
     9.51250083E-02    2     1000023         6   # BR(~t_1 -> ~chi_20 t )
     8.42996437E-02    2     1000025         6   # BR(~t_1 -> ~chi_30 t )
     5.52624836E-03    2     1000035         6   # BR(~t_1 -> ~chi_40 t )
     1.31615259E-01    2     1000024         5   # BR(~t_1 -> ~chi_1+ b )
     1.10171056E-02    2     1000037         5   # BR(~t_1 -> ~chi_2+ b )
     6.51382720E-01    2     1000021         6   # BR(~t_1 -> ~g      t )
#
#         PDG            Width
DECAY   2000006     3.71046406E+02   # stop2 decays
#          BR         NDA      ID1       ID2
     1.14721174E-02    2     1000022         6   # BR(~t_2 -> ~chi_10 t )
     8.50770837E-02    2     1000023         6   # BR(~t_2 -> ~chi_20 t )
     9.79750812E-02    2     1000025         6   # BR(~t_2 -> ~chi_30 t )
     1.51495115E-02    2     1000035         6   # BR(~t_2 -> ~chi_40 t )
     5.29226112E-02    2     1000024         5   # BR(~t_2 -> ~chi_1+ b )
     3.01695565E-02    2     1000037         5   # BR(~t_2 -> ~chi_2+ b )
     7.03979222E-01    2     1000021         6   # BR(~t_2 -> ~g      t )
     7.55620611E-04    2     1000006        25   # BR(~t_2 -> ~t_1    h )
     2.49919578E-03    2     1000006        23   # BR(~t_2 -> ~t_1    Z )
#
#         PDG            Width
DECAY   1000005     3.46528873E+02   # sbottom1 decays
#          BR         NDA      ID1       ID2
     2.43509274E-03    2     1000022         5   # BR(~b_1 -> ~chi_10 b )
     2.22193818E-03    2     1000023         5   # BR(~b_1 -> ~chi_20 b )
     2.37140662E-03    2     1000025         5   # BR(~b_1 -> ~chi_30 b )
     2.19599188E-02    2     1000035         5   # BR(~b_1 -> ~chi_40 b )
     1.93731869E-01    2    -1000024         6   # BR(~b_1 -> ~chi_1- t )
     4.40845293E-02    2    -1000037         6   # BR(~b_1 -> ~chi_2- t )
     7.31597595E-01    2     1000021         5   # BR(~b_1 -> ~g      b )
     1.59765100E-03    2     1000006       -24   # BR(~b_1 -> ~t_1    W-)
#
#         PDG            Width
DECAY   2000005     2.62454215E+02   # sbottom2 decays
#          BR         NDA      ID1       ID2
     1.08775701E-02    2     1000022         5   # BR(~b_2 -> ~chi_10 b )
     3.53944402E-03    2     1000023         5   # BR(~b_2 -> ~chi_20 b )
     3.39155470E-03    2     1000025         5   # BR(~b_2 -> ~chi_30 b )
     3.10168443E-05    2     1000035         5   # BR(~b_2 -> ~chi_40 b )
     6.72978944E-03    2    -1000024         6   # BR(~b_2 -> ~chi_1- t )
     6.22864407E-05    2    -1000037         6   # BR(~b_2 -> ~chi_2- t )
     9.75357928E-01    2     1000021         5   # BR(~b_2 -> ~g      b )
     1.04109072E-05    2     1000006       -24   # BR(~b_2 -> ~t_1    W-)
#
#         PDG            Width
DECAY   1000002     2.81913906E+02   # sup_L decays
#          BR         NDA      ID1       ID2
     2.49409161E-03    2     1000022         2   # BR(~u_L -> ~chi_10 u)
     2.10881908E-04    2     1000023         2   # BR(~u_L -> ~chi_20 u)
     3.36675216E-06    2     1000025         2   # BR(~u_L -> ~chi_30 u)
     2.79885888E-02    2     1000035         2   # BR(~u_L -> ~chi_40 u)
     1.77438490E-04    2     1000024         1   # BR(~u_L -> ~chi_1+ d)
     5.59433644E-02    2     1000037         1   # BR(~u_L -> ~chi_2+ d)
     9.13182268E-01    2     1000021         2   # BR(~u_L -> ~g      u)
#
#         PDG            Width
DECAY   2000002     2.67940784E+02   # sup_R decays
#          BR         NDA      ID1       ID2
     4.20602863E-02    2     1000022         2   # BR(~u_R -> ~chi_10 u)
     1.68005437E-03    2     1000023         2   # BR(~u_R -> ~chi_20 u)
     7.61248555E-04    2     1000025         2   # BR(~u_R -> ~chi_30 u)
     2.95994558E-09    2     1000035         2   # BR(~u_R -> ~chi_40 u)
     9.55498408E-01    2     1000021         2   # BR(~u_R -> ~g      u)
#
#         PDG            Width
DECAY   1000001     2.81925972E+02   # sdown_L decays
#          BR         NDA      ID1       ID2
     2.52074196E-03    2     1000022         1   # BR(~d_L -> ~chi_10 d)
     3.01822150E-05    2     1000023         1   # BR(~d_L -> ~chi_20 d)
     1.35455298E-04    2     1000025         1   # BR(~d_L -> ~chi_30 d)
     2.80050326E-02    2     1000035         1   # BR(~d_L -> ~chi_40 d)
     3.16919010E-07    2    -1000024         2   # BR(~d_L -> ~chi_1- u)
     5.60297056E-02    2    -1000037         2   # BR(~d_L -> ~chi_2- u)
     9.13278565E-01    2     1000021         1   # BR(~d_L -> ~g      d)
#
#         PDG            Width
DECAY   2000001     2.59023038E+02   # sdown_R decays
#          BR         NDA      ID1       ID2
     1.08777642E-02    2     1000022         1   # BR(~d_R -> ~chi_10 d)
     4.34501115E-04    2     1000023         1   # BR(~d_R -> ~chi_20 d)
     1.96876573E-04    2     1000025         1   # BR(~d_R -> ~chi_30 d)
     7.65620090E-10    2     1000035         1   # BR(~d_R -> ~chi_40 d)
     9.88490857E-01    2     1000021         1   # BR(~d_R -> ~g      d)
#
#         PDG            Width
DECAY   1000004     2.81913906E+02   # scharm_L decays
#          BR         NDA      ID1       ID2
     2.49409161E-03    2     1000022         4   # BR(~c_L -> ~chi_10 c)
     2.10881908E-04    2     1000023         4   # BR(~c_L -> ~chi_20 c)
     3.36675216E-06    2     1000025         4   # BR(~c_L -> ~chi_30 c)
     2.79885888E-02    2     1000035         4   # BR(~c_L -> ~chi_40 c)
     1.77438490E-04    2     1000024         3   # BR(~c_L -> ~chi_1+ s)
     5.59433644E-02    2     1000037         3   # BR(~c_L -> ~chi_2+ s)
     9.13182268E-01    2     1000021         4   # BR(~c_L -> ~g      c)
#
#         PDG            Width
DECAY   2000004     2.67940784E+02   # scharm_R decays
#          BR         NDA      ID1       ID2
     4.20602863E-02    2     1000022         4   # BR(~c_R -> ~chi_10 c)
     1.68005437E-03    2     1000023         4   # BR(~c_R -> ~chi_20 c)
     7.61248555E-04    2     1000025         4   # BR(~c_R -> ~chi_30 c)
     2.95994558E-09    2     1000035         4   # BR(~c_R -> ~chi_40 c)
     9.55498408E-01    2     1000021         4   # BR(~c_R -> ~g      c)
#
#         PDG            Width
DECAY   1000003     2.81925972E+02   # sstrange_L decays
#          BR         NDA      ID1       ID2
     2.52074196E-03    2     1000022         3   # BR(~s_L -> ~chi_10 s)
     3.01822150E-05    2     1000023         3   # BR(~s_L -> ~chi_20 s)
     1.35455298E-04    2     1000025         3   # BR(~s_L -> ~chi_30 s)
     2.80050326E-02    2     1000035         3   # BR(~s_L -> ~chi_40 s)
     3.16919010E-07    2    -1000024         4   # BR(~s_L -> ~chi_1- c)
     5.60297056E-02    2    -1000037         4   # BR(~s_L -> ~chi_2- c)
     9.13278565E-01    2     1000021         3   # BR(~s_L -> ~g      s)
#
#         PDG            Width
DECAY   2000003     2.59023038E+02   # sstrange_R decays
#          BR         NDA      ID1       ID2
     1.08777642E-02    2     1000022         3   # BR(~s_R -> ~chi_10 s)
     4.34501115E-04    2     1000023         3   # BR(~s_R -> ~chi_20 s)
     1.96876573E-04    2     1000025         3   # BR(~s_R -> ~chi_30 s)
     7.65620090E-10    2     1000035         3   # BR(~s_R -> ~chi_40 s)
     9.88490857E-01    2     1000021         3   # BR(~s_R -> ~g      s)
#
#         PDG            Width
DECAY   1000011     3.04183622E+01   # selectron_L decays
#          BR         NDA      ID1       ID2
     2.13241890E-01    2     1000022        11   # BR(~e_L -> ~chi_10 e-)
     1.12877561E-02    2     1000023        11   # BR(~e_L -> ~chi_20 e-)
     2.21751369E-03    2     1000025        11   # BR(~e_L -> ~chi_30 e-)
     2.57580990E-01    2     1000035        11   # BR(~e_L -> ~chi_40 e-)
     2.99890320E-06    2    -1000024        12   # BR(~e_L -> ~chi_1- nu_e)
     5.15668851E-01    2    -1000037        12   # BR(~e_L -> ~chi_2- nu_e)
#
#         PDG            Width
DECAY   2000011     2.74273992E+01   # selectron_R decays
#          BR         NDA      ID1       ID2
     9.45159128E-01    2     1000022        11   # BR(~e_R -> ~chi_10 e-)
     3.77403381E-02    2     1000023        11   # BR(~e_R -> ~chi_20 e-)
     1.71004692E-02    2     1000025        11   # BR(~e_R -> ~chi_30 e-)
     6.47992800E-08    2     1000035        11   # BR(~e_R -> ~chi_40 e-)
#
#         PDG            Width
DECAY   1000013     3.04183622E+01   # smuon_L decays
#          BR         NDA      ID1       ID2
     2.13241890E-01    2     1000022        13   # BR(~mu_L -> ~chi_10 mu-)
     1.12877561E-02    2     1000023        13   # BR(~mu_L -> ~chi_20 mu-)
     2.21751369E-03    2     1000025        13   # BR(~mu_L -> ~chi_30 mu-)
     2.57580990E-01    2     1000035        13   # BR(~mu_L -> ~chi_40 mu-)
     2.99890320E-06    2    -1000024        14   # BR(~mu_L -> ~chi_1- nu_mu)
     5.15668851E-01    2    -1000037        14   # BR(~mu_L -> ~chi_2- nu_mu)
#
#         PDG            Width
DECAY   2000013     2.74273992E+01   # smuon_R decays
#          BR         NDA      ID1       ID2
     9.45159128E-01    2     1000022        13   # BR(~mu_R -> ~chi_10 mu-)
     3.77403381E-02    2     1000023        13   # BR(~mu_R -> ~chi_20 mu-)
     1.71004692E-02    2     1000025        13   # BR(~mu_R -> ~chi_30 mu-)
     6.47992800E-08    2     1000035        13   # BR(~mu_R -> ~chi_40 mu-)
#
#         PDG            Width
DECAY   1000015     2.93031951E+01   # stau_1 decays
#          BR         NDA      ID1       ID2
     8.86697108E-01    2     1000022        15   # BR(~tau_1 -> ~chi_10  tau-)
     4.98544023E-02    2     1000023        15   # BR(~tau_1 -> ~chi_20  tau-)
     3.09767456E-02    2     1000025        15   # BR(~tau_1 -> ~chi_30  tau-)
     1.33161004E-04    2     1000035        15   # BR(~tau_1 -> ~chi_40  tau-)
     3.20721490E-02    2    -1000024        16   # BR(~tau_1 -> ~chi_1-  nu_tau)
     2.66434488E-04    2    -1000037        16   # BR(~tau_1 -> ~chi_2-  nu_tau)
#
#         PDG            Width
DECAY   2000015     3.13517480E+01   # stau_2 decays
#          BR         NDA      ID1       ID2
     2.07967018E-01    2     1000022        15   # BR(~tau_2 -> ~chi_10  tau-)
     2.54127815E-02    2     1000023        15   # BR(~tau_2 -> ~chi_20  tau-)
     1.70091199E-02    2     1000025        15   # BR(~tau_2 -> ~chi_30  tau-)
     2.49696248E-01    2     1000035        15   # BR(~tau_2 -> ~chi_40  tau-)
     3.08453824E-05    2    -1000024        16   # BR(~tau_2 -> ~chi_1-  nu_tau)
     4.99883987E-01    2    -1000037        16   # BR(~tau_2 -> ~chi_2-  nu_tau)
#
#         PDG            Width
DECAY   1000012     3.04213036E+01   # snu_eL decays
#          BR         NDA      ID1       ID2
     2.13933672E-01    2     1000022        12   # BR(~nu_eL -> ~chi_10 nu_e)
     6.15601296E-03    2     1000023        12   # BR(~nu_eL -> ~chi_20 nu_e)
     5.96547904E-03    2     1000025        12   # BR(~nu_eL -> ~chi_30 nu_e)
     2.57636097E-01    2     1000035        12   # BR(~nu_eL -> ~chi_40 nu_e)
     1.67864883E-03    2     1000024        11   # BR(~nu_eL -> ~chi_1+ e-)
     5.14630090E-01    2     1000037        11   # BR(~nu_eL -> ~chi_2+ e-)
#
#         PDG            Width
DECAY   1000014     3.04213036E+01   # snu_muL decays
#          BR         NDA      ID1       ID2
     2.13933672E-01    2     1000022        14   # BR(~nu_muL -> ~chi_10 nu_mu)
     6.15601296E-03    2     1000023        14   # BR(~nu_muL -> ~chi_20 nu_mu)
     5.96547904E-03    2     1000025        14   # BR(~nu_muL -> ~chi_30 nu_mu)
     2.57636097E-01    2     1000035        14   # BR(~nu_muL -> ~chi_40 nu_mu)
     1.67864883E-03    2     1000024        13   # BR(~nu_muL -> ~chi_1+ mu-)
     5.14630090E-01    2     1000037        13   # BR(~nu_muL -> ~chi_2+ mu-)
#
#         PDG            Width
DECAY   1000016     3.13548172E+01   # snu_tauL decays
#          BR         NDA      ID1       ID2
     2.07541349E-01    2     1000022        16   # BR(~nu_tauL -> ~chi_10 nu_tau)
     5.97206768E-03    2     1000023        16   # BR(~nu_tauL -> ~chi_20 nu_tau)
     5.78722699E-03    2     1000025        16   # BR(~nu_tauL -> ~chi_30 nu_tau)
     2.49871525E-01    2     1000035        16   # BR(~nu_tauL -> ~chi_40 nu_tau)
     3.17076890E-02    2     1000024        15   # BR(~nu_tauL -> ~chi_1+ tau-)
     4.99120142E-01    2     1000037        15   # BR(~nu_tauL -> ~chi_2+ tau-)
#
#         PDG            Width
DECAY   1000024     8.36105145E-02   # chargino1+ decays
#          BR         NDA      ID1       ID2
     1.00000000E+00    2     1000022        24   # BR(~chi_1+ -> ~chi_10  W+)
#
#         PDG            Width
DECAY   1000037     2.33042600E+01   # chargino2+ decays
#          BR         NDA      ID1       ID2
     2.53779009E-01    2     1000024        23   # BR(~chi_2+ -> ~chi_1+  Z )
     7.55916019E-04    2     1000022        24   # BR(~chi_2+ -> ~chi_10  W+)
     2.44853170E-01    2     1000023        24   # BR(~chi_2+ -> ~chi_20  W+)
     2.44878241E-01    2     1000025        24   # BR(~chi_2+ -> ~chi_30  W+)
     2.55696158E-01    2     1000024        25   # BR(~chi_2+ -> ~chi_1+  h )
     3.75068529E-05    2     1000022        37   # BR(~chi_2+ -> ~chi_10  H+)
#
#         PDG            Width
DECAY   1000022     0.00000000E+00   # neutralino1 decays
#
#         PDG            Width
DECAY   1000023     6.59139342E-02   # neutralino2 decays
#          BR         NDA      ID1       ID2
     5.81215991E-01    2     1000022        23   # BR(~chi_20 -> ~chi_10   Z )
     4.18784009E-01    2     1000022        25   # BR(~chi_20 -> ~chi_10   h )
#
#         PDG            Width
DECAY   1000025     4.88563012E-02   # neutralino3 decays
#          BR         NDA      ID1       ID2
     9.01643308E-01    2     1000022        23   # BR(~chi_30 -> ~chi_10   Z )
     9.83566920E-02    2     1000022        25   # BR(~chi_30 -> ~chi_10   h )
#
#         PDG            Width
DECAY   1000035     2.33065041E+01   # neutralino4 decays
#          BR         NDA      ID1       ID2
     7.78306161E-04    2     1000022        23   # BR(~chi_40 -> ~chi_10   Z )
     1.35969190E-01    2     1000023        23   # BR(~chi_40 -> ~chi_20   Z )
     1.16848762E-01    2     1000025        23   # BR(~chi_40 -> ~chi_30   Z )
     2.45456721E-01    2     1000024       -24   # BR(~chi_40 -> ~chi_1+   W-)
     2.45456721E-01    2    -1000024        24   # BR(~chi_40 -> ~chi_1-   W+)
     1.15605915E-05    2     1000022        25   # BR(~chi_40 -> ~chi_10   h )
     3.59824755E-05    2     1000022        35   # BR(~chi_40 -> ~chi_10   H )
     3.92828946E-06    2     1000022        36   # BR(~chi_40 -> ~chi_10   A )
     1.18318037E-01    2     1000023        25   # BR(~chi_40 -> ~chi_20   h )
     1.37120791E-01    2     1000025        25   # BR(~chi_40 -> ~chi_30   h )
#
#         PDG            Width
DECAY        25     4.07762089E-03   # h decays
#          BR         NDA      ID1       ID2
     6.10797028E-01    2           5        -5   # BR(h -> b       bb     )
     6.35825962E-02    2         -15        15   # BR(h -> tau+    tau-   )
     2.25105819E-04    2         -13        13   # BR(h -> mu+     mu-    )
     4.77262883E-04    2           3        -3   # BR(h -> s       sb     )
     2.06773837E-02    2           4        -4   # BR(h -> c       cb     )
     6.68056959E-02    2          21        21   # BR(h -> g       g      )
     2.29214731E-03    2          22        22   # BR(h -> gam     gam    )
     1.47378686E-03    2          22        23   # BR(h -> Z       gam    )
     2.07756977E-01    2          24       -24   # BR(h -> W+      W-     )
     2.47103329E-02    2          23        23   # BR(h -> Z       Z      )
     1.20168359E-03    2     1000022   1000022   # BR(h -> ~chi_10 ~chi_10)
#
#         PDG            Width
DECAY        35     8.81780253E+00   # H decays
#          BR         NDA      ID1       ID2
     3.59341601E-01    2           5        -5   # BR(H -> b       bb     )
     6.31739573E-02    2         -15        15   # BR(H -> tau+    tau-   )
     2.23388131E-04    2         -13        13   # BR(H -> mu+     mu-    )
     2.73839486E-04    2           3        -3   # BR(H -> s       sb     )
     1.53233191E-06    2           4        -4   # BR(H -> c       cb     )
     1.53092104E-01    2           6        -6   # BR(H -> t       tb     )
     5.09428459E-05    2          21        21   # BR(H -> g       g      )
     1.46694805E-07    2          22        22   # BR(H -> gam     gam    )
     9.02798688E-08    2          23        22   # BR(H -> Z       gam    )
     7.50596335E-05    2          24       -24   # BR(H -> W+      W-     )
     3.74822946E-05    2          23        23   # BR(H -> Z       Z      )
     2.66851940E-04    2          25        25   # BR(H -> h       h      )
    -4.70819425E-24    2          36        36   # BR(H -> A       A      )
     1.09763843E-18    2          23        36   # BR(H -> Z       A      )
     3.48305402E-03    2     1000024  -1000024   # BR(H -> ~chi_1+ ~chi_1-)
     4.37268059E-02    2     1000022   1000022   # BR(H -> ~chi_10 ~chi_10)
     1.24612932E-02    2     1000023   1000023   # BR(H -> ~chi_20 ~chi_20)
     8.48838168E-03    2     1000025   1000025   # BR(H -> ~chi_30 ~chi_30)
     2.02364197E-01    2     1000022   1000023   # BR(H -> ~chi_10 ~chi_20)
     1.31733938E-01    2     1000022   1000025   # BR(H -> ~chi_10 ~chi_30)
     2.12053336E-02    2     1000023   1000025   # BR(H -> ~chi_20 ~chi_30)
#
#         PDG            Width
DECAY        36     8.82279840E+00   # A decays
#          BR         NDA      ID1       ID2
     3.59261263E-01    2           5        -5   # BR(A -> b       bb     )
     6.31400142E-02    2         -15        15   # BR(A -> tau+    tau-   )
     2.23267793E-04    2         -13        13   # BR(A -> mu+     mu-    )
     2.73892124E-04    2           3        -3   # BR(A -> s       sb     )
     1.53748696E-06    2           4        -4   # BR(A -> c       cb     )
     1.53522373E-01    2           6        -6   # BR(A -> t       tb     )
     1.51918193E-04    2          21        21   # BR(A -> g       g      )
     5.33561996E-07    2          22        22   # BR(A -> gam     gam    )
     1.83781427E-07    2          23        22   # BR(A -> Z       gam    )
     7.47333118E-05    2          23        25   # BR(A -> Z       h      )
     3.60806176E-03    2     1000024  -1000024   # BR(A -> ~chi_1+ ~chi_1-)
     4.02696995E-02    2     1000022   1000022   # BR(A -> ~chi_10 ~chi_10)
     8.19547928E-03    2     1000023   1000023   # BR(A -> ~chi_20 ~chi_20)
     1.33480594E-02    2     1000025   1000025   # BR(A -> ~chi_30 ~chi_30)
     1.28552570E-01    2     1000022   1000023   # BR(A -> ~chi_10 ~chi_20)
     2.08598867E-01    2     1000022   1000025   # BR(A -> ~chi_10 ~chi_30)
     2.07775468E-02    2     1000023   1000025   # BR(A -> ~chi_20 ~chi_30)
#
#         PDG            Width
DECAY        37     8.75568114E+00   # H+ decays
#          BR         NDA      ID1       ID2
     5.74905426E-04    2           4        -5   # BR(H+ -> c       bb     )
     6.36554530E-02    2         -15        16   # BR(H+ -> tau+    nu_tau )
     2.25090423E-04    2         -13        14   # BR(H+ -> mu+     nu_mu  )
     3.67937527E-06    2           2        -5   # BR(H+ -> u       bb     )
     1.32074901E-05    2           2        -3   # BR(H+ -> u       sb     )
     2.73132010E-04    2           4        -3   # BR(H+ -> c       sb     )
     5.10824880E-01    2           6        -5   # BR(H+ -> t       bb     )
     7.54664937E-05    2          24        25   # BR(H+ -> W+      h      )
     1.07366381E-12    2          24        36   # BR(H+ -> W+      A      )
     3.98316301E-01    2     1000024   1000022   # BR(H+ -> ~chi_1+ ~chi_10)
     2.17911417E-02    2     1000024   1000023   # BR(H+ -> ~chi_1+ ~chi_20)
     4.24674361E-03    2     1000024   1000025   # BR(H+ -> ~chi_1+ ~chi_30)
