#
#                              ======================
#                              | THE SUSYHIT OUTPUT |
#                              ======================
#
#
#              ------------------------------------------------------
#              |     This is the output of the SUSY-HIT package     |
#              |  created by A.Djouadi, M.Muehlleitner and M.Spira. |
#              |  In case of problems with SUSY-HIT email to        |
#              |           margarete.muehlleitner@cern.ch           |
#              |           michael.spira@psi.ch                     |
#              |           abdelhak.djouadi@cern.ch                 |
#              ------------------------------------------------------
#
#              ------------------------------------------------------
#              |  SUSY Les Houches Accord - MSSM Spectrum + Decays  |
#              |              based on the decay programs           |
#              |                                                    |
#              |                     SDECAY 1.3b                    |
#              |                                                    |
#              |  Authors: M.Muhlleitner, A.Djouadi and Y.Mambrini  |
#              |  Ref.:    Comput.Phys.Commun.168(2005)46           |
#              |           [hep-ph/0311167]                         |
#              |                                                    |
#              |                     HDECAY 3.4                     |
#              |                                                    |
#              |  By: A.Djouadi,J.Kalinowski,M.Muhlleitner,M.Spira  |
#              |  Ref.:    Comput.Phys.Commun.108(1998)56           |
#              |           [hep-ph/9704448]                         |
#              |                                                    |
#              |                                                    |
#              |  If not stated otherwise all DRbar couplings and   |
#              |  soft SUSY breaking masses are given at the scale  |
#              |  Q=  0.50007748E+04
#              |                                                    |
#              ------------------------------------------------------
#
#
BLOCK DCINFO  # Decay Program information
     1   SDECAY/HDECAY # decay calculator
     2   1.3b  /3.4    # version number
#
BLOCK SPINFO  # Spectrum calculator information
     1    SOFTSUSY    # spectrum calculator                
     2    3.4.0       # version number                     
#
BLOCK MODSEL  # Model selection
     1     0   #  nonUniversal                                     
#
BLOCK SMINPUTS  # Standard Model inputs
         1     1.25778332E+02   # alpha_em^-1(M_Z)^MSbar
         2     1.16570000E-05   # G_F [GeV^-2]
         3     1.17200002E-01   # alpha_S(M_Z)^MSbar
         4     9.11876000E+01   # M_Z pole mass
         5     4.25000000E+00   # mb(mb)^MSbar
         6     1.72500000E+02   # mt pole mass
         7     1.77682000E+00   # mtau pole mass
#
BLOCK MINPAR  # Input parameters - minimal models
         3     1.00000000E+01   # tanb                
#
BLOCK EXTPAR  # Input parameters - non-minimal models
         0    -1.00000000E+00   # Set                 
         1     6.00000000E+01   # M_1(MX)             
         2     3.00000000E+03   # M_2(MX)             
         3     1.94902400E+03   # M_3(MX)             
        11     5.00000000E+03   # At(MX)              
        12     5.00000000E+03   # Ab(MX)              
        13     0.00000000E+00   # Atau(MX)            
        23    -1.58715000E+02   # mu(MX)              
        26     3.00000000E+03   # mA(pole)            
        31     5.00000000E+03   # meL(MX)             
        32     5.00000000E+03   # mmuL(MX)            
        33     5.00000000E+03   # mtauL(MX)           
        34     5.00000000E+03   # meR(MX)             
        35     5.00000000E+03   # mmuR(MX)            
        36     5.00000000E+03   # mtauR(MX)           
        41     5.00000000E+03   # mqL1(MX)            
        42     5.00000000E+03   # mqL2(MX)            
        43     5.00000000E+03   # mqL3(MX)            
        44     5.00000000E+03   # muR(MX)             
        45     5.00000000E+03   # mcR(MX)             
        46     5.00000000E+03   # mtR(MX)             
        47     5.00000000E+03   # mdR(MX)             
        48     5.00000000E+03   # msR(MX)             
        49     5.00000000E+03   # mbR(MX)             
#
BLOCK MASS  # Mass Spectrum
# PDG code           mass       particle
        24     8.00908144E+01   # W+
        25     1.24789258E+02   # h
        35     3.00009175E+03   # H
        36     2.99999980E+03   # A
        37     3.00148472E+03   # H+
         5     4.87878001E+00   # b-quark pole mass calculated from mb(mb)_Msbar
   1000001     5.07648109E+03   # ~d_L
   2000001     5.05858834E+03   # ~d_R
   1000002     5.07600660E+03   # ~u_L
   2000002     5.05827750E+03   # ~u_R
   1000003     5.07648109E+03   # ~s_L
   2000003     5.05858834E+03   # ~s_R
   1000004     5.07600660E+03   # ~c_L
   2000004     5.05827750E+03   # ~c_R
   1000005     5.02250955E+03   # ~b_1
   2000005     5.05665046E+03   # ~b_2
   1000006     4.91413376E+03   # ~t_1
   2000006     5.06540152E+03   # ~t_2
   1000011     5.01917359E+03   # ~e_L
   2000011     5.00596234E+03   # ~e_R
   1000012     5.01822045E+03   # ~nu_eL
   1000013     5.01917359E+03   # ~mu_L
   2000013     5.00596234E+03   # ~mu_R
   1000014     5.01822045E+03   # ~nu_muL
   1000015     5.00483739E+03   # ~tau_1
   2000015     5.01863485E+03   # ~tau_2
   1000016     5.01766519E+03   # ~nu_tauL
   1000021     2.30000062E+03   # ~g
   1000022     5.78426444E+01   # ~chi_10
   1000023    -1.75655440E+02   # ~chi_20
   1000025     1.75673275E+02   # ~chi_30
   1000035     3.07434581E+03   # ~chi_40
   1000024     1.70000504E+02   # ~chi_1+
   1000037     3.07451404E+03   # ~chi_2+
#
BLOCK NMIX  # Neutralino Mixing Matrix
  1  1     9.59064140E-01   # N_11
  1  2    -9.56190096E-04   # N_12
  1  3    -2.74937031E-01   # N_13
  1  4    -6.78578704E-02   # N_14
  2  1    -1.47310578E-01   # N_21
  2  2     1.87606769E-02   # N_22
  2  3    -6.89011592E-01   # N_23
  2  4     7.09373426E-01   # N_24
  3  1     2.41858219E-01   # N_31
  3  2     1.69294471E-02   # N_32
  3  3     6.70575078E-01   # N_33
  3  4     7.01104172E-01   # N_34
  4  1    -4.13964537E-04   # N_41
  4  2     9.99680207E-01   # N_42
  4  3     1.31138580E-03   # N_43
  4  4    -2.52505916E-02   # N_44
#
BLOCK UMIX  # Chargino Mixing Matrix U
  1  1    -1.84875298E-03   # U_11
  1  2     9.99998291E-01   # U_12
  2  1    -9.99998291E-01   # U_21
  2  2    -1.84875298E-03   # U_22
#
BLOCK VMIX  # Chargino Mixing Matrix V
  1  1     3.57285038E-02   # V_11
  1  2    -9.99361533E-01   # V_12
  2  1    -9.99361533E-01   # V_21
  2  2    -3.57285038E-02   # V_22
#
BLOCK STOPMIX  # Stop Mixing Matrix
  1  1    -5.01021671E-01   # cos(theta_t)
  1  2     8.65434738E-01   # sin(theta_t)
  2  1    -8.65434738E-01   # -sin(theta_t)
  2  2    -5.01021671E-01   # cos(theta_t)
#
BLOCK SBOTMIX  # Sbottom Mixing Matrix
  1  1     9.99456635E-01   # cos(theta_b)
  1  2    -3.29611097E-02   # sin(theta_b)
  2  1     3.29611097E-02   # -sin(theta_b)
  2  2     9.99456635E-01   # cos(theta_b)
#
BLOCK STAUMIX  # Stau Mixing Matrix
  1  1    -1.87271834E-02   # cos(theta_tau)
  1  2     9.99824631E-01   # sin(theta_tau)
  2  1    -9.99824631E-01   # -sin(theta_tau)
  2  2    -1.87271834E-02   # cos(theta_tau)
#
BLOCK ALPHA  # Higgs mixing
          -1.05500262E-01   # Mixing angle in the neutral Higgs boson sector
#
BLOCK HMIX Q=  5.00077481E+03  # DRbar Higgs Parameters
         1    -1.61611094E+02   # mu(Q)MSSM           
         2     9.46829084E+00   # tan                 
         3     2.41650821E+02   # higgs               
         4     8.80167540E+06   # mA^2(Q)MSSM         
#
BLOCK GAUGE Q=  5.00077481E+03  # The gauge couplings
     1     3.71188293E-01   # gprime(Q) DRbar
     2     6.34527462E-01   # g(Q) DRbar
     3     9.96452832E-01   # g3(Q) DRbar
#
BLOCK AU Q=  5.00077481E+03  # The trilinear couplings
  1  1     5.00000001E+03   # A_u(Q) DRbar
  2  2     5.00000001E+03   # A_c(Q) DRbar
  3  3     5.00000002E+03   # A_t(Q) DRbar
#
BLOCK AD Q=  5.00077481E+03  # The trilinear couplings
  1  1     5.00000001E+03   # A_d(Q) DRbar
  2  2     5.00000001E+03   # A_s(Q) DRbar
  3  3     5.00000001E+03   # A_b(Q) DRbar
#
BLOCK AE Q=  5.00077481E+03  # The trilinear couplings
  1  1     0.00000000E+00   # A_e(Q) DRbar
  2  2     2.15601653E-07   # A_mu(Q) DRbar
  3  3     2.15400791E-07   # A_tau(Q) DRbar
#
BLOCK Yu Q=  5.00077481E+03  # The Yukawa couplings
  1  1     0.00000000E+00   # y_u(Q) DRbar
  2  2     0.00000000E+00   # y_c(Q) DRbar
  3  3     8.21318180E-01   # y_t(Q) DRbar
#
BLOCK Yd Q=  5.00077481E+03  # The Yukawa couplings
  1  1     0.00000000E+00   # y_d(Q) DRbar
  2  2     0.00000000E+00   # y_s(Q) DRbar
  3  3     1.29862397E-01   # y_b(Q) DRbar
#
BLOCK Ye Q=  5.00077481E+03  # The Yukawa couplings
  1  1     0.00000000E+00   # y_e(Q) DRbar
  2  2     0.00000000E+00   # y_mu(Q) DRbar
  3  3     9.73719249E-02   # y_tau(Q) DRbar
#
BLOCK MSOFT Q=  5.00077481E+03  # The soft SUSY breaking masses at the scale Q
         1     6.00000000E+01   # M_1(Q)              
         2     3.00000000E+03   # M_2(Q)              
         3     1.94902400E+03   # M_3(Q)              
        21     8.70885008E+06   # mH1^2(Q)            
        22     5.54727789E+05   # mH2^2(Q)            
        31     5.00000000E+03   # meL(Q)              
        32     5.00000000E+03   # mmuL(Q)             
        33     5.00000000E+03   # mtauL(Q)            
        34     5.00000000E+03   # meR(Q)              
        35     5.00000000E+03   # mmuR(Q)             
        36     5.00000000E+03   # mtauR(Q)            
        41     5.00000000E+03   # mqL1(Q)             
        42     5.00000000E+03   # mqL2(Q)             
        43     4.99999999E+03   # mqL3(Q)             
        44     5.00000000E+03   # muR(Q)              
        45     5.00000000E+03   # mcR(Q)              
        46     4.99999999E+03   # mtR(Q)              
        47     5.00000000E+03   # mdR(Q)              
        48     5.00000000E+03   # msR(Q)              
        49     5.00000000E+03   # mbR(Q)              
#
#
#
#                             =================
#                             |The decay table|
#                             =================
#
# - The QCD corrections to the decays gluino -> squark  + quark
#                                     squark -> gaugino + quark_prime
#                                     squark -> squark_prime + Higgs
#                                     squark -> gluino  + quark
#   are included.
#
# - The multi-body decays for the inos, stops and sbottoms are included.
#
# - The loop induced decays for the gluino, neutralinos and stops
#   are included.
#
# - The SUSY decays of the top quark are included.
#
#
#         PDG            Width
DECAY         6     1.41111907E+00   # top decays
#          BR         NDA      ID1       ID2
     1.00000000E+00    2           5        24   # BR(t ->  b    W+)
#
#         PDG            Width
DECAY   1000021     5.55283817E-03   # gluino decays
#          BR         NDA      ID1       ID2
     3.55795732E-05    2     1000022        21   # BR(~g -> ~chi_10 g)
     4.38676678E-03    2     1000023        21   # BR(~g -> ~chi_20 g)
     4.47079487E-03    2     1000025        21   # BR(~g -> ~chi_30 g)
#           BR         NDA      ID1       ID2       ID3
     8.08166174E-03    3     1000022         1        -1   # BR(~g -> ~chi_10 d  db)
     2.04216294E-04    3     1000023         1        -1   # BR(~g -> ~chi_20 d  db)
     4.71534563E-04    3     1000025         1        -1   # BR(~g -> ~chi_30 d  db)
     2.74730832E-02    3     1000022         2        -2   # BR(~g -> ~chi_10 u  ub)
     4.92120074E-04    3     1000023         2        -2   # BR(~g -> ~chi_20 u  ub)
     1.90809121E-03    3     1000025         2        -2   # BR(~g -> ~chi_30 u  ub)
     8.08166174E-03    3     1000022         3        -3   # BR(~g -> ~chi_10 s  sb)
     2.04216294E-04    3     1000023         3        -3   # BR(~g -> ~chi_20 s  sb)
     4.71534563E-04    3     1000025         3        -3   # BR(~g -> ~chi_30 s  sb)
     2.74730832E-02    3     1000022         4        -4   # BR(~g -> ~chi_10 c  cb)
     4.92120074E-04    3     1000023         4        -4   # BR(~g -> ~chi_20 c  cb)
     1.90809121E-03    3     1000025         4        -4   # BR(~g -> ~chi_30 c  cb)
     9.08109636E-03    3     1000022         5        -5   # BR(~g -> ~chi_10 b  bb)
     5.34091871E-03    3     1000023         5        -5   # BR(~g -> ~chi_20 b  bb)
     5.32685901E-03    3     1000025         5        -5   # BR(~g -> ~chi_30 b  bb)
     2.64173344E-02    3     1000022         6        -6   # BR(~g -> ~chi_10 t  tb)
     2.05107190E-01    3     1000023         6        -6   # BR(~g -> ~chi_20 t  tb)
     2.17150227E-01    3     1000025         6        -6   # BR(~g -> ~chi_30 t  tb)
     5.31000846E-05    3     1000024         1        -2   # BR(~g -> ~chi_1+ d  ub)
     5.31000846E-05    3    -1000024         2        -1   # BR(~g -> ~chi_1- u  db)
     5.31000846E-05    3     1000024         3        -4   # BR(~g -> ~chi_1+ s  cb)
     5.31000846E-05    3    -1000024         4        -3   # BR(~g -> ~chi_1- c  sb)
     2.22604709E-01    3     1000024         5        -6   # BR(~g -> ~chi_1+ b  tb)
     2.22604709E-01    3    -1000024         6        -5   # BR(~g -> ~chi_1- t  bb)
#
#         PDG            Width
DECAY   1000006     3.23403718E+02   # stop1 decays
#          BR         NDA      ID1       ID2
     2.27483318E-02    2     1000022         6   # BR(~t_1 -> ~chi_10 t )
     9.58600147E-02    2     1000023         6   # BR(~t_1 -> ~chi_20 t )
     1.10055027E-01    2     1000025         6   # BR(~t_1 -> ~chi_30 t )
     6.21679653E-03    2     1000035         6   # BR(~t_1 -> ~chi_40 t )
     1.51040922E-01    2     1000024         5   # BR(~t_1 -> ~chi_1+ b )
     1.23941220E-02    2     1000037         5   # BR(~t_1 -> ~chi_2+ b )
     6.01684785E-01    2     1000021         6   # BR(~t_1 -> ~g      t )
#
#         PDG            Width
DECAY   2000006     3.28506933E+02   # stop2 decays
#          BR         NDA      ID1       ID2
     1.42094606E-02    2     1000022         6   # BR(~t_2 -> ~chi_10 t )
     1.11686436E-01    2     1000023         6   # BR(~t_2 -> ~chi_20 t )
     9.40313697E-02    2     1000025         6   # BR(~t_2 -> ~chi_30 t )
     1.73068846E-02    2     1000035         6   # BR(~t_2 -> ~chi_40 t )
     5.89322631E-02    2     1000024         5   # BR(~t_2 -> ~chi_1+ b )
     3.44654501E-02    2     1000037         5   # BR(~t_2 -> ~chi_2+ b )
     6.65801428E-01    2     1000021         6   # BR(~t_2 -> ~g      t )
     8.33283239E-04    2     1000006        25   # BR(~t_2 -> ~t_1    h )
     2.73342501E-03    2     1000006        23   # BR(~t_2 -> ~t_1    Z )
#
#         PDG            Width
DECAY   1000005     3.03062167E+02   # sbottom1 decays
#          BR         NDA      ID1       ID2
     2.86994316E-03    2     1000022         5   # BR(~b_1 -> ~chi_10 b )
     2.70340583E-03    2     1000023         5   # BR(~b_1 -> ~chi_20 b )
     2.46575169E-03    2     1000025         5   # BR(~b_1 -> ~chi_30 b )
     2.52373035E-02    2     1000035         5   # BR(~b_1 -> ~chi_40 b )
     2.21927641E-01    2    -1000024         6   # BR(~b_1 -> ~chi_1- t )
     5.06643531E-02    2    -1000037         6   # BR(~b_1 -> ~chi_2- t )
     6.92351325E-01    2     1000021         5   # BR(~b_1 -> ~g      b )
     1.78027664E-03    2     1000006       -24   # BR(~b_1 -> ~t_1    W-)
#
#         PDG            Width
DECAY   2000005     2.18969472E+02   # sbottom2 decays
#          BR         NDA      ID1       ID2
     1.28369294E-02    2     1000022         5   # BR(~b_2 -> ~chi_10 b )
     4.09081906E-03    2     1000023         5   # BR(~b_2 -> ~chi_20 b )
     4.41306411E-03    2     1000025         5   # BR(~b_2 -> ~chi_30 b )
     3.14437840E-05    2     1000035         5   # BR(~b_2 -> ~chi_40 b )
     8.02785823E-03    2    -1000024         6   # BR(~b_2 -> ~chi_1- t )
     6.31530412E-05    2    -1000037         6   # BR(~b_2 -> ~chi_2- t )
     9.70525584E-01    2     1000021         5   # BR(~b_2 -> ~g      b )
     1.11484778E-05    2     1000006       -24   # BR(~b_2 -> ~t_1    W-)
#
#         PDG            Width
DECAY   1000002     2.38672122E+02   # sup_L decays
#          BR         NDA      ID1       ID2
     2.84965269E-03    2     1000022         2   # BR(~u_L -> ~chi_10 u)
     8.15823113E-06    2     1000023         2   # BR(~u_L -> ~chi_20 u)
     3.37526365E-04    2     1000025         2   # BR(~u_L -> ~chi_30 u)
     3.32192118E-02    2     1000035         2   # BR(~u_L -> ~chi_40 u)
     2.09816479E-04    2     1000024         1   # BR(~u_L -> ~chi_1+ d)
     6.63984416E-02    2     1000037         1   # BR(~u_L -> ~chi_2+ d)
     8.96977193E-01    2     1000021         2   # BR(~u_L -> ~g      u)
#
#         PDG            Width
DECAY   2000002     2.24471017E+02   # sup_R decays
#          BR         NDA      ID1       ID2
     4.88047005E-02    2     1000022         2   # BR(~u_R -> ~chi_10 u)
     1.14933224E-03    2     1000023         2   # BR(~u_R -> ~chi_20 u)
     3.09812711E-03    2     1000025         2   # BR(~u_R -> ~chi_30 u)
     3.64278000E-09    2     1000035         2   # BR(~u_R -> ~chi_40 u)
     9.46947837E-01    2     1000021         2   # BR(~u_R -> ~g      u)
#
#         PDG            Width
DECAY   1000001     2.38686747E+02   # sdown_L decays
#          BR         NDA      ID1       ID2
     2.90863217E-03    2     1000022         1   # BR(~d_L -> ~chi_10 d)
     1.85291904E-04    2     1000023         1   # BR(~d_L -> ~chi_20 d)
     7.51030397E-05    2     1000025         1   # BR(~d_L -> ~chi_30 d)
     3.32381639E-02    2     1000035         1   # BR(~d_L -> ~chi_40 d)
     5.61800964E-07    2    -1000024         2   # BR(~d_L -> ~chi_1- u)
     6.64995323E-02    2    -1000037         2   # BR(~d_L -> ~chi_2- u)
     8.97092715E-01    2     1000021         1   # BR(~d_L -> ~g      d)
#
#         PDG            Width
DECAY   2000001     2.15566379E+02   # sdown_R decays
#          BR         NDA      ID1       ID2
     1.27059760E-02    2     1000022         1   # BR(~d_R -> ~chi_10 d)
     2.99220995E-04    2     1000023         1   # BR(~d_R -> ~chi_20 d)
     8.06576760E-04    2     1000025         1   # BR(~d_R -> ~chi_30 d)
     9.48508011E-10    2     1000035         1   # BR(~d_R -> ~chi_40 d)
     9.86188225E-01    2     1000021         1   # BR(~d_R -> ~g      d)
#
#         PDG            Width
DECAY   1000004     2.38672122E+02   # scharm_L decays
#          BR         NDA      ID1       ID2
     2.84965269E-03    2     1000022         4   # BR(~c_L -> ~chi_10 c)
     8.15823113E-06    2     1000023         4   # BR(~c_L -> ~chi_20 c)
     3.37526365E-04    2     1000025         4   # BR(~c_L -> ~chi_30 c)
     3.32192118E-02    2     1000035         4   # BR(~c_L -> ~chi_40 c)
     2.09816479E-04    2     1000024         3   # BR(~c_L -> ~chi_1+ s)
     6.63984416E-02    2     1000037         3   # BR(~c_L -> ~chi_2+ s)
     8.96977193E-01    2     1000021         4   # BR(~c_L -> ~g      c)
#
#         PDG            Width
DECAY   2000004     2.24471017E+02   # scharm_R decays
#          BR         NDA      ID1       ID2
     4.88047005E-02    2     1000022         4   # BR(~c_R -> ~chi_10 c)
     1.14933224E-03    2     1000023         4   # BR(~c_R -> ~chi_20 c)
     3.09812711E-03    2     1000025         4   # BR(~c_R -> ~chi_30 c)
     3.64278000E-09    2     1000035         4   # BR(~c_R -> ~chi_40 c)
     9.46947837E-01    2     1000021         4   # BR(~c_R -> ~g      c)
#
#         PDG            Width
DECAY   1000003     2.38686747E+02   # sstrange_L decays
#          BR         NDA      ID1       ID2
     2.90863217E-03    2     1000022         3   # BR(~s_L -> ~chi_10 s)
     1.85291904E-04    2     1000023         3   # BR(~s_L -> ~chi_20 s)
     7.51030397E-05    2     1000025         3   # BR(~s_L -> ~chi_30 s)
     3.32381639E-02    2     1000035         3   # BR(~s_L -> ~chi_40 s)
     5.61800964E-07    2    -1000024         4   # BR(~s_L -> ~chi_1- c)
     6.64995323E-02    2    -1000037         4   # BR(~s_L -> ~chi_2- c)
     8.97092715E-01    2     1000021         3   # BR(~s_L -> ~g      s)
#
#         PDG            Width
DECAY   2000003     2.15566379E+02   # sstrange_R decays
#          BR         NDA      ID1       ID2
     1.27059760E-02    2     1000022         3   # BR(~s_R -> ~chi_10 s)
     2.99220995E-04    2     1000023         3   # BR(~s_R -> ~chi_20 s)
     8.06576760E-04    2     1000025         3   # BR(~s_R -> ~chi_30 s)
     9.48508011E-10    2     1000035         3   # BR(~s_R -> ~chi_40 s)
     9.86188225E-01    2     1000021         3   # BR(~s_R -> ~g      s)
#
#         PDG            Width
DECAY   1000011     3.04306358E+01   # selectron_L decays
#          BR         NDA      ID1       ID2
     2.07161095E-01    2     1000022        11   # BR(~e_L -> ~chi_10 e-)
     2.99469834E-03    2     1000023        11   # BR(~e_L -> ~chi_20 e-)
     1.65362440E-02    2     1000025        11   # BR(~e_L -> ~chi_30 e-)
     2.57597829E-01    2     1000035        11   # BR(~e_L -> ~chi_40 e-)
     4.50518827E-06    2    -1000024        12   # BR(~e_L -> ~chi_1- nu_e)
     5.15705629E-01    2    -1000037        12   # BR(~e_L -> ~chi_2- nu_e)
#
#         PDG            Width
DECAY   2000011     2.74311355E+01   # selectron_R decays
#          BR         NDA      ID1       ID2
     9.19966058E-01    2     1000022        11   # BR(~e_R -> ~chi_10 e-)
     2.16565976E-02    2     1000023        11   # BR(~e_R -> ~chi_20 e-)
     5.83772784E-02    2     1000025        11   # BR(~e_R -> ~chi_30 e-)
     6.65068090E-08    2     1000035        11   # BR(~e_R -> ~chi_40 e-)
#
#         PDG            Width
DECAY   1000013     3.04306358E+01   # smuon_L decays
#          BR         NDA      ID1       ID2
     2.07161095E-01    2     1000022        13   # BR(~mu_L -> ~chi_10 mu-)
     2.99469834E-03    2     1000023        13   # BR(~mu_L -> ~chi_20 mu-)
     1.65362440E-02    2     1000025        13   # BR(~mu_L -> ~chi_30 mu-)
     2.57597829E-01    2     1000035        13   # BR(~mu_L -> ~chi_40 mu-)
     4.50518827E-06    2    -1000024        14   # BR(~mu_L -> ~chi_1- nu_mu)
     5.15705629E-01    2    -1000037        14   # BR(~mu_L -> ~chi_2- nu_mu)
#
#         PDG            Width
DECAY   2000013     2.74311355E+01   # smuon_R decays
#          BR         NDA      ID1       ID2
     9.19966058E-01    2     1000022        13   # BR(~mu_R -> ~chi_10 mu-)
     2.16565976E-02    2     1000023        13   # BR(~mu_R -> ~chi_20 mu-)
     5.83772784E-02    2     1000025        13   # BR(~mu_R -> ~chi_30 mu-)
     6.65068090E-08    2     1000035        13   # BR(~mu_R -> ~chi_40 mu-)
#
#         PDG            Width
DECAY   1000015     2.93089826E+01   # stau_1 decays
#          BR         NDA      ID1       ID2
     8.63895951E-01    2     1000022        15   # BR(~tau_1 -> ~chi_10  tau-)
     3.51119444E-02    2     1000023        15   # BR(~tau_1 -> ~chi_20  tau-)
     6.85951130E-02    2     1000025        15   # BR(~tau_1 -> ~chi_30  tau-)
     9.58003248E-05    2     1000035        15   # BR(~tau_1 -> ~chi_40  tau-)
     3.21095564E-02    2    -1000024        16   # BR(~tau_1 -> ~chi_1-  nu_tau)
     1.91634812E-04    2    -1000037        16   # BR(~tau_1 -> ~chi_2-  nu_tau)
#
#         PDG            Width
DECAY   2000015     3.13654187E+01   # stau_2 decays
#          BR         NDA      ID1       ID2
     2.02653929E-01    2     1000022        15   # BR(~tau_2 -> ~chi_10  tau-)
     1.75789765E-02    2     1000023        15   # BR(~tau_2 -> ~chi_20  tau-)
     3.00268910E-02    2     1000025        15   # BR(~tau_2 -> ~chi_30  tau-)
     2.49739062E-01    2     1000035        15   # BR(~tau_2 -> ~chi_40  tau-)
     2.85141553E-05    2    -1000024        16   # BR(~tau_2 -> ~chi_1-  nu_tau)
     4.99972627E-01    2    -1000037        16   # BR(~tau_2 -> ~chi_2-  nu_tau)
#
#         PDG            Width
DECAY   1000012     3.04334859E+01   # snu_eL decays
#          BR         NDA      ID1       ID2
     2.08519042E-01    2     1000022        12   # BR(~nu_eL -> ~chi_10 nu_e)
     7.25395257E-03    2     1000023        12   # BR(~nu_eL -> ~chi_20 nu_e)
     1.02199121E-02    2     1000025        12   # BR(~nu_eL -> ~chi_30 nu_e)
     2.57656849E-01    2     1000035        12   # BR(~nu_eL -> ~chi_40 nu_e)
     1.68213674E-03    2     1000024        11   # BR(~nu_eL -> ~chi_1+ e-)
     5.14668108E-01    2     1000037        11   # BR(~nu_eL -> ~chi_2+ e-)
#
#         PDG            Width
DECAY   1000014     3.04334859E+01   # snu_muL decays
#          BR         NDA      ID1       ID2
     2.08519042E-01    2     1000022        14   # BR(~nu_muL -> ~chi_10 nu_mu)
     7.25395257E-03    2     1000023        14   # BR(~nu_muL -> ~chi_20 nu_mu)
     1.02199121E-02    2     1000025        14   # BR(~nu_muL -> ~chi_30 nu_mu)
     2.57656849E-01    2     1000035        14   # BR(~nu_muL -> ~chi_40 nu_mu)
     1.68213674E-03    2     1000024        13   # BR(~nu_muL -> ~chi_1+ mu-)
     5.14668108E-01    2     1000037        13   # BR(~nu_muL -> ~chi_2+ mu-)
#
#         PDG            Width
DECAY   1000016     3.13681532E+01   # snu_tauL decays
#          BR         NDA      ID1       ID2
     2.02283467E-01    2     1000022        16   # BR(~nu_tauL -> ~chi_10 nu_tau)
     7.03702621E-03    2     1000023        16   # BR(~nu_tauL -> ~chi_20 nu_tau)
     9.91428999E-03    2     1000025        16   # BR(~nu_tauL -> ~chi_30 nu_tau)
     2.49885391E-01    2     1000035        16   # BR(~nu_tauL -> ~chi_40 nu_tau)
     3.17352667E-02    2     1000024        15   # BR(~nu_tauL -> ~chi_1+ tau-)
     4.99144559E-01    2     1000037        15   # BR(~nu_tauL -> ~chi_2+ tau-)
#
#         PDG            Width
DECAY   1000024     5.13301842E-02   # chargino1+ decays
#          BR         NDA      ID1       ID2
     1.00000000E+00    2     1000022        24   # BR(~chi_1+ -> ~chi_10  W+)
#
#         PDG            Width
DECAY   1000037     2.34314089E+01   # chargino2+ decays
#          BR         NDA      ID1       ID2
     2.53910097E-01    2     1000024        23   # BR(~chi_2+ -> ~chi_1+  Z )
     1.78441768E-03    2     1000022        24   # BR(~chi_2+ -> ~chi_10  W+)
     2.45135057E-01    2     1000023        24   # BR(~chi_2+ -> ~chi_20  W+)
     2.43619268E-01    2     1000025        24   # BR(~chi_2+ -> ~chi_30  W+)
     2.55495861E-01    2     1000024        25   # BR(~chi_2+ -> ~chi_1+  h )
     5.52991516E-05    2     1000022        37   # BR(~chi_2+ -> ~chi_10  H+)
#
#         PDG            Width
DECAY   1000022     0.00000000E+00   # neutralino1 decays
#
#         PDG            Width
DECAY   1000023     2.13706271E-02   # neutralino2 decays
#          BR         NDA      ID1       ID2
     1.00000000E+00    2     1000022        23   # BR(~chi_20 -> ~chi_10   Z )
#
#         PDG            Width
DECAY   1000025     2.52388590E-02   # neutralino3 decays
#          BR         NDA      ID1       ID2
     1.00000000E+00    2     1000022        23   # BR(~chi_30 -> ~chi_10   Z )
#
#         PDG            Width
DECAY   1000035     2.34422220E+01   # neutralino4 decays
#          BR         NDA      ID1       ID2
     1.72177453E-03    2     1000022        23   # BR(~chi_40 -> ~chi_10   Z )
     1.14741099E-01    2     1000023        23   # BR(~chi_40 -> ~chi_20   Z )
     1.37045313E-01    2     1000025        23   # BR(~chi_40 -> ~chi_30   Z )
     2.45635152E-01    2     1000024       -24   # BR(~chi_40 -> ~chi_1+   W-)
     2.45635152E-01    2    -1000024        24   # BR(~chi_40 -> ~chi_1-   W+)
     1.60862795E-04    2     1000022        25   # BR(~chi_40 -> ~chi_10   h )
     5.27155247E-05    2     1000022        35   # BR(~chi_40 -> ~chi_10   H )
     5.96974805E-06    2     1000022        36   # BR(~chi_40 -> ~chi_10   A )
     1.39375525E-01    2     1000023        25   # BR(~chi_40 -> ~chi_20   h )
     1.15626436E-01    2     1000025        25   # BR(~chi_40 -> ~chi_30   h )
#
#         PDG            Width
DECAY        25     4.10395732E-03   # h decays
#          BR         NDA      ID1       ID2
     6.06585382E-01    2           5        -5   # BR(h -> b       bb     )
     6.32194401E-02    2         -15        15   # BR(h -> tau+    tau-   )
     2.23819735E-04    2         -13        13   # BR(h -> mu+     mu-    )
     4.74471781E-04    2           3        -3   # BR(h -> s       sb     )
     2.05561892E-02    2           4        -4   # BR(h -> c       cb     )
     6.65131317E-02    2          21        21   # BR(h -> g       g      )
     2.28333783E-03    2          22        22   # BR(h -> gam     gam    )
     1.47586074E-03    2          22        23   # BR(h -> Z       gam    )
     2.08370379E-01    2          24       -24   # BR(h -> W+      W-     )
     2.48211269E-02    2          23        23   # BR(h -> Z       Z      )
     5.47686122E-03    2     1000022   1000022   # BR(h -> ~chi_10 ~chi_10)
#
#         PDG            Width
DECAY        35     8.82188653E+00   # H decays
#          BR         NDA      ID1       ID2
     3.58538162E-01    2           5        -5   # BR(H -> b       bb     )
     6.31304531E-02    2         -15        15   # BR(H -> tau+    tau-   )
     2.23234297E-04    2         -13        13   # BR(H -> mu+     mu-    )
     2.73650880E-04    2           3        -3   # BR(H -> s       sb     )
     1.53198867E-06    2           4        -4   # BR(H -> c       cb     )
     1.53057813E-01    2           6        -6   # BR(H -> t       tb     )
     5.09399186E-05    2          21        21   # BR(H -> g       g      )
     1.52005773E-07    2          22        22   # BR(H -> gam     gam    )
     9.02775889E-08    2          23        22   # BR(H -> Z       gam    )
     7.54143888E-05    2          24       -24   # BR(H -> W+      W-     )
     3.76594493E-05    2          23        23   # BR(H -> Z       Z      )
     2.67122491E-04    2          25        25   # BR(H -> h       h      )
    -3.79712964E-23    2          36        36   # BR(H -> A       A      )
     1.27560279E-18    2          23        36   # BR(H -> Z       A      )
     3.50449337E-03    2     1000024  -1000024   # BR(H -> ~chi_1+ ~chi_1-)
     6.14771269E-02    2     1000022   1000022   # BR(H -> ~chi_10 ~chi_10)
     1.02278838E-02    2     1000023   1000023   # BR(H -> ~chi_20 ~chi_20)
     2.02390304E-02    2     1000025   1000025   # BR(H -> ~chi_30 ~chi_30)
     1.20957620E-01    2     1000022   1000023   # BR(H -> ~chi_10 ~chi_20)
     1.78747331E-01    2     1000022   1000025   # BR(H -> ~chi_10 ~chi_30)
     2.91902901E-02    2     1000023   1000025   # BR(H -> ~chi_20 ~chi_30)
#
#         PDG            Width
DECAY        36     8.82683885E+00   # A decays
#          BR         NDA      ID1       ID2
     3.58459892E-01    2           5        -5   # BR(A -> b       bb     )
     6.30968539E-02    2         -15        15   # BR(A -> tau+    tau-   )
     2.23115175E-04    2         -13        13   # BR(A -> mu+     mu-    )
     2.73704928E-04    2           3        -3   # BR(A -> s       sb     )
     1.53713047E-06    2           4        -4   # BR(A -> c       cb     )
     1.53486777E-01    2           6        -6   # BR(A -> t       tb     )
     1.51868702E-04    2          21        21   # BR(A -> g       g      )
     5.21567043E-07    2          22        22   # BR(A -> gam     gam    )
     1.83744588E-07    2          23        22   # BR(A -> Z       gam    )
     7.50863122E-05    2          23        25   # BR(A -> Z       h      )
     3.62666694E-03    2     1000024  -1000024   # BR(A -> ~chi_1+ ~chi_1-)
     5.54339996E-02    2     1000022   1000022   # BR(A -> ~chi_10 ~chi_10)
     1.60499629E-02    2     1000023   1000023   # BR(A -> ~chi_20 ~chi_20)
     1.31557815E-02    2     1000025   1000025   # BR(A -> ~chi_30 ~chi_30)
     1.94878422E-01    2     1000022   1000023   # BR(A -> ~chi_10 ~chi_20)
     1.11287883E-01    2     1000022   1000025   # BR(A -> ~chi_10 ~chi_30)
     2.97977441E-02    2     1000023   1000025   # BR(A -> ~chi_20 ~chi_30)
#
#         PDG            Width
DECAY        37     8.76325044E+00   # H+ decays
#          BR         NDA      ID1       ID2
     5.74024717E-04    2           4        -5   # BR(H+ -> c       bb     )
     6.35861589E-02    2         -15        16   # BR(H+ -> tau+    nu_tau )
     2.24845394E-04    2         -13        14   # BR(H+ -> mu+     nu_mu  )
     3.67373875E-06    2           2        -5   # BR(H+ -> u       bb     )
     1.31931111E-05    2           2        -3   # BR(H+ -> u       sb     )
     2.72835323E-04    2           4        -3   # BR(H+ -> c       sb     )
     5.10178382E-01    2           6        -5   # BR(H+ -> t       bb     )
     7.57923639E-05    2          24        25   # BR(H+ -> W+      h      )
     1.08257384E-12    2          24        36   # BR(H+ -> W+      A      )
     3.87337735E-01    2     1000024   1000022   # BR(H+ -> ~chi_1+ ~chi_10)
     5.78257633E-03    2     1000024   1000023   # BR(H+ -> ~chi_1+ ~chi_20)
     3.19507831E-02    2     1000024   1000025   # BR(H+ -> ~chi_1+ ~chi_30)
