#
#                              ======================
#                              | THE SUSYHIT OUTPUT |
#                              ======================
#
#
#              ------------------------------------------------------
#              |     This is the output of the SUSY-HIT package     |
#              |  created by A.Djouadi, M.Muehlleitner and M.Spira. |
#              |  In case of problems with SUSY-HIT email to        |
#              |           margarete.muehlleitner@cern.ch           |
#              |           michael.spira@psi.ch                     |
#              |           abdelhak.djouadi@cern.ch                 |
#              ------------------------------------------------------
#
#              ------------------------------------------------------
#              |  SUSY Les Houches Accord - MSSM Spectrum + Decays  |
#              |              based on the decay programs           |
#              |                                                    |
#              |                     SDECAY 1.3b                    |
#              |                                                    |
#              |  Authors: M.Muhlleitner, A.Djouadi and Y.Mambrini  |
#              |  Ref.:    Comput.Phys.Commun.168(2005)46           |
#              |           [hep-ph/0311167]                         |
#              |                                                    |
#              |                     HDECAY 3.4                     |
#              |                                                    |
#              |  By: A.Djouadi,J.Kalinowski,M.Muhlleitner,M.Spira  |
#              |  Ref.:    Comput.Phys.Commun.108(1998)56           |
#              |           [hep-ph/9704448]                         |
#              |                                                    |
#              |                                                    |
#              |  If not stated otherwise all DRbar couplings and   |
#              |  soft SUSY breaking masses are given at the scale  |
#              |  Q=  0.50007585E+04
#              |                                                    |
#              ------------------------------------------------------
#
#
BLOCK DCINFO  # Decay Program information
     1   SDECAY/HDECAY # decay calculator
     2   1.3b  /3.4    # version number
#
BLOCK SPINFO  # Spectrum calculator information
     1    SOFTSUSY    # spectrum calculator                
     2    3.4.0       # version number                     
#
BLOCK MODSEL  # Model selection
     1     0   #  nonUniversal                                     
#
BLOCK SMINPUTS  # Standard Model inputs
         1     1.25778332E+02   # alpha_em^-1(M_Z)^MSbar
         2     1.16570000E-05   # G_F [GeV^-2]
         3     1.17200002E-01   # alpha_S(M_Z)^MSbar
         4     9.11876000E+01   # M_Z pole mass
         5     4.25000000E+00   # mb(mb)^MSbar
         6     1.72500000E+02   # mt pole mass
         7     1.77682000E+00   # mtau pole mass
#
BLOCK MINPAR  # Input parameters - minimal models
         3     1.00000000E+01   # tanb                
#
BLOCK EXTPAR  # Input parameters - non-minimal models
         0    -1.00000000E+00   # Set                 
         1     6.00000000E+01   # M_1(MX)             
         2     3.00000000E+03   # M_2(MX)             
         3     1.48350000E+03   # M_3(MX)             
        11     5.00000000E+03   # At(MX)              
        12     5.00000000E+03   # Ab(MX)              
        13     0.00000000E+00   # Atau(MX)            
        23    -4.74931000E+02   # mu(MX)              
        26     3.00000000E+03   # mA(pole)            
        31     5.00000000E+03   # meL(MX)             
        32     5.00000000E+03   # mmuL(MX)            
        33     5.00000000E+03   # mtauL(MX)           
        34     5.00000000E+03   # meR(MX)             
        35     5.00000000E+03   # mmuR(MX)            
        36     5.00000000E+03   # mtauR(MX)           
        41     5.00000000E+03   # mqL1(MX)            
        42     5.00000000E+03   # mqL2(MX)            
        43     5.00000000E+03   # mqL3(MX)            
        44     5.00000000E+03   # muR(MX)             
        45     5.00000000E+03   # mcR(MX)             
        46     5.00000000E+03   # mtR(MX)             
        47     5.00000000E+03   # mdR(MX)             
        48     5.00000000E+03   # msR(MX)             
        49     5.00000000E+03   # mbR(MX)             
#
BLOCK MASS  # Mass Spectrum
# PDG code           mass       particle
        24     8.00926356E+01   # W+
        25     1.24705613E+02   # h
        35     3.00008573E+03   # H
        36     2.99999944E+03   # A
        37     3.00142963E+03   # H+
         5     4.87878001E+00   # b-quark pole mass calculated from mb(mb)_Msbar
   1000001     5.06956006E+03   # ~d_L
   2000001     5.05170749E+03   # ~d_R
   1000002     5.06908478E+03   # ~u_L
   2000002     5.05140690E+03   # ~u_R
   1000003     5.06956006E+03   # ~s_L
   2000003     5.05170749E+03   # ~s_R
   1000004     5.06908478E+03   # ~c_L
   2000004     5.05140690E+03   # ~c_R
   1000005     5.01548411E+03   # ~b_1
   2000005     5.04995002E+03   # ~b_2
   1000006     4.90630057E+03   # ~t_1
   2000006     5.05968598E+03   # ~t_2
   1000011     5.01910966E+03   # ~e_L
   2000011     5.00594398E+03   # ~e_R
   1000012     5.01815935E+03   # ~nu_eL
   1000013     5.01910966E+03   # ~mu_L
   2000013     5.00594398E+03   # ~mu_R
   1000014     5.01815935E+03   # ~nu_muL
   1000015     5.00477452E+03   # ~tau_1
   2000015     5.01863389E+03   # ~tau_2
   1000016     5.01760765E+03   # ~nu_tauL
   1000021     1.80000070E+03   # ~g
   1000022     6.02022731E+01   # ~chi_10
   1000023     5.00512464E+02   # ~chi_20
   1000025    -5.02707921E+02   # ~chi_30
   1000035     3.07418320E+03   # ~chi_40
   1000024     5.00000513E+02   # ~chi_1+
   1000037     3.07435092E+03   # ~chi_2+
#
BLOCK NMIX  # Neutralino Mixing Matrix
  1  1     9.96029041E-01   # N_11
  1  2     2.24931605E-04   # N_12
  1  3    -8.90156144E-02   # N_13
  1  4    -1.52263628E-03   # N_14
  2  1     6.40560966E-02   # N_21
  2  2     1.90077364E-02   # N_22
  2  3     7.04713566E-01   # N_23
  2  4     7.06338667E-01   # N_24
  3  1    -6.18289029E-02   # N_31
  3  2     1.70149453E-02   # N_32
  3  3    -7.03884261E-01   # N_33
  3  4     7.07414041E-01   # N_34
  4  1    -3.89711252E-04   # N_41
  4  2     9.99674521E-01   # N_42
  4  3    -1.39889038E-03   # N_43
  4  4    -2.54704581E-02   # N_44
#
BLOCK UMIX  # Chargino Mixing Matrix U
  1  1     1.98358195E-03   # U_11
  1  2     9.99998033E-01   # U_12
  2  1    -9.99998033E-01   # U_21
  2  2     1.98358195E-03   # U_22
#
BLOCK VMIX  # Chargino Mixing Matrix V
  1  1     3.60409431E-02   # V_11
  1  2    -9.99350314E-01   # V_12
  2  1    -9.99350314E-01   # V_21
  2  2    -3.60409431E-02   # V_22
#
BLOCK STOPMIX  # Stop Mixing Matrix
  1  1    -5.04600868E-01   # cos(theta_t)
  1  2     8.63352746E-01   # sin(theta_t)
  2  1    -8.63352746E-01   # -sin(theta_t)
  2  2    -5.04600868E-01   # cos(theta_t)
#
BLOCK SBOTMIX  # Sbottom Mixing Matrix
  1  1     9.98749582E-01   # cos(theta_b)
  1  2    -4.99927240E-02   # sin(theta_b)
  2  1     4.99927240E-02   # -sin(theta_b)
  2  2     9.98749582E-01   # cos(theta_b)
#
BLOCK STAUMIX  # Stau Mixing Matrix
  1  1    -5.69172620E-02   # cos(theta_tau)
  1  2     9.98378899E-01   # sin(theta_tau)
  2  1    -9.98378899E-01   # -sin(theta_tau)
  2  2    -5.69172620E-02   # cos(theta_tau)
#
BLOCK ALPHA  # Higgs mixing
          -1.05479121E-01   # Mixing angle in the neutral Higgs boson sector
#
BLOCK HMIX Q=  5.00075850E+03  # DRbar Higgs Parameters
         1    -4.83577948E+02   # mu(Q)MSSM           
         2     9.46980417E+00   # tan                 
         3     2.41755918E+02   # higgs               
         4     8.67726916E+06   # mA^2(Q)MSSM         
#
BLOCK GAUGE Q=  5.00075850E+03  # The gauge couplings
     1     3.70959755E-01   # gprime(Q) DRbar
     2     6.33341831E-01   # g(Q) DRbar
     3     1.00004927E+00   # g3(Q) DRbar
#
BLOCK AU Q=  5.00075850E+03  # The trilinear couplings
  1  1     5.00000001E+03   # A_u(Q) DRbar
  2  2     5.00000001E+03   # A_c(Q) DRbar
  3  3     5.00000002E+03   # A_t(Q) DRbar
#
BLOCK AD Q=  5.00075850E+03  # The trilinear couplings
  1  1     5.00000001E+03   # A_d(Q) DRbar
  2  2     5.00000001E+03   # A_s(Q) DRbar
  3  3     5.00000001E+03   # A_b(Q) DRbar
#
BLOCK AE Q=  5.00075850E+03  # The trilinear couplings
  1  1     0.00000000E+00   # A_e(Q) DRbar
  2  2     1.42193228E-07   # A_mu(Q) DRbar
  3  3     1.41705377E-07   # A_tau(Q) DRbar
#
BLOCK Yu Q=  5.00075850E+03  # The Yukawa couplings
  1  1     0.00000000E+00   # y_u(Q) DRbar
  2  2     0.00000000E+00   # y_c(Q) DRbar
  3  3     8.19490490E-01   # y_t(Q) DRbar
#
BLOCK Yd Q=  5.00075850E+03  # The Yukawa couplings
  1  1     0.00000000E+00   # y_d(Q) DRbar
  2  2     0.00000000E+00   # y_s(Q) DRbar
  3  3     1.29913791E-01   # y_b(Q) DRbar
#
BLOCK Ye Q=  5.00075850E+03  # The Yukawa couplings
  1  1     0.00000000E+00   # y_e(Q) DRbar
  2  2     0.00000000E+00   # y_mu(Q) DRbar
  3  3     9.71436335E-02   # y_tau(Q) DRbar
#
BLOCK MSOFT Q=  5.00075850E+03  # The soft SUSY breaking masses at the scale Q
         1     6.00000000E+01   # M_1(Q)              
         2     3.00000000E+03   # M_2(Q)              
         3     1.48350000E+03   # M_3(Q)              
        21     8.49000052E+06   # mH1^2(Q)            
        22     3.41283103E+05   # mH2^2(Q)            
        31     5.00000000E+03   # meL(Q)              
        32     5.00000000E+03   # mmuL(Q)             
        33     5.00000000E+03   # mtauL(Q)            
        34     5.00000000E+03   # meR(Q)              
        35     5.00000000E+03   # mmuR(Q)             
        36     5.00000000E+03   # mtauR(Q)            
        41     5.00000000E+03   # mqL1(Q)             
        42     5.00000000E+03   # mqL2(Q)             
        43     5.00000000E+03   # mqL3(Q)             
        44     5.00000000E+03   # muR(Q)              
        45     5.00000000E+03   # mcR(Q)              
        46     4.99999999E+03   # mtR(Q)              
        47     5.00000000E+03   # mdR(Q)              
        48     5.00000000E+03   # msR(Q)              
        49     5.00000000E+03   # mbR(Q)              
#
#
#
#                             =================
#                             |The decay table|
#                             =================
#
# - The QCD corrections to the decays gluino -> squark  + quark
#                                     squark -> gaugino + quark_prime
#                                     squark -> squark_prime + Higgs
#                                     squark -> gluino  + quark
#   are included.
#
# - The multi-body decays for the inos, stops and sbottoms are included.
#
# - The loop induced decays for the gluino, neutralinos and stops
#   are included.
#
# - The SUSY decays of the top quark are included.
#
#
#         PDG            Width
DECAY         6     1.40577076E+00   # top decays
#          BR         NDA      ID1       ID2
     1.00000000E+00    2           5        24   # BR(t ->  b    W+)
#
#         PDG            Width
DECAY   1000021     9.41268847E-04   # gluino decays
#          BR         NDA      ID1       ID2
     4.90974089E-07    2     1000022        21   # BR(~g -> ~chi_10 g)
     9.62054078E-03    2     1000023        21   # BR(~g -> ~chi_20 g)
     9.35858771E-03    2     1000025        21   # BR(~g -> ~chi_30 g)
#           BR         NDA      ID1       ID2       ID3
     1.43343999E-02    3     1000022         1        -1   # BR(~g -> ~chi_10 d  db)
     3.75832467E-05    3     1000023         1        -1   # BR(~g -> ~chi_20 d  db)
     3.84829520E-05    3     1000025         1        -1   # BR(~g -> ~chi_30 d  db)
     4.88804543E-02    3     1000022         2        -2   # BR(~g -> ~chi_10 u  ub)
     1.96114434E-04    3     1000023         2        -2   # BR(~g -> ~chi_20 u  ub)
     6.40257194E-05    3     1000025         2        -2   # BR(~g -> ~chi_30 u  ub)
     1.43343999E-02    3     1000022         3        -3   # BR(~g -> ~chi_10 s  sb)
     3.75832467E-05    3     1000023         3        -3   # BR(~g -> ~chi_20 s  sb)
     3.84829520E-05    3     1000025         3        -3   # BR(~g -> ~chi_30 s  sb)
     4.88804543E-02    3     1000022         4        -4   # BR(~g -> ~chi_10 c  cb)
     1.96114434E-04    3     1000023         4        -4   # BR(~g -> ~chi_20 c  cb)
     6.40257194E-05    3     1000025         4        -4   # BR(~g -> ~chi_30 c  cb)
     1.46686339E-02    3     1000022         5        -5   # BR(~g -> ~chi_10 b  bb)
     5.35711980E-03    3     1000023         5        -5   # BR(~g -> ~chi_20 b  bb)
     5.31401208E-03    3     1000025         5        -5   # BR(~g -> ~chi_30 b  bb)
     4.57260254E-02    3     1000022         6        -6   # BR(~g -> ~chi_10 t  tb)
     1.94950300E-01    3     1000023         6        -6   # BR(~g -> ~chi_20 t  tb)
     1.74206582E-01    3     1000025         6        -6   # BR(~g -> ~chi_30 t  tb)
     5.58095565E-05    3     1000024         1        -2   # BR(~g -> ~chi_1+ d  ub)
     5.58095565E-05    3    -1000024         2        -1   # BR(~g -> ~chi_1- u  db)
     5.58095565E-05    3     1000024         3        -4   # BR(~g -> ~chi_1+ s  cb)
     5.58095565E-05    3    -1000024         4        -3   # BR(~g -> ~chi_1- c  sb)
     2.06736174E-01    3     1000024         5        -6   # BR(~g -> ~chi_1+ b  tb)
     2.06736174E-01    3    -1000024         6        -5   # BR(~g -> ~chi_1- t  bb)
#
#         PDG            Width
DECAY   1000006     3.66045106E+02   # stop1 decays
#          BR         NDA      ID1       ID2
     2.39456350E-02    2     1000022         6   # BR(~t_1 -> ~chi_10 t )
     8.96370899E-02    2     1000023         6   # BR(~t_1 -> ~chi_20 t )
     8.47654966E-02    2     1000025         6   # BR(~t_1 -> ~chi_30 t )
     5.58162498E-03    2     1000035         6   # BR(~t_1 -> ~chi_40 t )
     1.29693054E-01    2     1000024         5   # BR(~t_1 -> ~chi_1+ b )
     1.11268031E-02    2     1000037         5   # BR(~t_1 -> ~chi_2+ b )
     6.55250296E-01    2     1000021         6   # BR(~t_1 -> ~g      t )
#
#         PDG            Width
DECAY   2000006     3.69633705E+02   # stop2 decays
#          BR         NDA      ID1       ID2
     9.50896399E-03    2     1000022         6   # BR(~t_2 -> ~chi_10 t )
     8.86100558E-02    2     1000023         6   # BR(~t_2 -> ~chi_20 t )
     9.40202673E-02    2     1000025         6   # BR(~t_2 -> ~chi_30 t )
     1.51208816E-02    2     1000035         6   # BR(~t_2 -> ~chi_40 t )
     5.25513489E-02    2     1000024         5   # BR(~t_2 -> ~chi_1+ b )
     3.01079504E-02    2     1000037         5   # BR(~t_2 -> ~chi_2+ b )
     7.06748895E-01    2     1000021         6   # BR(~t_2 -> ~g      t )
     7.68186470E-04    2     1000006        25   # BR(~t_2 -> ~t_1    h )
     2.56345059E-03    2     1000006        23   # BR(~t_2 -> ~t_1    Z )
#
#         PDG            Width
DECAY   1000005     3.45127376E+02   # sbottom1 decays
#          BR         NDA      ID1       ID2
     2.25607242E-03    2     1000022         5   # BR(~b_1 -> ~chi_10 b )
     2.37490391E-03    2     1000023         5   # BR(~b_1 -> ~chi_20 b )
     2.37489103E-03    2     1000025         5   # BR(~b_1 -> ~chi_30 b )
     2.19472081E-02    2     1000035         5   # BR(~b_1 -> ~chi_40 b )
     1.90866964E-01    2    -1000024         6   # BR(~b_1 -> ~chi_1- t )
     4.40647304E-02    2    -1000037         6   # BR(~b_1 -> ~chi_2- t )
     7.34496906E-01    2     1000021         5   # BR(~b_1 -> ~g      b )
     1.61832368E-03    2     1000006       -24   # BR(~b_1 -> ~t_1    W-)
#
#         PDG            Width
DECAY   2000005     2.62531910E+02   # sbottom2 decays
#          BR         NDA      ID1       ID2
     1.11733904E-02    2     1000022         5   # BR(~b_2 -> ~chi_10 b )
     3.24118170E-03    2     1000023         5   # BR(~b_2 -> ~chi_20 b )
     3.28076505E-03    2     1000025         5   # BR(~b_2 -> ~chi_30 b )
     6.90140728E-05    2     1000035         5   # BR(~b_2 -> ~chi_40 b )
     6.95489292E-03    2    -1000024         6   # BR(~b_2 -> ~chi_1- t )
     1.38573282E-04    2    -1000037         6   # BR(~b_2 -> ~chi_2- t )
     9.75120295E-01    2     1000021         5   # BR(~b_2 -> ~g      b )
     2.18874553E-05    2     1000006       -24   # BR(~b_2 -> ~t_1    W-)
#
#         PDG            Width
DECAY   1000002     2.81831116E+02   # sup_L decays
#          BR         NDA      ID1       ID2
     2.63615022E-03    2     1000022         2   # BR(~u_L -> ~chi_10 u)
     6.78006076E-05    2     1000023         2   # BR(~u_L -> ~chi_20 u)
     1.66810440E-06    2     1000025         2   # BR(~u_L -> ~chi_30 u)
     2.79076052E-02    2     1000035         2   # BR(~u_L -> ~chi_40 u)
     1.77364132E-04    2     1000024         1   # BR(~u_L -> ~chi_1+ d)
     5.57804693E-02    2     1000037         1   # BR(~u_L -> ~chi_2+ d)
     9.13428942E-01    2     1000021         2   # BR(~u_L -> ~g      u)
#
#         PDG            Width
DECAY   2000002     2.67926785E+02   # sup_R decays
#          BR         NDA      ID1       ID2
     4.41089703E-02    2     1000022         2   # BR(~u_R -> ~chi_10 u)
     1.79055041E-04    2     1000023         2   # BR(~u_R -> ~chi_20 u)
     1.66791624E-04    2     1000025         2   # BR(~u_R -> ~chi_30 u)
     2.68993218E-09    2     1000035         2   # BR(~u_R -> ~chi_40 u)
     9.55545180E-01    2     1000021         2   # BR(~u_R -> ~g      u)
#
#         PDG            Width
DECAY   1000001     2.81843610E+02   # sdown_L decays
#          BR         NDA      ID1       ID2
     2.62411379E-03    2     1000022         1   # BR(~d_L -> ~chi_10 d)
     2.88583954E-06    2     1000023         1   # BR(~d_L -> ~chi_20 d)
     5.77504168E-05    2     1000025         1   # BR(~d_L -> ~chi_30 d)
     2.79235325E-02    2     1000035         1   # BR(~d_L -> ~chi_40 d)
     5.37275654E-07    2    -1000024         2   # BR(~d_L -> ~chi_1- u)
     5.58676668E-02    2    -1000037         2   # BR(~d_L -> ~chi_2- u)
     9.13523513E-01    2     1000021         1   # BR(~d_L -> ~g      d)
#
#         PDG            Width
DECAY   2000001     2.59018084E+02   # sdown_R decays
#          BR         NDA      ID1       ID2
     1.14072003E-02    2     1000022         1   # BR(~d_R -> ~chi_10 d)
     4.63062556E-05    2     1000023         1   # BR(~d_R -> ~chi_20 d)
     4.31347572E-05    2     1000025         1   # BR(~d_R -> ~chi_30 d)
     6.95750644E-10    2     1000035         1   # BR(~d_R -> ~chi_40 d)
     9.88503358E-01    2     1000021         1   # BR(~d_R -> ~g      d)
#
#         PDG            Width
DECAY   1000004     2.81831116E+02   # scharm_L decays
#          BR         NDA      ID1       ID2
     2.63615022E-03    2     1000022         4   # BR(~c_L -> ~chi_10 c)
     6.78006076E-05    2     1000023         4   # BR(~c_L -> ~chi_20 c)
     1.66810440E-06    2     1000025         4   # BR(~c_L -> ~chi_30 c)
     2.79076052E-02    2     1000035         4   # BR(~c_L -> ~chi_40 c)
     1.77364132E-04    2     1000024         3   # BR(~c_L -> ~chi_1+ s)
     5.57804693E-02    2     1000037         3   # BR(~c_L -> ~chi_2+ s)
     9.13428942E-01    2     1000021         4   # BR(~c_L -> ~g      c)
#
#         PDG            Width
DECAY   2000004     2.67926785E+02   # scharm_R decays
#          BR         NDA      ID1       ID2
     4.41089703E-02    2     1000022         4   # BR(~c_R -> ~chi_10 c)
     1.79055041E-04    2     1000023         4   # BR(~c_R -> ~chi_20 c)
     1.66791624E-04    2     1000025         4   # BR(~c_R -> ~chi_30 c)
     2.68993218E-09    2     1000035         4   # BR(~c_R -> ~chi_40 c)
     9.55545180E-01    2     1000021         4   # BR(~c_R -> ~g      c)
#
#         PDG            Width
DECAY   1000003     2.81843610E+02   # sstrange_L decays
#          BR         NDA      ID1       ID2
     2.62411379E-03    2     1000022         3   # BR(~s_L -> ~chi_10 s)
     2.88583954E-06    2     1000023         3   # BR(~s_L -> ~chi_20 s)
     5.77504168E-05    2     1000025         3   # BR(~s_L -> ~chi_30 s)
     2.79235325E-02    2     1000035         3   # BR(~s_L -> ~chi_40 s)
     5.37275654E-07    2    -1000024         4   # BR(~s_L -> ~chi_1- c)
     5.58676668E-02    2    -1000037         4   # BR(~s_L -> ~chi_2- c)
     9.13523513E-01    2     1000021         3   # BR(~s_L -> ~g      s)
#
#         PDG            Width
DECAY   2000003     2.59018084E+02   # sstrange_R decays
#          BR         NDA      ID1       ID2
     1.14072003E-02    2     1000022         3   # BR(~s_R -> ~chi_10 s)
     4.63062556E-05    2     1000023         3   # BR(~s_R -> ~chi_20 s)
     4.31347572E-05    2     1000025         3   # BR(~s_R -> ~chi_30 s)
     6.95750644E-10    2     1000035         3   # BR(~s_R -> ~chi_40 s)
     9.88503358E-01    2     1000021         3   # BR(~s_R -> ~g      s)
#
#         PDG            Width
DECAY   1000011     3.03356721E+01   # selectron_L decays
#          BR         NDA      ID1       ID2
     2.24791901E-01    2     1000022        11   # BR(~e_L -> ~chi_10 e-)
     2.06763429E-03    2     1000023        11   # BR(~e_L -> ~chi_20 e-)
     2.38487480E-04    2     1000025        11   # BR(~e_L -> ~chi_30 e-)
     2.57465235E-01    2     1000035        11   # BR(~e_L -> ~chi_40 e-)
     5.09233422E-06    2    -1000024        12   # BR(~e_L -> ~chi_1- nu_e)
     5.15431650E-01    2    -1000037        12   # BR(~e_L -> ~chi_2- nu_e)
#
#         PDG            Width
DECAY   2000011     2.73972044E+01   # selectron_R decays
#          BR         NDA      ID1       ID2
     9.92228824E-01    2     1000022        11   # BR(~e_R -> ~chi_10 e-)
     4.02334867E-03    2     1000023        11   # BR(~e_R -> ~chi_20 e-)
     3.74776796E-03    2     1000025        11   # BR(~e_R -> ~chi_30 e-)
     5.89492793E-08    2     1000035        11   # BR(~e_R -> ~chi_40 e-)
#
#         PDG            Width
DECAY   1000013     3.03356721E+01   # smuon_L decays
#          BR         NDA      ID1       ID2
     2.24791901E-01    2     1000022        13   # BR(~mu_L -> ~chi_10 mu-)
     2.06763429E-03    2     1000023        13   # BR(~mu_L -> ~chi_20 mu-)
     2.38487480E-04    2     1000025        13   # BR(~mu_L -> ~chi_30 mu-)
     2.57465235E-01    2     1000035        13   # BR(~mu_L -> ~chi_40 mu-)
     5.09233422E-06    2    -1000024        14   # BR(~mu_L -> ~chi_1- nu_mu)
     5.15431650E-01    2    -1000037        14   # BR(~mu_L -> ~chi_2- nu_mu)
#
#         PDG            Width
DECAY   2000013     2.73972044E+01   # smuon_R decays
#          BR         NDA      ID1       ID2
     9.92228824E-01    2     1000022        13   # BR(~mu_R -> ~chi_10 mu-)
     4.02334867E-03    2     1000023        13   # BR(~mu_R -> ~chi_20 mu-)
     3.74776796E-03    2     1000025        13   # BR(~mu_R -> ~chi_30 mu-)
     5.89492793E-08    2     1000035        13   # BR(~mu_R -> ~chi_40 mu-)
#
#         PDG            Width
DECAY   1000015     2.92401699E+01   # stau_1 decays
#          BR         NDA      ID1       ID2
     9.28342875E-01    2     1000022        15   # BR(~tau_1 -> ~chi_10  tau-)
     1.91880751E-02    2     1000023        15   # BR(~tau_1 -> ~chi_20  tau-)
     1.84841221E-02    2     1000025        15   # BR(~tau_1 -> ~chi_30  tau-)
     8.47878721E-04    2     1000035        15   # BR(~tau_1 -> ~chi_40  tau-)
     3.14398005E-02    2    -1000024        16   # BR(~tau_1 -> ~chi_1-  nu_tau)
     1.69724841E-03    2    -1000037        16   # BR(~tau_1 -> ~chi_2-  nu_tau)
#
#         PDG            Width
DECAY   2000015     3.12430871E+01   # stau_2 decays
#          BR         NDA      ID1       ID2
     2.19780423E-01    2     1000022        15   # BR(~tau_2 -> ~chi_10  tau-)
     1.68952873E-02    2     1000023        15   # BR(~tau_2 -> ~chi_20  tau-)
     1.54646133E-02    2     1000025        15   # BR(~tau_2 -> ~chi_30  tau-)
     2.49105671E-01    2     1000035        15   # BR(~tau_2 -> ~chi_40  tau-)
     5.72462430E-05    2    -1000024        16   # BR(~tau_2 -> ~chi_1-  nu_tau)
     4.98696759E-01    2    -1000037        16   # BR(~tau_2 -> ~chi_2-  nu_tau)
#
#         PDG            Width
DECAY   1000012     3.03388685E+01   # snu_eL decays
#          BR         NDA      ID1       ID2
     2.24379324E-01    2     1000022        12   # BR(~nu_eL -> ~chi_10 nu_e)
     2.21666896E-04    2     1000023        12   # BR(~nu_eL -> ~chi_20 nu_e)
     1.83257368E-03    2     1000025        12   # BR(~nu_eL -> ~chi_30 nu_e)
     2.57507395E-01    2     1000035        12   # BR(~nu_eL -> ~chi_40 nu_e)
     1.68065126E-03    2     1000024        11   # BR(~nu_eL -> ~chi_1+ e-)
     5.14378389E-01    2     1000037        11   # BR(~nu_eL -> ~chi_2+ e-)
#
#         PDG            Width
DECAY   1000014     3.03388685E+01   # snu_muL decays
#          BR         NDA      ID1       ID2
     2.24379324E-01    2     1000022        14   # BR(~nu_muL -> ~chi_10 nu_mu)
     2.21666896E-04    2     1000023        14   # BR(~nu_muL -> ~chi_20 nu_mu)
     1.83257368E-03    2     1000025        14   # BR(~nu_muL -> ~chi_30 nu_mu)
     2.57507395E-01    2     1000035        14   # BR(~nu_muL -> ~chi_40 nu_mu)
     1.68065126E-03    2     1000024        13   # BR(~nu_muL -> ~chi_1+ mu-)
     5.14378389E-01    2     1000037        13   # BR(~nu_muL -> ~chi_2+ mu-)
#
#         PDG            Width
DECAY   1000016     3.12527512E+01   # snu_tauL decays
#          BR         NDA      ID1       ID2
     2.17794136E-01    2     1000022        16   # BR(~nu_tauL -> ~chi_10 nu_tau)
     2.15160377E-04    2     1000023        16   # BR(~nu_tauL -> ~chi_20 nu_tau)
     1.77878264E-03    2     1000025        16   # BR(~nu_tauL -> ~chi_30 nu_tau)
     2.49883925E-01    2     1000035        16   # BR(~nu_tauL -> ~chi_40 nu_tau)
     3.11782137E-02    2     1000024        15   # BR(~nu_tauL -> ~chi_1+ tau-)
     4.99149782E-01    2     1000037        15   # BR(~nu_tauL -> ~chi_2+ tau-)
#
#         PDG            Width
DECAY   1000024     2.94121137E-01   # chargino1+ decays
#          BR         NDA      ID1       ID2
     1.00000000E+00    2     1000022        24   # BR(~chi_1+ -> ~chi_10  W+)
#
#         PDG            Width
DECAY   1000037     2.21661407E+01   # chargino2+ decays
#          BR         NDA      ID1       ID2
     2.53562630E-01    2     1000024        23   # BR(~chi_2+ -> ~chi_1+  Z )
     1.56221916E-04    2     1000022        24   # BR(~chi_2+ -> ~chi_10  W+)
     2.44976276E-01    2     1000023        24   # BR(~chi_2+ -> ~chi_20  W+)
     2.44382621E-01    2     1000025        24   # BR(~chi_2+ -> ~chi_30  W+)
     2.56917070E-01    2     1000024        25   # BR(~chi_2+ -> ~chi_1+  h )
     5.18200407E-06    2     1000022        37   # BR(~chi_2+ -> ~chi_10  H+)
#
#         PDG            Width
DECAY   1000022     0.00000000E+00   # neutralino1 decays
#
#         PDG            Width
DECAY   1000023     2.97459275E-01   # neutralino2 decays
#          BR         NDA      ID1       ID2
     5.04313381E-01    2     1000022        23   # BR(~chi_20 -> ~chi_10   Z )
     4.95686619E-01    2     1000022        25   # BR(~chi_20 -> ~chi_10   h )
#
#         PDG            Width
DECAY   1000025     2.90365249E-01   # neutralino3 decays
#          BR         NDA      ID1       ID2
     5.33662630E-01    2     1000022        23   # BR(~chi_30 -> ~chi_10   Z )
     4.66337370E-01    2     1000022        25   # BR(~chi_30 -> ~chi_10   h )
#
#         PDG            Width
DECAY   1000035     2.21770977E+01   # neutralino4 decays
#          BR         NDA      ID1       ID2
     3.10010445E-06    2     1000022        23   # BR(~chi_40 -> ~chi_10   Z )
     1.12719084E-01    2     1000023        23   # BR(~chi_40 -> ~chi_20   Z )
     1.40404710E-01    2     1000025        23   # BR(~chi_40 -> ~chi_30   Z )
     2.45159524E-01    2     1000024       -24   # BR(~chi_40 -> ~chi_1+   W-)
     2.45159524E-01    2    -1000024        24   # BR(~chi_40 -> ~chi_1-   W+)
     1.45556922E-04    2     1000022        25   # BR(~chi_40 -> ~chi_10   h )
     4.98475465E-06    2     1000022        35   # BR(~chi_40 -> ~chi_10   H )
     5.44223932E-07    2     1000022        36   # BR(~chi_40 -> ~chi_10   A )
     1.43416769E-01    2     1000023        25   # BR(~chi_40 -> ~chi_20   h )
     1.12986202E-01    2     1000025        25   # BR(~chi_40 -> ~chi_30   h )
#
#         PDG            Width
DECAY        25     4.06554721E-03   # h decays
#          BR         NDA      ID1       ID2
     6.10745305E-01    2           5        -5   # BR(h -> b       bb     )
     6.37685322E-02    2         -15        15   # BR(h -> tau+    tau-   )
     2.25764088E-04    2         -13        13   # BR(h -> mu+     mu-    )
     4.78656633E-04    2           3        -3   # BR(h -> s       sb     )
     2.07392246E-02    2           4        -4   # BR(h -> c       cb     )
     6.70088994E-02    2          21        21   # BR(h -> g       g      )
     2.30156587E-03    2          22        22   # BR(h -> gam     gam    )
     1.47869859E-03    2          22        23   # BR(h -> Z       gam    )
     2.08377293E-01    2          24       -24   # BR(h -> W+      W-     )
     2.47934539E-02    2          23        23   # BR(h -> Z       Z      )
     8.26068970E-05    2     1000022   1000022   # BR(h -> ~chi_10 ~chi_10)
#
#         PDG            Width
DECAY        35     8.66216235E+00   # H decays
#          BR         NDA      ID1       ID2
     3.68435094E-01    2           5        -5   # BR(H -> b       bb     )
     6.43150206E-02    2         -15        15   # BR(H -> tau+    tau-   )
     2.27423022E-04    2         -13        13   # BR(H -> mu+     mu-    )
     2.78785715E-04    2           3        -3   # BR(H -> s       sb     )
     1.55960633E-06    2           4        -4   # BR(H -> c       cb     )
     1.55817029E-01    2           6        -6   # BR(H -> t       tb     )
     5.18202307E-05    2          21        21   # BR(H -> g       g      )
     1.49067830E-07    2          22        22   # BR(H -> gam     gam    )
     9.19380949E-08    2          23        22   # BR(H -> Z       gam    )
     7.43365031E-05    2          24       -24   # BR(H -> W+      W-     )
     3.71211959E-05    2          23        23   # BR(H -> Z       Z      )
     2.69628307E-04    2          25        25   # BR(H -> h       h      )
    -3.97213708E-23    2          36        36   # BR(H -> A       A      )
     6.17040671E-19    2          23        36   # BR(H -> Z       A      )
     3.17433723E-03    2     1000024  -1000024   # BR(H -> ~chi_1+ ~chi_1-)
     6.71473571E-03    2     1000022   1000022   # BR(H -> ~chi_10 ~chi_10)
     3.68903525E-04    2     1000023   1000023   # BR(H -> ~chi_20 ~chi_20)
     2.44836437E-03    2     1000025   1000025   # BR(H -> ~chi_30 ~chi_30)
     2.39534460E-01    2     1000022   1000023   # BR(H -> ~chi_10 ~chi_20)
     1.54927421E-01    2     1000022   1000025   # BR(H -> ~chi_10 ~chi_30)
     3.32371883E-03    2     1000023   1000025   # BR(H -> ~chi_20 ~chi_30)
#
#         PDG            Width
DECAY        36     8.66920188E+00   # A decays
#          BR         NDA      ID1       ID2
     3.68261677E-01    2           5        -5   # BR(A -> b       bb     )
     6.42647099E-02    2         -15        15   # BR(A -> tau+    tau-   )
     2.27244801E-04    2         -13        13   # BR(A -> mu+     mu-    )
     2.78770881E-04    2           3        -3   # BR(A -> s       sb     )
     1.56458064E-06    2           4        -4   # BR(A -> c       cb     )
     1.56227752E-01    2           6        -6   # BR(A -> t       tb     )
     1.54601343E-04    2          21        21   # BR(A -> g       g      )
     5.93660118E-07    2          22        22   # BR(A -> gam     gam    )
     1.87123503E-07    2          23        22   # BR(A -> Z       gam    )
     7.39954819E-05    2          23        25   # BR(A -> Z       h      )
     3.48624435E-03    2     1000024  -1000024   # BR(A -> ~chi_1+ ~chi_1-)
     6.67185512E-03    2     1000022   1000022   # BR(A -> ~chi_10 ~chi_10)
     2.71055517E-04    2     1000023   1000023   # BR(A -> ~chi_20 ~chi_20)
     4.22280480E-03    2     1000025   1000025   # BR(A -> ~chi_30 ~chi_30)
     1.58328452E-01    2     1000022   1000023   # BR(A -> ~chi_10 ~chi_20)
     2.35165893E-01    2     1000022   1000025   # BR(A -> ~chi_10 ~chi_30)
     2.36259847E-03    2     1000023   1000025   # BR(A -> ~chi_20 ~chi_30)
#
#         PDG            Width
DECAY        37     8.61130872E+00   # H+ decays
#          BR         NDA      ID1       ID2
     5.90493073E-04    2           4        -5   # BR(H+ -> c       bb     )
     6.47275995E-02    2         -15        16   # BR(H+ -> tau+    nu_tau )
     2.28881613E-04    2         -13        14   # BR(H+ -> mu+     nu_mu  )
     3.77913584E-06    2           2        -5   # BR(H+ -> u       bb     )
     1.34299737E-05    2           2        -3   # BR(H+ -> u       sb     )
     2.77732707E-04    2           4        -3   # BR(H+ -> c       sb     )
     5.23084915E-01    2           6        -5   # BR(H+ -> t       bb     )
     7.46476161E-05    2          24        25   # BR(H+ -> W+      h      )
     9.13091984E-13    2          24        36   # BR(H+ -> W+      A      )
     4.07200769E-01    2     1000024   1000022   # BR(H+ -> ~chi_1+ ~chi_10)
     3.46783823E-03    2     1000024   1000023   # BR(H+ -> ~chi_1+ ~chi_20)
     3.29913757E-04    2     1000024   1000025   # BR(H+ -> ~chi_1+ ~chi_30)
