#
#                              ======================
#                              | THE SUSYHIT OUTPUT |
#                              ======================
#
#
#              ------------------------------------------------------
#              |     This is the output of the SUSY-HIT package     |
#              |  created by A.Djouadi, M.Muehlleitner and M.Spira. |
#              |  In case of problems with SUSY-HIT email to        |
#              |           margarete.muehlleitner@cern.ch           |
#              |           michael.spira@psi.ch                     |
#              |           abdelhak.djouadi@cern.ch                 |
#              ------------------------------------------------------
#
#              ------------------------------------------------------
#              |  SUSY Les Houches Accord - MSSM Spectrum + Decays  |
#              |              based on the decay programs           |
#              |                                                    |
#              |                     SDECAY 1.3b                    |
#              |                                                    |
#              |  Authors: M.Muhlleitner, A.Djouadi and Y.Mambrini  |
#              |  Ref.:    Comput.Phys.Commun.168(2005)46           |
#              |           [hep-ph/0311167]                         |
#              |                                                    |
#              |                     HDECAY 3.4                     |
#              |                                                    |
#              |  By: A.Djouadi,J.Kalinowski,M.Muhlleitner,M.Spira  |
#              |  Ref.:    Comput.Phys.Commun.108(1998)56           |
#              |           [hep-ph/9704448]                         |
#              |                                                    |
#              |                                                    |
#              |  If not stated otherwise all DRbar couplings and   |
#              |  soft SUSY breaking masses are given at the scale  |
#              |  Q=  0.50007594E+04
#              |                                                    |
#              ------------------------------------------------------
#
#
BLOCK DCINFO  # Decay Program information
     1   SDECAY/HDECAY # decay calculator
     2   1.3b  /3.4    # version number
#
BLOCK SPINFO  # Spectrum calculator information
     1    SOFTSUSY    # spectrum calculator                
     2    3.4.0       # version number                     
#
BLOCK MODSEL  # Model selection
     1     0   #  nonUniversal                                     
#
BLOCK SMINPUTS  # Standard Model inputs
         1     1.25778332E+02   # alpha_em^-1(M_Z)^MSbar
         2     1.16570000E-05   # G_F [GeV^-2]
         3     1.17200002E-01   # alpha_S(M_Z)^MSbar
         4     9.11876000E+01   # M_Z pole mass
         5     4.25000000E+00   # mb(mb)^MSbar
         6     1.72500000E+02   # mt pole mass
         7     1.77682000E+00   # mtau pole mass
#
BLOCK MINPAR  # Input parameters - minimal models
         3     1.00000000E+01   # tanb                
#
BLOCK EXTPAR  # Input parameters - non-minimal models
         0    -1.00000000E+00   # Set                 
         1     6.00000000E+01   # M_1(MX)             
         2     3.00000000E+03   # M_2(MX)             
         3     1.57543100E+03   # M_3(MX)             
        11     5.00000000E+03   # At(MX)              
        12     5.00000000E+03   # Ab(MX)              
        13     0.00000000E+00   # Atau(MX)            
        23    -4.74918000E+02   # mu(MX)              
        26     3.00000000E+03   # mA(pole)            
        31     5.00000000E+03   # meL(MX)             
        32     5.00000000E+03   # mmuL(MX)            
        33     5.00000000E+03   # mtauL(MX)           
        34     5.00000000E+03   # meR(MX)             
        35     5.00000000E+03   # mmuR(MX)            
        36     5.00000000E+03   # mtauR(MX)           
        41     5.00000000E+03   # mqL1(MX)            
        42     5.00000000E+03   # mqL2(MX)            
        43     5.00000000E+03   # mqL3(MX)            
        44     5.00000000E+03   # muR(MX)             
        45     5.00000000E+03   # mcR(MX)             
        46     5.00000000E+03   # mtR(MX)             
        47     5.00000000E+03   # mdR(MX)             
        48     5.00000000E+03   # msR(MX)             
        49     5.00000000E+03   # mbR(MX)             
#
BLOCK MASS  # Mass Spectrum
# PDG code           mass       particle
        24     8.00927944E+01   # W+
        25     1.24730109E+02   # h
        35     3.00008577E+03   # H
        36     2.99999944E+03   # A
        37     3.00142974E+03   # H+
         5     4.87878001E+00   # b-quark pole mass calculated from mb(mb)_Msbar
   1000001     5.07070640E+03   # ~d_L
   2000001     5.05285830E+03   # ~d_R
   1000002     5.07023153E+03   # ~u_L
   2000002     5.05255786E+03   # ~u_R
   1000003     5.07070640E+03   # ~s_L
   2000003     5.05285830E+03   # ~s_R
   1000004     5.07023153E+03   # ~c_L
   2000004     5.05255786E+03   # ~c_R
   1000005     5.01659522E+03   # ~b_1
   2000005     5.05109674E+03   # ~b_2
   1000006     4.90751883E+03   # ~t_1
   2000006     5.06066869E+03   # ~t_2
   1000011     5.01910934E+03   # ~e_L
   2000011     5.00594393E+03   # ~e_R
   1000012     5.01815907E+03   # ~nu_eL
   1000013     5.01910934E+03   # ~mu_L
   2000013     5.00594393E+03   # ~mu_R
   1000014     5.01815907E+03   # ~nu_muL
   1000015     5.00477451E+03   # ~tau_1
   2000015     5.01863359E+03   # ~tau_2
   1000016     5.01760738E+03   # ~nu_tauL
   1000021     1.90000003E+03   # ~g
   1000022     6.02022928E+01   # ~chi_10
   1000023     5.00512766E+02   # ~chi_20
   1000025    -5.02708005E+02   # ~chi_30
   1000035     3.07418219E+03   # ~chi_40
   1000024     5.00000738E+02   # ~chi_1+
   1000037     3.07434990E+03   # ~chi_2+
#
BLOCK NMIX  # Neutralino Mixing Matrix
  1  1     9.96029129E-01   # N_11
  1  2     2.24938675E-04   # N_12
  1  3    -8.90146433E-02   # N_13
  1  4    -1.52240226E-03   # N_14
  2  1     6.40552375E-02   # N_21
  2  2     1.90073974E-02   # N_22
  2  3     7.04713559E-01   # N_23
  2  4     7.06338760E-01   # N_24
  3  1    -6.18283892E-02   # N_31
  3  2     1.70147191E-02   # N_32
  3  3    -7.03884391E-01   # N_33
  3  4     7.07413962E-01   # N_34
  4  1    -3.89702987E-04   # N_41
  4  2     9.99674531E-01   # N_42
  4  3    -1.39880791E-03   # N_43
  4  4    -2.54700586E-02   # N_44
#
BLOCK UMIX  # Chargino Mixing Matrix U
  1  1     1.98346506E-03   # U_11
  1  2     9.99998033E-01   # U_12
  2  1    -9.99998033E-01   # U_21
  2  2     1.98346506E-03   # U_22
#
BLOCK VMIX  # Chargino Mixing Matrix V
  1  1     3.60403770E-02   # V_11
  1  2    -9.99350335E-01   # V_12
  2  1    -9.99350335E-01   # V_21
  2  2    -3.60403770E-02   # V_22
#
BLOCK STOPMIX  # Stop Mixing Matrix
  1  1    -5.04228403E-01   # cos(theta_t)
  1  2     8.63570332E-01   # sin(theta_t)
  2  1    -8.63570332E-01   # -sin(theta_t)
  2  2    -5.04228403E-01   # cos(theta_t)
#
BLOCK SBOTMIX  # Sbottom Mixing Matrix
  1  1     9.98753421E-01   # cos(theta_b)
  1  2    -4.99159698E-02   # sin(theta_b)
  2  1     4.99159698E-02   # -sin(theta_b)
  2  2     9.98753421E-01   # cos(theta_b)
#
BLOCK STAUMIX  # Stau Mixing Matrix
  1  1    -5.69170665E-02   # cos(theta_tau)
  1  2     9.98378910E-01   # sin(theta_tau)
  2  1    -9.98378910E-01   # -sin(theta_tau)
  2  2    -5.69170665E-02   # cos(theta_tau)
#
BLOCK ALPHA  # Higgs mixing
          -1.05482178E-01   # Mixing angle in the neutral Higgs boson sector
#
BLOCK HMIX Q=  5.00075935E+03  # DRbar Higgs Parameters
         1    -4.83579804E+02   # mu(Q)MSSM           
         2     9.46953473E+00   # tan                 
         3     2.41752631E+02   # higgs               
         4     8.67752258E+06   # mA^2(Q)MSSM         
#
BLOCK GAUGE Q=  5.00075935E+03  # The gauge couplings
     1     3.70957864E-01   # gprime(Q) DRbar
     2     6.33336472E-01   # g(Q) DRbar
     3     9.99258179E-01   # g3(Q) DRbar
#
BLOCK AU Q=  5.00075935E+03  # The trilinear couplings
  1  1     5.00000001E+03   # A_u(Q) DRbar
  2  2     5.00000001E+03   # A_c(Q) DRbar
  3  3     5.00000002E+03   # A_t(Q) DRbar
#
BLOCK AD Q=  5.00075935E+03  # The trilinear couplings
  1  1     5.00000001E+03   # A_d(Q) DRbar
  2  2     5.00000001E+03   # A_s(Q) DRbar
  3  3     5.00000001E+03   # A_b(Q) DRbar
#
BLOCK AE Q=  5.00075935E+03  # The trilinear couplings
  1  1     0.00000000E+00   # A_e(Q) DRbar
  2  2     1.57386723E-07   # A_mu(Q) DRbar
  3  3     1.56958731E-07   # A_tau(Q) DRbar
#
BLOCK Yu Q=  5.00075935E+03  # The Yukawa couplings
  1  1     0.00000000E+00   # y_u(Q) DRbar
  2  2     0.00000000E+00   # y_c(Q) DRbar
  3  3     8.19864552E-01   # y_t(Q) DRbar
#
BLOCK Yd Q=  5.00075935E+03  # The Yukawa couplings
  1  1     0.00000000E+00   # y_d(Q) DRbar
  2  2     0.00000000E+00   # y_s(Q) DRbar
  3  3     1.29986760E-01   # y_b(Q) DRbar
#
BLOCK Ye Q=  5.00075935E+03  # The Yukawa couplings
  1  1     0.00000000E+00   # y_e(Q) DRbar
  2  2     0.00000000E+00   # y_mu(Q) DRbar
  3  3     9.71422217E-02   # y_tau(Q) DRbar
#
BLOCK MSOFT Q=  5.00075935E+03  # The soft SUSY breaking masses at the scale Q
         1     6.00000000E+01   # M_1(Q)              
         2     3.00000000E+03   # M_2(Q)              
         3     1.57543100E+03   # M_3(Q)              
        21     8.49003415E+06   # mH1^2(Q)            
        22     3.41666621E+05   # mH2^2(Q)            
        31     5.00000000E+03   # meL(Q)              
        32     5.00000000E+03   # mmuL(Q)             
        33     5.00000000E+03   # mtauL(Q)            
        34     5.00000000E+03   # meR(Q)              
        35     5.00000000E+03   # mmuR(Q)             
        36     5.00000000E+03   # mtauR(Q)            
        41     5.00000000E+03   # mqL1(Q)             
        42     5.00000000E+03   # mqL2(Q)             
        43     5.00000000E+03   # mqL3(Q)             
        44     5.00000000E+03   # muR(Q)              
        45     5.00000000E+03   # mcR(Q)              
        46     4.99999999E+03   # mtR(Q)              
        47     5.00000000E+03   # mdR(Q)              
        48     5.00000000E+03   # msR(Q)              
        49     5.00000000E+03   # mbR(Q)              
#
#
#
#                             =================
#                             |The decay table|
#                             =================
#
# - The QCD corrections to the decays gluino -> squark  + quark
#                                     squark -> gaugino + quark_prime
#                                     squark -> squark_prime + Higgs
#                                     squark -> gluino  + quark
#   are included.
#
# - The multi-body decays for the inos, stops and sbottoms are included.
#
# - The loop induced decays for the gluino, neutralinos and stops
#   are included.
#
# - The SUSY decays of the top quark are included.
#
#
#         PDG            Width
DECAY         6     1.40574001E+00   # top decays
#          BR         NDA      ID1       ID2
     1.00000000E+00    2           5        24   # BR(t ->  b    W+)
#
#         PDG            Width
DECAY   1000021     1.32323296E-03   # gluino decays
#          BR         NDA      ID1       ID2
     4.56716389E-07    2     1000022        21   # BR(~g -> ~chi_10 g)
     8.34844741E-03    2     1000023        21   # BR(~g -> ~chi_20 g)
     8.12202034E-03    2     1000025        21   # BR(~g -> ~chi_30 g)
#           BR         NDA      ID1       ID2       ID3
     1.34679051E-02    3     1000022         1        -1   # BR(~g -> ~chi_10 d  db)
     3.71422121E-05    3     1000023         1        -1   # BR(~g -> ~chi_20 d  db)
     3.90247739E-05    3     1000025         1        -1   # BR(~g -> ~chi_30 d  db)
     4.59263480E-02    3     1000022         2        -2   # BR(~g -> ~chi_10 u  ub)
     1.93809679E-04    3     1000023         2        -2   # BR(~g -> ~chi_20 u  ub)
     6.49316212E-05    3     1000025         2        -2   # BR(~g -> ~chi_30 u  ub)
     1.34679051E-02    3     1000022         3        -3   # BR(~g -> ~chi_10 s  sb)
     3.71422121E-05    3     1000023         3        -3   # BR(~g -> ~chi_20 s  sb)
     3.90247739E-05    3     1000025         3        -3   # BR(~g -> ~chi_30 s  sb)
     4.59263480E-02    3     1000022         4        -4   # BR(~g -> ~chi_10 c  cb)
     1.93809679E-04    3     1000023         4        -4   # BR(~g -> ~chi_20 c  cb)
     6.49316212E-05    3     1000025         4        -4   # BR(~g -> ~chi_30 c  cb)
     1.37818948E-02    3     1000022         5        -5   # BR(~g -> ~chi_10 b  bb)
     5.34522693E-03    3     1000023         5        -5   # BR(~g -> ~chi_20 b  bb)
     5.30607089E-03    3     1000025         5        -5   # BR(~g -> ~chi_30 b  bb)
     4.36961529E-02    3     1000022         6        -6   # BR(~g -> ~chi_10 t  tb)
     1.98218767E-01    3     1000023         6        -6   # BR(~g -> ~chi_20 t  tb)
     1.79743467E-01    3     1000025         6        -6   # BR(~g -> ~chi_30 t  tb)
     5.55394130E-05    3     1000024         1        -2   # BR(~g -> ~chi_1+ d  ub)
     5.55394130E-05    3    -1000024         2        -1   # BR(~g -> ~chi_1- u  db)
     5.55394130E-05    3     1000024         3        -4   # BR(~g -> ~chi_1+ s  cb)
     5.55394130E-05    3    -1000024         4        -3   # BR(~g -> ~chi_1- c  sb)
     2.08878508E-01    3     1000024         5        -6   # BR(~g -> ~chi_1+ b  tb)
     2.08878508E-01    3    -1000024         6        -5   # BR(~g -> ~chi_1- t  bb)
#
#         PDG            Width
DECAY   1000006     3.57538199E+02   # stop1 decays
#          BR         NDA      ID1       ID2
     2.45342582E-02    2     1000022         6   # BR(~t_1 -> ~chi_10 t )
     9.17961858E-02    2     1000023         6   # BR(~t_1 -> ~chi_20 t )
     8.68149863E-02    2     1000025         6   # BR(~t_1 -> ~chi_30 t )
     5.70102135E-03    2     1000035         6   # BR(~t_1 -> ~chi_40 t )
     1.32981438E-01    2     1000024         5   # BR(~t_1 -> ~chi_1+ b )
     1.13648166E-02    2     1000037         5   # BR(~t_1 -> ~chi_2+ b )
     6.46807294E-01    2     1000021         6   # BR(~t_1 -> ~g      t )
#
#         PDG            Width
DECAY   2000006     3.61676061E+02   # stop2 decays
#          BR         NDA      ID1       ID2
     9.68904995E-03    2     1000022         6   # BR(~t_2 -> ~chi_10 t )
     9.06032880E-02    2     1000023         6   # BR(~t_2 -> ~chi_20 t )
     9.61271052E-02    2     1000025         6   # BR(~t_2 -> ~chi_30 t )
     1.54841654E-02    2     1000035         6   # BR(~t_2 -> ~chi_40 t )
     5.35745059E-02    2     1000024         5   # BR(~t_2 -> ~chi_1+ b )
     3.08313538E-02    2     1000037         5   # BR(~t_2 -> ~chi_2+ b )
     7.00302340E-01    2     1000021         6   # BR(~t_2 -> ~g      t )
     7.82486974E-04    2     1000006        25   # BR(~t_2 -> ~t_1    h )
     2.60570508E-03    2     1000006        23   # BR(~t_2 -> ~t_1    Z )
#
#         PDG            Width
DECAY   1000005     3.36940878E+02   # sbottom1 decays
#          BR         NDA      ID1       ID2
     2.30980992E-03    2     1000022         5   # BR(~b_1 -> ~chi_10 b )
     2.43418109E-03    2     1000023         5   # BR(~b_1 -> ~chi_20 b )
     2.43431715E-03    2     1000025         5   # BR(~b_1 -> ~chi_30 b )
     2.24983026E-02    2     1000035         5   # BR(~b_1 -> ~chi_40 b )
     1.95587501E-01    2    -1000024         6   # BR(~b_1 -> ~chi_1- t )
     4.51711935E-02    2    -1000037         6   # BR(~b_1 -> ~chi_2- t )
     7.27914028E-01    2     1000021         5   # BR(~b_1 -> ~g      b )
     1.65066638E-03    2     1000006       -24   # BR(~b_1 -> ~t_1    W-)
#
#         PDG            Width
DECAY   2000005     2.54347852E+02   # sbottom2 decays
#          BR         NDA      ID1       ID2
     1.15305173E-02    2     1000022         5   # BR(~b_2 -> ~chi_10 b )
     3.34742022E-03    2     1000023         5   # BR(~b_2 -> ~chi_20 b )
     3.38804368E-03    2     1000025         5   # BR(~b_2 -> ~chi_30 b )
     7.06558773E-05    2     1000035         5   # BR(~b_2 -> ~chi_40 b )
     7.17782912E-03    2    -1000024         6   # BR(~b_2 -> ~chi_1- t )
     1.41870766E-04    2    -1000037         6   # BR(~b_2 -> ~chi_2- t )
     9.74321143E-01    2     1000021         5   # BR(~b_2 -> ~g      b )
     2.25198295E-05    2     1000006       -24   # BR(~b_2 -> ~t_1    W-)
#
#         PDG            Width
DECAY   1000002     2.73688473E+02   # sup_L decays
#          BR         NDA      ID1       ID2
     2.71386900E-03    2     1000022         2   # BR(~u_L -> ~chi_10 u)
     6.98025487E-05    2     1000023         2   # BR(~u_L -> ~chi_20 u)
     1.71729407E-06    2     1000025         2   # BR(~u_L -> ~chi_30 u)
     2.87599799E-02    2     1000035         2   # BR(~u_L -> ~chi_40 u)
     1.82600775E-04    2     1000024         1   # BR(~u_L -> ~chi_1+ d)
     5.74841661E-02    2     1000037         1   # BR(~u_L -> ~chi_2+ d)
     9.10787864E-01    2     1000021         2   # BR(~u_L -> ~g      u)
#
#         PDG            Width
DECAY   2000002     2.59742252E+02   # sup_R decays
#          BR         NDA      ID1       ID2
     4.54868259E-02    2     1000022         2   # BR(~u_R -> ~chi_10 u)
     1.84658219E-04    2     1000023         2   # BR(~u_R -> ~chi_20 u)
     1.72012876E-04    2     1000025         2   # BR(~u_R -> ~chi_30 u)
     2.77675716E-09    2     1000035         2   # BR(~u_R -> ~chi_40 u)
     9.54156500E-01    2     1000021         2   # BR(~u_R -> ~g      u)
#
#         PDG            Width
DECAY   1000001     2.73701526E+02   # sdown_L decays
#          BR         NDA      ID1       ID2
     2.70146830E-03    2     1000022         1   # BR(~d_L -> ~chi_10 d)
     2.97093202E-06    2     1000023         1   # BR(~d_L -> ~chi_20 d)
     5.94560181E-05    2     1000025         1   # BR(~d_L -> ~chi_30 d)
     2.87762825E-02    2     1000035         1   # BR(~d_L -> ~chi_40 d)
     5.53088935E-07    2    -1000024         2   # BR(~d_L -> ~chi_1- u)
     5.75738023E-02    2    -1000037         2   # BR(~d_L -> ~chi_2- u)
     9.10885467E-01    2     1000021         1   # BR(~d_L -> ~g      d)
#
#         PDG            Width
DECAY   2000001     2.50836257E+02   # sdown_R decays
#          BR         NDA      ID1       ID2
     1.17761692E-02    2     1000022         1   # BR(~d_R -> ~chi_10 d)
     4.78066162E-05    2     1000023         1   # BR(~d_R -> ~chi_20 d)
     4.45328335E-05    2     1000025         1   # BR(~d_R -> ~chi_30 d)
     7.18979196E-10    2     1000035         1   # BR(~d_R -> ~chi_40 d)
     9.88131491E-01    2     1000021         1   # BR(~d_R -> ~g      d)
#
#         PDG            Width
DECAY   1000004     2.73688473E+02   # scharm_L decays
#          BR         NDA      ID1       ID2
     2.71386900E-03    2     1000022         4   # BR(~c_L -> ~chi_10 c)
     6.98025487E-05    2     1000023         4   # BR(~c_L -> ~chi_20 c)
     1.71729407E-06    2     1000025         4   # BR(~c_L -> ~chi_30 c)
     2.87599799E-02    2     1000035         4   # BR(~c_L -> ~chi_40 c)
     1.82600775E-04    2     1000024         3   # BR(~c_L -> ~chi_1+ s)
     5.74841661E-02    2     1000037         3   # BR(~c_L -> ~chi_2+ s)
     9.10787864E-01    2     1000021         4   # BR(~c_L -> ~g      c)
#
#         PDG            Width
DECAY   2000004     2.59742252E+02   # scharm_R decays
#          BR         NDA      ID1       ID2
     4.54868259E-02    2     1000022         4   # BR(~c_R -> ~chi_10 c)
     1.84658219E-04    2     1000023         4   # BR(~c_R -> ~chi_20 c)
     1.72012876E-04    2     1000025         4   # BR(~c_R -> ~chi_30 c)
     2.77675716E-09    2     1000035         4   # BR(~c_R -> ~chi_40 c)
     9.54156500E-01    2     1000021         4   # BR(~c_R -> ~g      c)
#
#         PDG            Width
DECAY   1000003     2.73701526E+02   # sstrange_L decays
#          BR         NDA      ID1       ID2
     2.70146830E-03    2     1000022         3   # BR(~s_L -> ~chi_10 s)
     2.97093202E-06    2     1000023         3   # BR(~s_L -> ~chi_20 s)
     5.94560181E-05    2     1000025         3   # BR(~s_L -> ~chi_30 s)
     2.87762825E-02    2     1000035         3   # BR(~s_L -> ~chi_40 s)
     5.53088935E-07    2    -1000024         4   # BR(~s_L -> ~chi_1- c)
     5.75738023E-02    2    -1000037         4   # BR(~s_L -> ~chi_2- c)
     9.10885467E-01    2     1000021         3   # BR(~s_L -> ~g      s)
#
#         PDG            Width
DECAY   2000003     2.50836257E+02   # sstrange_R decays
#          BR         NDA      ID1       ID2
     1.17761692E-02    2     1000022         3   # BR(~s_R -> ~chi_10 s)
     4.78066162E-05    2     1000023         3   # BR(~s_R -> ~chi_20 s)
     4.45328335E-05    2     1000025         3   # BR(~s_R -> ~chi_30 s)
     7.18979196E-10    2     1000035         3   # BR(~s_R -> ~chi_40 s)
     9.88131491E-01    2     1000021         3   # BR(~s_R -> ~g      s)
#
#         PDG            Width
DECAY   1000011     3.03352177E+01   # selectron_L decays
#          BR         NDA      ID1       ID2
     2.24793006E-01    2     1000022        11   # BR(~e_L -> ~chi_10 e-)
     2.06757770E-03    2     1000023        11   # BR(~e_L -> ~chi_20 e-)
     2.38488170E-04    2     1000025        11   # BR(~e_L -> ~chi_30 e-)
     2.57464889E-01    2     1000035        11   # BR(~e_L -> ~chi_40 e-)
     5.09172374E-06    2    -1000024        12   # BR(~e_L -> ~chi_1- nu_e)
     5.15430947E-01    2    -1000037        12   # BR(~e_L -> ~chi_2- nu_e)
#
#         PDG            Width
DECAY   2000011     2.73969249E+01   # selectron_R decays
#          BR         NDA      ID1       ID2
     9.92228995E-01    2     1000022        11   # BR(~e_R -> ~chi_10 e-)
     4.02324063E-03    2     1000023        11   # BR(~e_R -> ~chi_20 e-)
     3.74770564E-03    2     1000025        11   # BR(~e_R -> ~chi_30 e-)
     5.89468241E-08    2     1000035        11   # BR(~e_R -> ~chi_40 e-)
#
#         PDG            Width
DECAY   1000013     3.03352177E+01   # smuon_L decays
#          BR         NDA      ID1       ID2
     2.24793006E-01    2     1000022        13   # BR(~mu_L -> ~chi_10 mu-)
     2.06757770E-03    2     1000023        13   # BR(~mu_L -> ~chi_20 mu-)
     2.38488170E-04    2     1000025        13   # BR(~mu_L -> ~chi_30 mu-)
     2.57464889E-01    2     1000035        13   # BR(~mu_L -> ~chi_40 mu-)
     5.09172374E-06    2    -1000024        14   # BR(~mu_L -> ~chi_1- nu_mu)
     5.15430947E-01    2    -1000037        14   # BR(~mu_L -> ~chi_2- nu_mu)
#
#         PDG            Width
DECAY   2000013     2.73969249E+01   # smuon_R decays
#          BR         NDA      ID1       ID2
     9.92228995E-01    2     1000022        13   # BR(~mu_R -> ~chi_10 mu-)
     4.02324063E-03    2     1000023        13   # BR(~mu_R -> ~chi_20 mu-)
     3.74770564E-03    2     1000025        13   # BR(~mu_R -> ~chi_30 mu-)
     5.89468241E-08    2     1000035        13   # BR(~mu_R -> ~chi_40 mu-)
#
#         PDG            Width
DECAY   1000015     2.92398365E+01   # stau_1 decays
#          BR         NDA      ID1       ID2
     9.28344141E-01    2     1000022        15   # BR(~tau_1 -> ~chi_10  tau-)
     1.91877053E-02    2     1000023        15   # BR(~tau_1 -> ~chi_20  tau-)
     1.84838121E-02    2     1000025        15   # BR(~tau_1 -> ~chi_30  tau-)
     8.47869465E-04    2     1000035        15   # BR(~tau_1 -> ~chi_40  tau-)
     3.14392426E-02    2    -1000024        16   # BR(~tau_1 -> ~chi_1-  nu_tau)
     1.69722985E-03    2    -1000037        16   # BR(~tau_1 -> ~chi_2-  nu_tau)
#
#         PDG            Width
DECAY   2000015     3.12426069E+01   # stau_2 decays
#          BR         NDA      ID1       ID2
     2.19781586E-01    2     1000022        15   # BR(~tau_2 -> ~chi_10  tau-)
     1.68950278E-02    2     1000023        15   # BR(~tau_2 -> ~chi_20  tau-)
     1.54644069E-02    2     1000025        15   # BR(~tau_2 -> ~chi_30  tau-)
     2.49105442E-01    2     1000035        15   # BR(~tau_2 -> ~chi_40  tau-)
     5.72467208E-05    2    -1000024        16   # BR(~tau_2 -> ~chi_1-  nu_tau)
     4.98696291E-01    2    -1000037        16   # BR(~tau_2 -> ~chi_2-  nu_tau)
#
#         PDG            Width
DECAY   1000012     3.03384140E+01   # snu_eL decays
#          BR         NDA      ID1       ID2
     2.24380420E-01    2     1000022        12   # BR(~nu_eL -> ~chi_10 nu_e)
     2.21665538E-04    2     1000023        12   # BR(~nu_eL -> ~chi_20 nu_e)
     1.83254209E-03    2     1000025        12   # BR(~nu_eL -> ~chi_30 nu_e)
     2.57507053E-01    2     1000035        12   # BR(~nu_eL -> ~chi_40 nu_e)
     1.68059507E-03    2     1000024        11   # BR(~nu_eL -> ~chi_1+ e-)
     5.14377725E-01    2     1000037        11   # BR(~nu_eL -> ~chi_2+ e-)
#
#         PDG            Width
DECAY   1000014     3.03384140E+01   # snu_muL decays
#          BR         NDA      ID1       ID2
     2.24380420E-01    2     1000022        14   # BR(~nu_muL -> ~chi_10 nu_mu)
     2.21665538E-04    2     1000023        14   # BR(~nu_muL -> ~chi_20 nu_mu)
     1.83254209E-03    2     1000025        14   # BR(~nu_muL -> ~chi_30 nu_mu)
     2.57507053E-01    2     1000035        14   # BR(~nu_muL -> ~chi_40 nu_mu)
     1.68059507E-03    2     1000024        13   # BR(~nu_muL -> ~chi_1+ mu-)
     5.14377725E-01    2     1000037        13   # BR(~nu_muL -> ~chi_2+ mu-)
#
#         PDG            Width
DECAY   1000016     3.12522701E+01   # snu_tauL decays
#          BR         NDA      ID1       ID2
     2.17795290E-01    2     1000022        16   # BR(~nu_tauL -> ~chi_10 nu_tau)
     2.15159148E-04    2     1000023        16   # BR(~nu_tauL -> ~chi_20 nu_tau)
     1.77875273E-03    2     1000025        16   # BR(~nu_tauL -> ~chi_30 nu_tau)
     2.49883698E-01    2     1000035        16   # BR(~nu_tauL -> ~chi_40 nu_tau)
     3.11777537E-02    2     1000024        15   # BR(~nu_tauL -> ~chi_1+ tau-)
     4.99149346E-01    2     1000037        15   # BR(~nu_tauL -> ~chi_2+ tau-)
#
#         PDG            Width
DECAY   1000024     2.94108974E-01   # chargino1+ decays
#          BR         NDA      ID1       ID2
     1.00000000E+00    2     1000022        24   # BR(~chi_1+ -> ~chi_10  W+)
#
#         PDG            Width
DECAY   1000037     2.21651715E+01   # chargino2+ decays
#          BR         NDA      ID1       ID2
     2.53561556E-01    2     1000024        23   # BR(~chi_2+ -> ~chi_1+  Z )
     1.56224601E-04    2     1000022        24   # BR(~chi_2+ -> ~chi_10  W+)
     2.44973892E-01    2     1000023        24   # BR(~chi_2+ -> ~chi_20  W+)
     2.44380155E-01    2     1000025        24   # BR(~chi_2+ -> ~chi_30  W+)
     2.56922990E-01    2     1000024        25   # BR(~chi_2+ -> ~chi_1+  h )
     5.18169097E-06    2     1000022        37   # BR(~chi_2+ -> ~chi_10  H+)
#
#         PDG            Width
DECAY   1000022     0.00000000E+00   # neutralino1 decays
#
#         PDG            Width
DECAY   1000023     2.97445248E-01   # neutralino2 decays
#          BR         NDA      ID1       ID2
     5.04321904E-01    2     1000022        23   # BR(~chi_20 -> ~chi_10   Z )
     4.95678096E-01    2     1000022        25   # BR(~chi_20 -> ~chi_10   h )
#
#         PDG            Width
DECAY   1000025     2.90349936E-01   # neutralino3 decays
#          BR         NDA      ID1       ID2
     5.33668897E-01    2     1000022        23   # BR(~chi_30 -> ~chi_10   Z )
     4.66331103E-01    2     1000022        25   # BR(~chi_30 -> ~chi_10   h )
#
#         PDG            Width
DECAY   1000035     2.21761278E+01   # neutralino4 decays
#          BR         NDA      ID1       ID2
     3.10003575E-06    2     1000022        23   # BR(~chi_40 -> ~chi_10   Z )
     1.12719233E-01    2     1000023        23   # BR(~chi_40 -> ~chi_20   Z )
     1.40403505E-01    2     1000025        23   # BR(~chi_40 -> ~chi_30   Z )
     2.45157075E-01    2     1000024       -24   # BR(~chi_40 -> ~chi_1+   W-)
     2.45157075E-01    2    -1000024        24   # BR(~chi_40 -> ~chi_1-   W+)
     1.45563414E-04    2     1000022        25   # BR(~chi_40 -> ~chi_10   h )
     4.98452751E-06    2     1000022        35   # BR(~chi_40 -> ~chi_10   H )
     5.44165722E-07    2     1000022        36   # BR(~chi_40 -> ~chi_10   A )
     1.43419386E-01    2     1000023        25   # BR(~chi_40 -> ~chi_20   h )
     1.12989533E-01    2     1000025        25   # BR(~chi_40 -> ~chi_30   h )
#
#         PDG            Width
DECAY        25     4.06771846E-03   # h decays
#          BR         NDA      ID1       ID2
     6.10264334E-01    2           5        -5   # BR(h -> b       bb     )
     6.37471377E-02    2         -15        15   # BR(h -> tau+    tau-   )
     2.25688236E-04    2         -13        13   # BR(h -> mu+     mu-    )
     4.78477494E-04    2           3        -3   # BR(h -> s       sb     )
     2.07314305E-02    2           4        -4   # BR(h -> c       cb     )
     6.70118637E-02    2          21        21   # BR(h -> g       g      )
     2.30222866E-03    2          22        22   # BR(h -> gam     gam    )
     1.48119044E-03    2          22        23   # BR(h -> Z       gam    )
     2.08817678E-01    2          24       -24   # BR(h -> W+      W-     )
     2.48567168E-02    2          23        23   # BR(h -> Z       Z      )
     8.32552043E-05    2     1000022   1000022   # BR(h -> ~chi_10 ~chi_10)
#
#         PDG            Width
DECAY        35     8.66181061E+00   # H decays
#          BR         NDA      ID1       ID2
     3.68409506E-01    2           5        -5   # BR(H -> b       bb     )
     6.43139720E-02    2         -15        15   # BR(H -> tau+    tau-   )
     2.27419313E-04    2         -13        13   # BR(H -> mu+     mu-    )
     2.78781165E-04    2           3        -3   # BR(H -> s       sb     )
     1.55976073E-06    2           4        -4   # BR(H -> c       cb     )
     1.55832455E-01    2           6        -6   # BR(H -> t       tb     )
     5.18269549E-05    2          21        21   # BR(H -> g       g      )
     1.49089718E-07    2          22        22   # BR(H -> gam     gam    )
     9.19531458E-08    2          23        22   # BR(H -> Z       gam    )
     7.43865714E-05    2          24       -24   # BR(H -> W+      W-     )
     3.71461990E-05    2          23        23   # BR(H -> Z       Z      )
     2.69674024E-04    2          25        25   # BR(H -> h       h      )
     7.61694665E-24    2          36        36   # BR(H -> A       A      )
     5.78012829E-19    2          23        36   # BR(H -> Z       A      )
     3.17437595E-03    2     1000024  -1000024   # BR(H -> ~chi_1+ ~chi_1-)
     6.71476593E-03    2     1000022   1000022   # BR(H -> ~chi_10 ~chi_10)
     3.68901664E-04    2     1000023   1000023   # BR(H -> ~chi_20 ~chi_20)
     2.44837876E-03    2     1000025   1000025   # BR(H -> ~chi_30 ~chi_30)
     2.39542241E-01    2     1000022   1000023   # BR(H -> ~chi_10 ~chi_20)
     1.54930613E-01    2     1000022   1000025   # BR(H -> ~chi_10 ~chi_30)
     3.32375523E-03    2     1000023   1000025   # BR(H -> ~chi_20 ~chi_30)
#
#         PDG            Width
DECAY        36     8.66884756E+00   # A decays
#          BR         NDA      ID1       ID2
     3.68236183E-01    2           5        -5   # BR(A -> b       bb     )
     6.42636795E-02    2         -15        15   # BR(A -> tau+    tau-   )
     2.27241157E-04    2         -13        13   # BR(A -> mu+     mu-    )
     2.78766419E-04    2           3        -3   # BR(A -> s       sb     )
     1.56473363E-06    2           4        -4   # BR(A -> c       cb     )
     1.56243029E-01    2           6        -6   # BR(A -> t       tb     )
     1.54612803E-04    2          21        21   # BR(A -> g       g      )
     5.93703849E-07    2          22        22   # BR(A -> gam     gam    )
     1.87145741E-07    2          23        22   # BR(A -> Z       gam    )
     7.40451870E-05    2          23        25   # BR(A -> Z       h      )
     3.48628937E-03    2     1000024  -1000024   # BR(A -> ~chi_1+ ~chi_1-)
     6.67189246E-03    2     1000022   1000022   # BR(A -> ~chi_10 ~chi_10)
     2.71050902E-04    2     1000023   1000023   # BR(A -> ~chi_20 ~chi_20)
     4.22288280E-03    2     1000025   1000025   # BR(A -> ~chi_30 ~chi_30)
     1.58331676E-01    2     1000022   1000023   # BR(A -> ~chi_10 ~chi_20)
     2.35173700E-01    2     1000022   1000025   # BR(A -> ~chi_10 ~chi_30)
     2.36260534E-03    2     1000023   1000025   # BR(A -> ~chi_20 ~chi_30)
#
#         PDG            Width
DECAY        37     8.61229346E+00   # H+ decays
#          BR         NDA      ID1       ID2
     5.90609113E-04    2           4        -5   # BR(H+ -> c       bb     )
     6.47165179E-02    2         -15        16   # BR(H+ -> tau+    nu_tau )
     2.28842428E-04    2         -13        14   # BR(H+ -> mu+     nu_mu  )
     3.77987849E-06    2           2        -5   # BR(H+ -> u       bb     )
     1.34276744E-05    2           2        -3   # BR(H+ -> u       sb     )
     2.77685329E-04    2           4        -3   # BR(H+ -> c       sb     )
     5.23148462E-01    2           6        -5   # BR(H+ -> t       bb     )
     7.46861733E-05    2          24        25   # BR(H+ -> W+      h      )
     9.13339017E-13    2          24        36   # BR(H+ -> W+      A      )
     4.07148800E-01    2     1000024   1000022   # BR(H+ -> ~chi_1+ ~chi_10)
     3.46732025E-03    2     1000024   1000023   # BR(H+ -> ~chi_1+ ~chi_20)
     3.29869280E-04    2     1000024   1000025   # BR(H+ -> ~chi_1+ ~chi_30)
