#
#                              ======================
#                              | THE SUSYHIT OUTPUT |
#                              ======================
#
#
#              ------------------------------------------------------
#              |     This is the output of the SUSY-HIT package     |
#              |  created by A.Djouadi, M.Muehlleitner and M.Spira. |
#              |  In case of problems with SUSY-HIT email to        |
#              |           margarete.muehlleitner@kit.edu           |
#              |           michael.spira@psi.ch                     |
#              |           abdelhak.djouadi@cern.ch                 |
#              ------------------------------------------------------
#
#              ------------------------------------------------------
#              |  SUSY Les Houches Accord - MSSM Spectrum + Decays  |
#              |              based on the decay programs           |
#              |                                                    |
#              |                     SDECAY 1.5a                    |
#              |                                                    |
#              |  Authors: M.Muhlleitner, A.Djouadi and Y.Mambrini  |
#              |  Ref.:    Comput.Phys.Commun.168(2005)46           |
#              |           [hep-ph/0311167]                         |
#              |                                                    |
#              |                     HDECAY 3.4                     |
#              |                                                    |
#              |  By: A.Djouadi,J.Kalinowski,M.Muhlleitner,M.Spira  |
#              |  Ref.:    Comput.Phys.Commun.108(1998)56           |
#              |           [hep-ph/9704448]                         |
#              |                                                    |
#              |                                                    |
#              |  If not stated otherwise all DRbar couplings and   |
#              |  soft SUSY breaking masses are given at the scale  |
#              |  Q=  0.91187600E+02
#              |                                                    |
#              ------------------------------------------------------
#
#
BLOCK DCINFO  # Decay Program information
     1   SDECAY/HDECAY # decay calculator
     2   1.5a /3.4    # version number
#
BLOCK SPINFO  # Spectrum calculator information
     1   SuSpect     # RGE +Spectrum calculator            
     2   2.43         # version number                     
#
BLOCK MODSEL  # Model selection
     1     2   # GMSB                                              
#
BLOCK SMINPUTS  # Standard Model inputs
         1     1.27932904E+02   # alpha_em^-1(M_Z)^MSbar
         2     1.16639000E-05   # G_F [GeV^-2]
         3     1.17200000E-01   # alpha_S(M_Z)^MSbar
         4     9.11870000E+01   # M_Z pole mass
         5     4.25000000E+00   # mb(mb)^MSbar
         6     1.72900000E+02   # mt pole mass
         7     1.77700000E+00   # mtau pole mass
#
BLOCK MINPAR  # Input parameters - minimal models
#
BLOCK EXTPAR  # Input parameters - non-minimal models
         0     9.11876000E+01   # EWSB                
         1     2.42300000E+03   # M_1                 
         2     3.00000000E+03   # M_2                 
         3     2.80000000E+03   # M_3                 
        11     0.00000000E+00   # A_t                 
        12     0.00000000E+00   # A_b                 
        13     0.00000000E+00   # A_tau               
        14     0.00000000E+00   # A_u                 
        15     0.00000000E+00   # A_d                 
        16     0.00000000E+00   # A_e                 
        23     2.45000000E+03   # mu(EWSB)            
        25     1.50000000E+00   # tanbeta(in)         
        26     2.00000000E+03   # MA_pole             
        31     5.00000000E+03   # M_eL                
        32     5.00000000E+03   # M_muL               
        33     5.00000000E+03   # M_tauL              
        34     5.00000000E+03   # M_eR                
        35     5.00000000E+03   # M_muR               
        36     5.00000000E+03   # M_tauR              
        41     5.00000000E+03   # M_q1L               
        42     5.00000000E+03   # M_q2L               
        43     5.00000000E+03   # M_q3L               
        44     5.00000000E+03   # M_uR                
        45     5.00000000E+03   # M_cR                
        46     5.00000000E+03   # M_tR                
        47     5.00000000E+03   # M_dR                
        48     5.00000000E+03   # M_sR                
        49     5.00000000E+03   # M_bR                
#
BLOCK MASS  # Mass Spectrum
# PDG code           mass       particle
        24     8.05426328E+01   # W+
        25     1.25000000E+02   # h
        35     2.00397425E+03   # H
        36     2.00000000E+03   # A
        37     2.00152542E+03   # H+
         5     4.87877839E+00   # b-quark pole mass calculated from mb(mb)_Msbar
   1000001     5.00013293E+03   # ~d_L
   2000001     5.00002540E+03   # ~d_R
   1000002     4.99989247E+03   # ~u_L
   2000002     4.99994920E+03   # ~u_R
   1000003     5.00013293E+03   # ~s_L
   2000003     5.00002540E+03   # ~s_R
   1000004     4.99989247E+03   # ~c_L
   2000004     4.99994920E+03   # ~c_R
   1000005     4.99909272E+03   # ~b_1
   2000005     5.00106685E+03   # ~b_2
   1000006     4.97734254E+03   # ~t_1
   2000006     5.02700057E+03   # ~t_2
   1000011     5.00008213E+03   # ~e_L
   2000011     5.00007621E+03   # ~e_R
   1000012     4.99984166E+03   # ~nu_eL
   1000013     5.00008213E+03   # ~mu_L
   2000013     5.00007621E+03   # ~mu_R
   1000014     4.99984166E+03   # ~nu_muL
   1000015     4.99942565E+03   # ~tau_1
   2000015     5.00073323E+03   # ~tau_2
   1000016     4.99984166E+03   # ~nu_tauL
   1000021     2.80000000E+03   # ~g
   1000022     2.38712256E+03   # ~chi_10
   1000023    -2.45005978E+03   # ~chi_20
   1000025     2.47511120E+03   # ~chi_30
   1000035     3.01082602E+03   # ~chi_40
   1000024     2.43932296E+03   # ~chi_1+
   1000037     3.01076529E+03   # ~chi_2+
   1000039     1.00000000E-09   # ~gravitino
#
BLOCK NMIX  # Neutralino Mixing Matrix
  1  1     7.69877542E-01   # N_11
  1  2    -8.00571951E-02   # N_12
  1  3     4.48867354E-01   # N_13
  1  4    -4.46539488E-01   # N_14
  2  1     1.79193251E-03   # N_21
  2  2    -2.84611884E-03   # N_22
  2  3    -7.07059650E-01   # N_23
  2  4    -7.07145912E-01   # N_24
  3  1     6.38106510E-01   # N_31
  3  2     1.12535067E-01   # N_32
  3  3    -5.38039380E-01   # N_33
  3  4     5.39137800E-01   # N_34
  4  1     1.02684622E-02   # N_41
  4  2    -9.90413350E-01   # N_42
  4  3    -9.53854096E-02   # N_43
  4  4     9.93860074E-02   # N_44
#
BLOCK UMIX  # Chargino Mixing Matrix U
  1  1    -1.34153943E-01   # U_11
  1  2     9.90960504E-01   # U_12
  2  1     9.90960504E-01   # U_21
  2  2     1.34153943E-01   # U_22
#
BLOCK VMIX  # Chargino Mixing Matrix V
  1  1    -1.39790836E-01   # V_11
  1  2     9.90181055E-01   # V_12
  2  1     9.90181055E-01   # V_21
  2  2     1.39790836E-01   # V_22
#
BLOCK STOPMIX  # Stop Mixing Matrix
  1  1     7.07510373E-01   # cos(theta_t)
  1  2     7.06702959E-01   # sin(theta_t)
  2  1    -7.06702959E-01   # -sin(theta_t)
  2  2     7.07510373E-01   # cos(theta_t)
#
BLOCK SBOTMIX  # Sbottom Mixing Matrix
  1  1     6.87579460E-01   # cos(theta_b)
  1  2     7.26109142E-01   # sin(theta_b)
  2  1    -7.26109142E-01   # -sin(theta_b)
  2  2     6.87579460E-01   # cos(theta_b)
#
BLOCK STAUMIX  # Stau Mixing Matrix
  1  1     7.05503425E-01   # cos(theta_tau)
  1  2     7.08706510E-01   # sin(theta_tau)
  2  1    -7.08706510E-01   # -sin(theta_tau)
  2  2     7.05503425E-01   # cos(theta_tau)
#
BLOCK ALPHA  # Higgs mixing
          -5.90186066E-01   # Mixing angle in the neutral Higgs boson sector
#
BLOCK HMIX Q=  9.11876000E+01  # DRbar Higgs Parameters
         1     2.45000000E+03   # mu(Q)               
         2     1.49999979E+00   # tanbeta(Q)          
         3     2.52429086E+02   # vev(Q)              
         4     2.72091569E+06   # MA^2(Q)             
#
BLOCK GAUGE Q=  9.11876000E+01  # The gauge couplings
     1     3.52671873E-01   # gprime(Q) DRbar
     2     6.26472097E-01   # g(Q) DRbar
     3     1.07511398E+00   # g3(Q) DRbar
#
BLOCK AU Q=  9.11876000E+01  # The trilinear couplings
  1  1     0.00000000E+00   # A_u(Q) DRbar
  2  2     0.00000000E+00   # A_c(Q) DRbar
  3  3     0.00000000E+00   # A_t(Q) DRbar
#
BLOCK AD Q=  9.11876000E+01  # The trilinear couplings
  1  1     0.00000000E+00   # A_d(Q) DRbar
  2  2     0.00000000E+00   # A_s(Q) DRbar
  3  3     0.00000000E+00   # A_b(Q) DRbar
#
BLOCK AE Q=  9.11876000E+01  # The trilinear couplings
  1  1     0.00000000E+00   # A_e(Q) DRbar
  2  2     0.00000000E+00   # A_mu(Q) DRbar
  3  3     0.00000000E+00   # A_tau(Q) DRbar
#
BLOCK Yu Q=  9.11876000E+01  # The Yukawa couplings
  1  1     0.00000000E+00   # y_u(Q) DRbar
  2  2     0.00000000E+00   # y_c(Q) DRbar
  3  3     1.02399763E+00   # y_t(Q) DRbar
#
BLOCK Yd Q=  9.11876000E+01  # The Yukawa couplings
  1  1     0.00000000E+00   # y_d(Q) DRbar
  2  2     0.00000000E+00   # y_s(Q) DRbar
  3  3     2.70874482E-02   # y_b(Q) DRbar
#
BLOCK Ye Q=  9.11876000E+01  # The Yukawa couplings
  1  1     0.00000000E+00   # y_e(Q) DRbar
  2  2     0.00000000E+00   # y_mu(Q) DRbar
  3  3     1.79680684E-02   # y_tau(Q) DRbar
#
BLOCK MSOFT Q=  9.11876000E+01  # The soft SUSY breaking masses at the scale Q
         1     2.42300000E+03   # M_1                 
         2     3.00000000E+03   # M_2                 
         3     2.80000000E+03   # M_3                 
        14     0.00000000E+00   # A_u                 
        15     0.00000000E+00   # A_d                 
        16     0.00000000E+00   # A_e                 
        21    -3.65862858E+06   # M^2_Hd              
        22    -1.08111433E+07   # M^2_Hu              
        31     5.00000000E+03   # M_eL                
        32     5.00000000E+03   # M_muL               
        33     5.00000000E+03   # M_tauL              
        34     5.00000000E+03   # M_eR                
        35     5.00000000E+03   # M_muR               
        36     5.00000000E+03   # M_tauR              
        41     5.00000000E+03   # M_q1L               
        42     5.00000000E+03   # M_q2L               
        43     5.00000000E+03   # M_q3L               
        44     5.00000000E+03   # M_uR                
        45     5.00000000E+03   # M_cR                
        46     5.00000000E+03   # M_tR                
        47     5.00000000E+03   # M_dR                
        48     5.00000000E+03   # M_sR                
        49     5.00000000E+03   # M_bR                
#
#
#
#                             =================
#                             |The decay table|
#                             =================
#
# - The QCD corrections to the decays gluino -> squark  + quark
#                                     squark -> gaugino + quark_prime
#                                     squark -> squark_prime + Higgs
#                                     squark -> gluino  + quark
#   are included.
#
# - The multi-body decays for the inos, stops and sbottoms are included.
#
# - The loop induced decays for the gluino, neutralinos and stops
#   are included.
#
# - The SUSY decays of the top quark are included.
#
# - Possible decays of the NLSP in GMSB models are included.
#
#
#         PDG            Width
DECAY         6     1.36734827E+00   # top decays
#          BR         NDA      ID1       ID2
     1.00000000E+00    2           5        24   # BR(t ->  b    W+)
#
#         PDG            Width
DECAY   1000021     2.05520825E-04   # gluino decays
#          BR         NDA      ID1       ID2
     4.84926382E-03    2     1000022        21   # BR(~g -> ~chi_10 g)
     7.55797606E-03    2     1000023        21   # BR(~g -> ~chi_20 g)
     3.65102692E-03    2     1000025        21   # BR(~g -> ~chi_30 g)
#          BR         NDA      ID1       ID2
     0.00000000E+00    2     1000039        21   # BR(~g -> ~G      g)
#           BR         NDA      ID1       ID2       ID3
     8.48569581E-04    3     1000022         1        -1   # BR(~g -> ~chi_10 d  db)
     1.04167846E-08    3     1000023         1        -1   # BR(~g -> ~chi_20 d  db)
     1.18524047E-04    3     1000025         1        -1   # BR(~g -> ~chi_30 d  db)
     2.14290106E-03    3     1000022         2        -2   # BR(~g -> ~chi_10 u  ub)
     7.98555313E-09    3     1000023         2        -2   # BR(~g -> ~chi_20 u  ub)
     5.85122221E-04    3     1000025         2        -2   # BR(~g -> ~chi_30 u  ub)
     8.48569581E-04    3     1000022         3        -3   # BR(~g -> ~chi_10 s  sb)
     1.04167846E-08    3     1000023         3        -3   # BR(~g -> ~chi_20 s  sb)
     1.18524047E-04    3     1000025         3        -3   # BR(~g -> ~chi_30 s  sb)
     2.14290106E-03    3     1000022         4        -4   # BR(~g -> ~chi_10 c  cb)
     7.98555313E-09    3     1000023         4        -4   # BR(~g -> ~chi_20 c  cb)
     5.85122221E-04    3     1000025         4        -4   # BR(~g -> ~chi_30 c  cb)
     8.49195198E-04    3     1000022         5        -5   # BR(~g -> ~chi_10 b  bb)
     1.09703945E-05    3     1000023         5        -5   # BR(~g -> ~chi_20 b  bb)
     1.24559262E-04    3     1000025         5        -5   # BR(~g -> ~chi_30 b  bb)
     8.79354645E-04    3     1000022         6        -6   # BR(~g -> ~chi_10 t  tb)
     2.13029573E-06    3     1000023         6        -6   # BR(~g -> ~chi_20 t  tb)
     1.26651988E-04    3     1000024         1        -2   # BR(~g -> ~chi_1+ d  ub)
     1.26651988E-04    3    -1000024         2        -1   # BR(~g -> ~chi_1- u  db)
     1.26651988E-04    3     1000024         3        -4   # BR(~g -> ~chi_1+ s  cb)
     1.26651988E-04    3    -1000024         4        -3   # BR(~g -> ~chi_1- c  sb)
     5.04082669E-03    3     1000024         5        -6   # BR(~g -> ~chi_1+ b  tb)
     5.04082669E-03    3    -1000024         6        -5   # BR(~g -> ~chi_1- t  bb)
#
#         PDG            Width
DECAY   1000006     2.10185515E+02   # stop1 decays
#          BR         NDA      ID1       ID2
     7.07153687E-02    2     1000022         6   # BR(~t_1 -> ~chi_10 t )
     1.01143434E-01    2     1000023         6   # BR(~t_1 -> ~chi_20 t )
     4.83426622E-02    2     1000025         6   # BR(~t_1 -> ~chi_30 t )
     1.21822911E-02    2     1000035         6   # BR(~t_1 -> ~chi_40 t )
     1.16985016E-01    2     1000024         5   # BR(~t_1 -> ~chi_1+ b )
     2.27629029E-02    2     1000037         5   # BR(~t_1 -> ~chi_2+ b )
     6.27868325E-01    2     1000021         6   # BR(~t_1 -> ~g      t )
#
#         PDG            Width
DECAY   2000006     1.99108799E+02   # stop2 decays
#          BR         NDA      ID1       ID2
     2.73173295E-02    2     1000022         6   # BR(~t_2 -> ~chi_10 t )
     1.00440935E-01    2     1000023         6   # BR(~t_2 -> ~chi_20 t )
     8.43871147E-02    2     1000025         6   # BR(~t_2 -> ~chi_30 t )
     2.86326413E-02    2     1000035         6   # BR(~t_2 -> ~chi_40 t )
     8.30805012E-02    2     1000024         5   # BR(~t_2 -> ~chi_1+ b )
     5.49478416E-02    2     1000037         5   # BR(~t_2 -> ~chi_2+ b )
     6.21193637E-01    2     1000021         6   # BR(~t_2 -> ~g      t )
#
#         PDG            Width
DECAY   1000005     1.58435074E+02   # sbottom1 decays
#          BR         NDA      ID1       ID2
     5.71564162E-03    2     1000022         5   # BR(~b_1 -> ~chi_10 b )
     8.19273551E-05    2     1000023         5   # BR(~b_1 -> ~chi_20 b )
     1.68122887E-03    2     1000025         5   # BR(~b_1 -> ~chi_30 b )
     2.17005007E-02    2     1000035         5   # BR(~b_1 -> ~chi_40 b )
     1.17443256E-01    2    -1000024         6   # BR(~b_1 -> ~chi_1- t )
     4.56770823E-02    2    -1000037         6   # BR(~b_1 -> ~chi_2- t )
     8.07700363E-01    2     1000021         5   # BR(~b_1 -> ~g      b )
#
#         PDG            Width
DECAY   2000005     1.63787575E+02   # sbottom2 decays
#          BR         NDA      ID1       ID2
     3.71243430E-03    2     1000022         5   # BR(~b_2 -> ~chi_10 b )
     9.78606619E-05    2     1000023         5   # BR(~b_2 -> ~chi_20 b )
     2.23592698E-03    2     1000025         5   # BR(~b_2 -> ~chi_30 b )
     2.51570706E-02    2     1000035         5   # BR(~b_2 -> ~chi_40 b )
     1.35158718E-01    2    -1000024         6   # BR(~b_2 -> ~chi_1- t )
     5.29477606E-02    2    -1000037         6   # BR(~b_2 -> ~chi_2- t )
     7.80690229E-01    2     1000021         5   # BR(~b_2 -> ~g      b )
#
#         PDG            Width
DECAY   1000002     1.51503625E+02   # sup_L decays
#          BR         NDA      ID1       ID2
     3.07132748E-04    2     1000022         2   # BR(~u_L -> ~chi_10 u)
     4.51892193E-07    2     1000023         2   # BR(~u_L -> ~chi_20 u)
     3.82062097E-03    2     1000025         2   # BR(~u_L -> ~chi_30 u)
     4.94908518E-02    2     1000035         2   # BR(~u_L -> ~chi_40 u)
     2.81901339E-03    2     1000024         1   # BR(~u_L -> ~chi_1+ d)
     9.93258753E-02    2     1000037         1   # BR(~u_L -> ~chi_2+ d)
     8.44236054E-01    2     1000021         2   # BR(~u_L -> ~g      u)
#
#         PDG            Width
DECAY   2000002     1.34116206E+02   # sup_R decays
#          BR         NDA      ID1       ID2
     2.79273616E-02    2     1000022         2   # BR(~u_R -> ~chi_10 u)
     1.46604264E-07    2     1000023         2   # BR(~u_R -> ~chi_20 u)
     1.83519435E-02    2     1000025         2   # BR(~u_R -> ~chi_30 u)
     3.39912999E-06    2     1000035         2   # BR(~u_R -> ~chi_40 u)
     9.53717149E-01    2     1000021         2   # BR(~u_R -> ~g      u)
#
#         PDG            Width
DECAY   1000001     1.51513845E+02   # sdown_L decays
#          BR         NDA      ID1       ID2
     3.73217615E-03    2     1000022         1   # BR(~d_L -> ~chi_10 d)
     7.26532944E-07    2     1000023         1   # BR(~d_L -> ~chi_20 d)
     3.67674969E-06    2     1000025         1   # BR(~d_L -> ~chi_30 d)
     4.98819558E-02    2     1000035         1   # BR(~d_L -> ~chi_40 d)
     2.59635679E-03    2    -1000024         2   # BR(~d_L -> ~chi_1- u)
     9.94912026E-02    2    -1000037         2   # BR(~d_L -> ~chi_2- u)
     8.44293905E-01    2     1000021         1   # BR(~d_L -> ~g      d)
#
#         PDG            Width
DECAY   2000001     1.29466311E+02   # sdown_R decays
#          BR         NDA      ID1       ID2
     7.23284018E-03    2     1000022         1   # BR(~d_R -> ~chi_10 d)
     3.79687328E-08    2     1000023         1   # BR(~d_R -> ~chi_20 d)
     4.75293405E-03    2     1000025         1   # BR(~d_R -> ~chi_30 d)
     8.80346931E-07    2     1000035         1   # BR(~d_R -> ~chi_40 d)
     9.88013307E-01    2     1000021         1   # BR(~d_R -> ~g      d)
#
#         PDG            Width
DECAY   1000004     1.51503625E+02   # scharm_L decays
#          BR         NDA      ID1       ID2
     3.07132748E-04    2     1000022         4   # BR(~c_L -> ~chi_10 c)
     4.51892193E-07    2     1000023         4   # BR(~c_L -> ~chi_20 c)
     3.82062097E-03    2     1000025         4   # BR(~c_L -> ~chi_30 c)
     4.94908518E-02    2     1000035         4   # BR(~c_L -> ~chi_40 c)
     2.81901339E-03    2     1000024         3   # BR(~c_L -> ~chi_1+ s)
     9.93258753E-02    2     1000037         3   # BR(~c_L -> ~chi_2+ s)
     8.44236054E-01    2     1000021         4   # BR(~c_L -> ~g      c)
#
#         PDG            Width
DECAY   2000004     1.34116206E+02   # scharm_R decays
#          BR         NDA      ID1       ID2
     2.79273616E-02    2     1000022         4   # BR(~c_R -> ~chi_10 c)
     1.46604264E-07    2     1000023         4   # BR(~c_R -> ~chi_20 c)
     1.83519435E-02    2     1000025         4   # BR(~c_R -> ~chi_30 c)
     3.39912999E-06    2     1000035         4   # BR(~c_R -> ~chi_40 c)
     9.53717149E-01    2     1000021         4   # BR(~c_R -> ~g      c)
#
#         PDG            Width
DECAY   1000003     1.51513845E+02   # sstrange_L decays
#          BR         NDA      ID1       ID2
     3.73217615E-03    2     1000022         3   # BR(~s_L -> ~chi_10 s)
     7.26532944E-07    2     1000023         3   # BR(~s_L -> ~chi_20 s)
     3.67674969E-06    2     1000025         3   # BR(~s_L -> ~chi_30 s)
     4.98819558E-02    2     1000035         3   # BR(~s_L -> ~chi_40 s)
     2.59635679E-03    2    -1000024         4   # BR(~s_L -> ~chi_1- c)
     9.94912026E-02    2    -1000037         4   # BR(~s_L -> ~chi_2- c)
     8.44293905E-01    2     1000021         3   # BR(~s_L -> ~g      s)
#
#         PDG            Width
DECAY   2000003     1.29466311E+02   # sstrange_R decays
#          BR         NDA      ID1       ID2
     7.23284018E-03    2     1000022         3   # BR(~s_R -> ~chi_10 s)
     3.79687328E-08    2     1000023         3   # BR(~s_R -> ~chi_20 s)
     4.75293405E-03    2     1000025         3   # BR(~s_R -> ~chi_30 s)
     8.80346931E-07    2     1000035         3   # BR(~s_R -> ~chi_40 s)
     9.88013307E-01    2     1000021         3   # BR(~s_R -> ~g      s)
#
#         PDG            Width
DECAY   1000011     2.76026303E+01   # selectron_L decays
#          BR         NDA      ID1       ID2
     5.26313348E-02    2     1000022        11   # BR(~e_L -> ~chi_10 e-)
     1.37855339E-06    2     1000023        11   # BR(~e_L -> ~chi_20 e-)
     8.97046961E-02    2     1000025        11   # BR(~e_L -> ~chi_30 e-)
     2.78557702E-01    2     1000035        11   # BR(~e_L -> ~chi_40 e-)
     1.47799341E-02    2    -1000024        12   # BR(~e_L -> ~chi_1- nu_e)
     5.64324954E-01    2    -1000037        12   # BR(~e_L -> ~chi_2- nu_e)
#
#         PDG            Width
DECAY   2000011     1.44863183E+01   # selectron_R decays
#          BR         NDA      ID1       ID2
     6.03504035E-01    2     1000022        11   # BR(~e_R -> ~chi_10 e-)
     3.16717127E-06    2     1000023        11   # BR(~e_R -> ~chi_20 e-)
     3.96419622E-01    2     1000025        11   # BR(~e_R -> ~chi_30 e-)
     7.31756166E-05    2     1000035        11   # BR(~e_R -> ~chi_40 e-)
#
#         PDG            Width
DECAY   1000013     2.76026303E+01   # smuon_L decays
#          BR         NDA      ID1       ID2
     5.26313348E-02    2     1000022        13   # BR(~mu_L -> ~chi_10 mu-)
     1.37855339E-06    2     1000023        13   # BR(~mu_L -> ~chi_20 mu-)
     8.97046961E-02    2     1000025        13   # BR(~mu_L -> ~chi_30 mu-)
     2.78557702E-01    2     1000035        13   # BR(~mu_L -> ~chi_40 mu-)
     1.47799341E-02    2    -1000024        14   # BR(~mu_L -> ~chi_1- nu_mu)
     5.64324954E-01    2    -1000037        14   # BR(~mu_L -> ~chi_2- nu_mu)
#
#         PDG            Width
DECAY   2000013     1.44863183E+01   # smuon_R decays
#          BR         NDA      ID1       ID2
     6.03504035E-01    2     1000022        13   # BR(~mu_R -> ~chi_10 mu-)
     3.16717127E-06    2     1000023        13   # BR(~mu_R -> ~chi_20 mu-)
     3.96419622E-01    2     1000025        13   # BR(~mu_R -> ~chi_30 mu-)
     7.31756166E-05    2     1000035        13   # BR(~mu_R -> ~chi_40 mu-)
#
#         PDG            Width
DECAY   1000015     2.10847622E+01   # stau_1 decays
#          BR         NDA      ID1       ID2
     2.47896080E-01    2     1000022        15   # BR(~tau_1 -> ~chi_10  tau-)
     3.82656775E-04    2     1000023        15   # BR(~tau_1 -> ~chi_20  tau-)
     1.92685988E-01    2     1000025        15   # BR(~tau_1 -> ~chi_30  tau-)
     1.80009450E-01    2     1000035        15   # BR(~tau_1 -> ~chi_40  tau-)
     1.41618352E-02    2    -1000024        16   # BR(~tau_1 -> ~chi_1-  nu_tau)
     3.64693453E-01    2    -1000037        16   # BR(~tau_1 -> ~chi_2-  nu_tau)
     1.70536863E-04    2     1000039        15   # BR(~tau_1 -> ~G       tau-)
#
#         PDG            Width
DECAY   2000015     2.10634162E+01   # stau_2 decays
#          BR         NDA      ID1       ID2
     2.36240809E-01    2     1000022        15   # BR(~tau_2 -> ~chi_10  tau-)
     5.01221906E-04    2     1000023        15   # BR(~tau_2 -> ~chi_20  tau-)
     1.97816692E-01    2     1000025        15   # BR(~tau_2 -> ~chi_30  tau-)
     1.84909709E-01    2     1000035        15   # BR(~tau_2 -> ~chi_40  tau-)
     6.05917692E-03    2    -1000024        16   # BR(~tau_2 -> ~chi_1-  nu_tau)
     3.74472390E-01    2    -1000037        16   # BR(~tau_2 -> ~chi_2-  nu_tau)
#
#         PDG            Width
DECAY   1000012     2.76066329E+01   # snu_eL decays
#          BR         NDA      ID1       ID2
     1.11109307E-01    2     1000022        12   # BR(~nu_eL -> ~chi_10 nu_e)
     6.06668593E-06    2     1000023        12   # BR(~nu_eL -> ~chi_20 nu_e)
     2.45221614E-02    2     1000025        12   # BR(~nu_eL -> ~chi_30 nu_e)
     2.85051326E-01    2     1000035        12   # BR(~nu_eL -> ~chi_40 nu_e)
     1.60440151E-02    2     1000024        11   # BR(~nu_eL -> ~chi_1+ e-)
     5.63267124E-01    2     1000037        11   # BR(~nu_eL -> ~chi_2+ e-)
#
#         PDG            Width
DECAY   1000014     2.76066329E+01   # snu_muL decays
#          BR         NDA      ID1       ID2
     1.11109307E-01    2     1000022        14   # BR(~nu_muL -> ~chi_10 nu_mu)
     6.06668593E-06    2     1000023        14   # BR(~nu_muL -> ~chi_20 nu_mu)
     2.45221614E-02    2     1000025        14   # BR(~nu_muL -> ~chi_30 nu_mu)
     2.85051326E-01    2     1000035        14   # BR(~nu_muL -> ~chi_40 nu_mu)
     1.60440151E-02    2     1000024        13   # BR(~nu_muL -> ~chi_1+ mu-)
     5.63267124E-01    2     1000037        13   # BR(~nu_muL -> ~chi_2+ mu-)
#
#         PDG            Width
DECAY   1000016     2.76251668E+01   # snu_tauL decays
#          BR         NDA      ID1       ID2
     1.11034763E-01    2     1000022        16   # BR(~nu_tauL -> ~chi_10 nu_tau)
     6.06261577E-06    2     1000023        16   # BR(~nu_tauL -> ~chi_20 nu_tau)
     2.45057094E-02    2     1000025        16   # BR(~nu_tauL -> ~chi_30 nu_tau)
     2.84860084E-01    2     1000035        16   # BR(~nu_tauL -> ~chi_40 nu_tau)
     1.66930669E-02    2     1000024        15   # BR(~nu_tauL -> ~chi_1+ tau-)
     5.62900314E-01    2     1000037        15   # BR(~nu_tauL -> ~chi_2+ tau-)
#
#         PDG            Width
DECAY   1000024     2.84681099E-04   # chargino1+ decays
#          BR         NDA      ID1       ID2
     1.77119890E-01    2     1000039        24   # BR(~chi_1+ -> ~G       W+)
     1.95366198E-03    2     1000039        37   # BR(~chi_1+ -> ~G       H+)
#           BR         NDA      ID1       ID2       ID3
     2.74142376E-01    3     1000022         2        -1   # BR(~chi_1+ -> ~chi_10 u    db)
     2.73160254E-01    3     1000022         4        -3   # BR(~chi_1+ -> ~chi_10 c    sb)
     9.13808786E-02    3     1000022       -11        12   # BR(~chi_1+ -> ~chi_10 e+   nu_e)
     9.13790410E-02    3     1000022       -13        14   # BR(~chi_1+ -> ~chi_10 mu+  nu_mu)
     9.08638982E-02    3     1000022       -15        16   # BR(~chi_1+ -> ~chi_10 tau+ nu_tau)
#
#         PDG            Width
DECAY   1000037     2.35063112E+01   # chargino2+ decays
#          BR         NDA      ID1       ID2
     2.58030958E-01    2     1000024        23   # BR(~chi_2+ -> ~chi_1+  Z )
     9.02365311E-02    2     1000022        24   # BR(~chi_2+ -> ~chi_10  W+)
     2.45025234E-01    2     1000023        24   # BR(~chi_2+ -> ~chi_20  W+)
     1.61922796E-01    2     1000025        24   # BR(~chi_2+ -> ~chi_30  W+)
     2.44772498E-01    2     1000024        25   # BR(~chi_2+ -> ~chi_1+  h )
     1.19716161E-05    2     1000039        24   # BR(~chi_2+ -> ~G       W+)
     1.08538141E-08    2     1000039        37   # BR(~chi_2+ -> ~G       H+)
#
#         PDG            Width
DECAY   1000022    1.0E-05    # neutralino1 decays
#          BR         NDA      ID1       ID2
     4.99807789E-01    2     1000039        22   # BR(~chi_10 -> ~G        gam)
     4.89174006E-01    2     1000039        23   # BR(~chi_10 -> ~G        Z)
     9.10157582E-03    2     1000039        25   # BR(~chi_10 -> ~G        h)
     1.83842109E-03    2     1000039        35   # BR(~chi_10 -> ~G        H)
     7.82082243E-05    2     1000039        36   # BR(~chi_10 -> ~G        A)
#
#         PDG            Width
DECAY   1000023     5.49514001E-04   # neutralino2 decays
#          BR         NDA      ID1       ID2
     7.51966304E-05    2     1000022        22   # BR(~chi_20 -> ~chi_10 gam)
#          BR         NDA      ID1       ID2
     5.05506567E-09    2     1000039        22   # BR(~chi_20 -> ~G        gam)
     3.54155487E-03    2     1000039        23   # BR(~chi_20 -> ~G        Z)
     8.80811019E-02    2     1000039        25   # BR(~chi_20 -> ~G        h)
     4.17398744E-05    2     1000039        35   # BR(~chi_20 -> ~G        H)
     1.10190198E-03    2     1000039        36   # BR(~chi_20 -> ~G        A)
#           BR         NDA      ID1       ID2       ID3
     1.07074810E-01    3     1000022        -2         2   # BR(~chi_20 -> ~chi_10 ub      u)
     1.38661818E-01    3     1000022        -1         1   # BR(~chi_20 -> ~chi_10 db      d)
     1.06598537E-01    3     1000022        -4         4   # BR(~chi_20 -> ~chi_10 cb      c)
     1.38649949E-01    3     1000022        -3         3   # BR(~chi_20 -> ~chi_10 sb      s)
     1.31037243E-01    3     1000022        -5         5   # BR(~chi_20 -> ~chi_10 bb      b)
     3.16756418E-02    3     1000022       -11        11   # BR(~chi_20 -> ~chi_10 e+      e-)
     3.16748558E-02    3     1000022       -13        13   # BR(~chi_20 -> ~chi_10 mu+     mu-)
     3.14540785E-02    3     1000022       -15        15   # BR(~chi_20 -> ~chi_10 tau+    tau-)
     6.32629136E-02    3     1000022       -12        12   # BR(~chi_20 -> ~chi_10 nu_eb   nu_e)
     6.32629136E-02    3     1000022       -14        14   # BR(~chi_20 -> ~chi_10 nu_mub  nu_mu)
     6.32629136E-02    3     1000022       -16        16   # BR(~chi_20 -> ~chi_10 nu_taub nu_tau)
     9.43337873E-05    3     1000024        -2         1   # BR(~chi_20 -> ~chi_1+ ub      d)
     9.43337873E-05    3    -1000024        -1         2   # BR(~chi_20 -> ~chi_1- db      u)
     8.66731146E-05    3     1000024        -4         3   # BR(~chi_20 -> ~chi_1+ cb      s)
     8.66731146E-05    3    -1000024        -3         4   # BR(~chi_20 -> ~chi_1- sb      c)
     3.14445997E-05    3     1000024       -12        11   # BR(~chi_20 -> ~chi_1+ nu_eb   e-)
     3.14445997E-05    3    -1000024        12       -11   # BR(~chi_20 -> ~chi_1- nu_e    e+)
     3.14293815E-05    3     1000024       -14        13   # BR(~chi_20 -> ~chi_1+ nu_mub  mu-)
     3.14293815E-05    3    -1000024        14       -13   # BR(~chi_20 -> ~chi_1- nu_mu   mu+)
     2.75320342E-05    3     1000024       -16        15   # BR(~chi_20 -> ~chi_1+ nu_taub tau-)
     2.75320342E-05    3    -1000024        16       -15   # BR(~chi_20 -> ~chi_1- nu_tau  tau+)
#
#         PDG            Width
DECAY   1000025     1.69924415E-04   # neutralino3 decays
#          BR         NDA      ID1       ID2
     4.94816910E-04    2     1000022        22   # BR(~chi_30 -> ~chi_10 gam)
     1.30896012E-06    2     1000023        22   # BR(~chi_30 -> ~chi_20 gam)
#          BR         NDA      ID1       ID2
     2.35153222E-01    2     1000039        22   # BR(~chi_30 -> ~G        gam)
     2.03589104E-01    2     1000039        23   # BR(~chi_30 -> ~G        Z)
     6.86973201E-03    2     1000039        25   # BR(~chi_30 -> ~G        h)
     2.47272314E-03    2     1000039        35   # BR(~chi_30 -> ~G        H)
     1.00842504E-04    2     1000039        36   # BR(~chi_30 -> ~G        A)
#           BR         NDA      ID1       ID2       ID3
     5.40981021E-05    3     1000022        -2         2   # BR(~chi_30 -> ~chi_10 ub      u)
     6.69078252E-05    3     1000022        -1         1   # BR(~chi_30 -> ~chi_10 db      d)
     1.19165103E-04    3     1000022        -4         4   # BR(~chi_30 -> ~chi_10 cb      c)
     6.81245089E-05    3     1000022        -3         3   # BR(~chi_30 -> ~chi_10 sb      s)
     2.99615718E-04    3     1000022        -5         5   # BR(~chi_30 -> ~chi_10 bb      b)
     1.28828617E-05    3     1000022       -11        11   # BR(~chi_30 -> ~chi_10 e+      e-)
     1.28827161E-05    3     1000022       -13        13   # BR(~chi_30 -> ~chi_10 mu+     mu-)
     4.82783009E-05    3     1000022       -15        15   # BR(~chi_30 -> ~chi_10 tau+    tau-)
     3.15440816E-05    3     1000022       -12        12   # BR(~chi_30 -> ~chi_10 nu_eb   nu_e)
     3.15440816E-05    3     1000022       -14        14   # BR(~chi_30 -> ~chi_10 nu_mub  nu_mu)
     3.15440816E-05    3     1000022       -16        16   # BR(~chi_30 -> ~chi_10 nu_taub nu_tau)
     3.80986347E-03    3     1000023        -2         2   # BR(~chi_30 -> ~chi_20 ub      u)
     4.93377463E-03    3     1000023        -1         1   # BR(~chi_30 -> ~chi_20 db      d)
     3.73046260E-03    3     1000023        -4         4   # BR(~chi_30 -> ~chi_20 cb      c)
     4.93138739E-03    3     1000023        -3         3   # BR(~chi_30 -> ~chi_20 sb      s)
     3.51205944E-03    3     1000023        -5         5   # BR(~chi_30 -> ~chi_20 bb      b)
     1.12706265E-03    3     1000023       -11        11   # BR(~chi_30 -> ~chi_20 e+      e-)
     1.12694859E-03    3     1000023       -13        13   # BR(~chi_30 -> ~chi_20 mu+     mu-)
     1.09428589E-03    3     1000023       -15        15   # BR(~chi_30 -> ~chi_20 tau+    tau-)
     2.25097233E-03    3     1000023       -12        12   # BR(~chi_30 -> ~chi_20 nu_eb   nu_e)
     2.25097233E-03    3     1000023       -14        14   # BR(~chi_30 -> ~chi_20 nu_mub  nu_mu)
     2.25097233E-03    3     1000023       -16        16   # BR(~chi_30 -> ~chi_20 nu_taub nu_tau)
     8.69291777E-02    3     1000024        -2         1   # BR(~chi_30 -> ~chi_1+ ub      d)
     8.69291777E-02    3    -1000024        -1         2   # BR(~chi_30 -> ~chi_1- db      u)
     8.62573253E-02    3     1000024        -4         3   # BR(~chi_30 -> ~chi_1+ cb      s)
     8.62573253E-02    3    -1000024        -3         4   # BR(~chi_30 -> ~chi_1- sb      c)
     2.89763536E-02    3     1000024       -12        11   # BR(~chi_30 -> ~chi_1+ nu_eb   e-)
     2.89763536E-02    3    -1000024        12       -11   # BR(~chi_30 -> ~chi_1- nu_e    e+)
     2.89750915E-02    3     1000024       -14        13   # BR(~chi_30 -> ~chi_1+ nu_mub  mu-)
     2.89750915E-02    3    -1000024        14       -13   # BR(~chi_30 -> ~chi_1- nu_mu   mu+)
     2.86235025E-02    3     1000024       -16        15   # BR(~chi_30 -> ~chi_1+ nu_taub tau-)
     2.86235025E-02    3    -1000024        16       -15   # BR(~chi_30 -> ~chi_1- nu_tau  tau+)
#
#         PDG            Width
DECAY   1000035     2.34968548E+01   # neutralino4 decays
#          BR         NDA      ID1       ID2
     4.64194989E-05    2     1000022        23   # BR(~chi_40 -> ~chi_10   Z )
     2.52329460E-01    2     1000023        23   # BR(~chi_40 -> ~chi_20   Z )
     6.52221101E-05    2     1000025        23   # BR(~chi_40 -> ~chi_30   Z )
     2.50549401E-01    2     1000024       -24   # BR(~chi_40 -> ~chi_1+   W-)
     2.50549401E-01    2    -1000024        24   # BR(~chi_40 -> ~chi_1-   W+)
     8.80280135E-02    2     1000022        25   # BR(~chi_40 -> ~chi_10   h )
     1.00874875E-04    2     1000023        25   # BR(~chi_40 -> ~chi_20   h )
     1.58319223E-01    2     1000025        25   # BR(~chi_40 -> ~chi_30   h )
     2.75720028E-06    2     1000039        22   # BR(~chi_40 -> ~G        gam)
     9.21305004E-06    2     1000039        23   # BR(~chi_40 -> ~G        Z)
     5.23511069E-09    2     1000039        25   # BR(~chi_40 -> ~G        h)
     1.05630814E-08    2     1000039        35   # BR(~chi_40 -> ~G        H)
     3.47016192E-10    2     1000039        36   # BR(~chi_40 -> ~G        A)
#
#         PDG            Width
DECAY        25     4.09122461E-03   # h decays
#          BR         NDA      ID1       ID2
     6.18329709E-01    2           5        -5   # BR(h -> b       bb     )
     6.36592688E-02    2         -15        15   # BR(h -> tau+    tau-   )
     2.25330366E-04    2         -13        13   # BR(h -> mu+     mu-    )
     4.77495808E-04    2           3        -3   # BR(h -> s       sb     )
     2.06016026E-02    2           4        -4   # BR(h -> c       cb     )
     6.68911259E-02    2          21        21   # BR(h -> g       g      )
     2.29943314E-03    2          22        22   # BR(h -> gam     gam    )
     1.53550409E-03    2          22        23   # BR(h -> Z       gam    )
     2.00398053E-01    2          24       -24   # BR(h -> W+      W-     )
     2.55824767E-02    2          23        23   # BR(h -> Z       Z      )
#
#         PDG            Width
DECAY        35     3.78069315E+01   # H decays
#          BR         NDA      ID1       ID2
     1.46120185E-03    2           5        -5   # BR(H -> b       bb     )
     2.46449264E-04    2         -15        15   # BR(H -> tau+    tau-   )
     8.71289901E-07    2         -13        13   # BR(H -> mu+     mu-    )
     1.11557263E-06    2           3        -3   # BR(H -> s       sb     )
     1.00670306E-05    2           4        -4   # BR(H -> c       cb     )
     9.96085128E-01    2           6        -6   # BR(H -> t       tb     )
     7.97633483E-04    2          21        21   # BR(H -> g       g      )
     2.71810008E-06    2          22        22   # BR(H -> gam     gam    )
     1.16057790E-06    2          23        22   # BR(H -> Z       gam    )
     3.29799329E-04    2          24       -24   # BR(H -> W+      W-     )
     1.64449940E-04    2          23        23   # BR(H -> Z       Z      )
     8.99405161E-04    2          25        25   # BR(H -> h       h      )
     6.80895687E-24    2          36        36   # BR(H -> A       A      )
     2.82983638E-11    2          23        36   # BR(H -> Z       A      )
     6.12409683E-12    2          24       -37   # BR(H -> W+      H-     )
     6.12409683E-12    2         -24        37   # BR(H -> W-      H+     )
#
#         PDG            Width
DECAY        36     3.82376724E+01   # A decays
#          BR         NDA      ID1       ID2
     1.46407185E-03    2           5        -5   # BR(A -> b       bb     )
     2.43901258E-04    2         -15        15   # BR(A -> tau+    tau-   )
     8.62279054E-07    2         -13        13   # BR(A -> mu+     mu-    )
     1.13679045E-06    2           3        -3   # BR(A -> s       sb     )
     9.96190931E-06    2           4        -4   # BR(A -> c       cb     )
     9.97010452E-01    2           6        -6   # BR(A -> t       tb     )
     9.43689334E-04    2          21        21   # BR(A -> g       g      )
     3.12429373E-06    2          22        22   # BR(A -> gam     gam    )
     1.35313832E-06    2          23        22   # BR(A -> Z       gam    )
     3.21447392E-04    2          23        25   # BR(A -> Z       h      )
#
#         PDG            Width
DECAY        37     3.74468492E+01   # H+ decays
#          BR         NDA      ID1       ID2
     2.34220513E-06    2           4        -5   # BR(H+ -> c       bb     )
     2.49242054E-04    2         -15        16   # BR(H+ -> tau+    nu_tau )
     8.81160697E-07    2         -13        14   # BR(H+ -> mu+     nu_mu  )
     1.48902252E-08    2           2        -5   # BR(H+ -> u       bb     )
     5.45703487E-08    2           2        -3   # BR(H+ -> u       sb     )
     1.08733489E-05    2           4        -3   # BR(H+ -> c       sb     )
     9.99407138E-01    2           6        -5   # BR(H+ -> t       bb     )
     3.29453462E-04    2          24        25   # BR(H+ -> W+      h      )
     2.90056951E-13    2          24        36   # BR(H+ -> W+      A      )
