#
#                              ======================
#                              | THE SUSYHIT OUTPUT |
#                              ======================
#
#
#              ------------------------------------------------------
#              |     This is the output of the SUSY-HIT package     |
#              |  created by A.Djouadi, M.Muehlleitner and M.Spira. |
#              |  In case of problems with SUSY-HIT email to        |
#              |           margarete.muehlleitner@cern.ch           |
#              |           michael.spira@psi.ch                     |
#              |           abdelhak.djouadi@cern.ch                 |
#              ------------------------------------------------------
#
#              ------------------------------------------------------
#              |  SUSY Les Houches Accord - MSSM Spectrum + Decays  |
#              |              based on the decay programs           |
#              |                                                    |
#              |                     SDECAY 1.3b                    |
#              |                                                    |
#              |  Authors: M.Muhlleitner, A.Djouadi and Y.Mambrini  |
#              |  Ref.:    Comput.Phys.Commun.168(2005)46           |
#              |           [hep-ph/0311167]                         |
#              |                                                    |
#              |                     HDECAY 3.4                     |
#              |                                                    |
#              |  By: A.Djouadi,J.Kalinowski,M.Muhlleitner,M.Spira  |
#              |  Ref.:    Comput.Phys.Commun.108(1998)56           |
#              |           [hep-ph/9704448]                         |
#              |                                                    |
#              |                                                    |
#              |  If not stated otherwise all DRbar couplings and   |
#              |  soft SUSY breaking masses are given at the scale  |
#              |  Q=  0.50007541E+04
#              |                                                    |
#              ------------------------------------------------------
#
#
BLOCK DCINFO  # Decay Program information
     1   SDECAY/HDECAY # decay calculator
     2   1.3b  /3.4    # version number
#
BLOCK SPINFO  # Spectrum calculator information
     1    SOFTSUSY    # spectrum calculator                
     2    3.4.0       # version number                     
#
BLOCK MODSEL  # Model selection
     1     0   #  nonUniversal                                     
#
BLOCK SMINPUTS  # Standard Model inputs
         1     1.25778332E+02   # alpha_em^-1(M_Z)^MSbar
         2     1.16570000E-05   # G_F [GeV^-2]
         3     1.17200002E-01   # alpha_S(M_Z)^MSbar
         4     9.11876000E+01   # M_Z pole mass
         5     4.25000000E+00   # mb(mb)^MSbar
         6     1.72500000E+02   # mt pole mass
         7     1.77682000E+00   # mtau pole mass
#
BLOCK MINPAR  # Input parameters - minimal models
         3     1.00000000E+01   # tanb                
#
BLOCK EXTPAR  # Input parameters - non-minimal models
         0    -1.00000000E+00   # Set                 
         1     6.00000000E+01   # M_1(MX)             
         2     3.00000000E+03   # M_2(MX)             
         3     1.12229300E+03   # M_3(MX)             
        11     5.00000000E+03   # At(MX)              
        12     5.00000000E+03   # Ab(MX)              
        13     0.00000000E+00   # Atau(MX)            
        23    -4.75005000E+02   # mu(MX)              
        26     3.00000000E+03   # mA(pole)            
        31     5.00000000E+03   # meL(MX)             
        32     5.00000000E+03   # mmuL(MX)            
        33     5.00000000E+03   # mtauL(MX)           
        34     5.00000000E+03   # meR(MX)             
        35     5.00000000E+03   # mmuR(MX)            
        36     5.00000000E+03   # mtauR(MX)           
        41     5.00000000E+03   # mqL1(MX)            
        42     5.00000000E+03   # mqL2(MX)            
        43     5.00000000E+03   # mqL3(MX)            
        44     5.00000000E+03   # muR(MX)             
        45     5.00000000E+03   # mcR(MX)             
        46     5.00000000E+03   # mtR(MX)             
        47     5.00000000E+03   # mdR(MX)             
        48     5.00000000E+03   # msR(MX)             
        49     5.00000000E+03   # mbR(MX)             
#
BLOCK MASS  # Mass Spectrum
# PDG code           mass       particle
        24     8.00917123E+01   # W+
        25     1.24558172E+02   # h
        35     3.00008552E+03   # H
        36     2.99999944E+03   # A
        37     3.00142913E+03   # H+
         5     4.87878001E+00   # b-quark pole mass calculated from mb(mb)_Msbar
   1000001     5.06597843E+03   # ~d_L
   2000001     5.04811173E+03   # ~d_R
   1000002     5.06550176E+03   # ~u_L
   2000002     5.04781065E+03   # ~u_R
   1000003     5.06597843E+03   # ~s_L
   2000003     5.04811173E+03   # ~s_R
   1000004     5.06550176E+03   # ~c_L
   2000004     5.04781065E+03   # ~c_R
   1000005     5.01211700E+03   # ~b_1
   2000005     5.04637292E+03   # ~b_2
   1000006     4.90264864E+03   # ~t_1
   2000006     5.05676127E+03   # ~t_2
   1000011     5.01911081E+03   # ~e_L
   2000011     5.00594415E+03   # ~e_R
   1000012     5.01816028E+03   # ~nu_eL
   1000013     5.01911081E+03   # ~mu_L
   2000013     5.00594415E+03   # ~mu_R
   1000014     5.01816028E+03   # ~nu_muL
   1000015     5.00477455E+03   # ~tau_1
   2000015     5.01863500E+03   # ~tau_2
   1000016     5.01760851E+03   # ~nu_tauL
   1000021     1.40000011E+03   # ~g
   1000022     6.02021721E+01   # ~chi_10
   1000023     5.00511707E+02   # ~chi_20
   1000025    -5.02708339E+02   # ~chi_30
   1000035     3.07418666E+03   # ~chi_40
   1000024     5.00000115E+02   # ~chi_1+
   1000037     3.07435441E+03   # ~chi_2+
#
BLOCK NMIX  # Neutralino Mixing Matrix
  1  1     9.96028476E-01   # N_11
  1  2     2.24894152E-04   # N_12
  1  3    -8.90219225E-02   # N_13
  1  4    -1.52396725E-03   # N_14
  2  1     6.40615358E-02   # N_21
  2  2     1.90097020E-02   # N_22
  2  3     7.04713525E-01   # N_23
  2  4     7.06338161E-01   # N_24
  3  1    -6.18323819E-02   # N_31
  3  2     1.70162437E-02   # N_32
  3  3    -7.03883503E-01   # N_33
  3  4     7.07414460E-01   # N_34
  4  1    -3.89763687E-04   # N_41
  4  2     9.99674461E-01   # N_42
  4  3    -1.39937589E-03   # N_43
  4  4    -2.54727645E-02   # N_44
#
BLOCK UMIX  # Chargino Mixing Matrix U
  1  1     1.98427002E-03   # U_11
  1  2     9.99998031E-01   # U_12
  2  1    -9.99998031E-01   # U_21
  2  2     1.98427002E-03   # U_22
#
BLOCK VMIX  # Chargino Mixing Matrix V
  1  1     3.60442111E-02   # V_11
  1  2    -9.99350196E-01   # V_12
  2  1    -9.99350196E-01   # V_21
  2  2    -3.60442111E-02   # V_22
#
BLOCK STOPMIX  # Stop Mixing Matrix
  1  1    -5.06029697E-01   # cos(theta_t)
  1  2     8.62516055E-01   # sin(theta_t)
  2  1    -8.62516055E-01   # -sin(theta_t)
  2  2    -5.06029697E-01   # cos(theta_t)
#
BLOCK SBOTMIX  # Sbottom Mixing Matrix
  1  1     9.98732232E-01   # cos(theta_b)
  1  2    -5.03381442E-02   # sin(theta_b)
  2  1     5.03381442E-02   # -sin(theta_b)
  2  2     9.98732232E-01   # cos(theta_b)
#
BLOCK STAUMIX  # Stau Mixing Matrix
  1  1    -5.69210317E-02   # cos(theta_tau)
  1  2     9.98378684E-01   # sin(theta_tau)
  2  1    -9.98378684E-01   # -sin(theta_tau)
  2  2    -5.69210317E-02   # cos(theta_tau)
#
BLOCK ALPHA  # Higgs mixing
          -1.05461889E-01   # Mixing angle in the neutral Higgs boson sector
#
BLOCK HMIX Q=  5.00075406E+03  # DRbar Higgs Parameters
         1    -4.83569436E+02   # mu(Q)MSSM           
         2     9.47132307E+00   # tan                 
         3     2.41778366E+02   # higgs               
         4     8.67606749E+06   # mA^2(Q)MSSM         
#
BLOCK GAUGE Q=  5.00075406E+03  # The gauge couplings
     1     3.70967270E-01   # gprime(Q) DRbar
     2     6.33361198E-01   # g(Q) DRbar
     3     1.00371947E+00   # g3(Q) DRbar
#
BLOCK AU Q=  5.00075406E+03  # The trilinear couplings
  1  1     5.00000001E+03   # A_u(Q) DRbar
  2  2     5.00000001E+03   # A_c(Q) DRbar
  3  3     5.00000001E+03   # A_t(Q) DRbar
#
BLOCK AD Q=  5.00075406E+03  # The trilinear couplings
  1  1     5.00000000E+03   # A_d(Q) DRbar
  2  2     5.00000000E+03   # A_s(Q) DRbar
  3  3     5.00000001E+03   # A_b(Q) DRbar
#
BLOCK AE Q=  5.00075406E+03  # The trilinear couplings
  1  1     0.00000000E+00   # A_e(Q) DRbar
  2  2     8.03838910E-08   # A_mu(Q) DRbar
  3  3     7.96525242E-08   # A_tau(Q) DRbar
#
BLOCK Yu Q=  5.00075406E+03  # The Yukawa couplings
  1  1     0.00000000E+00   # y_u(Q) DRbar
  2  2     0.00000000E+00   # y_c(Q) DRbar
  3  3     8.17517739E-01   # y_t(Q) DRbar
#
BLOCK Yd Q=  5.00075406E+03  # The Yukawa couplings
  1  1     0.00000000E+00   # y_d(Q) DRbar
  2  2     0.00000000E+00   # y_s(Q) DRbar
  3  3     1.29555604E-01   # y_b(Q) DRbar
#
BLOCK Ye Q=  5.00075406E+03  # The Yukawa couplings
  1  1     0.00000000E+00   # y_e(Q) DRbar
  2  2     0.00000000E+00   # y_mu(Q) DRbar
  3  3     9.71500027E-02   # y_tau(Q) DRbar
#
BLOCK MSOFT Q=  5.00075406E+03  # The soft SUSY breaking masses at the scale Q
         1     6.00000000E+01   # M_1(Q)              
         2     3.00000000E+03   # M_2(Q)              
         3     1.12229300E+03   # M_3(Q)              
        21     8.48985259E+06   # mH1^2(Q)            
        22     3.39505311E+05   # mH2^2(Q)            
        31     5.00000000E+03   # meL(Q)              
        32     5.00000000E+03   # mmuL(Q)             
        33     5.00000000E+03   # mtauL(Q)            
        34     5.00000000E+03   # meR(Q)              
        35     5.00000000E+03   # mmuR(Q)             
        36     5.00000000E+03   # mtauR(Q)            
        41     5.00000000E+03   # mqL1(Q)             
        42     5.00000000E+03   # mqL2(Q)             
        43     5.00000000E+03   # mqL3(Q)             
        44     5.00000000E+03   # muR(Q)              
        45     5.00000000E+03   # mcR(Q)              
        46     5.00000000E+03   # mtR(Q)              
        47     5.00000000E+03   # mdR(Q)              
        48     5.00000000E+03   # msR(Q)              
        49     5.00000000E+03   # mbR(Q)              
#
#
#
#                             =================
#                             |The decay table|
#                             =================
#
# - The QCD corrections to the decays gluino -> squark  + quark
#                                     squark -> gaugino + quark_prime
#                                     squark -> squark_prime + Higgs
#                                     squark -> gluino  + quark
#   are included.
#
# - The multi-body decays for the inos, stops and sbottoms are included.
#
# - The loop induced decays for the gluino, neutralinos and stops
#   are included.
#
# - The SUSY decays of the top quark are included.
#
#
#         PDG            Width
DECAY         6     1.40589720E+00   # top decays
#          BR         NDA      ID1       ID2
     1.00000000E+00    2           5        24   # BR(t ->  b    W+)
#
#         PDG            Width
DECAY   1000021     1.78111478E-04   # gluino decays
#          BR         NDA      ID1       ID2
     7.81641180E-07    2     1000022        21   # BR(~g -> ~chi_10 g)
     1.94964916E-02    2     1000023        21   # BR(~g -> ~chi_20 g)
     1.89432109E-02    2     1000025        21   # BR(~g -> ~chi_30 g)
#           BR         NDA      ID1       ID2       ID3
     2.10968827E-02    3     1000022         1        -1   # BR(~g -> ~chi_10 d  db)
     3.95435229E-05    3     1000023         1        -1   # BR(~g -> ~chi_20 d  db)
     3.60251523E-05    3     1000025         1        -1   # BR(~g -> ~chi_30 d  db)
     7.19372174E-02    3     1000022         2        -2   # BR(~g -> ~chi_10 u  ub)
     2.06355450E-04    3     1000023         2        -2   # BR(~g -> ~chi_20 u  ub)
     5.99226589E-05    3     1000025         2        -2   # BR(~g -> ~chi_30 u  ub)
     2.10968827E-02    3     1000022         3        -3   # BR(~g -> ~chi_10 s  sb)
     3.95435229E-05    3     1000023         3        -3   # BR(~g -> ~chi_20 s  sb)
     3.60251523E-05    3     1000025         3        -3   # BR(~g -> ~chi_30 s  sb)
     7.19372174E-02    3     1000022         4        -4   # BR(~g -> ~chi_10 c  cb)
     2.06355450E-04    3     1000023         4        -4   # BR(~g -> ~chi_20 c  cb)
     5.99226589E-05    3     1000025         4        -4   # BR(~g -> ~chi_30 c  cb)
     2.15921115E-02    3     1000022         5        -5   # BR(~g -> ~chi_10 b  bb)
     5.40398277E-03    3     1000023         5        -5   # BR(~g -> ~chi_20 b  bb)
     5.33733867E-03    3     1000025         5        -5   # BR(~g -> ~chi_30 b  bb)
     6.04119786E-02    3     1000022         6        -6   # BR(~g -> ~chi_10 t  tb)
     1.68449491E-01    3     1000023         6        -6   # BR(~g -> ~chi_20 t  tb)
     1.34323834E-01    3     1000025         6        -6   # BR(~g -> ~chi_30 t  tb)
     5.70121866E-05    3     1000024         1        -2   # BR(~g -> ~chi_1+ d  ub)
     5.70121866E-05    3    -1000024         2        -1   # BR(~g -> ~chi_1- u  db)
     5.70121866E-05    3     1000024         3        -4   # BR(~g -> ~chi_1+ s  cb)
     5.70121866E-05    3    -1000024         4        -3   # BR(~g -> ~chi_1- c  sb)
     1.89530419E-01    3     1000024         5        -6   # BR(~g -> ~chi_1+ b  tb)
     1.89530419E-01    3    -1000024         6        -5   # BR(~g -> ~chi_1- t  bb)
#
#         PDG            Width
DECAY   1000006     3.97063139E+02   # stop1 decays
#          BR         NDA      ID1       ID2
     2.20083601E-02    2     1000022         6   # BR(~t_1 -> ~chi_10 t )
     8.24154172E-02    2     1000023         6   # BR(~t_1 -> ~chi_20 t )
     7.79077629E-02    2     1000025         6   # BR(~t_1 -> ~chi_30 t )
     5.19292077E-03    2     1000035         6   # BR(~t_1 -> ~chi_40 t )
     1.18680359E-01    2     1000024         5   # BR(~t_1 -> ~chi_1+ b )
     1.03520430E-02    2     1000037         5   # BR(~t_1 -> ~chi_2+ b )
     6.83443137E-01    2     1000021         6   # BR(~t_1 -> ~g      t )
#
#         PDG            Width
DECAY   2000006     3.98265261E+02   # stop2 decays
#          BR         NDA      ID1       ID2
     8.92497010E-03    2     1000022         6   # BR(~t_2 -> ~chi_10 t )
     8.19589932E-02    2     1000023         6   # BR(~t_2 -> ~chi_20 t )
     8.69933481E-02    2     1000025         6   # BR(~t_2 -> ~chi_30 t )
     1.39324320E-02    2     1000035         6   # BR(~t_2 -> ~chi_40 t )
     4.91576550E-02    2     1000024         5   # BR(~t_2 -> ~chi_1+ b )
     2.77417438E-02    2     1000037         5   # BR(~t_2 -> ~chi_2+ b )
     7.28150478E-01    2     1000021         6   # BR(~t_2 -> ~g      t )
     7.18495849E-04    2     1000006        25   # BR(~t_2 -> ~t_1    h )
     2.42188419E-03    2     1000006        23   # BR(~t_2 -> ~t_1    Z )
#
#         PDG            Width
DECAY   1000005     3.74825874E+02   # sbottom1 decays
#          BR         NDA      ID1       ID2
     2.08080915E-03    2     1000022         5   # BR(~b_1 -> ~chi_10 b )
     2.17807933E-03    2     1000023         5   # BR(~b_1 -> ~chi_20 b )
     2.17754882E-03    2     1000025         5   # BR(~b_1 -> ~chi_30 b )
     2.01533646E-02    2     1000035         5   # BR(~b_1 -> ~chi_40 b )
     1.75181826E-01    2    -1000024         6   # BR(~b_1 -> ~chi_1- t )
     4.04626462E-02    2    -1000037         6   # BR(~b_1 -> ~chi_2- t )
     7.56258190E-01    2     1000021         5   # BR(~b_1 -> ~g      b )
     1.50753594E-03    2     1000006       -24   # BR(~b_1 -> ~t_1    W-)
#
#         PDG            Width
DECAY   2000005     2.92314946E+02   # sbottom2 decays
#          BR         NDA      ID1       ID2
     1.00414436E-02    2     1000022         5   # BR(~b_2 -> ~chi_10 b )
     2.90029995E-03    2     1000023         5   # BR(~b_2 -> ~chi_20 b )
     2.93664851E-03    2     1000025         5   # BR(~b_2 -> ~chi_30 b )
     6.40699479E-05    2     1000035         5   # BR(~b_2 -> ~chi_40 b )
     6.24102190E-03    2    -1000024         6   # BR(~b_2 -> ~chi_1- t )
     1.28641269E-04    2    -1000037         6   # BR(~b_2 -> ~chi_2- t )
     9.77667996E-01    2     1000021         5   # BR(~b_2 -> ~g      b )
     1.98788776E-05    2     1000006       -24   # BR(~b_2 -> ~t_1    W-)
#
#         PDG            Width
DECAY   1000002     3.11468808E+02   # sup_L decays
#          BR         NDA      ID1       ID2
     2.38738836E-03    2     1000022         2   # BR(~u_L -> ~chi_10 u)
     6.13966765E-05    2     1000023         2   # BR(~u_L -> ~chi_20 u)
     1.51072197E-06    2     1000025         2   # BR(~u_L -> ~chi_30 u)
     2.51842306E-02    2     1000035         2   # BR(~u_L -> ~chi_40 u)
     1.60611301E-04    2     1000024         1   # BR(~u_L -> ~chi_1+ d)
     5.03370847E-02    2     1000037         1   # BR(~u_L -> ~chi_2+ d)
     9.21867778E-01    2     1000021         2   # BR(~u_L -> ~g      u)
#
#         PDG            Width
DECAY   2000002     2.97719148E+02   # sup_R decays
#          BR         NDA      ID1       ID2
     3.97300218E-02    2     1000022         2   # BR(~u_R -> ~chi_10 u)
     1.61257673E-04    2     1000023         2   # BR(~u_R -> ~chi_20 u)
     1.50204326E-04    2     1000025         2   # BR(~u_R -> ~chi_30 u)
     2.41475951E-09    2     1000035         2   # BR(~u_R -> ~chi_40 u)
     9.59958514E-01    2     1000021         2   # BR(~u_R -> ~g      u)
#
#         PDG            Width
DECAY   1000001     3.11479113E+02   # sdown_L decays
#          BR         NDA      ID1       ID2
     2.37651613E-03    2     1000022         1   # BR(~d_L -> ~chi_10 d)
     2.61364406E-06    2     1000023         1   # BR(~d_L -> ~chi_20 d)
     5.22932957E-05    2     1000025         1   # BR(~d_L -> ~chi_30 d)
     2.51989306E-02    2     1000035         1   # BR(~d_L -> ~chi_40 d)
     4.86782392E-07    2    -1000024         2   # BR(~d_L -> ~chi_1- u)
     5.04164369E-02    2    -1000037         2   # BR(~d_L -> ~chi_2- u)
     9.21952723E-01    2     1000021         1   # BR(~d_L -> ~g      d)
#
#         PDG            Width
DECAY   2000001     2.88801218E+02   # sdown_R decays
#          BR         NDA      ID1       ID2
     1.02398268E-02    2     1000022         1   # BR(~d_R -> ~chi_10 d)
     4.15618796E-05    2     1000023         1   # BR(~d_R -> ~chi_20 d)
     3.87130369E-05    2     1000025         1   # BR(~d_R -> ~chi_30 d)
     6.22455390E-10    2     1000035         1   # BR(~d_R -> ~chi_40 d)
     9.89679898E-01    2     1000021         1   # BR(~d_R -> ~g      d)
#
#         PDG            Width
DECAY   1000004     3.11468808E+02   # scharm_L decays
#          BR         NDA      ID1       ID2
     2.38738836E-03    2     1000022         4   # BR(~c_L -> ~chi_10 c)
     6.13966765E-05    2     1000023         4   # BR(~c_L -> ~chi_20 c)
     1.51072197E-06    2     1000025         4   # BR(~c_L -> ~chi_30 c)
     2.51842306E-02    2     1000035         4   # BR(~c_L -> ~chi_40 c)
     1.60611301E-04    2     1000024         3   # BR(~c_L -> ~chi_1+ s)
     5.03370847E-02    2     1000037         3   # BR(~c_L -> ~chi_2+ s)
     9.21867778E-01    2     1000021         4   # BR(~c_L -> ~g      c)
#
#         PDG            Width
DECAY   2000004     2.97719148E+02   # scharm_R decays
#          BR         NDA      ID1       ID2
     3.97300218E-02    2     1000022         4   # BR(~c_R -> ~chi_10 c)
     1.61257673E-04    2     1000023         4   # BR(~c_R -> ~chi_20 c)
     1.50204326E-04    2     1000025         4   # BR(~c_R -> ~chi_30 c)
     2.41475951E-09    2     1000035         4   # BR(~c_R -> ~chi_40 c)
     9.59958514E-01    2     1000021         4   # BR(~c_R -> ~g      c)
#
#         PDG            Width
DECAY   1000003     3.11479113E+02   # sstrange_L decays
#          BR         NDA      ID1       ID2
     2.37651613E-03    2     1000022         3   # BR(~s_L -> ~chi_10 s)
     2.61364406E-06    2     1000023         3   # BR(~s_L -> ~chi_20 s)
     5.22932957E-05    2     1000025         3   # BR(~s_L -> ~chi_30 s)
     2.51989306E-02    2     1000035         3   # BR(~s_L -> ~chi_40 s)
     4.86782392E-07    2    -1000024         4   # BR(~s_L -> ~chi_1- c)
     5.04164369E-02    2    -1000037         4   # BR(~s_L -> ~chi_2- c)
     9.21952723E-01    2     1000021         3   # BR(~s_L -> ~g      s)
#
#         PDG            Width
DECAY   2000003     2.88801218E+02   # sstrange_R decays
#          BR         NDA      ID1       ID2
     1.02398268E-02    2     1000022         3   # BR(~s_R -> ~chi_10 s)
     4.15618796E-05    2     1000023         3   # BR(~s_R -> ~chi_20 s)
     3.87130369E-05    2     1000025         3   # BR(~s_R -> ~chi_30 s)
     6.22455390E-10    2     1000035         3   # BR(~s_R -> ~chi_40 s)
     9.89679898E-01    2     1000021         3   # BR(~s_R -> ~g      s)
#
#         PDG            Width
DECAY   1000011     3.03373438E+01   # selectron_L decays
#          BR         NDA      ID1       ID2
     2.24788392E-01    2     1000022        11   # BR(~e_L -> ~chi_10 e-)
     2.06799597E-03    2     1000023        11   # BR(~e_L -> ~chi_20 e-)
     2.38498054E-04    2     1000025        11   # BR(~e_L -> ~chi_30 e-)
     2.57466253E-01    2     1000035        11   # BR(~e_L -> ~chi_40 e-)
     5.09589995E-06    2    -1000024        12   # BR(~e_L -> ~chi_1- nu_e)
     5.15433765E-01    2    -1000037        12   # BR(~e_L -> ~chi_2- nu_e)
#
#         PDG            Width
DECAY   2000011     2.73983148E+01   # selectron_R decays
#          BR         NDA      ID1       ID2
     9.92227719E-01    2     1000022        11   # BR(~e_R -> ~chi_10 e-)
     4.02403229E-03    2     1000023        11   # BR(~e_R -> ~chi_20 e-)
     3.74818968E-03    2     1000025        11   # BR(~e_R -> ~chi_30 e-)
     5.89649887E-08    2     1000035        11   # BR(~e_R -> ~chi_40 e-)
#
#         PDG            Width
DECAY   1000013     3.03373438E+01   # smuon_L decays
#          BR         NDA      ID1       ID2
     2.24788392E-01    2     1000022        13   # BR(~mu_L -> ~chi_10 mu-)
     2.06799597E-03    2     1000023        13   # BR(~mu_L -> ~chi_20 mu-)
     2.38498054E-04    2     1000025        13   # BR(~mu_L -> ~chi_30 mu-)
     2.57466253E-01    2     1000035        13   # BR(~mu_L -> ~chi_40 mu-)
     5.09589995E-06    2    -1000024        14   # BR(~mu_L -> ~chi_1- nu_mu)
     5.15433765E-01    2    -1000037        14   # BR(~mu_L -> ~chi_2- nu_mu)
#
#         PDG            Width
DECAY   2000013     2.73983148E+01   # smuon_R decays
#          BR         NDA      ID1       ID2
     9.92227719E-01    2     1000022        13   # BR(~mu_R -> ~chi_10 mu-)
     4.02403229E-03    2     1000023        13   # BR(~mu_R -> ~chi_20 mu-)
     3.74818968E-03    2     1000025        13   # BR(~mu_R -> ~chi_30 mu-)
     5.89649887E-08    2     1000035        13   # BR(~mu_R -> ~chi_40 mu-)
#
#         PDG            Width
DECAY   1000015     2.92415237E+01   # stau_1 decays
#          BR         NDA      ID1       ID2
     9.28336379E-01    2     1000022        15   # BR(~tau_1 -> ~chi_10  tau-)
     1.91899835E-02    2     1000023        15   # BR(~tau_1 -> ~chi_20  tau-)
     1.84856784E-02    2     1000025        15   # BR(~tau_1 -> ~chi_30  tau-)
     8.47998329E-04    2     1000035        15   # BR(~tau_1 -> ~chi_40  tau-)
     3.14424726E-02    2    -1000024        16   # BR(~tau_1 -> ~chi_1-  nu_tau)
     1.69748807E-03    2    -1000037        16   # BR(~tau_1 -> ~chi_2-  nu_tau)
#
#         PDG            Width
DECAY   2000015     3.12448759E+01   # stau_2 decays
#          BR         NDA      ID1       ID2
     2.19776705E-01    2     1000022        15   # BR(~tau_2 -> ~chi_10  tau-)
     1.68967529E-02    2     1000023        15   # BR(~tau_2 -> ~chi_20  tau-)
     1.54657711E-02    2     1000025        15   # BR(~tau_2 -> ~chi_30  tau-)
     2.49106010E-01    2     1000035        15   # BR(~tau_2 -> ~chi_40  tau-)
     5.72498248E-05    2    -1000024        16   # BR(~tau_2 -> ~chi_1-  nu_tau)
     4.98697512E-01    2    -1000037        16   # BR(~tau_2 -> ~chi_2-  nu_tau)
#
#         PDG            Width
DECAY   1000012     3.03405408E+01   # snu_eL decays
#          BR         NDA      ID1       ID2
     2.24375861E-01    2     1000022        12   # BR(~nu_eL -> ~chi_10 nu_e)
     2.21688242E-04    2     1000023        12   # BR(~nu_eL -> ~chi_20 nu_e)
     1.83278902E-03    2     1000025        12   # BR(~nu_eL -> ~chi_30 nu_e)
     2.57508400E-01    2     1000035        12   # BR(~nu_eL -> ~chi_40 nu_e)
     1.68096659E-03    2     1000024        11   # BR(~nu_eL -> ~chi_1+ e-)
     5.14380295E-01    2     1000037        11   # BR(~nu_eL -> ~chi_2+ e-)
#
#         PDG            Width
DECAY   1000014     3.03405408E+01   # snu_muL decays
#          BR         NDA      ID1       ID2
     2.24375861E-01    2     1000022        14   # BR(~nu_muL -> ~chi_10 nu_mu)
     2.21688242E-04    2     1000023        14   # BR(~nu_muL -> ~chi_20 nu_mu)
     1.83278902E-03    2     1000025        14   # BR(~nu_muL -> ~chi_30 nu_mu)
     2.57508400E-01    2     1000035        14   # BR(~nu_muL -> ~chi_40 nu_mu)
     1.68096659E-03    2     1000024        13   # BR(~nu_muL -> ~chi_1+ mu-)
     5.14380295E-01    2     1000037        13   # BR(~nu_muL -> ~chi_2+ mu-)
#
#         PDG            Width
DECAY   1000016     3.12545430E+01   # snu_tauL decays
#          BR         NDA      ID1       ID2
     2.17790291E-01    2     1000022        16   # BR(~nu_tauL -> ~chi_10 nu_tau)
     2.15180617E-04    2     1000023        16   # BR(~nu_tauL -> ~chi_20 nu_tau)
     1.77898770E-03    2     1000025        16   # BR(~nu_tauL -> ~chi_30 nu_tau)
     2.49884336E-01    2     1000035        16   # BR(~nu_tauL -> ~chi_40 nu_tau)
     3.11807028E-02    2     1000024        15   # BR(~nu_tauL -> ~chi_1+ tau-)
     4.99150503E-01    2     1000037        15   # BR(~nu_tauL -> ~chi_2+ tau-)
#
#         PDG            Width
DECAY   1000024     2.94186933E-01   # chargino1+ decays
#          BR         NDA      ID1       ID2
     1.00000000E+00    2     1000022        24   # BR(~chi_1+ -> ~chi_10  W+)
#
#         PDG            Width
DECAY   1000037     2.21709046E+01   # chargino2+ decays
#          BR         NDA      ID1       ID2
     2.53569562E-01    2     1000024        23   # BR(~chi_2+ -> ~chi_1+  Z )
     1.56210407E-04    2     1000022        24   # BR(~chi_2+ -> ~chi_10  W+)
     2.44989698E-01    2     1000023        24   # BR(~chi_2+ -> ~chi_20  W+)
     2.44396437E-01    2     1000025        24   # BR(~chi_2+ -> ~chi_30  W+)
     2.56882909E-01    2     1000024        25   # BR(~chi_2+ -> ~chi_1+  h )
     5.18315313E-06    2     1000022        37   # BR(~chi_2+ -> ~chi_10  H+)
#
#         PDG            Width
DECAY   1000022     0.00000000E+00   # neutralino1 decays
#
#         PDG            Width
DECAY   1000023     2.97537981E-01   # neutralino2 decays
#          BR         NDA      ID1       ID2
     5.04263182E-01    2     1000022        23   # BR(~chi_20 -> ~chi_10   Z )
     4.95736818E-01    2     1000022        25   # BR(~chi_20 -> ~chi_10   h )
#
#         PDG            Width
DECAY   1000025     2.90451890E-01   # neutralino3 decays
#          BR         NDA      ID1       ID2
     5.33623753E-01    2     1000022        23   # BR(~chi_30 -> ~chi_10   Z )
     4.66376247E-01    2     1000022        25   # BR(~chi_30 -> ~chi_10   h )
#
#         PDG            Width
DECAY   1000035     2.21818650E+01   # neutralino4 decays
#          BR         NDA      ID1       ID2
     3.10067975E-06    2     1000022        23   # BR(~chi_40 -> ~chi_10   Z )
     1.12718475E-01    2     1000023        23   # BR(~chi_40 -> ~chi_20   Z )
     1.40412160E-01    2     1000025        23   # BR(~chi_40 -> ~chi_30   Z )
     2.45173271E-01    2     1000024       -24   # BR(~chi_40 -> ~chi_1+   W-)
     2.45173271E-01    2    -1000024        24   # BR(~chi_40 -> ~chi_1-   W+)
     1.45522914E-04    2     1000022        25   # BR(~chi_40 -> ~chi_10   h )
     4.98559095E-06    2     1000022        35   # BR(~chi_40 -> ~chi_10   H )
     5.44426009E-07    2     1000022        36   # BR(~chi_40 -> ~chi_10   A )
     1.43401696E-01    2     1000023        25   # BR(~chi_40 -> ~chi_20   h )
     1.12966974E-01    2     1000025        25   # BR(~chi_40 -> ~chi_30   h )
#
#         PDG            Width
DECAY        25     4.05099388E-03   # h decays
#          BR         NDA      ID1       ID2
     6.13481570E-01    2           5        -5   # BR(h -> b       bb     )
     6.39212407E-02    2         -15        15   # BR(h -> tau+    tau-   )
     2.26305383E-04    2         -13        13   # BR(h -> mu+     mu-    )
     4.79914943E-04    2           3        -3   # BR(h -> s       sb     )
     2.07939295E-02    2           4        -4   # BR(h -> c       cb     )
     6.70160097E-02    2          21        21   # BR(h -> g       g      )
     2.29843523E-03    2          22        22   # BR(h -> gam     gam    )
     1.46429309E-03    2          22        23   # BR(h -> Z       gam    )
     2.05815134E-01    2          24       -24   # BR(h -> W+      W-     )
     2.44244067E-02    2          23        23   # BR(h -> Z       Z      )
     7.87605497E-05    2     1000022   1000022   # BR(h -> ~chi_10 ~chi_10)
#
#         PDG            Width
DECAY        35     8.66404521E+00   # H decays
#          BR         NDA      ID1       ID2
     3.68571093E-01    2           5        -5   # BR(H -> b       bb     )
     6.43216751E-02    2         -15        15   # BR(H -> tau+    tau-   )
     2.27446552E-04    2         -13        13   # BR(H -> mu+     mu-    )
     2.78814589E-04    2           3        -3   # BR(H -> s       sb     )
     1.55875425E-06    2           4        -4   # BR(H -> c       cb     )
     1.55731899E-01    2           6        -6   # BR(H -> t       tb     )
     5.17830510E-05    2          21        21   # BR(H -> g       g      )
     1.48947014E-07    2          22        22   # BR(H -> gam     gam    )
     9.18535991E-08    2          23        22   # BR(H -> Z       gam    )
     7.40543335E-05    2          24       -24   # BR(H -> W+      W-     )
     3.69802861E-05    2          23        23   # BR(H -> Z       Z      )
     2.69398897E-04    2          25        25   # BR(H -> h       h      )
    -6.53748541E-25    2          36        36   # BR(H -> A       A      )
     9.32500305E-19    2          23        36   # BR(H -> Z       A      )
     3.17416534E-03    2     1000024  -1000024   # BR(H -> ~chi_1+ ~chi_1-)
     6.71478370E-03    2     1000022   1000022   # BR(H -> ~chi_10 ~chi_10)
     3.68932735E-04    2     1000023   1000023   # BR(H -> ~chi_20 ~chi_20)
     2.44834595E-03    2     1000025   1000025   # BR(H -> ~chi_30 ~chi_30)
     2.39493755E-01    2     1000022   1000023   # BR(H -> ~chi_10 ~chi_20)
     1.54911457E-01    2     1000022   1000025   # BR(H -> ~chi_10 ~chi_30)
     3.32361678E-03    2     1000023   1000025   # BR(H -> ~chi_20 ~chi_30)
#
#         PDG            Width
DECAY        36     8.67109883E+00   # A decays
#          BR         NDA      ID1       ID2
     3.68397131E-01    2           5        -5   # BR(A -> b       bb     )
     6.42712634E-02    2         -15        15   # BR(A -> tau+    tau-   )
     2.27267975E-04    2         -13        13   # BR(A -> mu+     mu-    )
     2.78799270E-04    2           3        -3   # BR(A -> s       sb     )
     1.56373669E-06    2           4        -4   # BR(A -> c       cb     )
     1.56143482E-01    2           6        -6   # BR(A -> t       tb     )
     1.54538561E-04    2          21        21   # BR(A -> g       g      )
     5.93421033E-07    2          22        22   # BR(A -> gam     gam    )
     1.86999134E-07    2          23        22   # BR(A -> Z       gam    )
     7.37154155E-05    2          23        25   # BR(A -> Z       h      )
     3.48604219E-03    2     1000024  -1000024   # BR(A -> ~chi_1+ ~chi_1-)
     6.67186190E-03    2     1000022   1000022   # BR(A -> ~chi_10 ~chi_10)
     2.71095409E-04    2     1000023   1000023   # BR(A -> ~chi_20 ~chi_20)
     4.22247532E-03    2     1000025   1000025   # BR(A -> ~chi_30 ~chi_30)
     1.58312355E-01    2     1000022   1000023   # BR(A -> ~chi_10 ~chi_20)
     2.35124992E-01    2     1000022   1000025   # BR(A -> ~chi_10 ~chi_30)
     2.36263663E-03    2     1000023   1000025   # BR(A -> ~chi_20 ~chi_30)
#
#         PDG            Width
DECAY        37     8.60722298E+00   # H+ decays
#          BR         NDA      ID1       ID2
     5.90008881E-04    2           4        -5   # BR(H+ -> c       bb     )
     6.47790894E-02    2         -15        16   # BR(H+ -> tau+    nu_tau )
     2.29063685E-04    2         -13        14   # BR(H+ -> mu+     nu_mu  )
     3.77603701E-06    2           2        -5   # BR(H+ -> u       bb     )
     1.34406574E-05    2           2        -3   # BR(H+ -> u       sb     )
     2.77952676E-04    2           4        -3   # BR(H+ -> c       sb     )
     5.22806485E-01    2           6        -5   # BR(H+ -> t       bb     )
     7.44166263E-05    2          24        25   # BR(H+ -> W+      h      )
     9.11927789E-13    2          24        36   # BR(H+ -> W+      A      )
     4.07425427E-01    2     1000024   1000022   # BR(H+ -> ~chi_1+ ~chi_10)
     3.47021958E-03    2     1000024   1000023   # BR(H+ -> ~chi_1+ ~chi_20)
     3.30121160E-04    2     1000024   1000025   # BR(H+ -> ~chi_1+ ~chi_30)
