#
#                              ======================
#                              | THE SUSYHIT OUTPUT |
#                              ======================
#
#
#              ------------------------------------------------------
#              |     This is the output of the SUSY-HIT package     |
#              |  created by A.Djouadi, M.Muehlleitner and M.Spira. |
#              |  In case of problems with SUSY-HIT email to        |
#              |           margarete.muehlleitner@kit.edu           |
#              |           michael.spira@psi.ch                     |
#              |           abdelhak.djouadi@cern.ch                 |
#              ------------------------------------------------------
#
#              ------------------------------------------------------
#              |  SUSY Les Houches Accord - MSSM Spectrum + Decays  |
#              |              based on the decay programs           |
#              |                                                    |
#              |                     SDECAY 1.5a                    |
#              |                                                    |
#              |  Authors: M.Muhlleitner, A.Djouadi and Y.Mambrini  |
#              |  Ref.:    Comput.Phys.Commun.168(2005)46           |
#              |           [hep-ph/0311167]                         |
#              |                                                    |
#              |                     HDECAY 3.4                     |
#              |                                                    |
#              |  By: A.Djouadi,J.Kalinowski,M.Muhlleitner,M.Spira  |
#              |  Ref.:    Comput.Phys.Commun.108(1998)56           |
#              |           [hep-ph/9704448]                         |
#              |                                                    |
#              |                                                    |
#              |  If not stated otherwise all DRbar couplings and   |
#              |  soft SUSY breaking masses are given at the scale  |
#              |  Q=  0.91187600E+02
#              |                                                    |
#              ------------------------------------------------------
#
#
BLOCK DCINFO  # Decay Program information
     1   SDECAY/HDECAY # decay calculator
     2   1.5a /3.4    # version number
#
BLOCK SPINFO  # Spectrum calculator information
     1   SuSpect     # RGE +Spectrum calculator            
     2   2.43         # version number                     
#
BLOCK MODSEL  # Model selection
     1     2   # GMSB                                              
#
BLOCK SMINPUTS  # Standard Model inputs
         1     1.27932904E+02   # alpha_em^-1(M_Z)^MSbar
         2     1.16639000E-05   # G_F [GeV^-2]
         3     1.17200000E-01   # alpha_S(M_Z)^MSbar
         4     9.11870000E+01   # M_Z pole mass
         5     4.25000000E+00   # mb(mb)^MSbar
         6     1.72900000E+02   # mt pole mass
         7     1.77700000E+00   # mtau pole mass
#
BLOCK MINPAR  # Input parameters - minimal models
#
BLOCK EXTPAR  # Input parameters - non-minimal models
         0     9.11876000E+01   # EWSB                
         1     6.51000000E+02   # M_1                 
         2     3.00000000E+03   # M_2                 
         3     2.40000000E+03   # M_3                 
        11     0.00000000E+00   # A_t                 
        12     0.00000000E+00   # A_b                 
        13     0.00000000E+00   # A_tau               
        14     0.00000000E+00   # A_u                 
        15     0.00000000E+00   # A_d                 
        16     0.00000000E+00   # A_e                 
        23     6.50000000E+02   # mu(EWSB)            
        25     1.50000000E+00   # tanbeta(in)         
        26     2.00000000E+03   # MA_pole             
        31     5.00000000E+03   # M_eL                
        32     5.00000000E+03   # M_muL               
        33     5.00000000E+03   # M_tauL              
        34     5.00000000E+03   # M_eR                
        35     5.00000000E+03   # M_muR               
        36     5.00000000E+03   # M_tauR              
        41     5.00000000E+03   # M_q1L               
        42     5.00000000E+03   # M_q2L               
        43     5.00000000E+03   # M_q3L               
        44     5.00000000E+03   # M_uR                
        45     5.00000000E+03   # M_cR                
        46     5.00000000E+03   # M_tR                
        47     5.00000000E+03   # M_dR                
        48     5.00000000E+03   # M_sR                
        49     5.00000000E+03   # M_bR                
#
BLOCK MASS  # Mass Spectrum
# PDG code           mass       particle
        24     8.05394373E+01   # W+
        25     1.25000000E+02   # h
        35     2.00435862E+03   # H
        36     2.00000000E+03   # A
        37     2.00170487E+03   # H+
         5     4.87877839E+00   # b-quark pole mass calculated from mb(mb)_Msbar
   1000001     5.00013301E+03   # ~d_L
   2000001     5.00002534E+03   # ~d_R
   1000002     4.99989233E+03   # ~u_L
   2000002     4.99994932E+03   # ~u_R
   1000003     5.00013301E+03   # ~s_L
   2000003     5.00002534E+03   # ~s_R
   1000004     4.99989233E+03   # ~c_L
   2000004     4.99994932E+03   # ~c_R
   1000005     4.99981232E+03   # ~b_1
   2000005     5.00034746E+03   # ~b_2
   1000006     4.99564037E+03   # ~t_1
   2000006     5.00882287E+03   # ~t_2
   1000011     5.00008233E+03   # ~e_L
   2000011     5.00007603E+03   # ~e_R
   1000012     4.99984164E+03   # ~nu_eL
   1000013     5.00008233E+03   # ~mu_L
   2000013     5.00007603E+03   # ~mu_R
   1000014     4.99984164E+03   # ~nu_muL
   1000015     4.99990613E+03   # ~tau_1
   2000015     5.00025285E+03   # ~tau_2
   1000016     4.99984164E+03   # ~nu_tauL
   1000021     2.40000000E+03   # ~g
   1000022     6.05644231E+02   # ~chi_10
   1000023    -6.50124668E+02   # ~chi_20
   1000025     6.92856004E+02   # ~chi_30
   1000035     3.00262443E+03   # ~chi_40
   1000024     6.47508253E+02   # ~chi_1+
   1000037     3.00262363E+03   # ~chi_2+
   1000039     1.00000000E-09   # ~gravitino
#
BLOCK NMIX  # Neutralino Mixing Matrix
  1  1     6.92279451E-01   # N_11
  1  2    -2.33328274E-02   # N_12
  1  3     5.13592682E-01   # N_13
  1  4    -5.06386510E-01   # N_14
  2  1     6.71720749E-03   # N_21
  2  2    -4.26031834E-03   # N_22
  2  3    -7.06745321E-01   # N_23
  2  4    -7.07423339E-01   # N_24
  3  1     7.21597982E-01   # N_31
  3  2     2.32927331E-02   # N_32
  3  3    -4.86128820E-01   # N_33
  3  4     4.92374422E-01   # N_34
  4  1     6.26881252E-04   # N_41
  4  2    -9.99447286E-01   # N_42
  4  3    -2.03071022E-02   # N_43
  4  4     2.63125670E-02   # N_44
#
BLOCK UMIX  # Chargino Mixing Matrix U
  1  1    -2.87064338E-02   # U_11
  1  2     9.99587885E-01   # U_12
  2  1     9.99587885E-01   # U_21
  2  2     2.87064338E-02   # U_22
#
BLOCK VMIX  # Chargino Mixing Matrix V
  1  1    -3.72024061E-02   # V_11
  1  2     9.99307751E-01   # V_12
  2  1     9.99307751E-01   # V_21
  2  2     3.72024061E-02   # V_22
#
BLOCK STOPMIX  # Stop Mixing Matrix
  1  1     7.08632835E-01   # cos(theta_t)
  1  2     7.05577427E-01   # sin(theta_t)
  2  1    -7.05577427E-01   # -sin(theta_t)
  2  2     7.08632835E-01   # cos(theta_t)
#
BLOCK SBOTMIX  # Sbottom Mixing Matrix
  1  1     6.31982299E-01   # cos(theta_b)
  1  2     7.74982822E-01   # sin(theta_b)
  2  1    -7.74982822E-01   # -sin(theta_b)
  2  2     6.31982299E-01   # cos(theta_b)
#
BLOCK STAUMIX  # Stau Mixing Matrix
  1  1     7.00650366E-01   # cos(theta_tau)
  1  2     7.13504775E-01   # sin(theta_tau)
  2  1    -7.13504775E-01   # -sin(theta_tau)
  2  2     7.00650366E-01   # cos(theta_tau)
#
BLOCK ALPHA  # Higgs mixing
          -5.90210070E-01   # Mixing angle in the neutral Higgs boson sector
#
BLOCK HMIX Q=  9.11876000E+01  # DRbar Higgs Parameters
         1     6.50000000E+02   # mu(Q)               
         2     1.49999979E+00   # tanbeta(Q)          
         3     2.51970996E+02   # vev(Q)              
         4     3.65746000E+06   # MA^2(Q)             
#
BLOCK GAUGE Q=  9.11876000E+01  # The gauge couplings
     1     3.52896915E-01   # gprime(Q) DRbar
     2     6.27899210E-01   # g(Q) DRbar
     3     1.07754508E+00   # g3(Q) DRbar
#
BLOCK AU Q=  9.11876000E+01  # The trilinear couplings
  1  1     0.00000000E+00   # A_u(Q) DRbar
  2  2     0.00000000E+00   # A_c(Q) DRbar
  3  3     0.00000000E+00   # A_t(Q) DRbar
#
BLOCK AD Q=  9.11876000E+01  # The trilinear couplings
  1  1     0.00000000E+00   # A_d(Q) DRbar
  2  2     0.00000000E+00   # A_s(Q) DRbar
  3  3     0.00000000E+00   # A_b(Q) DRbar
#
BLOCK AE Q=  9.11876000E+01  # The trilinear couplings
  1  1     0.00000000E+00   # A_e(Q) DRbar
  2  2     0.00000000E+00   # A_mu(Q) DRbar
  3  3     0.00000000E+00   # A_tau(Q) DRbar
#
BLOCK Yu Q=  9.11876000E+01  # The Yukawa couplings
  1  1     0.00000000E+00   # y_u(Q) DRbar
  2  2     0.00000000E+00   # y_c(Q) DRbar
  3  3     1.02647979E+00   # y_t(Q) DRbar
#
BLOCK Yd Q=  9.11876000E+01  # The Yukawa couplings
  1  1     0.00000000E+00   # y_d(Q) DRbar
  2  2     0.00000000E+00   # y_s(Q) DRbar
  3  3     2.72004748E-02   # y_b(Q) DRbar
#
BLOCK Ye Q=  9.11876000E+01  # The Yukawa couplings
  1  1     0.00000000E+00   # y_e(Q) DRbar
  2  2     0.00000000E+00   # y_mu(Q) DRbar
  3  3     1.79879386E-02   # y_tau(Q) DRbar
#
BLOCK MSOFT Q=  9.11876000E+01  # The soft SUSY breaking masses at the scale Q
         1     6.51000000E+02   # M_1                 
         2     3.00000000E+03   # M_2                 
         3     2.40000000E+03   # M_3                 
        14     0.00000000E+00   # A_u                 
        15     0.00000000E+00   # A_d                 
        16     0.00000000E+00   # A_e                 
        21     2.58265177E+06   # M^2_Hd              
        22    -5.73876767E+06   # M^2_Hu              
        31     5.00000000E+03   # M_eL                
        32     5.00000000E+03   # M_muL               
        33     5.00000000E+03   # M_tauL              
        34     5.00000000E+03   # M_eR                
        35     5.00000000E+03   # M_muR               
        36     5.00000000E+03   # M_tauR              
        41     5.00000000E+03   # M_q1L               
        42     5.00000000E+03   # M_q2L               
        43     5.00000000E+03   # M_q3L               
        44     5.00000000E+03   # M_uR                
        45     5.00000000E+03   # M_cR                
        46     5.00000000E+03   # M_tR                
        47     5.00000000E+03   # M_dR                
        48     5.00000000E+03   # M_sR                
        49     5.00000000E+03   # M_bR                
#
#
#
#                             =================
#                             |The decay table|
#                             =================
#
# - The QCD corrections to the decays gluino -> squark  + quark
#                                     squark -> gaugino + quark_prime
#                                     squark -> squark_prime + Higgs
#                                     squark -> gluino  + quark
#   are included.
#
# - The multi-body decays for the inos, stops and sbottoms are included.
#
# - The loop induced decays for the gluino, neutralinos and stops
#   are included.
#
# - The SUSY decays of the top quark are included.
#
# - Possible decays of the NLSP in GMSB models are included.
#
#
#         PDG            Width
DECAY         6     1.37372147E+00   # top decays
#          BR         NDA      ID1       ID2
     1.00000000E+00    2           5        24   # BR(t ->  b    W+)
#
#         PDG            Width
DECAY   1000021     7.46141831E-03   # gluino decays
#          BR         NDA      ID1       ID2
     3.38812301E-03    2     1000022        21   # BR(~g -> ~chi_10 g)
     6.43139557E-03    2     1000023        21   # BR(~g -> ~chi_20 g)
     2.99638558E-03    2     1000025        21   # BR(~g -> ~chi_30 g)
#          BR         NDA      ID1       ID2
     0.00000000E+00    2     1000039        21   # BR(~g -> ~G      g)
#           BR         NDA      ID1       ID2       ID3
     3.87764282E-03    3     1000022         1        -1   # BR(~g -> ~chi_10 d  db)
     7.43202877E-07    3     1000023         1        -1   # BR(~g -> ~chi_20 d  db)
     3.27046039E-03    3     1000025         1        -1   # BR(~g -> ~chi_30 d  db)
     1.19907575E-02    3     1000022         2        -2   # BR(~g -> ~chi_10 u  ub)
     6.93994294E-07    3     1000023         2        -2   # BR(~g -> ~chi_20 u  ub)
     1.21293089E-02    3     1000025         2        -2   # BR(~g -> ~chi_30 u  ub)
     3.87764282E-03    3     1000022         3        -3   # BR(~g -> ~chi_10 s  sb)
     7.43202877E-07    3     1000023         3        -3   # BR(~g -> ~chi_20 s  sb)
     3.27046039E-03    3     1000025         3        -3   # BR(~g -> ~chi_30 s  sb)
     1.19907575E-02    3     1000022         4        -4   # BR(~g -> ~chi_10 c  cb)
     6.93994294E-07    3     1000023         4        -4   # BR(~g -> ~chi_20 c  cb)
     1.21293089E-02    3     1000025         4        -4   # BR(~g -> ~chi_30 c  cb)
     3.95967419E-03    3     1000022         5        -5   # BR(~g -> ~chi_10 b  bb)
     1.71333216E-04    3     1000023         5        -5   # BR(~g -> ~chi_20 b  bb)
     3.35660027E-03    3     1000025         5        -5   # BR(~g -> ~chi_30 b  bb)
     1.16335918E-01    3     1000022         6        -6   # BR(~g -> ~chi_10 t  tb)
     2.10614828E-01    3     1000023         6        -6   # BR(~g -> ~chi_20 t  tb)
     1.22063024E-01    3     1000025         6        -6   # BR(~g -> ~chi_30 t  tb)
     8.89337344E-05    3     1000024         1        -2   # BR(~g -> ~chi_1+ d  ub)
     8.89337344E-05    3    -1000024         2        -1   # BR(~g -> ~chi_1- u  db)
     8.89337344E-05    3     1000024         3        -4   # BR(~g -> ~chi_1+ s  cb)
     8.89337344E-05    3    -1000024         4        -3   # BR(~g -> ~chi_1- c  sb)
     2.27750733E-01    3     1000024         5        -6   # BR(~g -> ~chi_1+ b  tb)
     2.27750733E-01    3    -1000024         6        -5   # BR(~g -> ~chi_1- t  bb)
#
#         PDG            Width
DECAY   1000006     2.86289842E+02   # stop1 decays
#          BR         NDA      ID1       ID2
     9.75450493E-02    2     1000022         6   # BR(~t_1 -> ~chi_10 t )
     1.23599212E-01    2     1000023         6   # BR(~t_1 -> ~chi_20 t )
     4.49095298E-02    2     1000025         6   # BR(~t_1 -> ~chi_30 t )
     1.23511781E-02    2     1000035         6   # BR(~t_1 -> ~chi_40 t )
     1.27055538E-01    2     1000024         5   # BR(~t_1 -> ~chi_1+ b )
     2.45848600E-02    2     1000037         5   # BR(~t_1 -> ~chi_2+ b )
     5.69954633E-01    2     1000021         6   # BR(~t_1 -> ~g      t )
#
#         PDG            Width
DECAY   2000006     2.73853315E+02   # stop2 decays
#          BR         NDA      ID1       ID2
     4.75061769E-02    2     1000022         6   # BR(~t_2 -> ~chi_10 t )
     1.25579529E-01    2     1000023         6   # BR(~t_2 -> ~chi_20 t )
     9.72911275E-02    2     1000025         6   # BR(~t_2 -> ~chi_30 t )
     1.56452090E-02    2     1000035         6   # BR(~t_2 -> ~chi_40 t )
     1.22138768E-01    2     1000024         5   # BR(~t_2 -> ~chi_1+ b )
     3.11701745E-02    2     1000037         5   # BR(~t_2 -> ~chi_2+ b )
     5.60669016E-01    2     1000021         6   # BR(~t_2 -> ~g      t )
#
#         PDG            Width
DECAY   1000005     1.84317580E+02   # sbottom1 decays
#          BR         NDA      ID1       ID2
     6.52405076E-03    2     1000022         5   # BR(~b_1 -> ~chi_10 b )
     1.06835303E-04    2     1000023         5   # BR(~b_1 -> ~chi_20 b )
     4.65304744E-03    2     1000025         5   # BR(~b_1 -> ~chi_30 b )
     1.20918054E-02    2     1000035         5   # BR(~b_1 -> ~chi_40 b )
     9.22406284E-02    2    -1000024         6   # BR(~b_1 -> ~chi_1- t )
     2.42741827E-02    2    -1000037         6   # BR(~b_1 -> ~chi_2- t )
     8.60109450E-01    2     1000021         5   # BR(~b_1 -> ~g      b )
#
#         PDG            Width
DECAY   2000005     2.28923034E+02   # sbottom2 decays
#          BR         NDA      ID1       ID2
     2.11369569E-03    2     1000022         5   # BR(~b_2 -> ~chi_10 b )
     1.30688443E-04    2     1000023         5   # BR(~b_2 -> ~chi_20 b )
     3.14052077E-03    2     1000025         5   # BR(~b_2 -> ~chi_30 b )
     2.41580496E-02    2     1000035         5   # BR(~b_2 -> ~chi_40 b )
     2.30039052E-01    2    -1000024         6   # BR(~b_2 -> ~chi_1- t )
     4.85338741E-02    2    -1000037         6   # BR(~b_2 -> ~chi_2- t )
     6.91884119E-01    2     1000021         5   # BR(~b_2 -> ~g      b )
#
#         PDG            Width
DECAY   1000002     1.82422853E+02   # sup_L decays
#          BR         NDA      ID1       ID2
     1.13527126E-03    2     1000022         2   # BR(~u_L -> ~chi_10 u)
     9.00342851E-07    2     1000023         2   # BR(~u_L -> ~chi_20 u)
     2.49789594E-03    2     1000025         2   # BR(~u_L -> ~chi_30 u)
     4.25049858E-02    2     1000035         2   # BR(~u_L -> ~chi_40 u)
     2.76633613E-04    2     1000024         1   # BR(~u_L -> ~chi_1+ d)
     8.50062634E-02    2     1000037         1   # BR(~u_L -> ~chi_2+ d)
     8.68578050E-01    2     1000021         2   # BR(~u_L -> ~g      u)
#
#         PDG            Width
DECAY   2000002     1.68685057E+02   # sup_R decays
#          BR         NDA      ID1       ID2
     2.92080053E-02    2     1000022         2   # BR(~u_R -> ~chi_10 u)
     2.73775552E-06    2     1000023         2   # BR(~u_R -> ~chi_20 u)
     3.14502358E-02    2     1000025         2   # BR(~u_R -> ~chi_30 u)
     1.01579183E-08    2     1000035         2   # BR(~u_R -> ~chi_40 u)
     9.39339011E-01    2     1000021         2   # BR(~u_R -> ~g      u)
#
#         PDG            Width
DECAY   1000001     1.82428670E+02   # sdown_L decays
#          BR         NDA      ID1       ID2
     2.35005771E-03    2     1000022         1   # BR(~d_L -> ~chi_10 d)
     3.04301555E-06    2     1000023         1   # BR(~d_L -> ~chi_20 d)
     1.24522974E-03    2     1000025         1   # BR(~d_L -> ~chi_30 d)
     4.25302450E-02    2     1000035         1   # BR(~d_L -> ~chi_40 d)
     1.64713882E-04    2    -1000024         2   # BR(~d_L -> ~chi_1- u)
     8.50644819E-02    2    -1000037         2   # BR(~d_L -> ~chi_2- u)
     8.68642229E-01    2     1000021         1   # BR(~d_L -> ~g      d)
#
#         PDG            Width
DECAY   2000001     1.61015941E+02   # sdown_R decays
#          BR         NDA      ID1       ID2
     7.64991748E-03    2     1000022         1   # BR(~d_R -> ~chi_10 d)
     7.17050221E-07    2     1000023         1   # BR(~d_R -> ~chi_20 d)
     8.23718609E-03    2     1000025         1   # BR(~d_R -> ~chi_30 d)
     2.66056488E-09    2     1000035         1   # BR(~d_R -> ~chi_40 d)
     9.84112177E-01    2     1000021         1   # BR(~d_R -> ~g      d)
#
#         PDG            Width
DECAY   1000004     1.82422853E+02   # scharm_L decays
#          BR         NDA      ID1       ID2
     1.13527126E-03    2     1000022         4   # BR(~c_L -> ~chi_10 c)
     9.00342851E-07    2     1000023         4   # BR(~c_L -> ~chi_20 c)
     2.49789594E-03    2     1000025         4   # BR(~c_L -> ~chi_30 c)
     4.25049858E-02    2     1000035         4   # BR(~c_L -> ~chi_40 c)
     2.76633613E-04    2     1000024         3   # BR(~c_L -> ~chi_1+ s)
     8.50062634E-02    2     1000037         3   # BR(~c_L -> ~chi_2+ s)
     8.68578050E-01    2     1000021         4   # BR(~c_L -> ~g      c)
#
#         PDG            Width
DECAY   2000004     1.68685057E+02   # scharm_R decays
#          BR         NDA      ID1       ID2
     2.92080053E-02    2     1000022         4   # BR(~c_R -> ~chi_10 c)
     2.73775552E-06    2     1000023         4   # BR(~c_R -> ~chi_20 c)
     3.14502358E-02    2     1000025         4   # BR(~c_R -> ~chi_30 c)
     1.01579183E-08    2     1000035         4   # BR(~c_R -> ~chi_40 c)
     9.39339011E-01    2     1000021         4   # BR(~c_R -> ~g      c)
#
#         PDG            Width
DECAY   1000003     1.82428670E+02   # sstrange_L decays
#          BR         NDA      ID1       ID2
     2.35005771E-03    2     1000022         3   # BR(~s_L -> ~chi_10 s)
     3.04301555E-06    2     1000023         3   # BR(~s_L -> ~chi_20 s)
     1.24522974E-03    2     1000025         3   # BR(~s_L -> ~chi_30 s)
     4.25302450E-02    2     1000035         3   # BR(~s_L -> ~chi_40 s)
     1.64713882E-04    2    -1000024         4   # BR(~s_L -> ~chi_1- c)
     8.50644819E-02    2    -1000037         4   # BR(~s_L -> ~chi_2- c)
     8.68642229E-01    2     1000021         3   # BR(~s_L -> ~g      s)
#
#         PDG            Width
DECAY   2000003     1.61015941E+02   # sstrange_R decays
#          BR         NDA      ID1       ID2
     7.64991748E-03    2     1000022         3   # BR(~s_R -> ~chi_10 s)
     7.17050221E-07    2     1000023         3   # BR(~s_R -> ~chi_20 s)
     8.23718609E-03    2     1000025         3   # BR(~s_R -> ~chi_30 s)
     2.66056488E-09    2     1000035         3   # BR(~s_R -> ~chi_40 s)
     9.84112177E-01    2     1000021         3   # BR(~s_R -> ~g      s)
#
#         PDG            Width
DECAY   1000011     3.00685727E+01   # selectron_L decays
#          BR         NDA      ID1       ID2
     8.46972278E-02    2     1000022        11   # BR(~e_L -> ~chi_10 e-)
     1.48294568E-07    2     1000023        11   # BR(~e_L -> ~chi_20 e-)
     1.15376377E-01    2     1000025        11   # BR(~e_L -> ~chi_30 e-)
     2.66120516E-01    2     1000035        11   # BR(~e_L -> ~chi_40 e-)
     1.03906563E-03    2    -1000024        12   # BR(~e_L -> ~chi_1- nu_e)
     5.32766665E-01    2    -1000037        12   # BR(~e_L -> ~chi_2- nu_e)
#
#         PDG            Width
DECAY   2000011     2.39394848E+01   # selectron_R decays
#          BR         NDA      ID1       ID2
     4.81551146E-01    2     1000022        11   # BR(~e_R -> ~chi_10 e-)
     4.51320766E-05    2     1000023        11   # BR(~e_R -> ~chi_20 e-)
     5.18403556E-01    2     1000025        11   # BR(~e_R -> ~chi_30 e-)
     1.66267534E-07    2     1000035        11   # BR(~e_R -> ~chi_40 e-)
#
#         PDG            Width
DECAY   1000013     3.00685727E+01   # smuon_L decays
#          BR         NDA      ID1       ID2
     8.46972278E-02    2     1000022        13   # BR(~mu_L -> ~chi_10 mu-)
     1.48294568E-07    2     1000023        13   # BR(~mu_L -> ~chi_20 mu-)
     1.15376377E-01    2     1000025        13   # BR(~mu_L -> ~chi_30 mu-)
     2.66120516E-01    2     1000035        13   # BR(~mu_L -> ~chi_40 mu-)
     1.03906563E-03    2    -1000024        14   # BR(~mu_L -> ~chi_1- nu_mu)
     5.32766665E-01    2    -1000037        14   # BR(~mu_L -> ~chi_2- nu_mu)
#
#         PDG            Width
DECAY   2000013     2.39394848E+01   # smuon_R decays
#          BR         NDA      ID1       ID2
     4.81551146E-01    2     1000022        13   # BR(~mu_R -> ~chi_10 mu-)
     4.51320766E-05    2     1000023        13   # BR(~mu_R -> ~chi_20 mu-)
     5.18403556E-01    2     1000025        13   # BR(~mu_R -> ~chi_30 mu-)
     1.66267534E-07    2     1000035        13   # BR(~mu_R -> ~chi_40 mu-)
#
#         PDG            Width
DECAY   1000015     2.70264544E+01   # stau_1 decays
#          BR         NDA      ID1       ID2
     2.69765929E-01    2     1000022        15   # BR(~tau_1 -> ~chi_10  tau-)
     4.34047282E-04    2     1000023        15   # BR(~tau_1 -> ~chi_20  tau-)
     2.91815138E-01    2     1000025        15   # BR(~tau_1 -> ~chi_30  tau-)
     1.45086192E-01    2     1000035        15   # BR(~tau_1 -> ~chi_40  tau-)
     2.30604959E-03    2    -1000024        16   # BR(~tau_1 -> ~chi_1-  nu_tau)
     2.90459535E-01    2    -1000037        16   # BR(~tau_1 -> ~chi_2-  nu_tau)
     1.33108744E-04    2     1000039        15   # BR(~tau_1 -> ~G       tau-)
#
#         PDG            Width
DECAY   2000015     2.70785103E+01   # stau_2 decays
#          BR         NDA      ID1       ID2
     2.51137769E-01    2     1000022        15   # BR(~tau_2 -> ~chi_10  tau-)
     7.54434853E-04    2     1000023        15   # BR(~tau_2 -> ~chi_20  tau-)
     2.95712670E-01    2     1000025        15   # BR(~tau_2 -> ~chi_30  tau-)
     1.50699595E-01    2     1000035        15   # BR(~tau_2 -> ~chi_40  tau-)
     2.45056941E-07    2    -1000024        16   # BR(~tau_2 -> ~chi_1-  nu_tau)
     3.01695286E-01    2    -1000037        16   # BR(~tau_2 -> ~chi_2-  nu_tau)
#
#         PDG            Width
DECAY   1000012     3.00678180E+01   # snu_eL decays
#          BR         NDA      ID1       ID2
     1.07686239E-01    2     1000022        12   # BR(~nu_eL -> ~chi_10 nu_e)
     4.06965120E-05    2     1000023        12   # BR(~nu_eL -> ~chi_20 nu_e)
     9.16690392E-02    2     1000025        12   # BR(~nu_eL -> ~chi_30 nu_e)
     2.66460949E-01    2     1000035        12   # BR(~nu_eL -> ~chi_40 nu_e)
     1.74507910E-03    2     1000024        11   # BR(~nu_eL -> ~chi_1+ e-)
     5.32397997E-01    2     1000037        11   # BR(~nu_eL -> ~chi_2+ e-)
#
#         PDG            Width
DECAY   1000014     3.00678180E+01   # snu_muL decays
#          BR         NDA      ID1       ID2
     1.07686239E-01    2     1000022        14   # BR(~nu_muL -> ~chi_10 nu_mu)
     4.06965120E-05    2     1000023        14   # BR(~nu_muL -> ~chi_20 nu_mu)
     9.16690392E-02    2     1000025        14   # BR(~nu_muL -> ~chi_30 nu_mu)
     2.66460949E-01    2     1000035        14   # BR(~nu_muL -> ~chi_40 nu_mu)
     1.74507910E-03    2     1000024        13   # BR(~nu_muL -> ~chi_1+ mu-)
     5.32397997E-01    2     1000037        13   # BR(~nu_muL -> ~chi_2+ mu-)
#
#         PDG            Width
DECAY   1000016     3.00989175E+01   # snu_tauL decays
#          BR         NDA      ID1       ID2
     1.07574973E-01    2     1000022        16   # BR(~nu_tauL -> ~chi_10 nu_tau)
     4.06544626E-05    2     1000023        16   # BR(~nu_tauL -> ~chi_20 nu_tau)
     9.15743230E-02    2     1000025        16   # BR(~nu_tauL -> ~chi_30 nu_tau)
     2.66185631E-01    2     1000035        16   # BR(~nu_tauL -> ~chi_40 nu_tau)
     2.77590192E-03    2     1000024        15   # BR(~nu_tauL -> ~chi_1+ tau-)
     5.31848517E-01    2     1000037        15   # BR(~nu_tauL -> ~chi_2+ tau-)
#
#         PDG            Width
DECAY   1000024     8.06435828E-05   # chargino1+ decays
#          BR         NDA      ID1       ID2
     7.65811443E-04    2     1000039        24   # BR(~chi_1+ -> ~G       W+)
#           BR         NDA      ID1       ID2       ID3
     3.34037836E-01    3     1000022         2        -1   # BR(~chi_1+ -> ~chi_10 u    db)
     3.32152751E-01    3     1000022         4        -3   # BR(~chi_1+ -> ~chi_10 c    sb)
     1.11346081E-01    3     1000022       -11        12   # BR(~chi_1+ -> ~chi_10 e+   nu_e)
     1.11342547E-01    3     1000022       -13        14   # BR(~chi_1+ -> ~chi_10 mu+  nu_mu)
     1.10354973E-01    3     1000022       -15        16   # BR(~chi_1+ -> ~chi_10 tau+ nu_tau)
#
#         PDG            Width
DECAY   1000037     3.37167575E+01   # chargino2+ decays
#          BR         NDA      ID1       ID2
     2.37864919E-01    2     1000024        23   # BR(~chi_2+ -> ~chi_1+  Z )
     1.14005883E-01    2     1000022        24   # BR(~chi_2+ -> ~chi_10  W+)
     2.31819990E-01    2     1000023        24   # BR(~chi_2+ -> ~chi_20  W+)
     1.17918044E-01    2     1000025        24   # BR(~chi_2+ -> ~chi_30  W+)
     2.38861619E-01    2     1000024        25   # BR(~chi_2+ -> ~chi_1+  h )
     1.47495586E-02    2     1000024        35   # BR(~chi_2+ -> ~chi_1+  H )
     1.50037644E-02    2     1000024        36   # BR(~chi_2+ -> ~chi_1+  A )
     8.79510515E-03    2     1000022        37   # BR(~chi_2+ -> ~chi_10  H+)
     1.47982815E-02    2     1000023        37   # BR(~chi_2+ -> ~chi_20  H+)
     6.17452856E-03    2     1000025        37   # BR(~chi_2+ -> ~chi_30  H+)
     8.30651573E-06    2     1000039        24   # BR(~chi_2+ -> ~G       W+)
     3.95545841E-10    2     1000039        37   # BR(~chi_2+ -> ~G       H+)
#
#         PDG            Width
DECAY   1000022    1.0E-05    # neutralino1 decays
#          BR         NDA      ID1       ID2
     4.98183444E-01    2     1000039        22   # BR(~chi_10 -> ~G        gam)
     4.90954044E-01    2     1000039        23   # BR(~chi_10 -> ~G        Z)
     1.08625120E-02    2     1000039        25   # BR(~chi_10 -> ~G        h)
#
#         PDG            Width
DECAY   1000023     8.83567009E-05   # neutralino2 decays
#          BR         NDA      ID1       ID2
     5.10956932E-04    2     1000022        22   # BR(~chi_20 -> ~chi_10 gam)
#          BR         NDA      ID1       ID2
     2.14903518E-08    2     1000039        22   # BR(~chi_20 -> ~G        gam)
     2.70747156E-05    2     1000039        23   # BR(~chi_20 -> ~G        Z)
     6.26419955E-04    2     1000039        25   # BR(~chi_20 -> ~G        h)
#           BR         NDA      ID1       ID2       ID3
     1.18950243E-01    3     1000022        -2         2   # BR(~chi_20 -> ~chi_10 ub      u)
     1.53998363E-01    3     1000022        -1         1   # BR(~chi_20 -> ~chi_10 db      d)
     1.18040282E-01    3     1000022        -4         4   # BR(~chi_20 -> ~chi_10 cb      c)
     1.53973312E-01    3     1000022        -3         3   # BR(~chi_20 -> ~chi_10 sb      s)
     1.38167432E-01    3     1000022        -5         5   # BR(~chi_20 -> ~chi_10 bb      b)
     3.51594123E-02    3     1000022       -11        11   # BR(~chi_20 -> ~chi_10 e+      e-)
     3.51580073E-02    3     1000022       -13        13   # BR(~chi_20 -> ~chi_10 mu+     mu-)
     3.47624762E-02    3     1000022       -15        15   # BR(~chi_20 -> ~chi_10 tau+    tau-)
     7.02080109E-02    3     1000022       -12        12   # BR(~chi_20 -> ~chi_10 nu_eb   nu_e)
     7.02080109E-02    3     1000022       -14        14   # BR(~chi_20 -> ~chi_10 nu_mub  nu_mu)
     7.02080109E-02    3     1000022       -16        16   # BR(~chi_20 -> ~chi_10 nu_taub nu_tau)
     5.13313185E-07    3     1000024        -2         1   # BR(~chi_20 -> ~chi_1+ ub      d)
     5.13313185E-07    3    -1000024        -1         2   # BR(~chi_20 -> ~chi_1- db      u)
     1.15497681E-07    3     1000024        -4         3   # BR(~chi_20 -> ~chi_1+ cb      s)
     1.15497681E-07    3    -1000024        -3         4   # BR(~chi_20 -> ~chi_1- sb      c)
     1.71104410E-07    3     1000024       -12        11   # BR(~chi_20 -> ~chi_1+ nu_eb   e-)
     1.71104410E-07    3    -1000024        12       -11   # BR(~chi_20 -> ~chi_1- nu_e    e+)
     1.69721809E-07    3     1000024       -14        13   # BR(~chi_20 -> ~chi_1+ nu_mub  mu-)
     1.69721809E-07    3    -1000024        14       -13   # BR(~chi_20 -> ~chi_1- nu_mu   mu+)
     1.39406414E-08    3     1000024       -16        15   # BR(~chi_20 -> ~chi_1+ nu_taub tau-)
     1.39406414E-08    3    -1000024        16       -15   # BR(~chi_20 -> ~chi_1- nu_tau  tau+)
#
#         PDG            Width
DECAY   1000025     2.95464659E-04   # neutralino3 decays
#          BR         NDA      ID1       ID2
     2.76483650E-04    2     1000022        22   # BR(~chi_30 -> ~chi_10 gam)
     4.81452233E-04    2     1000023        22   # BR(~chi_30 -> ~chi_20 gam)
#          BR         NDA      ID1       ID2
     2.55204460E-04    2     1000039        22   # BR(~chi_30 -> ~G        gam)
     1.98294850E-04    2     1000039        23   # BR(~chi_30 -> ~G        Z)
     5.22949611E-06    2     1000039        25   # BR(~chi_30 -> ~G        h)
#           BR         NDA      ID1       ID2       ID3
     4.64154184E-06    3     1000022        -2         2   # BR(~chi_30 -> ~chi_10 ub      u)
     5.42968225E-06    3     1000022        -1         1   # BR(~chi_30 -> ~chi_10 db      d)
     4.69134756E-06    3     1000022        -4         4   # BR(~chi_30 -> ~chi_10 cb      c)
     5.43065141E-06    3     1000022        -3         3   # BR(~chi_30 -> ~chi_10 sb      s)
     5.54214129E-06    3     1000022        -5         5   # BR(~chi_30 -> ~chi_10 bb      b)
     9.04639366E-07    3     1000022       -11        11   # BR(~chi_30 -> ~chi_10 e+      e-)
     9.04629175E-07    3     1000022       -13        13   # BR(~chi_30 -> ~chi_10 mu+     mu-)
     9.34257896E-07    3     1000022       -15        15   # BR(~chi_30 -> ~chi_10 tau+    tau-)
     2.69447028E-06    3     1000022       -12        12   # BR(~chi_30 -> ~chi_10 nu_eb   nu_e)
     2.69447028E-06    3     1000022       -14        14   # BR(~chi_30 -> ~chi_10 nu_mub  nu_mu)
     2.69447028E-06    3     1000022       -16        16   # BR(~chi_30 -> ~chi_10 nu_taub nu_tau)
     2.67231158E-02    3     1000023        -2         2   # BR(~chi_30 -> ~chi_20 ub      u)
     3.45970482E-02    3     1000023        -1         1   # BR(~chi_30 -> ~chi_20 db      d)
     2.65049068E-02    3     1000023        -4         4   # BR(~chi_30 -> ~chi_20 cb      c)
     3.45909855E-02    3     1000023        -3         3   # BR(~chi_30 -> ~chi_20 sb      s)
     3.07750568E-02    3     1000023        -5         5   # BR(~chi_30 -> ~chi_20 bb      b)
     7.89891131E-03    3     1000023       -11        11   # BR(~chi_30 -> ~chi_20 e+      e-)
     7.89857665E-03    3     1000023       -13        13   # BR(~chi_30 -> ~chi_20 mu+     mu-)
     7.80430264E-03    3     1000023       -15        15   # BR(~chi_30 -> ~chi_20 tau+    tau-)
     1.57727406E-02    3     1000023       -12        12   # BR(~chi_30 -> ~chi_20 nu_eb   nu_e)
     1.57727406E-02    3     1000023       -14        14   # BR(~chi_30 -> ~chi_20 nu_mub  nu_mu)
     1.57727406E-02    3     1000023       -16        16   # BR(~chi_30 -> ~chi_20 nu_taub nu_tau)
     1.29422226E-01    3     1000024        -2         1   # BR(~chi_30 -> ~chi_1+ ub      d)
     1.29422226E-01    3    -1000024        -1         2   # BR(~chi_30 -> ~chi_1- db      u)
     1.28801360E-01    3     1000024        -4         3   # BR(~chi_30 -> ~chi_1+ cb      s)
     1.28801360E-01    3    -1000024        -3         4   # BR(~chi_30 -> ~chi_1- sb      c)
     4.31406631E-02    3     1000024       -12        11   # BR(~chi_30 -> ~chi_1+ nu_eb   e-)
     4.31406631E-02    3    -1000024        12       -11   # BR(~chi_30 -> ~chi_1- nu_e    e+)
     4.31395000E-02    3     1000024       -14        13   # BR(~chi_30 -> ~chi_1+ nu_mub  mu-)
     4.31395000E-02    3    -1000024        14       -13   # BR(~chi_30 -> ~chi_1- nu_mu   mu+)
     4.28140749E-02    3     1000024       -16        15   # BR(~chi_30 -> ~chi_1+ nu_taub tau-)
     4.28140749E-02    3    -1000024        16       -15   # BR(~chi_30 -> ~chi_1- nu_tau  tau+)
#
#         PDG            Width
DECAY   1000035     3.37171768E+01   # neutralino4 decays
#          BR         NDA      ID1       ID2
     1.84534549E-03    2     1000022        23   # BR(~chi_40 -> ~chi_10   Z )
     2.34126149E-01    2     1000023        23   # BR(~chi_40 -> ~chi_20   Z )
     2.01343929E-03    2     1000025        23   # BR(~chi_40 -> ~chi_30   Z )
     2.31670270E-01    2     1000024       -24   # BR(~chi_40 -> ~chi_1+   W-)
     2.31670270E-01    2    -1000024        24   # BR(~chi_40 -> ~chi_1-   W+)
     1.15720521E-01    2     1000022        25   # BR(~chi_40 -> ~chi_10   h )
     1.58024555E-03    2     1000022        35   # BR(~chi_40 -> ~chi_10   H )
     7.18890823E-03    2     1000022        36   # BR(~chi_40 -> ~chi_10   A )
     3.83088734E-03    2     1000023        25   # BR(~chi_40 -> ~chi_20   h )
     1.17867057E-02    2     1000023        35   # BR(~chi_40 -> ~chi_20   H )
     2.91476765E-03    2     1000023        36   # BR(~chi_40 -> ~chi_20   A )
     1.19594198E-01    2     1000025        25   # BR(~chi_40 -> ~chi_30   h )
     1.26041895E-03    2     1000025        35   # BR(~chi_40 -> ~chi_30   H )
     4.89572445E-03    2     1000025        36   # BR(~chi_40 -> ~chi_30   A )
     1.49469214E-02    2     1000024       -37   # BR(~chi_40 -> ~chi_1+   H-)
     1.49469214E-02    2    -1000024        37   # BR(~chi_40 -> ~chi_1-   H+)
     1.99382771E-06    2     1000039        22   # BR(~chi_40 -> ~G        gam)
     6.31188487E-06    2     1000039        23   # BR(~chi_40 -> ~G        Z)
     4.61401088E-10    2     1000039        25   # BR(~chi_40 -> ~G        h)
     3.90963591E-10    2     1000039        35   # BR(~chi_40 -> ~G        H)
     2.11326852E-12    2     1000039        36   # BR(~chi_40 -> ~G        A)
#
#         PDG            Width
DECAY        25     4.08438652E-03   # h decays
#          BR         NDA      ID1       ID2
     6.17587970E-01    2           5        -5   # BR(h -> b       bb     )
     6.37704175E-02    2         -15        15   # BR(h -> tau+    tau-   )
     2.25723792E-04    2         -13        13   # BR(h -> mu+     mu-    )
     4.78328870E-04    2           3        -3   # BR(h -> s       sb     )
     2.06354303E-02    2           4        -4   # BR(h -> c       cb     )
     6.70043212E-02    2          21        21   # BR(h -> g       g      )
     2.30754492E-03    2          22        22   # BR(h -> gam     gam    )
     1.53790158E-03    2          22        23   # BR(h -> Z       gam    )
     2.00827058E-01    2          24       -24   # BR(h -> W+      W-     )
     2.56253042E-02    2          23        23   # BR(h -> Z       Z      )
#
#         PDG            Width
DECAY        35     3.96255215E+01   # H decays
#          BR         NDA      ID1       ID2
     1.40500495E-03    2           5        -5   # BR(H -> b       bb     )
     2.35176158E-04    2         -15        15   # BR(H -> tau+    tau-   )
     8.31435272E-07    2         -13        13   # BR(H -> mu+     mu-    )
     1.06451498E-06    2           3        -3   # BR(H -> s       sb     )
     9.60728589E-06    2           4        -4   # BR(H -> c       cb     )
     9.50605671E-01    2           6        -6   # BR(H -> t       tb     )
     7.61166678E-04    2          21        21   # BR(H -> g       g      )
     2.62960274E-06    2          22        22   # BR(H -> gam     gam    )
     1.10647995E-06    2          23        22   # BR(H -> Z       gam    )
     3.21806685E-04    2          24       -24   # BR(H -> W+      W-     )
     1.60464561E-04    2          23        23   # BR(H -> Z       Z      )
     8.63446133E-04    2          25        25   # BR(H -> h       h      )
     1.06907509E-23    2          36        36   # BR(H -> A       A      )
     4.28319298E-11    2          23        36   # BR(H -> Z       A      )
     8.73210266E-12    2          24       -37   # BR(H -> W+      H-     )
     8.73210266E-12    2         -24        37   # BR(H -> W-      H+     )
     4.26912028E-05    2     1000024  -1000024   # BR(H -> ~chi_1+ ~chi_1-)
     6.98615084E-04    2     1000022   1000022   # BR(H -> ~chi_10 ~chi_10)
     1.11885051E-05    2     1000023   1000023   # BR(H -> ~chi_20 ~chi_20)
     3.54707462E-04    2     1000025   1000025   # BR(H -> ~chi_30 ~chi_30)
     2.45097094E-02    2     1000022   1000023   # BR(H -> ~chi_10 ~chi_20)
     1.78721840E-07    2     1000022   1000025   # BR(H -> ~chi_10 ~chi_30)
     2.00149339E-02    2     1000023   1000025   # BR(H -> ~chi_20 ~chi_30)
#
#         PDG            Width
DECAY        36     4.00760344E+01   # A decays
#          BR         NDA      ID1       ID2
     1.40750030E-03    2           5        -5   # BR(A -> b       bb     )
     2.32713055E-04    2         -15        15   # BR(A -> tau+    tau-   )
     8.22724715E-07    2         -13        13   # BR(A -> mu+     mu-    )
     1.08464376E-06    2           3        -3   # BR(A -> s       sb     )
     9.50493806E-06    2           4        -4   # BR(A -> c       cb     )
     9.51275734E-01    2           6        -6   # BR(A -> t       tb     )
     9.00400554E-04    2          21        21   # BR(A -> g       g      )
     2.72080470E-06    2          22        22   # BR(A -> gam     gam    )
     1.29003998E-06    2          23        22   # BR(A -> Z       gam    )
     3.13482749E-04    2          23        25   # BR(A -> Z       h      )
     7.10873296E-04    2     1000024  -1000024   # BR(A -> ~chi_1+ ~chi_1-)
     2.59130930E-02    2     1000022   1000022   # BR(A -> ~chi_10 ~chi_10)
     7.56997152E-07    2     1000023   1000023   # BR(A -> ~chi_20 ~chi_20)
     1.82147328E-02    2     1000025   1000025   # BR(A -> ~chi_30 ~chi_30)
     5.03820342E-04    2     1000022   1000023   # BR(A -> ~chi_10 ~chi_20)
     1.62000813E-05    2     1000022   1000025   # BR(A -> ~chi_10 ~chi_30)
     4.95269917E-04    2     1000023   1000025   # BR(A -> ~chi_20 ~chi_30)
#
#         PDG            Width
DECAY        37     3.92556679E+01   # H+ decays
#          BR         NDA      ID1       ID2
     2.25799558E-06    2           4        -5   # BR(H+ -> c       bb     )
     2.37778820E-04    2         -15        16   # BR(H+ -> tau+    nu_tau )
     8.40634024E-07    2         -13        14   # BR(H+ -> mu+     nu_mu  )
     1.43558790E-08    2           2        -5   # BR(H+ -> u       bb     )
     5.20598970E-08    2           2        -3   # BR(H+ -> u       sb     )
     1.03731315E-05    2           4        -3   # BR(H+ -> c       sb     )
     9.53446608E-01    2           6        -5   # BR(H+ -> t       bb     )
     3.21308562E-04    2          24        25   # BR(H+ -> W+      h      )
     4.82469312E-13    2          24        36   # BR(H+ -> W+      A      )
     2.24281737E-02    2     1000024   1000022   # BR(H+ -> ~chi_1+ ~chi_10)
     1.66056750E-04    2     1000024   1000023   # BR(H+ -> ~chi_1+ ~chi_20)
     2.33865360E-02    2     1000024   1000025   # BR(H+ -> ~chi_1+ ~chi_30)
