#
#                              ======================
#                              | THE SUSYHIT OUTPUT |
#                              ======================
#
#
#              ------------------------------------------------------
#              |     This is the output of the SUSY-HIT package     |
#              |  created by A.Djouadi, M.Muehlleitner and M.Spira. |
#              |  In case of problems with SUSY-HIT email to        |
#              |           margarete.muehlleitner@kit.edu           |
#              |           michael.spira@psi.ch                     |
#              |           abdelhak.djouadi@cern.ch                 |
#              ------------------------------------------------------
#
#              ------------------------------------------------------
#              |  SUSY Les Houches Accord - MSSM Spectrum + Decays  |
#              |              based on the decay programs           |
#              |                                                    |
#              |                     SDECAY 1.5a                    |
#              |                                                    |
#              |  Authors: M.Muhlleitner, A.Djouadi and Y.Mambrini  |
#              |  Ref.:    Comput.Phys.Commun.168(2005)46           |
#              |           [hep-ph/0311167]                         |
#              |                                                    |
#              |                     HDECAY 3.4                     |
#              |                                                    |
#              |  By: A.Djouadi,J.Kalinowski,M.Muhlleitner,M.Spira  |
#              |  Ref.:    Comput.Phys.Commun.108(1998)56           |
#              |           [hep-ph/9704448]                         |
#              |                                                    |
#              |                                                    |
#              |  If not stated otherwise all DRbar couplings and   |
#              |  soft SUSY breaking masses are given at the scale  |
#              |  Q=  0.91187600E+02
#              |                                                    |
#              ------------------------------------------------------
#
#
BLOCK DCINFO  # Decay Program information
     1   SDECAY/HDECAY # decay calculator
     2   1.5a /3.4    # version number
#
BLOCK SPINFO  # Spectrum calculator information
     1   SuSpect     # RGE +Spectrum calculator            
     2   2.43         # version number                     
#
BLOCK MODSEL  # Model selection
     1     2   # GMSB                                              
#
BLOCK SMINPUTS  # Standard Model inputs
         1     1.27932904E+02   # alpha_em^-1(M_Z)^MSbar
         2     1.16639000E-05   # G_F [GeV^-2]
         3     1.17200000E-01   # alpha_S(M_Z)^MSbar
         4     9.11870000E+01   # M_Z pole mass
         5     4.25000000E+00   # mb(mb)^MSbar
         6     1.72900000E+02   # mt pole mass
         7     1.77700000E+00   # mtau pole mass
#
BLOCK MINPAR  # Input parameters - minimal models
#
BLOCK EXTPAR  # Input parameters - non-minimal models
         0     9.11876000E+01   # EWSB                
         1     6.51000000E+02   # M_1                 
         2     3.00000000E+03   # M_2                 
         3     1.40000000E+03   # M_3                 
        11     0.00000000E+00   # A_t                 
        12     0.00000000E+00   # A_b                 
        13     0.00000000E+00   # A_tau               
        14     0.00000000E+00   # A_u                 
        15     0.00000000E+00   # A_d                 
        16     0.00000000E+00   # A_e                 
        23     6.50000000E+02   # mu(EWSB)            
        25     1.50000000E+00   # tanbeta(in)         
        26     2.00000000E+03   # MA_pole             
        31     5.00000000E+03   # M_eL                
        32     5.00000000E+03   # M_muL               
        33     5.00000000E+03   # M_tauL              
        34     5.00000000E+03   # M_eR                
        35     5.00000000E+03   # M_muR               
        36     5.00000000E+03   # M_tauR              
        41     5.00000000E+03   # M_q1L               
        42     5.00000000E+03   # M_q2L               
        43     5.00000000E+03   # M_q3L               
        44     5.00000000E+03   # M_uR                
        45     5.00000000E+03   # M_cR                
        46     5.00000000E+03   # M_tR                
        47     5.00000000E+03   # M_dR                
        48     5.00000000E+03   # M_sR                
        49     5.00000000E+03   # M_bR                
#
BLOCK MASS  # Mass Spectrum
# PDG code           mass       particle
        24     8.05394407E+01   # W+
        25     1.25000000E+02   # h
        35     2.00436667E+03   # H
        36     2.00000000E+03   # A
        37     2.00200246E+03   # H+
         5     4.87877839E+00   # b-quark pole mass calculated from mb(mb)_Msbar
   1000001     5.00013301E+03   # ~d_L
   2000001     5.00002534E+03   # ~d_R
   1000002     4.99989233E+03   # ~u_L
   2000002     4.99994932E+03   # ~u_R
   1000003     5.00013301E+03   # ~s_L
   2000003     5.00002534E+03   # ~s_R
   1000004     4.99989233E+03   # ~c_L
   2000004     4.99994932E+03   # ~c_R
   1000005     4.99981227E+03   # ~b_1
   2000005     5.00034751E+03   # ~b_2
   1000006     4.99564141E+03   # ~t_1
   2000006     5.00881695E+03   # ~t_2
   1000011     5.00008233E+03   # ~e_L
   2000011     5.00007602E+03   # ~e_R
   1000012     4.99984165E+03   # ~nu_eL
   1000013     5.00008233E+03   # ~mu_L
   2000013     5.00007602E+03   # ~mu_R
   1000014     4.99984165E+03   # ~nu_muL
   1000015     4.99990613E+03   # ~tau_1
   2000015     5.00025285E+03   # ~tau_2
   1000016     4.99984165E+03   # ~nu_tauL
   1000021     1.40000000E+03   # ~g
   1000022     6.05644941E+02   # ~chi_10
   1000023    -6.50124664E+02   # ~chi_20
   1000025     6.92855377E+02   # ~chi_30
   1000035     3.00262435E+03   # ~chi_40
   1000024     6.47508335E+02   # ~chi_1+
   1000037     3.00262354E+03   # ~chi_2+
   1000039     1.00000000E-09   # ~gravitino
#
BLOCK NMIX  # Neutralino Mixing Matrix
  1  1     6.92279580E-01   # N_11
  1  2    -2.33324451E-02   # N_12
  1  3     5.13592544E-01   # N_13
  1  4    -5.06386492E-01   # N_14
  2  1     6.71710401E-03   # N_21
  2  2    -4.26024750E-03   # N_22
  2  3    -7.06745333E-01   # N_23
  2  4    -7.07423328E-01   # N_24
  3  1     7.21597860E-01   # N_31
  3  2     2.32923455E-02   # N_32
  3  3    -4.86128963E-01   # N_33
  3  4     4.92374478E-01   # N_34
  4  1     6.26861313E-04   # N_41
  4  2    -9.99447304E-01   # N_42
  4  3    -2.03067670E-02   # N_43
  4  4     2.63121325E-02   # N_44
#
BLOCK UMIX  # Chargino Mixing Matrix U
  1  1    -2.87059603E-02   # U_11
  1  2     9.99587899E-01   # U_12
  2  1     9.99587899E-01   # U_21
  2  2     2.87059603E-02   # U_22
#
BLOCK VMIX  # Chargino Mixing Matrix V
  1  1    -3.72017921E-02   # V_11
  1  2     9.99307774E-01   # V_12
  2  1     9.99307774E-01   # V_21
  2  2     3.72017921E-02   # V_22
#
BLOCK STOPMIX  # Stop Mixing Matrix
  1  1     7.08633587E-01   # cos(theta_t)
  1  2     7.05576672E-01   # sin(theta_t)
  2  1    -7.05576672E-01   # -sin(theta_t)
  2  2     7.08633587E-01   # cos(theta_t)
#
BLOCK SBOTMIX  # Sbottom Mixing Matrix
  1  1     6.31999574E-01   # cos(theta_b)
  1  2     7.74968734E-01   # sin(theta_b)
  2  1    -7.74968734E-01   # -sin(theta_b)
  2  2     6.31999574E-01   # cos(theta_b)
#
BLOCK STAUMIX  # Stau Mixing Matrix
  1  1     7.00650870E-01   # cos(theta_tau)
  1  2     7.13504281E-01   # sin(theta_tau)
  2  1    -7.13504281E-01   # -sin(theta_tau)
  2  2     7.00650870E-01   # cos(theta_tau)
#
BLOCK ALPHA  # Higgs mixing
          -5.90205007E-01   # Mixing angle in the neutral Higgs boson sector
#
BLOCK HMIX Q=  9.11876000E+01  # DRbar Higgs Parameters
         1     6.50000000E+02   # mu(Q)               
         2     1.49999979E+00   # tanbeta(Q)          
         3     2.51967261E+02   # vev(Q)              
         4     3.68704212E+06   # MA^2(Q)             
#
BLOCK GAUGE Q=  9.11876000E+01  # The gauge couplings
     1     3.52896735E-01   # gprime(Q) DRbar
     2     6.27898124E-01   # g(Q) DRbar
     3     1.08619173E+00   # g3(Q) DRbar
#
BLOCK AU Q=  9.11876000E+01  # The trilinear couplings
  1  1     0.00000000E+00   # A_u(Q) DRbar
  2  2     0.00000000E+00   # A_c(Q) DRbar
  3  3     0.00000000E+00   # A_t(Q) DRbar
#
BLOCK AD Q=  9.11876000E+01  # The trilinear couplings
  1  1     0.00000000E+00   # A_d(Q) DRbar
  2  2     0.00000000E+00   # A_s(Q) DRbar
  3  3     0.00000000E+00   # A_b(Q) DRbar
#
BLOCK AE Q=  9.11876000E+01  # The trilinear couplings
  1  1     0.00000000E+00   # A_e(Q) DRbar
  2  2     0.00000000E+00   # A_mu(Q) DRbar
  3  3     0.00000000E+00   # A_tau(Q) DRbar
#
BLOCK Yu Q=  9.11876000E+01  # The Yukawa couplings
  1  1     0.00000000E+00   # y_u(Q) DRbar
  2  2     0.00000000E+00   # y_c(Q) DRbar
  3  3     1.02595240E+00   # y_t(Q) DRbar
#
BLOCK Yd Q=  9.11876000E+01  # The Yukawa couplings
  1  1     0.00000000E+00   # y_d(Q) DRbar
  2  2     0.00000000E+00   # y_s(Q) DRbar
  3  3     2.72061238E-02   # y_b(Q) DRbar
#
BLOCK Ye Q=  9.11876000E+01  # The Yukawa couplings
  1  1     0.00000000E+00   # y_e(Q) DRbar
  2  2     0.00000000E+00   # y_mu(Q) DRbar
  3  3     1.79882135E-02   # y_tau(Q) DRbar
#
BLOCK MSOFT Q=  9.11876000E+01  # The soft SUSY breaking masses at the scale Q
         1     6.51000000E+02   # M_1                 
         2     3.00000000E+03   # M_2                 
         3     1.40000000E+03   # M_3                 
        14     0.00000000E+00   # A_u                 
        15     0.00000000E+00   # A_d                 
        16     0.00000000E+00   # A_e                 
        21     2.58348440E+06   # M^2_Hd              
        22    -5.86863503E+06   # M^2_Hu              
        31     5.00000000E+03   # M_eL                
        32     5.00000000E+03   # M_muL               
        33     5.00000000E+03   # M_tauL              
        34     5.00000000E+03   # M_eR                
        35     5.00000000E+03   # M_muR               
        36     5.00000000E+03   # M_tauR              
        41     5.00000000E+03   # M_q1L               
        42     5.00000000E+03   # M_q2L               
        43     5.00000000E+03   # M_q3L               
        44     5.00000000E+03   # M_uR                
        45     5.00000000E+03   # M_cR                
        46     5.00000000E+03   # M_tR                
        47     5.00000000E+03   # M_dR                
        48     5.00000000E+03   # M_sR                
        49     5.00000000E+03   # M_bR                
#
#
#
#                             =================
#                             |The decay table|
#                             =================
#
# - The QCD corrections to the decays gluino -> squark  + quark
#                                     squark -> gaugino + quark_prime
#                                     squark -> squark_prime + Higgs
#                                     squark -> gluino  + quark
#   are included.
#
# - The multi-body decays for the inos, stops and sbottoms are included.
#
# - The loop induced decays for the gluino, neutralinos and stops
#   are included.
#
# - The SUSY decays of the top quark are included.
#
# - Possible decays of the NLSP in GMSB models are included.
#
#
#         PDG            Width
DECAY         6     1.37371658E+00   # top decays
#          BR         NDA      ID1       ID2
     1.00000000E+00    2           5        24   # BR(t ->  b    W+)
#
#         PDG            Width
DECAY   1000021     1.30799483E-04   # gluino decays
#          BR         NDA      ID1       ID2
     2.27906715E-02    2     1000022        21   # BR(~g -> ~chi_10 g)
     4.01657210E-02    2     1000023        21   # BR(~g -> ~chi_20 g)
     1.72742639E-02    2     1000025        21   # BR(~g -> ~chi_30 g)
#          BR         NDA      ID1       ID2
     0.00000000E+00    2     1000039        21   # BR(~g -> ~G      g)
#           BR         NDA      ID1       ID2       ID3
     5.86962877E-03    3     1000022         1        -1   # BR(~g -> ~chi_10 d  db)
     7.60730174E-07    3     1000023         1        -1   # BR(~g -> ~chi_20 d  db)
     3.65900268E-03    3     1000025         1        -1   # BR(~g -> ~chi_30 d  db)
     1.81504516E-02    3     1000022         2        -2   # BR(~g -> ~chi_10 u  ub)
     7.10352626E-07    3     1000023         2        -2   # BR(~g -> ~chi_20 u  ub)
     1.35702142E-02    3     1000025         2        -2   # BR(~g -> ~chi_30 u  ub)
     5.86962877E-03    3     1000022         3        -3   # BR(~g -> ~chi_10 s  sb)
     7.60730174E-07    3     1000023         3        -3   # BR(~g -> ~chi_20 s  sb)
     3.65900268E-03    3     1000025         3        -3   # BR(~g -> ~chi_30 s  sb)
     1.81504516E-02    3     1000022         4        -4   # BR(~g -> ~chi_10 c  cb)
     7.10352626E-07    3     1000023         4        -4   # BR(~g -> ~chi_20 c  cb)
     1.35702142E-02    3     1000025         4        -4   # BR(~g -> ~chi_30 c  cb)
     5.95958927E-03    3     1000022         5        -5   # BR(~g -> ~chi_10 b  bb)
     2.08135563E-04    3     1000023         5        -5   # BR(~g -> ~chi_20 b  bb)
     3.76313133E-03    3     1000025         5        -5   # BR(~g -> ~chi_30 b  bb)
     1.03971766E-01    3     1000022         6        -6   # BR(~g -> ~chi_10 t  tb)
     1.39407865E-01    3     1000023         6        -6   # BR(~g -> ~chi_20 t  tb)
     8.89749790E-02    3     1000025         6        -6   # BR(~g -> ~chi_30 t  tb)
     1.17099331E-04    3     1000024         1        -2   # BR(~g -> ~chi_1+ d  ub)
     1.17099331E-04    3    -1000024         2        -1   # BR(~g -> ~chi_1- u  db)
     1.17099331E-04    3     1000024         3        -4   # BR(~g -> ~chi_1+ s  cb)
     1.17099331E-04    3    -1000024         4        -3   # BR(~g -> ~chi_1- c  sb)
     2.23587392E-01    3     1000024         5        -6   # BR(~g -> ~chi_1+ b  tb)
     2.23587392E-01    3    -1000024         6        -5   # BR(~g -> ~chi_1- t  bb)
#
#         PDG            Width
DECAY   1000006     3.46349904E+02   # stop1 decays
#          BR         NDA      ID1       ID2
     8.09572594E-02    2     1000022         6   # BR(~t_1 -> ~chi_10 t )
     1.02534261E-01    2     1000023         6   # BR(~t_1 -> ~chi_20 t )
     3.72682706E-02    2     1000025         6   # BR(~t_1 -> ~chi_30 t )
     1.01768035E-02    2     1000035         6   # BR(~t_1 -> ~chi_40 t )
     1.05726079E-01    2     1000024         5   # BR(~t_1 -> ~chi_1+ b )
     2.02567974E-02    2     1000037         5   # BR(~t_1 -> ~chi_2+ b )
     6.43080529E-01    2     1000021         6   # BR(~t_1 -> ~g      t )
#
#         PDG            Width
DECAY   2000006     3.38093719E+02   # stop2 decays
#          BR         NDA      ID1       ID2
     3.87081634E-02    2     1000022         6   # BR(~t_2 -> ~chi_10 t )
     1.02340151E-01    2     1000023         6   # BR(~t_2 -> ~chi_20 t )
     7.92469423E-02    2     1000025         6   # BR(~t_2 -> ~chi_30 t )
     1.27072617E-02    2     1000035         6   # BR(~t_2 -> ~chi_40 t )
     9.92024808E-02    2     1000024         5   # BR(~t_2 -> ~chi_1+ b )
     2.53164515E-02    2     1000037         5   # BR(~t_2 -> ~chi_2+ b )
     6.42478549E-01    2     1000021         6   # BR(~t_2 -> ~g      t )
#
#         PDG            Width
DECAY   1000005     2.50351291E+02   # sbottom1 decays
#          BR         NDA      ID1       ID2
     4.72412257E-03    2     1000022         5   # BR(~b_1 -> ~chi_10 b )
     7.88155595E-05    2     1000023         5   # BR(~b_1 -> ~chi_20 b )
     3.26813147E-03    2     1000025         5   # BR(~b_1 -> ~chi_30 b )
     1.00144707E-02    2     1000035         5   # BR(~b_1 -> ~chi_40 b )
     8.25001883E-02    2    -1000024         6   # BR(~b_1 -> ~chi_1- t )
     2.01086508E-02    2    -1000037         6   # BR(~b_1 -> ~chi_2- t )
     8.79305621E-01    2     1000021         5   # BR(~b_1 -> ~g      b )
#
#         PDG            Width
DECAY   2000005     2.86522705E+02   # sbottom2 decays
#          BR         NDA      ID1       ID2
     1.78737505E-03    2     1000022         5   # BR(~b_2 -> ~chi_10 b )
     1.05369520E-04    2     1000023         5   # BR(~b_2 -> ~chi_20 b )
     2.67355461E-03    2     1000025         5   # BR(~b_2 -> ~chi_30 b )
     1.83282918E-02    2     1000035         5   # BR(~b_2 -> ~chi_40 b )
     1.72227141E-01    2    -1000024         6   # BR(~b_2 -> ~chi_1- t )
     3.68196086E-02    2    -1000037         6   # BR(~b_2 -> ~chi_2- t )
     7.68058660E-01    2     1000021         5   # BR(~b_2 -> ~g      b )
#
#         PDG            Width
DECAY   1000002     2.44067192E+02   # sup_L decays
#          BR         NDA      ID1       ID2
     8.52775164E-04    2     1000022         2   # BR(~u_L -> ~chi_10 u)
     6.76214834E-07    2     1000023         2   # BR(~u_L -> ~chi_20 u)
     1.87598071E-03    2     1000025         2   # BR(~u_L -> ~chi_30 u)
     3.17679449E-02    2     1000035         2   # BR(~u_L -> ~chi_40 u)
     2.07771016E-04    2     1000024         1   # BR(~u_L -> ~chi_1+ d)
     6.35331190E-02    2     1000037         1   # BR(~u_L -> ~chi_2+ d)
     9.01761733E-01    2     1000021         2   # BR(~u_L -> ~g      u)
#
#         PDG            Width
DECAY   2000002     2.30376553E+02   # sup_R decays
#          BR         NDA      ID1       ID2
     2.14932380E-02    2     1000022         2   # BR(~u_R -> ~chi_10 u)
     2.01438689E-06    2     1000023         2   # BR(~u_R -> ~chi_20 u)
     2.31392154E-02    2     1000025         2   # BR(~u_R -> ~chi_30 u)
     7.43696730E-09    2     1000035         2   # BR(~u_R -> ~chi_40 u)
     9.55365525E-01    2     1000021         2   # BR(~u_R -> ~g      u)
#
#         PDG            Width
DECAY   1000001     2.44070354E+02   # sdown_L decays
#          BR         NDA      ID1       ID2
     1.76528833E-03    2     1000022         1   # BR(~d_L -> ~chi_10 d)
     2.28554770E-06    2     1000023         1   # BR(~d_L -> ~chi_20 d)
     9.35226802E-04    2     1000025         1   # BR(~d_L -> ~chi_30 d)
     3.17874247E-02    2     1000035         1   # BR(~d_L -> ~chi_40 d)
     1.23713814E-04    2    -1000024         2   # BR(~d_L -> ~chi_1- u)
     6.35778335E-02    2    -1000037         2   # BR(~d_L -> ~chi_2- u)
     9.01808227E-01    2     1000021         1   # BR(~d_L -> ~g      d)
#
#         PDG            Width
DECAY   2000001     2.22669027E+02   # sdown_R decays
#          BR         NDA      ID1       ID2
     5.55939261E-03    2     1000022         1   # BR(~d_R -> ~chi_10 d)
     5.21036855E-07    2     1000023         1   # BR(~d_R -> ~chi_20 d)
     5.98513913E-03    2     1000025         1   # BR(~d_R -> ~chi_30 d)
     1.92369288E-09    2     1000035         1   # BR(~d_R -> ~chi_40 d)
     9.88454945E-01    2     1000021         1   # BR(~d_R -> ~g      d)
#
#         PDG            Width
DECAY   1000004     2.44067192E+02   # scharm_L decays
#          BR         NDA      ID1       ID2
     8.52775164E-04    2     1000022         4   # BR(~c_L -> ~chi_10 c)
     6.76214834E-07    2     1000023         4   # BR(~c_L -> ~chi_20 c)
     1.87598071E-03    2     1000025         4   # BR(~c_L -> ~chi_30 c)
     3.17679449E-02    2     1000035         4   # BR(~c_L -> ~chi_40 c)
     2.07771016E-04    2     1000024         3   # BR(~c_L -> ~chi_1+ s)
     6.35331190E-02    2     1000037         3   # BR(~c_L -> ~chi_2+ s)
     9.01761733E-01    2     1000021         4   # BR(~c_L -> ~g      c)
#
#         PDG            Width
DECAY   2000004     2.30376553E+02   # scharm_R decays
#          BR         NDA      ID1       ID2
     2.14932380E-02    2     1000022         4   # BR(~c_R -> ~chi_10 c)
     2.01438689E-06    2     1000023         4   # BR(~c_R -> ~chi_20 c)
     2.31392154E-02    2     1000025         4   # BR(~c_R -> ~chi_30 c)
     7.43696730E-09    2     1000035         4   # BR(~c_R -> ~chi_40 c)
     9.55365525E-01    2     1000021         4   # BR(~c_R -> ~g      c)
#
#         PDG            Width
DECAY   1000003     2.44070354E+02   # sstrange_L decays
#          BR         NDA      ID1       ID2
     1.76528833E-03    2     1000022         3   # BR(~s_L -> ~chi_10 s)
     2.28554770E-06    2     1000023         3   # BR(~s_L -> ~chi_20 s)
     9.35226802E-04    2     1000025         3   # BR(~s_L -> ~chi_30 s)
     3.17874247E-02    2     1000035         3   # BR(~s_L -> ~chi_40 s)
     1.23713814E-04    2    -1000024         4   # BR(~s_L -> ~chi_1- c)
     6.35778335E-02    2    -1000037         4   # BR(~s_L -> ~chi_2- c)
     9.01808227E-01    2     1000021         3   # BR(~s_L -> ~g      s)
#
#         PDG            Width
DECAY   2000003     2.22669027E+02   # sstrange_R decays
#          BR         NDA      ID1       ID2
     5.55939261E-03    2     1000022         3   # BR(~s_R -> ~chi_10 s)
     5.21036855E-07    2     1000023         3   # BR(~s_R -> ~chi_20 s)
     5.98513913E-03    2     1000025         3   # BR(~s_R -> ~chi_30 s)
     1.92369288E-09    2     1000035         3   # BR(~s_R -> ~chi_40 s)
     9.88454945E-01    2     1000021         3   # BR(~s_R -> ~g      s)
#
#         PDG            Width
DECAY   1000011     3.00684837E+01   # selectron_L decays
#          BR         NDA      ID1       ID2
     8.46976098E-02    2     1000022        11   # BR(~e_L -> ~chi_10 e-)
     1.48283924E-07    2     1000023        11   # BR(~e_L -> ~chi_20 e-)
     1.15376348E-01    2     1000025        11   # BR(~e_L -> ~chi_30 e-)
     2.66120414E-01    2     1000035        11   # BR(~e_L -> ~chi_40 e-)
     1.03903082E-03    2    -1000024        12   # BR(~e_L -> ~chi_1- nu_e)
     5.32766449E-01    2    -1000037        12   # BR(~e_L -> ~chi_2- nu_e)
#
#         PDG            Width
DECAY   2000011     2.39394605E+01   # selectron_R decays
#          BR         NDA      ID1       ID2
     4.81551289E-01    2     1000022        11   # BR(~e_R -> ~chi_10 e-)
     4.51306859E-05    2     1000023        11   # BR(~e_R -> ~chi_20 e-)
     5.18403414E-01    2     1000025        11   # BR(~e_R -> ~chi_30 e-)
     1.66256965E-07    2     1000035        11   # BR(~e_R -> ~chi_40 e-)
#
#         PDG            Width
DECAY   1000013     3.00684837E+01   # smuon_L decays
#          BR         NDA      ID1       ID2
     8.46976098E-02    2     1000022        13   # BR(~mu_L -> ~chi_10 mu-)
     1.48283924E-07    2     1000023        13   # BR(~mu_L -> ~chi_20 mu-)
     1.15376348E-01    2     1000025        13   # BR(~mu_L -> ~chi_30 mu-)
     2.66120414E-01    2     1000035        13   # BR(~mu_L -> ~chi_40 mu-)
     1.03903082E-03    2    -1000024        14   # BR(~mu_L -> ~chi_1- nu_mu)
     5.32766449E-01    2    -1000037        14   # BR(~mu_L -> ~chi_2- nu_mu)
#
#         PDG            Width
DECAY   2000013     2.39394605E+01   # smuon_R decays
#          BR         NDA      ID1       ID2
     4.81551289E-01    2     1000022        13   # BR(~mu_R -> ~chi_10 mu-)
     4.51306859E-05    2     1000023        13   # BR(~mu_R -> ~chi_20 mu-)
     5.18403414E-01    2     1000025        13   # BR(~mu_R -> ~chi_30 mu-)
     1.66256965E-07    2     1000035        13   # BR(~mu_R -> ~chi_40 mu-)
#
#         PDG            Width
DECAY   1000015     2.70264040E+01   # stau_1 decays
#          BR         NDA      ID1       ID2
     2.69766205E-01    2     1000022        15   # BR(~tau_1 -> ~chi_10  tau-)
     4.34065306E-04    2     1000023        15   # BR(~tau_1 -> ~chi_20  tau-)
     2.91814869E-01    2     1000025        15   # BR(~tau_1 -> ~chi_30  tau-)
     1.45086186E-01    2     1000035        15   # BR(~tau_1 -> ~chi_40  tau-)
     2.30604775E-03    2    -1000024        16   # BR(~tau_1 -> ~chi_1-  nu_tau)
     2.90459518E-01    2    -1000037        16   # BR(~tau_1 -> ~chi_2-  nu_tau)
     1.33108992E-04    2     1000039        15   # BR(~tau_1 -> ~G       tau-)
#
#         PDG            Width
DECAY   2000015     2.70784503E+01   # stau_2 decays
#          BR         NDA      ID1       ID2
     2.51138411E-01    2     1000022        15   # BR(~tau_2 -> ~chi_10  tau-)
     7.54453177E-04    2     1000023        15   # BR(~tau_2 -> ~chi_20  tau-)
     2.95713152E-01    2     1000025        15   # BR(~tau_2 -> ~chi_30  tau-)
     1.50699217E-01    2     1000035        15   # BR(~tau_2 -> ~chi_40  tau-)
     2.44227777E-07    2    -1000024        16   # BR(~tau_2 -> ~chi_1-  nu_tau)
     3.01694522E-01    2    -1000037        16   # BR(~tau_2 -> ~chi_2-  nu_tau)
#
#         PDG            Width
DECAY   1000012     3.00677291E+01   # snu_eL decays
#          BR         NDA      ID1       ID2
     1.07686263E-01    2     1000022        12   # BR(~nu_eL -> ~chi_10 nu_e)
     4.06952316E-05    2     1000023        12   # BR(~nu_eL -> ~chi_20 nu_e)
     9.16693901E-02    2     1000025        12   # BR(~nu_eL -> ~chi_30 nu_e)
     2.66460837E-01    2     1000035        12   # BR(~nu_eL -> ~chi_40 nu_e)
     1.74502061E-03    2     1000024        11   # BR(~nu_eL -> ~chi_1+ e-)
     5.32397794E-01    2     1000037        11   # BR(~nu_eL -> ~chi_2+ e-)
#
#         PDG            Width
DECAY   1000014     3.00677291E+01   # snu_muL decays
#          BR         NDA      ID1       ID2
     1.07686263E-01    2     1000022        14   # BR(~nu_muL -> ~chi_10 nu_mu)
     4.06952316E-05    2     1000023        14   # BR(~nu_muL -> ~chi_20 nu_mu)
     9.16693901E-02    2     1000025        14   # BR(~nu_muL -> ~chi_30 nu_mu)
     2.66460837E-01    2     1000035        14   # BR(~nu_muL -> ~chi_40 nu_mu)
     1.74502061E-03    2     1000024        13   # BR(~nu_muL -> ~chi_1+ mu-)
     5.32397794E-01    2     1000037        13   # BR(~nu_muL -> ~chi_2+ mu-)
#
#         PDG            Width
DECAY   1000016     3.00988295E+01   # snu_tauL decays
#          BR         NDA      ID1       ID2
     1.07574994E-01    2     1000022        16   # BR(~nu_tauL -> ~chi_10 nu_tau)
     4.06531822E-05    2     1000023        16   # BR(~nu_tauL -> ~chi_20 nu_tau)
     9.15746703E-02    2     1000025        16   # BR(~nu_tauL -> ~chi_30 nu_tau)
     2.66185509E-01    2     1000035        16   # BR(~nu_tauL -> ~chi_40 nu_tau)
     2.77587804E-03    2     1000024        15   # BR(~nu_tauL -> ~chi_1+ tau-)
     5.31848295E-01    2     1000037        15   # BR(~nu_tauL -> ~chi_2+ tau-)
#
#         PDG            Width
DECAY   1000024     8.06365741E-05   # chargino1+ decays
#          BR         NDA      ID1       ID2
     7.65880014E-04    2     1000039        24   # BR(~chi_1+ -> ~G       W+)
#           BR         NDA      ID1       ID2       ID3
     3.34037842E-01    3     1000022         2        -1   # BR(~chi_1+ -> ~chi_10 u    db)
     3.32152700E-01    3     1000022         4        -3   # BR(~chi_1+ -> ~chi_10 c    sb)
     1.11346083E-01    3     1000022       -11        12   # BR(~chi_1+ -> ~chi_10 e+   nu_e)
     1.11342549E-01    3     1000022       -13        14   # BR(~chi_1+ -> ~chi_10 mu+  nu_mu)
     1.10354946E-01    3     1000022       -15        16   # BR(~chi_1+ -> ~chi_10 tau+ nu_tau)
#
#         PDG            Width
DECAY   1000037     3.37147364E+01   # chargino2+ decays
#          BR         NDA      ID1       ID2
     2.37870621E-01    2     1000024        23   # BR(~chi_2+ -> ~chi_1+  Z )
     1.14008601E-01    2     1000022        24   # BR(~chi_2+ -> ~chi_10  W+)
     2.31825390E-01    2     1000023        24   # BR(~chi_2+ -> ~chi_20  W+)
     1.17920727E-01    2     1000025        24   # BR(~chi_2+ -> ~chi_30  W+)
     2.38874873E-01    2     1000024        25   # BR(~chi_2+ -> ~chi_1+  h )
     1.47500613E-02    2     1000024        35   # BR(~chi_2+ -> ~chi_1+  H )
     1.50046047E-02    2     1000024        36   # BR(~chi_2+ -> ~chi_1+  A )
     8.78685748E-03    2     1000022        37   # BR(~chi_2+ -> ~chi_10  H+)
     1.47827487E-02    2     1000023        37   # BR(~chi_2+ -> ~chi_20  H+)
     6.16720884E-03    2     1000025        37   # BR(~chi_2+ -> ~chi_30  H+)
     8.30701331E-06    2     1000039        24   # BR(~chi_2+ -> ~G       W+)
     3.95180137E-10    2     1000039        37   # BR(~chi_2+ -> ~G       H+)
#
#         PDG            Width
DECAY   1000022    1.0E-05    # neutralino1 decays
#          BR         NDA      ID1       ID2
     4.98183215E-01    2     1000039        22   # BR(~chi_10 -> ~G        gam)
     4.90953690E-01    2     1000039        23   # BR(~chi_10 -> ~G        Z)
     1.08630952E-02    2     1000039        25   # BR(~chi_10 -> ~G        h)
#
#         PDG            Width
DECAY   1000023     8.83486759E-05   # neutralino2 decays
#          BR         NDA      ID1       ID2
     5.10981642E-04    2     1000022        22   # BR(~chi_20 -> ~chi_10 gam)
#          BR         NDA      ID1       ID2
     2.14916285E-08    2     1000039        22   # BR(~chi_20 -> ~G        gam)
     2.70771675E-05    2     1000039        23   # BR(~chi_20 -> ~G        Z)
     6.26475580E-04    2     1000039        25   # BR(~chi_20 -> ~G        h)
#           BR         NDA      ID1       ID2       ID3
     1.18950253E-01    3     1000022        -2         2   # BR(~chi_20 -> ~chi_10 ub      u)
     1.53998408E-01    3     1000022        -1         1   # BR(~chi_20 -> ~chi_10 db      d)
     1.18040270E-01    3     1000022        -4         4   # BR(~chi_20 -> ~chi_10 cb      c)
     1.53973356E-01    3     1000022        -3         3   # BR(~chi_20 -> ~chi_10 sb      s)
     1.38167019E-01    3     1000022        -5         5   # BR(~chi_20 -> ~chi_10 bb      b)
     3.51594371E-02    3     1000022       -11        11   # BR(~chi_20 -> ~chi_10 e+      e-)
     3.51580320E-02    3     1000022       -13        13   # BR(~chi_20 -> ~chi_10 mu+     mu-)
     3.47624914E-02    3     1000022       -15        15   # BR(~chi_20 -> ~chi_10 tau+    tau-)
     7.02080702E-02    3     1000022       -12        12   # BR(~chi_20 -> ~chi_10 nu_eb   nu_e)
     7.02080702E-02    3     1000022       -14        14   # BR(~chi_20 -> ~chi_10 nu_mub  nu_mu)
     7.02080702E-02    3     1000022       -16        16   # BR(~chi_20 -> ~chi_10 nu_taub nu_tau)
     5.13271910E-07    3     1000024        -2         1   # BR(~chi_20 -> ~chi_1+ ub      d)
     5.13271910E-07    3    -1000024        -1         2   # BR(~chi_20 -> ~chi_1- db      u)
     1.15475399E-07    3     1000024        -4         3   # BR(~chi_20 -> ~chi_1+ cb      s)
     1.15475399E-07    3    -1000024        -3         4   # BR(~chi_20 -> ~chi_1- sb      c)
     1.71090652E-07    3     1000024       -12        11   # BR(~chi_20 -> ~chi_1+ nu_eb   e-)
     1.71090652E-07    3    -1000024        12       -11   # BR(~chi_20 -> ~chi_1- nu_e    e+)
     1.69708072E-07    3     1000024       -14        13   # BR(~chi_20 -> ~chi_1+ nu_mub  mu-)
     1.69708072E-07    3    -1000024        14       -13   # BR(~chi_20 -> ~chi_1- nu_mu   mu+)
     1.39365626E-08    3     1000024       -16        15   # BR(~chi_20 -> ~chi_1+ nu_taub tau-)
     1.39365626E-08    3    -1000024        16       -15   # BR(~chi_20 -> ~chi_1- nu_tau  tau+)
#
#         PDG            Width
DECAY   1000025     2.95438353E-04   # neutralino3 decays
#          BR         NDA      ID1       ID2
     2.76530656E-04    2     1000022        22   # BR(~chi_30 -> ~chi_10 gam)
     4.81481977E-04    2     1000023        22   # BR(~chi_30 -> ~chi_20 gam)
#          BR         NDA      ID1       ID2
     2.55225655E-04    2     1000039        22   # BR(~chi_30 -> ~G        gam)
     1.98311871E-04    2     1000039        23   # BR(~chi_30 -> ~G        Z)
     5.23019349E-06    2     1000039        25   # BR(~chi_30 -> ~G        h)
#           BR         NDA      ID1       ID2       ID3
     4.64020012E-06    3     1000022        -2         2   # BR(~chi_30 -> ~chi_10 ub      u)
     5.42799757E-06    3     1000022        -1         1   # BR(~chi_30 -> ~chi_10 db      d)
     4.69000459E-06    3     1000022        -4         4   # BR(~chi_30 -> ~chi_10 cb      c)
     5.42896668E-06    3     1000022        -3         3   # BR(~chi_30 -> ~chi_10 sb      s)
     5.54054700E-06    3     1000022        -5         5   # BR(~chi_30 -> ~chi_10 bb      b)
     9.04297029E-07    3     1000022       -11        11   # BR(~chi_30 -> ~chi_10 e+      e-)
     9.04286841E-07    3     1000022       -13        13   # BR(~chi_30 -> ~chi_10 mu+     mu-)
     9.33914011E-07    3     1000022       -15        15   # BR(~chi_30 -> ~chi_10 tau+    tau-)
     2.69368208E-06    3     1000022       -12        12   # BR(~chi_30 -> ~chi_10 nu_eb   nu_e)
     2.69368208E-06    3     1000022       -14        14   # BR(~chi_30 -> ~chi_10 nu_mub  nu_mu)
     2.69368208E-06    3     1000022       -16        16   # BR(~chi_30 -> ~chi_10 nu_taub nu_tau)
     2.67233008E-02    3     1000023        -2         2   # BR(~chi_30 -> ~chi_20 ub      u)
     3.45972949E-02    3     1000023        -1         1   # BR(~chi_30 -> ~chi_20 db      d)
     2.65050853E-02    3     1000023        -4         4   # BR(~chi_30 -> ~chi_20 cb      c)
     3.45912320E-02    3     1000023        -3         3   # BR(~chi_30 -> ~chi_20 sb      s)
     3.07751768E-02    3     1000023        -5         5   # BR(~chi_30 -> ~chi_20 bb      b)
     7.89897087E-03    3     1000023       -11        11   # BR(~chi_30 -> ~chi_20 e+      e-)
     7.89863620E-03    3     1000023       -13        13   # BR(~chi_30 -> ~chi_20 mu+     mu-)
     7.80435943E-03    3     1000023       -15        15   # BR(~chi_30 -> ~chi_20 tau+    tau-)
     1.57728617E-02    3     1000023       -12        12   # BR(~chi_30 -> ~chi_20 nu_eb   nu_e)
     1.57728617E-02    3     1000023       -14        14   # BR(~chi_30 -> ~chi_20 nu_mub  nu_mu)
     1.57728617E-02    3     1000023       -16        16   # BR(~chi_30 -> ~chi_20 nu_taub nu_tau)
     1.29421966E-01    3     1000024        -2         1   # BR(~chi_30 -> ~chi_1+ ub      d)
     1.29421966E-01    3    -1000024        -1         2   # BR(~chi_30 -> ~chi_1- db      u)
     1.28801080E-01    3     1000024        -4         3   # BR(~chi_30 -> ~chi_1+ cb      s)
     1.28801080E-01    3    -1000024        -3         4   # BR(~chi_30 -> ~chi_1- sb      c)
     4.31405763E-02    3     1000024       -12        11   # BR(~chi_30 -> ~chi_1+ nu_eb   e-)
     4.31405763E-02    3    -1000024        12       -11   # BR(~chi_30 -> ~chi_1- nu_e    e+)
     4.31394131E-02    3     1000024       -14        13   # BR(~chi_30 -> ~chi_1+ nu_mub  mu-)
     4.31394131E-02    3    -1000024        14       -13   # BR(~chi_30 -> ~chi_1- nu_mu   mu+)
     4.28139783E-02    3     1000024       -16        15   # BR(~chi_30 -> ~chi_1+ nu_taub tau-)
     4.28139783E-02    3    -1000024        16       -15   # BR(~chi_30 -> ~chi_1- nu_tau  tau+)
#
#         PDG            Width
DECAY   1000035     3.37151537E+01   # neutralino4 decays
#          BR         NDA      ID1       ID2
     1.84539215E-03    2     1000022        23   # BR(~chi_40 -> ~chi_10   Z )
     2.34131772E-01    2     1000023        23   # BR(~chi_40 -> ~chi_20   Z )
     2.01348630E-03    2     1000025        23   # BR(~chi_40 -> ~chi_30   Z )
     2.31675688E-01    2     1000024       -24   # BR(~chi_40 -> ~chi_1+   W-)
     2.31675688E-01    2    -1000024        24   # BR(~chi_40 -> ~chi_1-   W+)
     1.15726897E-01    2     1000022        25   # BR(~chi_40 -> ~chi_10   h )
     1.58038631E-03    2     1000022        35   # BR(~chi_40 -> ~chi_10   H )
     7.18929557E-03    2     1000022        36   # BR(~chi_40 -> ~chi_10   A )
     3.83129958E-03    2     1000023        25   # BR(~chi_40 -> ~chi_20   h )
     1.17869486E-02    2     1000023        35   # BR(~chi_40 -> ~chi_20   H )
     2.91493235E-03    2     1000023        36   # BR(~chi_40 -> ~chi_20   A )
     1.19600683E-01    2     1000025        25   # BR(~chi_40 -> ~chi_30   h )
     1.26053782E-03    2     1000025        35   # BR(~chi_40 -> ~chi_30   H )
     4.89601399E-03    2     1000025        36   # BR(~chi_40 -> ~chi_30   A )
     1.49313358E-02    2     1000024       -37   # BR(~chi_40 -> ~chi_1+   H-)
     1.49313358E-02    2    -1000024        37   # BR(~chi_40 -> ~chi_1-   H+)
     1.99395100E-06    2     1000039        22   # BR(~chi_40 -> ~G        gam)
     6.31225901E-06    2     1000039        23   # BR(~chi_40 -> ~G        Z)
     4.61427412E-10    2     1000039        25   # BR(~chi_40 -> ~G        h)
     3.90962598E-10    2     1000039        35   # BR(~chi_40 -> ~G        H)
     2.11332509E-12    2     1000039        36   # BR(~chi_40 -> ~G        A)
#
#         PDG            Width
DECAY        25     4.08360977E-03   # h decays
#          BR         NDA      ID1       ID2
     6.17515629E-01    2           5        -5   # BR(h -> b       bb     )
     6.37815832E-02    2         -15        15   # BR(h -> tau+    tau-   )
     2.25763314E-04    2         -13        13   # BR(h -> mu+     mu-    )
     4.78412757E-04    2           3        -3   # BR(h -> s       sb     )
     2.06394953E-02    2           4        -4   # BR(h -> c       cb     )
     6.70176019E-02    2          21        21   # BR(h -> g       g      )
     2.30797936E-03    2          22        22   # BR(h -> gam     gam    )
     1.53819370E-03    2          22        23   # BR(h -> Z       gam    )
     2.00865162E-01    2          24       -24   # BR(h -> W+      W-     )
     2.56301790E-02    2          23        23   # BR(h -> Z       Z      )
#
#         PDG            Width
DECAY        35     3.96250601E+01   # H decays
#          BR         NDA      ID1       ID2
     1.40618915E-03    2           5        -5   # BR(H -> b       bb     )
     2.35181436E-04    2         -15        15   # BR(H -> tau+    tau-   )
     8.31453933E-07    2         -13        13   # BR(H -> mu+     mu-    )
     1.06453841E-06    2           3        -3   # BR(H -> s       sb     )
     9.60728578E-06    2           4        -4   # BR(H -> c       cb     )
     9.50605872E-01    2           6        -6   # BR(H -> t       tb     )
     7.61163997E-04    2          21        21   # BR(H -> g       g      )
     2.62956343E-06    2          22        22   # BR(H -> gam     gam    )
     1.10649717E-06    2          23        22   # BR(H -> Z       gam    )
     3.20339774E-04    2          24       -24   # BR(H -> W+      W-     )
     1.59733109E-04    2          23        23   # BR(H -> Z       Z      )
     8.63458791E-04    2          25        25   # BR(H -> h       h      )
     1.09023010E-23    2          36        36   # BR(H -> A       A      )
     4.32293854E-11    2          23        36   # BR(H -> Z       A      )
     4.90108965E-12    2          24       -37   # BR(H -> W+      H-     )
     4.90108965E-12    2         -24        37   # BR(H -> W-      H+     )
     4.26921115E-05    2     1000024  -1000024   # BR(H -> ~chi_1+ ~chi_1-)
     6.98661630E-04    2     1000022   1000022   # BR(H -> ~chi_10 ~chi_10)
     1.11883954E-05    2     1000023   1000023   # BR(H -> ~chi_20 ~chi_20)
     3.54737610E-04    2     1000025   1000025   # BR(H -> ~chi_30 ~chi_30)
     2.45100522E-02    2     1000022   1000023   # BR(H -> ~chi_10 ~chi_20)
     1.78714799E-07    2     1000022   1000025   # BR(H -> ~chi_10 ~chi_30)
     2.00153118E-02    2     1000023   1000025   # BR(H -> ~chi_20 ~chi_30)
#
#         PDG            Width
DECAY        36     4.00760207E+01   # A decays
#          BR         NDA      ID1       ID2
     1.40864469E-03    2           5        -5   # BR(A -> b       bb     )
     2.32713134E-04    2         -15        15   # BR(A -> tau+    tau-   )
     8.22724997E-07    2         -13        13   # BR(A -> mu+     mu-    )
     1.08464413E-06    2           3        -3   # BR(A -> s       sb     )
     9.50494131E-06    2           4        -4   # BR(A -> c       cb     )
     9.51276060E-01    2           6        -6   # BR(A -> t       tb     )
     9.00400863E-04    2          21        21   # BR(A -> g       g      )
     2.72080918E-06    2          22        22   # BR(A -> gam     gam    )
     1.29004151E-06    2          23        22   # BR(A -> Z       gam    )
     3.12046470E-04    2          23        25   # BR(A -> Z       h      )
     7.10850099E-04    2     1000024  -1000024   # BR(A -> ~chi_1+ ~chi_1-)
     2.59130263E-02    2     1000022   1000022   # BR(A -> ~chi_10 ~chi_10)
     7.56973140E-07    2     1000023   1000023   # BR(A -> ~chi_20 ~chi_20)
     1.82147891E-02    2     1000025   1000025   # BR(A -> ~chi_30 ~chi_30)
     5.03820315E-04    2     1000022   1000023   # BR(A -> ~chi_10 ~chi_20)
     1.61990114E-05    2     1000022   1000025   # BR(A -> ~chi_10 ~chi_30)
     4.95270313E-04    2     1000023   1000025   # BR(A -> ~chi_20 ~chi_30)
#
#         PDG            Width
DECAY        37     3.92610592E+01   # H+ decays
#          BR         NDA      ID1       ID2
     2.26046441E-06    2           4        -5   # BR(H+ -> c       bb     )
     2.37781514E-04    2         -15        16   # BR(H+ -> tau+    nu_tau )
     8.40643547E-07    2         -13        14   # BR(H+ -> mu+     nu_mu  )
     1.43716803E-08    2           2        -5   # BR(H+ -> u       bb     )
     5.20594392E-08    2           2        -3   # BR(H+ -> u       sb     )
     1.03730396E-05    2           4        -3   # BR(H+ -> c       sb     )
     9.53442247E-01    2           6        -5   # BR(H+ -> t       bb     )
     3.19936639E-04    2          24        25   # BR(H+ -> W+      h      )
     1.07824647E-12    2          24        36   # BR(H+ -> W+      A      )
     2.24306689E-02    2     1000024   1000022   # BR(H+ -> ~chi_1+ ~chi_10)
     1.66071221E-04    2     1000024   1000023   # BR(H+ -> ~chi_1+ ~chi_20)
     2.33897540E-02    2     1000024   1000025   # BR(H+ -> ~chi_1+ ~chi_30)
