#
#                              ======================
#                              | THE SUSYHIT OUTPUT |
#                              ======================
#
#
#              ------------------------------------------------------
#              |     This is the output of the SUSY-HIT package     |
#              |  created by A.Djouadi, M.Muehlleitner and M.Spira. |
#              |  In case of problems with SUSY-HIT email to        |
#              |           margarete.muehlleitner@kit.edu           |
#              |           michael.spira@psi.ch                     |
#              |           abdelhak.djouadi@cern.ch                 |
#              ------------------------------------------------------
#
#              ------------------------------------------------------
#              |  SUSY Les Houches Accord - MSSM Spectrum + Decays  |
#              |              based on the decay programs           |
#              |                                                    |
#              |                     SDECAY 1.5                     |
#              |                                                    |
#              |  Authors: M.Muhlleitner, A.Djouadi and Y.Mambrini  |
#              |  Ref.:    Comput.Phys.Commun.168(2005)46           |
#              |           [hep-ph/0311167]                         |
#              |                                                    |
#              |                     HDECAY 3.4                     |
#              |                                                    |
#              |  By: A.Djouadi,J.Kalinowski,M.Muhlleitner,M.Spira  |
#              |  Ref.:    Comput.Phys.Commun.108(1998)56           |
#              |           [hep-ph/9704448]                         |
#              |                                                    |
#              |                                                    |
#              |  If not stated otherwise all DRbar couplings and   |
#              |  soft SUSY breaking masses are given at the scale  |
#              |  Q=  0.91187600E+02
#              |                                                    |
#              ------------------------------------------------------
#
#
BLOCK DCINFO  # Decay Program information
     1   SDECAY/HDECAY # decay calculator
     2   1.5  /3.4    # version number
#
BLOCK SPINFO  # Spectrum calculator information
     1   SuSpect     # RGE +Spectrum calculator            
     2   2.43         # version number                     
#
BLOCK MODSEL  # Model selection
     1     2   # GMSB                                              
#
BLOCK SMINPUTS  # Standard Model inputs
         1     1.27932904E+02   # alpha_em^-1(M_Z)^MSbar
         2     1.16639000E-05   # G_F [GeV^-2]
         3     1.17200000E-01   # alpha_S(M_Z)^MSbar
         4     9.11870000E+01   # M_Z pole mass
         5     4.25000000E+00   # mb(mb)^MSbar
         6     1.72900000E+02   # mt pole mass
         7     1.77700000E+00   # mtau pole mass
#
BLOCK MINPAR  # Input parameters - minimal models
#
BLOCK EXTPAR  # Input parameters - non-minimal models
         0     9.11876000E+01   # EWSB                
         1     1.24900000E+03   # M_1                 
         2     3.00000000E+03   # M_2                 
         3     2.00000000E+03   # M_3                 
        11     0.00000000E+00   # A_t                 
        12     0.00000000E+00   # A_b                 
        13     0.00000000E+00   # A_tau               
        14     0.00000000E+00   # A_u                 
        15     0.00000000E+00   # A_d                 
        16     0.00000000E+00   # A_e                 
        23     1.25000000E+03   # mu(EWSB)            
        25     1.50000000E+00   # tanbeta(in)         
        26     2.00000000E+03   # MA_pole             
        31     5.00000000E+03   # M_eL                
        32     5.00000000E+03   # M_muL               
        33     5.00000000E+03   # M_tauL              
        34     5.00000000E+03   # M_eR                
        35     5.00000000E+03   # M_muR               
        36     5.00000000E+03   # M_tauR              
        41     5.00000000E+03   # M_q1L               
        42     5.00000000E+03   # M_q2L               
        43     5.00000000E+03   # M_q3L               
        44     5.00000000E+03   # M_uR                
        45     5.00000000E+03   # M_cR                
        46     5.00000000E+03   # M_tR                
        47     5.00000000E+03   # M_dR                
        48     5.00000000E+03   # M_sR                
        49     5.00000000E+03   # M_bR                
#
BLOCK MASS  # Mass Spectrum
# PDG code           mass       particle
        24     8.05410134E+01   # W+
        25     1.26000000E+02   # h
        35     2.00402535E+03   # H
        36     2.00000000E+03   # A
        37     2.00151079E+03   # H+
         5     4.87877839E+00   # b-quark pole mass calculated from mb(mb)_Msbar
   1000001     4.94269502E+03   # ~d_L
   2000001     4.94258487E+03   # ~d_R
   1000002     4.94244874E+03   # ~u_L
   2000002     4.94250695E+03   # ~u_R
   1000003     4.94269502E+03   # ~s_L
   2000003     4.94258487E+03   # ~s_R
   1000004     4.94244874E+03   # ~c_L
   2000004     4.94250695E+03   # ~c_R
   1000005     4.94212174E+03   # ~b_1
   2000005     4.94315958E+03   # ~b_2
   1000006     5.06455235E+03   # ~t_1
   2000006     5.36155824E+03   # ~t_2
   1000011     5.00008220E+03   # ~e_L
   2000011     5.00007609E+03   # ~e_R
   1000012     4.99984171E+03   # ~nu_eL
   1000013     5.00008220E+03   # ~mu_L
   2000013     5.00007609E+03   # ~mu_R
   1000014     4.99984171E+03   # ~nu_muL
   1000015     4.99974600E+03   # ~tau_1
   2000015     5.00041289E+03   # ~tau_2
   1000016     4.99984171E+03   # ~nu_tauL
   1000021     2.06306685E+03   # ~g
   1000022     1.28284513E+03   # ~chi_10
   1000023    -1.33144387E+03   # ~chi_20
   1000025     1.37004524E+03   # ~chi_30
   1000035     3.12827846E+03   # ~chi_40
   1000024     1.32806917E+03   # ~chi_1+
   1000037     3.12827657E+03   # ~chi_2+
   1000039     1.59843750E-07   # ~gravitino
#
BLOCK NMIX  # Neutralino Mixing Matrix
  1  1     7.19722481E-01   # N_11
  1  2    -2.91767203E-02   # N_12
  1  3     4.92300720E-01   # N_13
  1  4    -4.88659667E-01   # N_14
  2  1     3.28639410E-03   # N_21
  2  2    -3.48261117E-03   # N_22
  2  3    -7.06988895E-01   # N_23
  2  4    -7.07208437E-01   # N_24
  3  1     6.94253287E-01   # N_31
  3  2     3.17890191E-02   # N_32
  3  3    -5.06971635E-01   # N_33
  3  4     5.09883902E-01   # N_34
  4  1     1.06003794E-03   # N_41
  4  2    -9.99062585E-01   # N_42
  4  3    -2.80439728E-02   # N_43
  4  4     3.29600248E-02   # N_44
#
BLOCK UMIX  # Chargino Mixing Matrix U
  1  1    -3.96353043E-02   # U_11
  1  2     9.99214213E-01   # U_12
  2  1     9.99214213E-01   # U_21
  2  2     3.96353043E-02   # U_22
#
BLOCK VMIX  # Chargino Mixing Matrix V
  1  1    -4.65887359E-02   # V_11
  1  2     9.98914155E-01   # V_12
  2  1     9.98914155E-01   # V_21
  2  2     4.65887359E-02   # V_22
#
BLOCK STOPMIX  # Stop Mixing Matrix
  1  1     9.99999283E-01   # cos(theta_t)
  1  2     1.19749718E-03   # sin(theta_t)
  2  1    -1.19749718E-03   # -sin(theta_t)
  2  2     9.99999283E-01   # cos(theta_t)
#
BLOCK SBOTMIX  # Sbottom Mixing Matrix
  1  1     6.68530928E-01   # cos(theta_b)
  1  2     7.43684341E-01   # sin(theta_b)
  2  1    -7.43684341E-01   # -sin(theta_b)
  2  2     6.68530928E-01   # cos(theta_b)
#
BLOCK STAUMIX  # Stau Mixing Matrix
  1  1     7.03859800E-01   # cos(theta_tau)
  1  2     7.10338920E-01   # sin(theta_tau)
  2  1    -7.10338920E-01   # -sin(theta_tau)
  2  2     7.03859800E-01   # cos(theta_tau)
#
BLOCK ALPHA  # Higgs mixing
          -5.90206248E-01   # Mixing angle in the neutral Higgs boson sector
#
BLOCK HMIX Q=  9.11876000E+01  # DRbar Higgs Parameters
         1     1.25000000E+03   # mu(Q)               
         2     1.49999979E+00   # tanbeta(Q)          
         3     2.52157026E+02   # vev(Q)              
         4     3.40125801E+06   # MA^2(Q)             
#
BLOCK GAUGE Q=  9.11876000E+01  # The gauge couplings
     1     3.52784290E-01   # gprime(Q) DRbar
     2     6.27184261E-01   # g(Q) DRbar
     3     1.08044647E+00   # g3(Q) DRbar
#
BLOCK AU Q=  9.11876000E+01  # The trilinear couplings
  1  1     0.00000000E+00   # A_u(Q) DRbar
  2  2     0.00000000E+00   # A_c(Q) DRbar
  3  3     0.00000000E+00   # A_t(Q) DRbar
#
BLOCK AD Q=  9.11876000E+01  # The trilinear couplings
  1  1     0.00000000E+00   # A_d(Q) DRbar
  2  2     0.00000000E+00   # A_s(Q) DRbar
  3  3     0.00000000E+00   # A_b(Q) DRbar
#
BLOCK AE Q=  9.11876000E+01  # The trilinear couplings
  1  1     0.00000000E+00   # A_e(Q) DRbar
  2  2     0.00000000E+00   # A_mu(Q) DRbar
  3  3     0.00000000E+00   # A_tau(Q) DRbar
#
BLOCK Yu Q=  9.11876000E+01  # The Yukawa couplings
  1  1     0.00000000E+00   # y_u(Q) DRbar
  2  2     0.00000000E+00   # y_c(Q) DRbar
  3  3     1.02560719E+00   # y_t(Q) DRbar
#
BLOCK Yd Q=  9.11876000E+01  # The Yukawa couplings
  1  1     0.00000000E+00   # y_d(Q) DRbar
  2  2     0.00000000E+00   # y_s(Q) DRbar
  3  3     2.71713596E-02   # y_b(Q) DRbar
#
BLOCK Ye Q=  9.11876000E+01  # The Yukawa couplings
  1  1     0.00000000E+00   # y_e(Q) DRbar
  2  2     0.00000000E+00   # y_mu(Q) DRbar
  3  3     1.79803193E-02   # y_tau(Q) DRbar
#
BLOCK MSOFT Q=  9.11876000E+01  # The soft SUSY breaking masses at the scale Q
         1     1.24900000E+03   # M_1                 
         2     3.00000000E+03   # M_2                 
         3     2.00000000E+03   # M_3                 
        14     0.00000000E+00   # A_u                 
        15     0.00000000E+00   # A_d                 
        16     0.00000000E+00   # A_e                 
        21     1.29767055E+06   # M^2_Hd              
        22    -6.85609125E+06   # M^2_Hu              
        31     5.00000000E+03   # M_eL                
        32     5.00000000E+03   # M_muL               
        33     5.00000000E+03   # M_tauL              
        34     5.00000000E+03   # M_eR                
        35     5.00000000E+03   # M_muR               
        36     5.00000000E+03   # M_tauR              
        41     5.00000000E+03   # M_q1L               
        42     5.00000000E+03   # M_q2L               
        43     5.00000000E+03   # M_q3L               
        44     5.00000000E+03   # M_uR                
        45     5.00000000E+03   # M_cR                
        46     5.00000000E+03   # M_tR                
        47     5.00000000E+03   # M_dR                
        48     5.00000000E+03   # M_sR                
        49     5.00000000E+03   # M_bR                
#
#
#
#                             =================
#                             |The decay table|
#                             =================
#
# - The QCD corrections to the decays gluino -> squark  + quark
#                                     squark -> gaugino + quark_prime
#                                     squark -> squark_prime + Higgs
#                                     squark -> gluino  + quark
#   are included.
#
# - The multi-body decays for the inos, stops and sbottoms are included.
#
# - The loop induced decays for the gluino, neutralinos and stops
#   are included.
#
# - The SUSY decays of the top quark are included.
#
# - Possible decays of the NLSP in GMSB models are included.
#
#
#         PDG            Width
DECAY         6     1.37052778E+00   # top decays
#          BR         NDA      ID1       ID2
     1.00000000E+00    2           5        24   # BR(t ->  b    W+)
#
#         PDG            Width
DECAY   1000021     1.67303695E-04   # gluino decays
#          BR         NDA      ID1       ID2
     2.19839410E-02    2     1000022        21   # BR(~g -> ~chi_10 g)
     3.93850119E-02    2     1000023        21   # BR(~g -> ~chi_20 g)
     1.76634606E-02    2     1000025        21   # BR(~g -> ~chi_30 g)
#          BR         NDA      ID1       ID2
     1.00659799E-05    2     1000039        21   # BR(~g -> ~G      g)
#           BR         NDA      ID1       ID2       ID3
     8.78644319E-03    3     1000022         1        -1   # BR(~g -> ~chi_10 d  db)
     4.39102623E-07    3     1000023         1        -1   # BR(~g -> ~chi_20 d  db)
     4.16724189E-03    3     1000025         1        -1   # BR(~g -> ~chi_30 d  db)
     2.66455525E-02    3     1000022         2        -2   # BR(~g -> ~chi_10 u  ub)
     3.42630503E-07    3     1000023         2        -2   # BR(~g -> ~chi_20 u  ub)
     1.59987086E-02    3     1000025         2        -2   # BR(~g -> ~chi_30 u  ub)
     8.78644319E-03    3     1000022         3        -3   # BR(~g -> ~chi_10 s  sb)
     4.39102623E-07    3     1000023         3        -3   # BR(~g -> ~chi_20 s  sb)
     4.16724189E-03    3     1000025         3        -3   # BR(~g -> ~chi_30 s  sb)
     2.66455525E-02    3     1000022         4        -4   # BR(~g -> ~chi_10 c  cb)
     3.42630503E-07    3     1000023         4        -4   # BR(~g -> ~chi_20 c  cb)
     1.59987086E-02    3     1000025         4        -4   # BR(~g -> ~chi_30 c  cb)
     8.88999493E-03    3     1000022         5        -5   # BR(~g -> ~chi_10 b  bb)
     2.58071259E-04    3     1000023         5        -5   # BR(~g -> ~chi_20 b  bb)
     4.30322838E-03    3     1000025         5        -5   # BR(~g -> ~chi_30 b  bb)
     1.03362184E-01    3     1000022         6        -6   # BR(~g -> ~chi_10 t  tb)
     1.33874310E-01    3     1000023         6        -6   # BR(~g -> ~chi_20 t  tb)
     8.92550696E-02    3     1000025         6        -6   # BR(~g -> ~chi_30 t  tb)
     2.56476641E-04    3     1000024         1        -2   # BR(~g -> ~chi_1+ d  ub)
     2.56476641E-04    3    -1000024         2        -1   # BR(~g -> ~chi_1- u  db)
     2.56476641E-04    3     1000024         3        -4   # BR(~g -> ~chi_1+ s  cb)
     2.56476641E-04    3    -1000024         4        -3   # BR(~g -> ~chi_1- c  sb)
     2.34395650E-01    3     1000024         5        -6   # BR(~g -> ~chi_1+ b  tb)
     2.34395650E-01    3    -1000024         6        -5   # BR(~g -> ~chi_1- t  bb)
#
#         PDG            Width
DECAY   1000006     2.74577403E+02   # stop1 decays
#          BR         NDA      ID1       ID2
     5.47868753E-02    2     1000022         6   # BR(~t_1 -> ~chi_10 t )
     1.14551400E-01    2     1000023         6   # BR(~t_1 -> ~chi_20 t )
     6.17221069E-02    2     1000025         6   # BR(~t_1 -> ~chi_30 t )
     2.70053287E-02    2     1000035         6   # BR(~t_1 -> ~chi_40 t )
    -5.56903175E-05    2     1000024         5   # BR(~t_1 -> ~chi_1+ b )
     5.36112485E-02    2     1000037         5   # BR(~t_1 -> ~chi_2+ b )
     6.73885237E-01    2     1000021         6   # BR(~t_1 -> ~g      t )
     6.63893509E-03    2     1000005        24   # BR(~t_1 -> ~b_1    W+)
     7.85455904E-03    2     2000005        24   # BR(~t_1 -> ~b_2    W+)
#
#         PDG            Width
DECAY   2000006     3.47962531E+02   # stop2 decays
#          BR         NDA      ID1       ID2
     6.27173357E-02    2     1000022         6   # BR(~t_2 -> ~chi_10 t )
     9.79139538E-02    2     1000023         6   # BR(~t_2 -> ~chi_20 t )
     6.37654546E-02    2     1000025         6   # BR(~t_2 -> ~chi_30 t )
     2.80277067E-06    2     1000035         6   # BR(~t_2 -> ~chi_40 t )
     1.96170341E-01    2     1000024         5   # BR(~t_2 -> ~chi_1+ b )
     6.45496637E-06    2     1000037         5   # BR(~t_2 -> ~chi_2+ b )
     5.79523455E-01    2     1000021         6   # BR(~t_2 -> ~g      t )
    -1.03096247E-04    2     1000006        25   # BR(~t_2 -> ~t_1    h )
     3.46266746E-07    2     1000006        23   # BR(~t_2 -> ~t_1    Z )
     1.32877530E-06    2     1000005        24   # BR(~t_2 -> ~b_1    W+)
     1.62371524E-06    2     2000005        24   # BR(~t_2 -> ~b_2    W+)
#
#         PDG            Width
DECAY   1000005     2.13544807E+02   # sbottom1 decays
#          BR         NDA      ID1       ID2
     4.97702932E-03    2     1000022         5   # BR(~b_1 -> ~chi_10 b )
     8.70260794E-05    2     1000023         5   # BR(~b_1 -> ~chi_20 b )
     2.59961499E-03    2     1000025         5   # BR(~b_1 -> ~chi_30 b )
     1.30367062E-02    2     1000035         5   # BR(~b_1 -> ~chi_40 b )
     1.14946323E-01    2    -1000024         6   # BR(~b_1 -> ~chi_1- t )
     2.62664671E-02    2    -1000037         6   # BR(~b_1 -> ~chi_2- t )
     8.38086833E-01    2     1000021         5   # BR(~b_1 -> ~g      b )
#
#         PDG            Width
DECAY   2000005     2.28481600E+02   # sbottom2 decays
#          BR         NDA      ID1       ID2
     2.52613575E-03    2     1000022         5   # BR(~b_2 -> ~chi_10 b )
     1.08798188E-04    2     1000023         5   # BR(~b_2 -> ~chi_20 b )
     3.05721423E-03    2     1000025         5   # BR(~b_2 -> ~chi_30 b )
     1.72784757E-02    2     1000035         5   # BR(~b_2 -> ~chi_40 b )
     1.59410985E-01    2    -1000024         6   # BR(~b_2 -> ~chi_1- t )
     3.48219664E-02    2    -1000037         6   # BR(~b_2 -> ~chi_2- t )
     7.82796425E-01    2     1000021         5   # BR(~b_2 -> ~g      b )
#
#         PDG            Width
DECAY   1000002     1.99744478E+02   # sup_L decays
#          BR         NDA      ID1       ID2
     9.08727308E-04    2     1000022         2   # BR(~u_L -> ~chi_10 u)
     6.60040358E-07    2     1000023         2   # BR(~u_L -> ~chi_20 u)
     2.08791945E-03    2     1000025         2   # BR(~u_L -> ~chi_30 u)
     3.36677088E-02    2     1000035         2   # BR(~u_L -> ~chi_40 u)
     3.48998495E-04    2     1000024         1   # BR(~u_L -> ~chi_1+ d)
     6.73423104E-02    2     1000037         1   # BR(~u_L -> ~chi_2+ d)
     8.95643675E-01    2     1000021         2   # BR(~u_L -> ~g      u)
#
#         PDG            Width
DECAY   2000002     1.87941918E+02   # sup_R decays
#          BR         NDA      ID1       ID2
     2.51543693E-02    2     1000022         2   # BR(~u_R -> ~chi_10 u)
     5.18671478E-07    2     1000023         2   # BR(~u_R -> ~chi_20 u)
     2.29352349E-02    2     1000025         2   # BR(~u_R -> ~chi_30 u)
     2.26683153E-08    2     1000035         2   # BR(~u_R -> ~chi_40 u)
     9.51909854E-01    2     1000021         2   # BR(~u_R -> ~g      u)
#
#         PDG            Width
DECAY   1000001     1.99751318E+02   # sdown_L decays
#          BR         NDA      ID1       ID2
     2.18809930E-03    2     1000022         1   # BR(~d_L -> ~chi_10 d)
     1.34963497E-06    2     1000023         1   # BR(~d_L -> ~chi_20 d)
     7.70441693E-04    2     1000025         1   # BR(~d_L -> ~chi_30 d)
     3.36994843E-02    2     1000035         1   # BR(~d_L -> ~chi_40 d)
     2.52603742E-04    2    -1000024         2   # BR(~d_L -> ~chi_1- u)
     6.73927195E-02    2    -1000037         2   # BR(~d_L -> ~chi_2- u)
     8.95695302E-01    2     1000021         1   # BR(~d_L -> ~g      d)
#
#         PDG            Width
DECAY   2000001     1.81168550E+02   # sdown_R decays
#          BR         NDA      ID1       ID2
     6.52383804E-03    2     1000022         1   # BR(~d_R -> ~chi_10 d)
     1.34518578E-07    2     1000023         1   # BR(~d_R -> ~chi_20 d)
     5.94830501E-03    2     1000025         1   # BR(~d_R -> ~chi_30 d)
     5.87929273E-09    2     1000035         1   # BR(~d_R -> ~chi_40 d)
     9.87527717E-01    2     1000021         1   # BR(~d_R -> ~g      d)
#
#         PDG            Width
DECAY   1000004     1.99744478E+02   # scharm_L decays
#          BR         NDA      ID1       ID2
     9.08727308E-04    2     1000022         4   # BR(~c_L -> ~chi_10 c)
     6.60040358E-07    2     1000023         4   # BR(~c_L -> ~chi_20 c)
     2.08791945E-03    2     1000025         4   # BR(~c_L -> ~chi_30 c)
     3.36677088E-02    2     1000035         4   # BR(~c_L -> ~chi_40 c)
     3.48998495E-04    2     1000024         3   # BR(~c_L -> ~chi_1+ s)
     6.73423104E-02    2     1000037         3   # BR(~c_L -> ~chi_2+ s)
     8.95643675E-01    2     1000021         4   # BR(~c_L -> ~g      c)
#
#         PDG            Width
DECAY   2000004     1.87941918E+02   # scharm_R decays
#          BR         NDA      ID1       ID2
     2.51543693E-02    2     1000022         4   # BR(~c_R -> ~chi_10 c)
     5.18671478E-07    2     1000023         4   # BR(~c_R -> ~chi_20 c)
     2.29352349E-02    2     1000025         4   # BR(~c_R -> ~chi_30 c)
     2.26683153E-08    2     1000035         4   # BR(~c_R -> ~chi_40 c)
     9.51909854E-01    2     1000021         4   # BR(~c_R -> ~g      c)
#
#         PDG            Width
DECAY   1000003     1.99751318E+02   # sstrange_L decays
#          BR         NDA      ID1       ID2
     2.18809930E-03    2     1000022         3   # BR(~s_L -> ~chi_10 s)
     1.34963497E-06    2     1000023         3   # BR(~s_L -> ~chi_20 s)
     7.70441693E-04    2     1000025         3   # BR(~s_L -> ~chi_30 s)
     3.36994843E-02    2     1000035         3   # BR(~s_L -> ~chi_40 s)
     2.52603742E-04    2    -1000024         4   # BR(~s_L -> ~chi_1- c)
     6.73927195E-02    2    -1000037         4   # BR(~s_L -> ~chi_2- c)
     8.95695302E-01    2     1000021         3   # BR(~s_L -> ~g      s)
#
#         PDG            Width
DECAY   2000003     1.81168550E+02   # sstrange_R decays
#          BR         NDA      ID1       ID2
     6.52383804E-03    2     1000022         3   # BR(~s_R -> ~chi_10 s)
     1.34518578E-07    2     1000023         3   # BR(~s_R -> ~chi_20 s)
     5.94830501E-03    2     1000025         3   # BR(~s_R -> ~chi_30 s)
     5.87929273E-09    2     1000035         3   # BR(~s_R -> ~chi_40 s)
     9.87527717E-01    2     1000021         3   # BR(~s_R -> ~g      s)
#
#         PDG            Width
DECAY   1000011     2.71397882E+01   # selectron_L decays
#          BR         NDA      ID1       ID2
     8.87780215E-02    2     1000022        11   # BR(~e_L -> ~chi_10 e-)
     1.66153719E-06    2     1000023        11   # BR(~e_L -> ~chi_20 e-)
     1.09979263E-01    2     1000025        11   # BR(~e_L -> ~chi_30 e-)
     2.66161945E-01    2     1000035        11   # BR(~e_L -> ~chi_40 e-)
     1.95663176E-03    2    -1000024        12   # BR(~e_L -> ~chi_1- nu_e)
     5.33122477E-01    2    -1000037        12   # BR(~e_L -> ~chi_2- nu_e)
#
#         PDG            Width
DECAY   2000011     2.14025166E+01   # selectron_R decays
#          BR         NDA      ID1       ID2
     5.22969532E-01    2     1000022        11   # BR(~e_R -> ~chi_10 e-)
     1.07856799E-05    2     1000023        11   # BR(~e_R -> ~chi_20 e-)
     4.77019201E-01    2     1000025        11   # BR(~e_R -> ~chi_30 e-)
     4.81448473E-07    2     1000035        11   # BR(~e_R -> ~chi_40 e-)
#
#         PDG            Width
DECAY   1000013     2.71397882E+01   # smuon_L decays
#          BR         NDA      ID1       ID2
     8.87780215E-02    2     1000022        13   # BR(~mu_L -> ~chi_10 mu-)
     1.66153719E-06    2     1000023        13   # BR(~mu_L -> ~chi_20 mu-)
     1.09979263E-01    2     1000025        13   # BR(~mu_L -> ~chi_30 mu-)
     2.66161945E-01    2     1000035        13   # BR(~mu_L -> ~chi_40 mu-)
     1.95663176E-03    2    -1000024        14   # BR(~mu_L -> ~chi_1- nu_mu)
     5.33122477E-01    2    -1000037        14   # BR(~mu_L -> ~chi_2- nu_mu)
#
#         PDG            Width
DECAY   2000013     2.14025166E+01   # smuon_R decays
#          BR         NDA      ID1       ID2
     5.22969532E-01    2     1000022        13   # BR(~mu_R -> ~chi_10 mu-)
     1.07856799E-05    2     1000023        13   # BR(~mu_R -> ~chi_20 mu-)
     4.77019201E-01    2     1000025        13   # BR(~mu_R -> ~chi_30 mu-)
     4.81448473E-07    2     1000035        13   # BR(~mu_R -> ~chi_40 mu-)
#
#         PDG            Width
DECAY   1000015     2.43206513E+01   # stau_1 decays
#          BR         NDA      ID1       ID2
     2.87675883E-01    2     1000022        15   # BR(~tau_1 -> ~chi_10  tau-)
     4.70173637E-04    2     1000023        15   # BR(~tau_1 -> ~chi_20  tau-)
     2.67858606E-01    2     1000025        15   # BR(~tau_1 -> ~chi_30  tau-)
     1.46772971E-01    2     1000035        15   # BR(~tau_1 -> ~chi_40  tau-)
     3.23488658E-03    2    -1000024        16   # BR(~tau_1 -> ~chi_1-  nu_tau)
     2.93987475E-01    2    -1000037        16   # BR(~tau_1 -> ~chi_2-  nu_tau)
     5.78841411E-09    2     1000039        15   # BR(~tau_1 -> ~G       tau-)
#
#         PDG            Width
DECAY   2000015     2.43049266E+01   # stau_2 decays
#          BR         NDA      ID1       ID2
     2.72345344E-01    2     1000022        15   # BR(~tau_2 -> ~chi_10  tau-)
     6.82625448E-04    2     1000023        15   # BR(~tau_2 -> ~chi_20  tau-)
     2.75415048E-01    2     1000025        15   # BR(~tau_2 -> ~chi_30  tau-)
     1.50340146E-01    2     1000035        15   # BR(~tau_2 -> ~chi_40  tau-)
     8.88365891E-05    2    -1000024        16   # BR(~tau_2 -> ~chi_1-  nu_tau)
     3.01128000E-01    2    -1000037        16   # BR(~tau_2 -> ~chi_2-  nu_tau)
#
#         PDG            Width
DECAY   1000012     2.71405863E+01   # snu_eL decays
#          BR         NDA      ID1       ID2
     1.18490240E-01    2     1000022        12   # BR(~nu_eL -> ~chi_10 nu_e)
     1.76841627E-05    2     1000023        12   # BR(~nu_eL -> ~chi_20 nu_e)
     7.93494159E-02    2     1000025        12   # BR(~nu_eL -> ~chi_30 nu_e)
     2.66744415E-01    2     1000035        12   # BR(~nu_eL -> ~chi_40 nu_e)
     2.70312767E-03    2     1000024        11   # BR(~nu_eL -> ~chi_1+ e-)
     5.32695117E-01    2     1000037        11   # BR(~nu_eL -> ~chi_2+ e-)
#
#         PDG            Width
DECAY   1000014     2.71405863E+01   # snu_muL decays
#          BR         NDA      ID1       ID2
     1.18490240E-01    2     1000022        14   # BR(~nu_muL -> ~chi_10 nu_mu)
     1.76841627E-05    2     1000023        14   # BR(~nu_muL -> ~chi_20 nu_mu)
     7.93494159E-02    2     1000025        14   # BR(~nu_muL -> ~chi_30 nu_mu)
     2.66744415E-01    2     1000035        14   # BR(~nu_muL -> ~chi_40 nu_mu)
     2.70312767E-03    2     1000024        13   # BR(~nu_muL -> ~chi_1+ mu-)
     5.32695117E-01    2     1000037        13   # BR(~nu_muL -> ~chi_2+ mu-)
#
#         PDG            Width
DECAY   1000016     2.71683369E+01   # snu_tauL decays
#          BR         NDA      ID1       ID2
     1.18369210E-01    2     1000022        16   # BR(~nu_tauL -> ~chi_10 nu_tau)
     1.76660995E-05    2     1000023        16   # BR(~nu_tauL -> ~chi_20 nu_tau)
     7.92683657E-02    2     1000025        16   # BR(~nu_tauL -> ~chi_30 nu_tau)
     2.66471954E-01    2     1000035        16   # BR(~nu_tauL -> ~chi_40 nu_tau)
     3.72058946E-03    2     1000024        15   # BR(~nu_tauL -> ~chi_1+ tau-)
     5.32152214E-01    2     1000037        15   # BR(~nu_tauL -> ~chi_2+ tau-)
#
#         PDG            Width
DECAY   1000024     1.18733187E-04   # chargino1+ decays
#          BR         NDA      ID1       ID2
     7.74263347E-07    2     1000039        24   # BR(~chi_1+ -> ~G       W+)
#           BR         NDA      ID1       ID2       ID3
     3.33614995E-01    3     1000022         2        -1   # BR(~chi_1+ -> ~chi_10 u    db)
     3.33614995E-01    3     1000022         4        -3   # BR(~chi_1+ -> ~chi_10 c    sb)
     1.11205126E-01    3     1000022       -11        12   # BR(~chi_1+ -> ~chi_10 e+   nu_e)
     1.11205126E-01    3     1000022       -13        14   # BR(~chi_1+ -> ~chi_10 mu+  nu_mu)
     1.10358985E-01    3     1000022       -15        16   # BR(~chi_1+ -> ~chi_10 tau+ nu_tau)
#
#         PDG            Width
DECAY   1000037     3.84118195E+01   # chargino2+ decays
#          BR         NDA      ID1       ID2
     2.53104194E-01    2     1000024        23   # BR(~chi_2+ -> ~chi_1+  Z )
     1.12092755E-01    2     1000022        24   # BR(~chi_2+ -> ~chi_10  W+)
     2.46286016E-01    2     1000023        24   # BR(~chi_2+ -> ~chi_20  W+)
     1.34633270E-01    2     1000025        24   # BR(~chi_2+ -> ~chi_30  W+)
     2.53883764E-01    2     1000024        25   # BR(~chi_2+ -> ~chi_1+  h )
     3.50238794E-10    2     1000039        24   # BR(~chi_2+ -> ~G       W+)
     3.75406373E-14    2     1000039        37   # BR(~chi_2+ -> ~G       H+)
#
#         PDG            Width
DECAY   1000022     1.17526496E-10   # neutralino1 decays
#          BR         NDA      ID1       ID2
     5.00540541E-01    2     1000039        22   # BR(~chi_10 -> ~G        gam)
     4.88294093E-01    2     1000039        23   # BR(~chi_10 -> ~G        Z)
     1.11653665E-02    2     1000039        25   # BR(~chi_10 -> ~G        h)
#
#         PDG            Width
DECAY   1000023     1.37955789E-04   # neutralino2 decays
#          BR         NDA      ID1       ID2
     8.50702406E-04    2     1000022        22   # BR(~chi_20 -> ~chi_10 gam)
#          BR         NDA      ID1       ID2
     1.82948434E-12    2     1000039        22   # BR(~chi_20 -> ~G        gam)
     2.58612173E-08    2     1000039        23   # BR(~chi_20 -> ~G        Z)
     6.34418541E-07    2     1000039        25   # BR(~chi_20 -> ~G        h)
#           BR         NDA      ID1       ID2       ID3
     1.18566724E-01    3     1000022        -2         2   # BR(~chi_20 -> ~chi_10 ub      u)
     1.53522973E-01    3     1000022        -1         1   # BR(~chi_20 -> ~chi_10 db      d)
     1.18566724E-01    3     1000022        -4         4   # BR(~chi_20 -> ~chi_10 cb      c)
     1.53522973E-01    3     1000022        -3         3   # BR(~chi_20 -> ~chi_10 sb      s)
     1.40076647E-01    3     1000022        -5         5   # BR(~chi_20 -> ~chi_10 bb      b)
     3.50606660E-02    3     1000022       -11        11   # BR(~chi_20 -> ~chi_10 e+      e-)
     3.50606660E-02    3     1000022       -13        13   # BR(~chi_20 -> ~chi_10 mu+     mu-)
     3.47131814E-02    3     1000022       -15        15   # BR(~chi_20 -> ~chi_10 tau+    tau-)
     7.00172143E-02    3     1000022       -12        12   # BR(~chi_20 -> ~chi_10 nu_eb   nu_e)
     7.00172143E-02    3     1000022       -14        14   # BR(~chi_20 -> ~chi_10 nu_mub  nu_mu)
     7.00172143E-02    3     1000022       -16        16   # BR(~chi_20 -> ~chi_10 nu_taub nu_tau)
     1.17039006E-06    3     1000024        -2         1   # BR(~chi_20 -> ~chi_1+ ub      d)
     1.17039006E-06    3    -1000024        -1         2   # BR(~chi_20 -> ~chi_1- db      u)
     1.17039006E-06    3     1000024        -4         3   # BR(~chi_20 -> ~chi_1+ cb      s)
     1.17039006E-06    3    -1000024        -3         4   # BR(~chi_20 -> ~chi_1- sb      c)
     3.90130043E-07    3     1000024       -12        11   # BR(~chi_20 -> ~chi_1+ nu_eb   e-)
     3.90130043E-07    3    -1000024        12       -11   # BR(~chi_20 -> ~chi_1- nu_e    e+)
     3.90130043E-07    3     1000024       -14        13   # BR(~chi_20 -> ~chi_1+ nu_mub  mu-)
     3.90130043E-07    3    -1000024        14       -13   # BR(~chi_20 -> ~chi_1- nu_mu   mu+)
     9.85052593E-08    3     1000024       -16        15   # BR(~chi_20 -> ~chi_1+ nu_taub tau-)
     9.85052593E-08    3    -1000024        16       -15   # BR(~chi_20 -> ~chi_1- nu_tau  tau+)
#
#         PDG            Width
DECAY   1000025     2.14973619E-04   # neutralino3 decays
#          BR         NDA      ID1       ID2
     3.90208589E-04    2     1000022        22   # BR(~chi_30 -> ~chi_10 gam)
     8.93176309E-06    2     1000023        22   # BR(~chi_30 -> ~chi_20 gam)
#          BR         NDA      ID1       ID2
     3.89782508E-07    2     1000039        22   # BR(~chi_30 -> ~G        gam)
     3.44502631E-07    2     1000039        23   # BR(~chi_30 -> ~G        Z)
     9.78769541E-09    2     1000039        25   # BR(~chi_30 -> ~G        h)
#           BR         NDA      ID1       ID2       ID3
     1.06989752E-05    3     1000022        -2         2   # BR(~chi_30 -> ~chi_10 ub      u)
     1.26876097E-05    3     1000022        -1         1   # BR(~chi_30 -> ~chi_10 db      d)
     1.06989752E-05    3     1000022        -4         4   # BR(~chi_30 -> ~chi_10 cb      c)
     1.26876097E-05    3     1000022        -3         3   # BR(~chi_30 -> ~chi_10 sb      s)
     2.41321336E-05    3     1000022        -5         5   # BR(~chi_30 -> ~chi_10 bb      b)
     2.20583197E-06    3     1000022       -11        11   # BR(~chi_30 -> ~chi_10 e+      e-)
     2.20583197E-06    3     1000022       -13        13   # BR(~chi_30 -> ~chi_10 mu+     mu-)
     3.96208536E-06    3     1000022       -15        15   # BR(~chi_30 -> ~chi_10 tau+    tau-)
     6.21556441E-06    3     1000022       -12        12   # BR(~chi_30 -> ~chi_10 nu_eb   nu_e)
     6.21556441E-06    3     1000022       -14        14   # BR(~chi_30 -> ~chi_10 nu_mub  nu_mu)
     6.21556441E-06    3     1000022       -16        16   # BR(~chi_30 -> ~chi_10 nu_taub nu_tau)
     2.43301013E-02    3     1000023        -2         2   # BR(~chi_30 -> ~chi_20 ub      u)
     3.15032300E-02    3     1000023        -1         1   # BR(~chi_30 -> ~chi_20 db      d)
     2.43301013E-02    3     1000023        -4         4   # BR(~chi_30 -> ~chi_20 cb      c)
     3.15032300E-02    3     1000023        -3         3   # BR(~chi_30 -> ~chi_20 sb      s)
     2.73271039E-02    3     1000023        -5         5   # BR(~chi_30 -> ~chi_20 bb      b)
     7.19453560E-03    3     1000023       -11        11   # BR(~chi_30 -> ~chi_20 e+      e-)
     7.19453560E-03    3     1000023       -13        13   # BR(~chi_30 -> ~chi_20 mu+     mu-)
     7.09404814E-03    3     1000023       -15        15   # BR(~chi_30 -> ~chi_20 tau+    tau-)
     1.43676186E-02    3     1000023       -12        12   # BR(~chi_30 -> ~chi_20 nu_eb   nu_e)
     1.43676186E-02    3     1000023       -14        14   # BR(~chi_30 -> ~chi_20 nu_mub  nu_mu)
     1.43676186E-02    3     1000023       -16        16   # BR(~chi_30 -> ~chi_20 nu_taub nu_tau)
     1.32784362E-01    3     1000024        -2         1   # BR(~chi_30 -> ~chi_1+ ub      d)
     1.32784362E-01    3    -1000024        -1         2   # BR(~chi_30 -> ~chi_1- db      u)
     1.32784362E-01    3     1000024        -4         3   # BR(~chi_30 -> ~chi_1+ cb      s)
     1.32784362E-01    3    -1000024        -3         4   # BR(~chi_30 -> ~chi_1- sb      c)
     4.42613889E-02    3     1000024       -12        11   # BR(~chi_30 -> ~chi_1+ nu_eb   e-)
     4.42613889E-02    3    -1000024        12       -11   # BR(~chi_30 -> ~chi_1- nu_e    e+)
     4.42613889E-02    3     1000024       -14        13   # BR(~chi_30 -> ~chi_1+ nu_mub  mu-)
     4.42613889E-02    3    -1000024        14       -13   # BR(~chi_30 -> ~chi_1- nu_mu   mu+)
     4.38697222E-02    3     1000024       -16        15   # BR(~chi_30 -> ~chi_1+ nu_taub tau-)
     4.38697222E-02    3    -1000024        16       -15   # BR(~chi_30 -> ~chi_1- nu_tau  tau+)
#
#         PDG            Width
DECAY   1000035     3.84120753E+01   # neutralino4 decays
#          BR         NDA      ID1       ID2
     7.53987558E-04    2     1000022        23   # BR(~chi_40 -> ~chi_10   Z )
     2.51376118E-01    2     1000023        23   # BR(~chi_40 -> ~chi_20   Z )
     8.75952261E-04    2     1000025        23   # BR(~chi_40 -> ~chi_30   Z )
     2.46377440E-01    2     1000024       -24   # BR(~chi_40 -> ~chi_1+   W-)
     2.46377440E-01    2    -1000024        24   # BR(~chi_40 -> ~chi_1-   W+)
     1.14758875E-01    2     1000022        25   # BR(~chi_40 -> ~chi_10   h )
     1.60425688E-03    2     1000023        25   # BR(~chi_40 -> ~chi_20   h )
     1.37875930E-01    2     1000025        25   # BR(~chi_40 -> ~chi_30   h )
     8.39927962E-11    2     1000039        22   # BR(~chi_40 -> ~G        gam)
     2.66209476E-10    2     1000039        23   # BR(~chi_40 -> ~G        Z)
     2.42129868E-14    2     1000039        25   # BR(~chi_40 -> ~G        h)
     3.68273560E-14    2     1000039        35   # BR(~chi_40 -> ~G        H)
     5.47895694E-16    2     1000039        36   # BR(~chi_40 -> ~G        A)
#
#         PDG            Width
DECAY        25     4.21998181E-03   # h decays
#          BR         NDA      ID1       ID2
     6.02027734E-01    2           5        -5   # BR(h -> b       bb     )
     6.22156186E-02    2         -15        15   # BR(h -> tau+    tau-   )
     2.20216166E-04    2         -13        13   # BR(h -> mu+     mu-    )
     4.65934725E-04    2           3        -3   # BR(h -> s       sb     )
     2.01009930E-02    2           4        -4   # BR(h -> c       cb     )
     6.63837600E-02    2          21        21   # BR(h -> g       g      )
     2.30639866E-03    2          22        22   # BR(h -> gam     gam    )
     1.62600720E-03    2          22        23   # BR(h -> Z       gam    )
     2.16583188E-01    2          24       -24   # BR(h -> W+      W-     )
     2.80701503E-02    2          23        23   # BR(h -> Z       Z      )
#
#         PDG            Width
DECAY        35     3.78109114E+01   # H decays
#          BR         NDA      ID1       ID2
     1.46946481E-03    2           5        -5   # BR(H -> b       bb     )
     2.46422944E-04    2         -15        15   # BR(H -> tau+    tau-   )
     8.71196850E-07    2         -13        13   # BR(H -> mu+     mu-    )
     1.11544898E-06    2           3        -3   # BR(H -> s       sb     )
     1.00667987E-05    2           4        -4   # BR(H -> c       cb     )
     9.96063592E-01    2           6        -6   # BR(H -> t       tb     )
     7.97751508E-04    2          21        21   # BR(H -> g       g      )
     2.71237029E-06    2          22        22   # BR(H -> gam     gam    )
     1.15998507E-06    2          23        22   # BR(H -> Z       gam    )
     3.35915059E-04    2          24       -24   # BR(H -> W+      W-     )
     1.67499423E-04    2          23        23   # BR(H -> Z       Z      )
     9.03428570E-04    2          25        25   # BR(H -> h       h      )
     7.47132730E-24    2          36        36   # BR(H -> A       A      )
     3.01604809E-11    2          23        36   # BR(H -> Z       A      )
     6.99043453E-12    2          24       -37   # BR(H -> W+      H-     )
     6.99043453E-12    2         -24        37   # BR(H -> W-      H+     )
#
#         PDG            Width
DECAY        36     3.82382195E+01   # A decays
#          BR         NDA      ID1       ID2
     1.47240530E-03    2           5        -5   # BR(A -> b       bb     )
     2.43897768E-04    2         -15        15   # BR(A -> tau+    tau-   )
     8.62266716E-07    2         -13        13   # BR(A -> mu+     mu-    )
     1.13677418E-06    2           3        -3   # BR(A -> s       sb     )
     9.96176677E-06    2           4        -4   # BR(A -> c       cb     )
     9.96996186E-01    2           6        -6   # BR(A -> t       tb     )
     9.43675831E-04    2          21        21   # BR(A -> g       g      )
     3.17091359E-06    2          22        22   # BR(A -> gam     gam    )
     1.35257323E-06    2          23        22   # BR(A -> Z       gam    )
     3.27350426E-04    2          23        25   # BR(A -> Z       h      )
#
#         PDG            Width
DECAY        37     3.74472690E+01   # H+ decays
#          BR         NDA      ID1       ID2
     2.36078321E-06    2           4        -5   # BR(H+ -> c       bb     )
     2.49237438E-04    2         -15        16   # BR(H+ -> tau+    nu_tau )
     8.81144377E-07    2         -13        14   # BR(H+ -> mu+     nu_mu  )
     1.50091264E-08    2           2        -5   # BR(H+ -> u       bb     )
     5.45693920E-08    2           2        -3   # BR(H+ -> u       sb     )
     1.08731583E-05    2           4        -3   # BR(H+ -> c       sb     )
     9.99401081E-01    2           6        -5   # BR(H+ -> t       bb     )
     3.35497371E-04    2          24        25   # BR(H+ -> W+      h      )
     2.76410631E-13    2          24        36   # BR(H+ -> W+      A      )
