#
#                              ======================
#                              | THE SUSYHIT OUTPUT |
#                              ======================
#
#
#              ------------------------------------------------------
#              |     This is the output of the SUSY-HIT package     |
#              |  created by A.Djouadi, M.Muehlleitner and M.Spira. |
#              |  In case of problems with SUSY-HIT email to        |
#              |           margarete.muehlleitner@kit.edu           |
#              |           michael.spira@psi.ch                     |
#              |           abdelhak.djouadi@cern.ch                 |
#              ------------------------------------------------------
#
#              ------------------------------------------------------
#              |  SUSY Les Houches Accord - MSSM Spectrum + Decays  |
#              |              based on the decay programs           |
#              |                                                    |
#              |                     SDECAY 1.5                     |
#              |                                                    |
#              |  Authors: M.Muhlleitner, A.Djouadi and Y.Mambrini  |
#              |  Ref.:    Comput.Phys.Commun.168(2005)46           |
#              |           [hep-ph/0311167]                         |
#              |                                                    |
#              |                     HDECAY 3.4                     |
#              |                                                    |
#              |  By: A.Djouadi,J.Kalinowski,M.Muhlleitner,M.Spira  |
#              |  Ref.:    Comput.Phys.Commun.108(1998)56           |
#              |           [hep-ph/9704448]                         |
#              |                                                    |
#              |                                                    |
#              |  If not stated otherwise all DRbar couplings and   |
#              |  soft SUSY breaking masses are given at the scale  |
#              |  Q=  0.91187600E+02
#              |                                                    |
#              ------------------------------------------------------
#
#
BLOCK DCINFO  # Decay Program information
     1   SDECAY/HDECAY # decay calculator
     2   1.5  /3.4    # version number
#
BLOCK SPINFO  # Spectrum calculator information
     1   SuSpect     # RGE +Spectrum calculator            
     2   2.43         # version number                     
#
BLOCK MODSEL  # Model selection
     1     2   # GMSB                                              
#
BLOCK SMINPUTS  # Standard Model inputs
         1     1.27932904E+02   # alpha_em^-1(M_Z)^MSbar
         2     1.16639000E-05   # G_F [GeV^-2]
         3     1.17200000E-01   # alpha_S(M_Z)^MSbar
         4     9.11870000E+01   # M_Z pole mass
         5     4.25000000E+00   # mb(mb)^MSbar
         6     1.72900000E+02   # mt pole mass
         7     1.77700000E+00   # mtau pole mass
#
BLOCK MINPAR  # Input parameters - minimal models
#
BLOCK EXTPAR  # Input parameters - non-minimal models
         0     9.11876000E+01   # EWSB                
         1     2.87000000E+02   # M_1                 
         2     3.00000000E+03   # M_2                 
         3     1.30000000E+03   # M_3                 
        11     0.00000000E+00   # A_t                 
        12     0.00000000E+00   # A_b                 
        13     0.00000000E+00   # A_tau               
        14     0.00000000E+00   # A_u                 
        15     0.00000000E+00   # A_d                 
        16     0.00000000E+00   # A_e                 
        23     2.50000000E+02   # mu(EWSB)            
        25     1.50000000E+00   # tanbeta(in)         
        26     2.00000000E+03   # MA_pole             
        31     5.00000000E+03   # M_eL                
        32     5.00000000E+03   # M_muL               
        33     5.00000000E+03   # M_tauL              
        34     5.00000000E+03   # M_eR                
        35     5.00000000E+03   # M_muR               
        36     5.00000000E+03   # M_tauR              
        41     5.00000000E+03   # M_q1L               
        42     5.00000000E+03   # M_q2L               
        43     5.00000000E+03   # M_q3L               
        44     5.00000000E+03   # M_uR                
        45     5.00000000E+03   # M_cR                
        46     5.00000000E+03   # M_tR                
        47     5.00000000E+03   # M_dR                
        48     5.00000000E+03   # M_sR                
        49     5.00000000E+03   # M_bR                
#
BLOCK MASS  # Mass Spectrum
# PDG code           mass       particle
        24     8.05375319E+01   # W+
        25     1.26000000E+02   # h
        35     2.00416155E+03   # H
        36     2.00000000E+03   # A
        37     2.00208484E+03   # H+
         5     4.87877839E+00   # b-quark pole mass calculated from mb(mb)_Msbar
   1000001     5.00370363E+03   # ~d_L
   2000001     5.00359396E+03   # ~d_R
   1000002     5.00345855E+03   # ~u_L
   2000002     5.00351674E+03   # ~u_R
   1000003     5.00370363E+03   # ~s_L
   2000003     5.00359396E+03   # ~s_R
   1000004     5.00345855E+03   # ~c_L
   2000004     5.00351674E+03   # ~c_R
   1000005     5.00353330E+03   # ~b_1
   2000005     5.00376576E+03   # ~b_2
   1000006     5.13386833E+03   # ~t_1
   2000006     5.43156257E+03   # ~t_2
   1000011     5.00008258E+03   # ~e_L
   2000011     5.00007599E+03   # ~e_R
   1000012     4.99984142E+03   # ~nu_eL
   1000013     5.00008258E+03   # ~mu_L
   2000013     5.00007599E+03   # ~mu_R
   1000014     4.99984142E+03   # ~nu_muL
   1000015     5.00001287E+03   # ~tau_1
   2000015     5.00014633E+03   # ~tau_2
   1000016     4.99984142E+03   # ~nu_tauL
   1000021     1.42935433E+03   # ~g
   1000022     2.38923366E+02   # ~chi_10
   1000023    -2.70403746E+02   # ~chi_20
   1000025     3.33139138E+02   # ~chi_30
   1000035     3.12901942E+03   # ~chi_40
   1000024     2.68160525E+02   # ~chi_1+
   1000037     3.12901898E+03   # ~chi_2+
   1000039     1.00000000E-09   # ~gravitino
#
BLOCK NMIX  # Neutralino Mixing Matrix
  1  1     5.56318067E-01   # N_11
  1  2    -2.22774689E-02   # N_12
  1  3     5.94544473E-01   # N_13
  1  4    -5.80112741E-01   # N_14
  2  1     1.53223812E-02   # N_21
  2  2    -4.61394288E-03   # N_22
  2  3    -7.05672837E-01   # N_23
  2  4    -7.08357102E-01   # N_24
  3  1     8.30828048E-01   # N_31
  3  2     1.55230057E-02   # N_32
  3  3    -3.85081278E-01   # N_33
  3  4     4.01492466E-01   # N_34
  4  1     4.33057729E-04   # N_41
  4  2    -9.99620659E-01   # N_42
  4  3    -1.59726898E-02   # N_43
  4  4     2.24326422E-02   # N_44
#
BLOCK UMIX  # Chargino Mixing Matrix U
  1  1    -2.25811507E-02   # U_11
  1  2     9.99745013E-01   # U_12
  2  1     9.99745013E-01   # U_21
  2  2     2.25811507E-02   # U_22
#
BLOCK VMIX  # Chargino Mixing Matrix V
  1  1    -3.17203554E-02   # V_11
  1  2     9.99496783E-01   # V_12
  2  1     9.99496783E-01   # V_21
  2  2     3.17203554E-02   # V_22
#
BLOCK STOPMIX  # Stop Mixing Matrix
  1  1     9.99866434E-01   # cos(theta_t)
  1  2    -1.63436275E-02   # sin(theta_t)
  2  1     1.63436275E-02   # -sin(theta_t)
  2  2     9.99866434E-01   # cos(theta_t)
#
BLOCK SBOTMIX  # Sbottom Mixing Matrix
  1  1     5.13915530E-01   # cos(theta_b)
  1  2     8.57840794E-01   # sin(theta_b)
  2  1    -8.57840794E-01   # -sin(theta_b)
  2  2     5.13915530E-01   # cos(theta_b)
#
BLOCK STAUMIX  # Stau Mixing Matrix
  1  1     6.89410698E-01   # cos(theta_tau)
  1  2     7.24370685E-01   # sin(theta_tau)
  2  1    -7.24370685E-01   # -sin(theta_tau)
  2  2     6.89410698E-01   # cos(theta_tau)
#
BLOCK ALPHA  # Higgs mixing
          -5.90204417E-01   # Mixing angle in the neutral Higgs boson sector
#
BLOCK HMIX Q=  9.11876000E+01  # DRbar Higgs Parameters
         1     2.50000000E+02   # mu(Q)               
         2     1.49999979E+00   # tanbeta(Q)          
         3     2.51791734E+02   # vev(Q)              
         4     3.84574506E+06   # MA^2(Q)             
#
BLOCK GAUGE Q=  9.11876000E+01  # The gauge couplings
     1     3.53061967E-01   # gprime(Q) DRbar
     2     6.28966977E-01   # g(Q) DRbar
     3     1.08739751E+00   # g3(Q) DRbar
#
BLOCK AU Q=  9.11876000E+01  # The trilinear couplings
  1  1     0.00000000E+00   # A_u(Q) DRbar
  2  2     0.00000000E+00   # A_c(Q) DRbar
  3  3     0.00000000E+00   # A_t(Q) DRbar
#
BLOCK AD Q=  9.11876000E+01  # The trilinear couplings
  1  1     0.00000000E+00   # A_d(Q) DRbar
  2  2     0.00000000E+00   # A_s(Q) DRbar
  3  3     0.00000000E+00   # A_b(Q) DRbar
#
BLOCK AE Q=  9.11876000E+01  # The trilinear couplings
  1  1     0.00000000E+00   # A_e(Q) DRbar
  2  2     0.00000000E+00   # A_mu(Q) DRbar
  3  3     0.00000000E+00   # A_tau(Q) DRbar
#
BLOCK Yu Q=  9.11876000E+01  # The Yukawa couplings
  1  1     0.00000000E+00   # y_u(Q) DRbar
  2  2     0.00000000E+00   # y_c(Q) DRbar
  3  3     1.02645722E+00   # y_t(Q) DRbar
#
BLOCK Yd Q=  9.11876000E+01  # The Yukawa couplings
  1  1     0.00000000E+00   # y_d(Q) DRbar
  2  2     0.00000000E+00   # y_s(Q) DRbar
  3  3     2.72284943E-02   # y_b(Q) DRbar
#
BLOCK Ye Q=  9.11876000E+01  # The Yukawa couplings
  1  1     0.00000000E+00   # y_e(Q) DRbar
  2  2     0.00000000E+00   # y_mu(Q) DRbar
  3  3     1.79957568E-02   # y_tau(Q) DRbar
#
BLOCK MSOFT Q=  9.11876000E+01  # The soft SUSY breaking masses at the scale Q
         1     2.87000000E+02   # M_1                 
         2     3.00000000E+03   # M_2                 
         3     1.30000000E+03   # M_3                 
        14     0.00000000E+00   # A_u                 
        15     0.00000000E+00   # A_d                 
        16     0.00000000E+00   # A_e                 
        21     2.99438983E+06   # M^2_Hd              
        22    -5.54563269E+06   # M^2_Hu              
        31     5.00000000E+03   # M_eL                
        32     5.00000000E+03   # M_muL               
        33     5.00000000E+03   # M_tauL              
        34     5.00000000E+03   # M_eR                
        35     5.00000000E+03   # M_muR               
        36     5.00000000E+03   # M_tauR              
        41     5.00000000E+03   # M_q1L               
        42     5.00000000E+03   # M_q2L               
        43     5.00000000E+03   # M_q3L               
        44     5.00000000E+03   # M_uR                
        45     5.00000000E+03   # M_cR                
        46     5.00000000E+03   # M_tR                
        47     5.00000000E+03   # M_dR                
        48     5.00000000E+03   # M_sR                
        49     5.00000000E+03   # M_bR                
#
#
#
#                             =================
#                             |The decay table|
#                             =================
#
# - The QCD corrections to the decays gluino -> squark  + quark
#                                     squark -> gaugino + quark_prime
#                                     squark -> squark_prime + Higgs
#                                     squark -> gluino  + quark
#   are included.
#
# - The multi-body decays for the inos, stops and sbottoms are included.
#
# - The loop induced decays for the gluino, neutralinos and stops
#   are included.
#
# - The SUSY decays of the top quark are included.
#
# - Possible decays of the NLSP in GMSB models are included.
#
#
#         PDG            Width
DECAY         6     1.37847921E+00   # top decays
#          BR         NDA      ID1       ID2
     1.00000000E+00    2           5        24   # BR(t ->  b    W+)
#
#         PDG            Width
DECAY   1000021     4.85358929E-04   # gluino decays
#          BR         NDA      ID1       ID2
     1.23801742E-02    2     1000022        21   # BR(~g -> ~chi_10 g)
     1.78987894E-02    2     1000023        21   # BR(~g -> ~chi_20 g)
     5.22595245E-03    2     1000025        21   # BR(~g -> ~chi_30 g)
#          BR         NDA      ID1       ID2
     1.41521653E-02    2     1000039        21   # BR(~g -> ~G      g)
#           BR         NDA      ID1       ID2       ID3
     3.11916503E-03    3     1000022         1        -1   # BR(~g -> ~chi_10 d  db)
     2.54682798E-06    3     1000023         1        -1   # BR(~g -> ~chi_20 d  db)
     5.32374736E-03    3     1000025         1        -1   # BR(~g -> ~chi_30 d  db)
     9.47020085E-03    3     1000022         2        -2   # BR(~g -> ~chi_10 u  ub)
     3.85804046E-06    3     1000023         2        -2   # BR(~g -> ~chi_20 u  ub)
     1.90483426E-02    3     1000025         2        -2   # BR(~g -> ~chi_30 u  ub)
     3.11916503E-03    3     1000022         3        -3   # BR(~g -> ~chi_10 s  sb)
     2.54682798E-06    3     1000023         3        -3   # BR(~g -> ~chi_20 s  sb)
     5.32374736E-03    3     1000025         3        -3   # BR(~g -> ~chi_30 s  sb)
     9.47020085E-03    3     1000022         4        -4   # BR(~g -> ~chi_10 c  cb)
     3.85804046E-06    3     1000023         4        -4   # BR(~g -> ~chi_20 c  cb)
     1.90483426E-02    3     1000025         4        -4   # BR(~g -> ~chi_30 c  cb)
     3.26000276E-03    3     1000022         5        -5   # BR(~g -> ~chi_10 b  bb)
     2.25285728E-04    3     1000023         5        -5   # BR(~g -> ~chi_20 b  bb)
     5.40043513E-03    3     1000025         5        -5   # BR(~g -> ~chi_30 b  bb)
     1.32303855E-01    3     1000022         6        -6   # BR(~g -> ~chi_10 t  tb)
     1.85477710E-01    3     1000023         6        -6   # BR(~g -> ~chi_20 t  tb)
     7.90060794E-02    3     1000025         6        -6   # BR(~g -> ~chi_30 t  tb)
     7.60711143E-05    3     1000024         1        -2   # BR(~g -> ~chi_1+ d  ub)
     7.60711143E-05    3    -1000024         2        -1   # BR(~g -> ~chi_1- u  db)
     7.60711143E-05    3     1000024         3        -4   # BR(~g -> ~chi_1+ s  cb)
     7.60711143E-05    3    -1000024         4        -3   # BR(~g -> ~chi_1- c  sb)
     2.35214772E-01    3     1000024         5        -6   # BR(~g -> ~chi_1+ b  tb)
     2.35214772E-01    3    -1000024         6        -5   # BR(~g -> ~chi_1- t  bb)
#
#         PDG            Width
DECAY   1000006     3.28010705E+02   # stop1 decays
#          BR         NDA      ID1       ID2
     7.43304805E-02    2     1000022         6   # BR(~t_1 -> ~chi_10 t )
     1.12287413E-01    2     1000023         6   # BR(~t_1 -> ~chi_20 t )
     3.91699776E-02    2     1000025         6   # BR(~t_1 -> ~chi_30 t )
     2.36673687E-02    2     1000035         6   # BR(~t_1 -> ~chi_40 t )
     1.35222895E-04    2     1000024         5   # BR(~t_1 -> ~chi_1+ b )
     4.71829869E-02    2     1000037         5   # BR(~t_1 -> ~chi_2+ b )
     6.86512102E-01    2     1000021         6   # BR(~t_1 -> ~g      t )
     4.44223140E-03    2     1000005        24   # BR(~t_1 -> ~b_1    W+)
     1.22722168E-02    2     2000005        24   # BR(~t_1 -> ~b_2    W+)
#
#         PDG            Width
DECAY   2000006     4.07248978E+02   # stop2 decays
#          BR         NDA      ID1       ID2
     7.44898592E-02    2     1000022         6   # BR(~t_2 -> ~chi_10 t )
     9.61526585E-02    2     1000023         6   # BR(~t_2 -> ~chi_20 t )
     4.90702273E-02    2     1000025         6   # BR(~t_2 -> ~chi_30 t )
    -9.87080958E-06    2     1000035         6   # BR(~t_2 -> ~chi_40 t )
     1.91892823E-01    2     1000024         5   # BR(~t_2 -> ~chi_1+ b )
    -1.96689552E-05    2     1000037         5   # BR(~t_2 -> ~chi_2+ b )
     5.88198429E-01    2     1000021         6   # BR(~t_2 -> ~g      t )
    -2.89723310E-05    2     1000006        25   # BR(~t_2 -> ~t_1    h )
     3.63201962E-05    2     1000006        23   # BR(~t_2 -> ~t_1    Z )
     5.76558553E-05    2     1000005        24   # BR(~t_2 -> ~b_1    W+)
     1.60539339E-04    2     2000005        24   # BR(~t_2 -> ~b_2    W+)
#
#         PDG            Width
DECAY   1000005     2.07306895E+02   # sbottom1 decays
#          BR         NDA      ID1       ID2
     4.65247670E-03    2     1000022         5   # BR(~b_1 -> ~chi_10 b )
     1.03609277E-04    2     1000023         5   # BR(~b_1 -> ~chi_20 b )
     8.86356346E-03    2     1000025         5   # BR(~b_1 -> ~chi_30 b )
    -2.07399159E-03    2     1000035         5   # BR(~b_1 -> ~chi_40 b )
    -6.61302120E-02    2    -1000024         6   # BR(~b_1 -> ~chi_1- t )
    -4.17181974E-03    2    -1000037         6   # BR(~b_1 -> ~chi_2- t )
     1.05875637E+00    2     1000021         5   # BR(~b_1 -> ~g      b )
#
#         PDG            Width
DECAY   2000005     3.28013360E+02   # sbottom2 decays
#          BR         NDA      ID1       ID2
     5.92352600E-04    2     1000022         5   # BR(~b_2 -> ~chi_10 b )
     9.38152170E-05    2     1000023         5   # BR(~b_2 -> ~chi_20 b )
     1.12534839E-03    2     1000025         5   # BR(~b_2 -> ~chi_30 b )
     2.28745498E-02    2     1000035         5   # BR(~b_2 -> ~chi_40 b )
     2.60200277E-01    2    -1000024         6   # BR(~b_2 -> ~chi_1- t )
     4.58991986E-02    2    -1000037         6   # BR(~b_2 -> ~chi_2- t )
     6.69214459E-01    2     1000021         5   # BR(~b_2 -> ~g      b )
#
#         PDG            Width
DECAY   1000002     2.41412046E+02   # sup_L decays
#          BR         NDA      ID1       ID2
     5.24922600E-04    2     1000022         2   # BR(~u_L -> ~chi_10 u)
     2.39019119E-07    2     1000023         2   # BR(~u_L -> ~chi_20 u)
     2.28291304E-03    2     1000025         2   # BR(~u_L -> ~chi_30 u)
     2.92831095E-02    2     1000035         2   # BR(~u_L -> ~chi_40 u)
     1.57624362E-04    2     1000024         1   # BR(~u_L -> ~chi_1+ d)
     5.85612192E-02    2     1000037         1   # BR(~u_L -> ~chi_2+ d)
     9.09189972E-01    2     1000021         2   # BR(~u_L -> ~g      u)
#
#         PDG            Width
DECAY   2000002     2.30067040E+02   # sup_R decays
#          BR         NDA      ID1       ID2
     1.42657484E-02    2     1000022         2   # BR(~u_R -> ~chi_10 u)
     1.08084253E-05    2     1000023         2   # BR(~u_R -> ~chi_20 u)
     3.16846894E-02    2     1000025         2   # BR(~u_R -> ~chi_30 u)
     3.23113315E-09    2     1000035         2   # BR(~u_R -> ~chi_40 u)
     9.54038751E-01    2     1000021         2   # BR(~u_R -> ~g      u)
#
#         PDG            Width
DECAY   1000001     2.41415517E+02   # sdown_L decays
#          BR         NDA      ID1       ID2
     1.25235422E-03    2     1000022         1   # BR(~d_L -> ~chi_10 d)
     4.38333798E-06    2     1000023         1   # BR(~d_L -> ~chi_20 d)
     1.52919121E-03    2     1000025         1   # BR(~d_L -> ~chi_30 d)
     2.92972753E-02    2     1000035         1   # BR(~d_L -> ~chi_40 d)
     7.98830772E-05    2    -1000024         2   # BR(~d_L -> ~chi_1- u)
     5.85996503E-02    2    -1000037         2   # BR(~d_L -> ~chi_2- u)
     9.09237263E-01    2     1000021         1   # BR(~d_L -> ~g      d)
#
#         PDG            Width
DECAY   2000001     2.22141046E+02   # sdown_R decays
#          BR         NDA      ID1       ID2
     3.69374546E-03    2     1000022         1   # BR(~d_R -> ~chi_10 d)
     2.79856142E-06    2     1000023         1   # BR(~d_R -> ~chi_20 d)
     8.20392937E-03    2     1000025         1   # BR(~d_R -> ~chi_30 d)
     8.36650805E-10    2     1000035         1   # BR(~d_R -> ~chi_40 d)
     9.88099526E-01    2     1000021         1   # BR(~d_R -> ~g      d)
#
#         PDG            Width
DECAY   1000004     2.41412046E+02   # scharm_L decays
#          BR         NDA      ID1       ID2
     5.24922600E-04    2     1000022         4   # BR(~c_L -> ~chi_10 c)
     2.39019119E-07    2     1000023         4   # BR(~c_L -> ~chi_20 c)
     2.28291304E-03    2     1000025         4   # BR(~c_L -> ~chi_30 c)
     2.92831095E-02    2     1000035         4   # BR(~c_L -> ~chi_40 c)
     1.57624362E-04    2     1000024         3   # BR(~c_L -> ~chi_1+ s)
     5.85612192E-02    2     1000037         3   # BR(~c_L -> ~chi_2+ s)
     9.09189972E-01    2     1000021         4   # BR(~c_L -> ~g      c)
#
#         PDG            Width
DECAY   2000004     2.30067040E+02   # scharm_R decays
#          BR         NDA      ID1       ID2
     1.42657484E-02    2     1000022         4   # BR(~c_R -> ~chi_10 c)
     1.08084253E-05    2     1000023         4   # BR(~c_R -> ~chi_20 c)
     3.16846894E-02    2     1000025         4   # BR(~c_R -> ~chi_30 c)
     3.23113315E-09    2     1000035         4   # BR(~c_R -> ~chi_40 c)
     9.54038751E-01    2     1000021         4   # BR(~c_R -> ~g      c)
#
#         PDG            Width
DECAY   1000003     2.41415517E+02   # sstrange_L decays
#          BR         NDA      ID1       ID2
     1.25235422E-03    2     1000022         3   # BR(~s_L -> ~chi_10 s)
     4.38333798E-06    2     1000023         3   # BR(~s_L -> ~chi_20 s)
     1.52919121E-03    2     1000025         3   # BR(~s_L -> ~chi_30 s)
     2.92972753E-02    2     1000035         3   # BR(~s_L -> ~chi_40 s)
     7.98830772E-05    2    -1000024         4   # BR(~s_L -> ~chi_1- c)
     5.85996503E-02    2    -1000037         4   # BR(~s_L -> ~chi_2- c)
     9.09237263E-01    2     1000021         3   # BR(~s_L -> ~g      s)
#
#         PDG            Width
DECAY   2000003     2.22141046E+02   # sstrange_R decays
#          BR         NDA      ID1       ID2
     3.69374546E-03    2     1000022         3   # BR(~s_R -> ~chi_10 s)
     2.79856142E-06    2     1000023         3   # BR(~s_R -> ~chi_20 s)
     8.20392937E-03    2     1000025         3   # BR(~s_R -> ~chi_30 s)
     8.36650805E-10    2     1000035         3   # BR(~s_R -> ~chi_40 s)
     9.88099526E-01    2     1000021         3   # BR(~s_R -> ~g      s)
#
#         PDG            Width
DECAY   1000011     2.80275416E+01   # selectron_L decays
#          BR         NDA      ID1       ID2
     5.87720123E-02    2     1000022        11   # BR(~e_L -> ~chi_10 e-)
     1.10945747E-05    2     1000023        11   # BR(~e_L -> ~chi_20 e-)
     1.61581612E-01    2     1000025        11   # BR(~e_L -> ~chi_30 e-)
     2.59513847E-01    2     1000035        11   # BR(~e_L -> ~chi_40 e-)
     7.11816766E-04    2    -1000024        12   # BR(~e_L -> ~chi_1- nu_e)
     5.19409618E-01    2    -1000037        12   # BR(~e_L -> ~chi_2- nu_e)
#
#         PDG            Width
DECAY   2000011     2.46125643E+01   # selectron_R decays
#          BR         NDA      ID1       ID2
     3.10414901E-01    2     1000022        11   # BR(~e_R -> ~chi_10 e-)
     2.35174511E-04    2     1000023        11   # BR(~e_R -> ~chi_20 e-)
     6.89349854E-01    2     1000025        11   # BR(~e_R -> ~chi_30 e-)
     6.99399314E-08    2     1000035        11   # BR(~e_R -> ~chi_40 e-)
#
#         PDG            Width
DECAY   1000013     2.80275416E+01   # smuon_L decays
#          BR         NDA      ID1       ID2
     5.87720123E-02    2     1000022        13   # BR(~mu_L -> ~chi_10 mu-)
     1.10945747E-05    2     1000023        13   # BR(~mu_L -> ~chi_20 mu-)
     1.61581612E-01    2     1000025        13   # BR(~mu_L -> ~chi_30 mu-)
     2.59513847E-01    2     1000035        13   # BR(~mu_L -> ~chi_40 mu-)
     7.11816766E-04    2    -1000024        14   # BR(~mu_L -> ~chi_1- nu_mu)
     5.19409618E-01    2    -1000037        14   # BR(~mu_L -> ~chi_2- nu_mu)
#
#         PDG            Width
DECAY   2000013     2.46125643E+01   # smuon_R decays
#          BR         NDA      ID1       ID2
     3.10414901E-01    2     1000022        13   # BR(~mu_R -> ~chi_10 mu-)
     2.35174511E-04    2     1000023        13   # BR(~mu_R -> ~chi_20 mu-)
     6.89349854E-01    2     1000025        13   # BR(~mu_R -> ~chi_30 mu-)
     6.99399314E-08    2     1000035        13   # BR(~mu_R -> ~chi_40 mu-)
#
#         PDG            Width
DECAY   1000015     2.63122746E+01   # stau_1 decays
#          BR         NDA      ID1       ID2
     1.88528033E-01    2     1000022        15   # BR(~tau_1 -> ~chi_10  tau-)
     4.46986158E-04    2     1000023        15   # BR(~tau_1 -> ~chi_20  tau-)
     4.15139392E-01    2     1000025        15   # BR(~tau_1 -> ~chi_30  tau-)
     1.31199123E-01    2     1000035        15   # BR(~tau_1 -> ~chi_40  tau-)
     1.95802459E-03    2    -1000024        16   # BR(~tau_1 -> ~chi_1-  nu_tau)
     2.62591705E-01    2    -1000037        16   # BR(~tau_1 -> ~chi_2-  nu_tau)
     1.36736237E-04    2     1000039        15   # BR(~tau_1 -> ~G       tau-)
#
#         PDG            Width
DECAY   2000015     2.64274933E+01   # stau_2 decays
#          BR         NDA      ID1       ID2
     1.64578383E-01    2     1000022        15   # BR(~tau_2 -> ~chi_10  tau-)
     9.92673859E-04    2     1000023        15   # BR(~tau_2 -> ~chi_20  tau-)
     4.00402079E-01    2     1000025        15   # BR(~tau_2 -> ~chi_30  tau-)
     1.44599398E-01    2     1000035        15   # BR(~tau_2 -> ~chi_40  tau-)
     1.67441580E-05    2    -1000024        16   # BR(~tau_2 -> ~chi_1-  nu_tau)
     2.89410723E-01    2    -1000037        16   # BR(~tau_2 -> ~chi_2-  nu_tau)
#
#         PDG            Width
DECAY   1000012     2.80261483E+01   # snu_eL decays
#          BR         NDA      ID1       ID2
     7.82182863E-02    2     1000022        12   # BR(~nu_eL -> ~chi_10 nu_e)
     1.21880855E-04    2     1000023        12   # BR(~nu_eL -> ~chi_20 nu_e)
     1.41432690E-01    2     1000025        12   # BR(~nu_eL -> ~chi_30 nu_e)
     2.59734531E-01    2     1000035        12   # BR(~nu_eL -> ~chi_40 nu_e)
     1.40459968E-03    2     1000024        11   # BR(~nu_eL -> ~chi_1+ e-)
     5.19088012E-01    2     1000037        11   # BR(~nu_eL -> ~chi_2+ e-)
#
#         PDG            Width
DECAY   1000014     2.80261483E+01   # snu_muL decays
#          BR         NDA      ID1       ID2
     7.82182863E-02    2     1000022        14   # BR(~nu_muL -> ~chi_10 nu_mu)
     1.21880855E-04    2     1000023        14   # BR(~nu_muL -> ~chi_20 nu_mu)
     1.41432690E-01    2     1000025        14   # BR(~nu_muL -> ~chi_30 nu_mu)
     2.59734531E-01    2     1000035        14   # BR(~nu_muL -> ~chi_40 nu_mu)
     1.40459968E-03    2     1000024        13   # BR(~nu_muL -> ~chi_1+ mu-)
     5.19088012E-01    2     1000037        13   # BR(~nu_muL -> ~chi_2+ mu-)
#
#         PDG            Width
DECAY   1000016     2.80581668E+01   # snu_tauL decays
#          BR         NDA      ID1       ID2
     7.81290279E-02    2     1000022        16   # BR(~nu_tauL -> ~chi_10 nu_tau)
     1.21741771E-04    2     1000023        16   # BR(~nu_tauL -> ~chi_20 nu_tau)
     1.41271295E-01    2     1000025        16   # BR(~nu_tauL -> ~chi_30 nu_tau)
     2.59438136E-01    2     1000035        16   # BR(~nu_tauL -> ~chi_40 nu_tau)
     2.54378907E-03    2     1000024        15   # BR(~nu_tauL -> ~chi_1+ tau-)
     5.18496010E-01    2     1000037        15   # BR(~nu_tauL -> ~chi_2+ tau-)
#
#         PDG            Width
DECAY   1000024     1.52010290E-05   # chargino1+ decays
#          BR         NDA      ID1       ID2
     3.64802985E-05    2     1000039        24   # BR(~chi_1+ -> ~G       W+)
#           BR         NDA      ID1       ID2       ID3
     3.33996975E-01    3     1000022         2        -1   # BR(~chi_1+ -> ~chi_10 u    db)
     3.33996975E-01    3     1000022         4        -3   # BR(~chi_1+ -> ~chi_10 c    sb)
     1.11332424E-01    3     1000022       -11        12   # BR(~chi_1+ -> ~chi_10 e+   nu_e)
     1.11332424E-01    3     1000022       -13        14   # BR(~chi_1+ -> ~chi_10 mu+  nu_mu)
     1.09304722E-01    3     1000022       -15        16   # BR(~chi_1+ -> ~chi_10 tau+ nu_tau)
#
#         PDG            Width
DECAY   1000037     3.41058964E+01   # chargino2+ decays
#          BR         NDA      ID1       ID2
     2.06991160E-01    2     1000024        23   # BR(~chi_2+ -> ~chi_1+  Z )
     1.33257994E-01    2     1000022        24   # BR(~chi_2+ -> ~chi_10  W+)
     2.02059980E-01    2     1000023        24   # BR(~chi_2+ -> ~chi_20  W+)
     6.85282180E-02    2     1000025        24   # BR(~chi_2+ -> ~chi_30  W+)
     2.07667603E-01    2     1000024        25   # BR(~chi_2+ -> ~chi_1+  h )
     4.52696671E-02    2     1000024        35   # BR(~chi_2+ -> ~chi_1+  H )
     4.55031498E-02    2     1000024        36   # BR(~chi_2+ -> ~chi_1+  A )
     3.25279377E-02    2     1000022        37   # BR(~chi_2+ -> ~chi_10  H+)
     4.51952475E-02    2     1000023        37   # BR(~chi_2+ -> ~chi_20  H+)
     1.29889463E-02    2     1000025        37   # BR(~chi_2+ -> ~chi_30  H+)
     1.00957075E-05    2     1000039        24   # BR(~chi_2+ -> ~G       W+)
     4.08123651E-10    2     1000039        37   # BR(~chi_2+ -> ~G       H+)
#
#         PDG            Width
DECAY   1000022     4.02600534E-10   # neutralino1 decays
#          BR         NDA      ID1       ID2
     5.00663548E-01    2     1000039        22   # BR(~chi_10 -> ~G        gam)
     4.92435246E-01    2     1000039        23   # BR(~chi_10 -> ~G        Z)
     6.90120556E-03    2     1000039        25   # BR(~chi_10 -> ~G        h)
#
#         PDG            Width
DECAY   1000023     1.77389165E-05   # neutralino2 decays
#          BR         NDA      ID1       ID2
     2.19077666E-03    2     1000022        22   # BR(~chi_20 -> ~chi_10 gam)
#          BR         NDA      ID1       ID2
     1.15660661E-08    2     1000039        22   # BR(~chi_20 -> ~G        gam)
     1.14189809E-06    2     1000039        23   # BR(~chi_20 -> ~G        Z)
     1.69674338E-05    2     1000039        25   # BR(~chi_20 -> ~G        h)
#           BR         NDA      ID1       ID2       ID3
     1.20450017E-01    3     1000022        -2         2   # BR(~chi_20 -> ~chi_10 ub      u)
     1.55907613E-01    3     1000022        -1         1   # BR(~chi_20 -> ~chi_10 db      d)
     1.20450017E-01    3     1000022        -4         4   # BR(~chi_20 -> ~chi_10 cb      c)
     1.55907613E-01    3     1000022        -3         3   # BR(~chi_20 -> ~chi_10 sb      s)
     1.25912221E-01    3     1000022        -5         5   # BR(~chi_20 -> ~chi_10 bb      b)
     3.55805804E-02    3     1000022       -11        11   # BR(~chi_20 -> ~chi_10 e+      e-)
     3.55805804E-02    3     1000022       -13        13   # BR(~chi_20 -> ~chi_10 mu+     mu-)
     3.48794094E-02    3     1000022       -15        15   # BR(~chi_20 -> ~chi_10 tau+    tau-)
     7.10389050E-02    3     1000022       -12        12   # BR(~chi_20 -> ~chi_10 nu_eb   nu_e)
     7.10389050E-02    3     1000022       -14        14   # BR(~chi_20 -> ~chi_10 nu_mub  nu_mu)
     7.10389050E-02    3     1000022       -16        16   # BR(~chi_20 -> ~chi_10 nu_taub nu_tau)
     1.18503644E-06    3     1000024        -2         1   # BR(~chi_20 -> ~chi_1+ ub      d)
     1.18503644E-06    3    -1000024        -1         2   # BR(~chi_20 -> ~chi_1- db      u)
     1.18503644E-06    3     1000024        -4         3   # BR(~chi_20 -> ~chi_1+ cb      s)
     1.18503644E-06    3    -1000024        -3         4   # BR(~chi_20 -> ~chi_1- sb      c)
     3.95012209E-07    3     1000024       -12        11   # BR(~chi_20 -> ~chi_1+ nu_eb   e-)
     3.95012209E-07    3    -1000024        12       -11   # BR(~chi_20 -> ~chi_1- nu_e    e+)
     3.95012209E-07    3     1000024       -14        13   # BR(~chi_20 -> ~chi_1+ nu_mub  mu-)
     3.95012209E-07    3    -1000024        14       -13   # BR(~chi_20 -> ~chi_1- nu_mu   mu+)
     8.18920622E-09    3     1000024       -16        15   # BR(~chi_20 -> ~chi_1+ nu_taub tau-)
     8.18920622E-09    3    -1000024        16       -15   # BR(~chi_20 -> ~chi_1- nu_tau  tau+)
#
#         PDG            Width
DECAY   1000025     1.43909422E-05   # neutralino3 decays
#          BR         NDA      ID1       ID2
     9.99749659E-01    2     1000022        23   # BR(~chi_30 -> ~chi_10   Z )
     1.75890751E-04    2     1000039        22   # BR(~chi_30 -> ~G        gam)
     7.31918893E-05    2     1000039        23   # BR(~chi_30 -> ~G        Z)
     1.25865084E-06    2     1000039        25   # BR(~chi_30 -> ~G        h)
#
#         PDG            Width
DECAY   1000035     3.41062691E+01   # neutralino4 decays
#          BR         NDA      ID1       ID2
     3.39857754E-03    2     1000022        23   # BR(~chi_40 -> ~chi_10   Z )
     2.01539625E-01    2     1000023        23   # BR(~chi_40 -> ~chi_20   Z )
     2.20410618E-03    2     1000025        23   # BR(~chi_40 -> ~chi_30   Z )
     2.01740788E-01    2     1000024       -24   # BR(~chi_40 -> ~chi_1+   W-)
     2.01740788E-01    2    -1000024        24   # BR(~chi_40 -> ~chi_1-   W+)
     1.33829995E-01    2     1000022        25   # BR(~chi_40 -> ~chi_10   h )
     2.26908853E-03    2     1000022        35   # BR(~chi_40 -> ~chi_10   H )
     3.02339809E-02    2     1000022        36   # BR(~chi_40 -> ~chi_10   A )
     5.68894929E-03    2     1000023        25   # BR(~chi_40 -> ~chi_20   h )
     4.20910666E-02    2     1000023        35   # BR(~chi_40 -> ~chi_20   H )
     3.02338904E-03    2     1000023        36   # BR(~chi_40 -> ~chi_20   A )
     6.83641575E-02    2     1000025        25   # BR(~chi_40 -> ~chi_30   h )
     7.74471707E-04    2     1000025        35   # BR(~chi_40 -> ~chi_30   H )
     1.22079544E-02    2     1000025        36   # BR(~chi_40 -> ~chi_30   A )
     4.54414830E-02    2     1000024       -37   # BR(~chi_40 -> ~chi_1+   H-)
     4.54414830E-02    2    -1000024        37   # BR(~chi_40 -> ~chi_1-   H+)
     2.42034277E-06    2     1000039        22   # BR(~chi_40 -> ~G        gam)
     7.67454949E-06    2     1000039        23   # BR(~chi_40 -> ~G        Z)
     4.77971514E-10    2     1000039        25   # BR(~chi_40 -> ~G        h)
     4.06212243E-10    2     1000039        35   # BR(~chi_40 -> ~G        H)
     4.44102604E-13    2     1000039        36   # BR(~chi_40 -> ~G        A)
#
#         PDG            Width
DECAY        25     4.21688919E-03   # h decays
#          BR         NDA      ID1       ID2
     6.01618235E-01    2           5        -5   # BR(h -> b       bb     )
     6.22609066E-02    2         -15        15   # BR(h -> tau+    tau-   )
     2.20376466E-04    2         -13        13   # BR(h -> mu+     mu-    )
     4.66273936E-04    2           3        -3   # BR(h -> s       sb     )
     2.01157842E-02    2           4        -4   # BR(h -> c       cb     )
     6.64306860E-02    2          21        21   # BR(h -> g       g      )
     2.31884118E-03    2          22        22   # BR(h -> gam     gam    )
     1.62699963E-03    2          22        23   # BR(h -> Z       gam    )
     2.16851160E-01    2          24       -24   # BR(h -> W+      W-     )
     2.80907369E-02    2          23        23   # BR(h -> Z       Z      )
#
#         PDG            Width
DECAY        35     4.01147191E+01   # H decays
#          BR         NDA      ID1       ID2
     1.39024288E-03    2           5        -5   # BR(H -> b       bb     )
     2.32287111E-04    2         -15        15   # BR(H -> tau+    tau-   )
     8.21221417E-07    2         -13        13   # BR(H -> mu+     mu-    )
     1.05145235E-06    2           3        -3   # BR(H -> s       sb     )
     9.48916132E-06    2           4        -4   # BR(H -> c       cb     )
     9.38912558E-01    2           6        -6   # BR(H -> t       tb     )
     7.51955162E-04    2          21        21   # BR(H -> g       g      )
     2.63842413E-06    2          22        22   # BR(H -> gam     gam    )
     1.09243396E-06    2          23        22   # BR(H -> Z       gam    )
     3.16162472E-04    2          24       -24   # BR(H -> W+      W-     )
     1.57649993E-04    2          23        23   # BR(H -> Z       Z      )
     8.53038816E-04    2          25        25   # BR(H -> h       h      )
     8.45581619E-24    2          36        36   # BR(H -> A       A      )
     3.35710796E-11    2          23        36   # BR(H -> Z       A      )
     2.53193460E-12    2          24       -37   # BR(H -> W+      H-     )
     2.53193460E-12    2         -24        37   # BR(H -> W-      H+     )
     7.23243817E-05    2     1000024  -1000024   # BR(H -> ~chi_1+ ~chi_1-)
     1.15126554E-03    2     1000022   1000022   # BR(H -> ~chi_10 ~chi_10)
     5.93533412E-05    2     1000023   1000023   # BR(H -> ~chi_20 ~chi_20)
     6.01923332E-04    2     1000025   1000025   # BR(H -> ~chi_30 ~chi_30)
     1.96721421E-02    2     1000022   1000023   # BR(H -> ~chi_10 ~chi_20)
     3.32717986E-04    2     1000022   1000025   # BR(H -> ~chi_10 ~chi_30)
     3.54812857E-02    2     1000023   1000025   # BR(H -> ~chi_20 ~chi_30)
#
#         PDG            Width
DECAY        36     4.05621706E+01   # A decays
#          BR         NDA      ID1       ID2
     1.39308977E-03    2           5        -5   # BR(A -> b       bb     )
     2.29923997E-04    2         -15        15   # BR(A -> tau+    tau-   )
     8.12864388E-07    2         -13        13   # BR(A -> mu+     mu-    )
     1.07164434E-06    2           3        -3   # BR(A -> s       sb     )
     9.39102171E-06    2           4        -4   # BR(A -> c       cb     )
     9.39874727E-01    2           6        -6   # BR(A -> t       tb     )
     8.89609285E-04    2          21        21   # BR(A -> g       g      )
     2.66246699E-06    2          22        22   # BR(A -> gam     gam    )
     1.27397385E-06    2          23        22   # BR(A -> Z       gam    )
     3.08082733E-04    2          23        25   # BR(A -> Z       h      )
     6.12174337E-04    2     1000024  -1000024   # BR(A -> ~chi_1+ ~chi_1-)
     2.74248330E-02    2     1000022   1000022   # BR(A -> ~chi_10 ~chi_10)
     2.47861643E-06    2     1000023   1000023   # BR(A -> ~chi_20 ~chi_20)
     2.11526801E-02    2     1000025   1000025   # BR(A -> ~chi_30 ~chi_30)
     4.99323176E-04    2     1000022   1000023   # BR(A -> ~chi_10 ~chi_20)
     6.13844963E-03    2     1000022   1000025   # BR(A -> ~chi_10 ~chi_30)
     1.45941601E-03    2     1000023   1000025   # BR(A -> ~chi_20 ~chi_30)
#
#         PDG            Width
DECAY        37     3.97574404E+01   # H+ decays
#          BR         NDA      ID1       ID2
     2.23535067E-06    2           4        -5   # BR(H+ -> c       bb     )
     2.34822417E-04    2         -15        16   # BR(H+ -> tau+    nu_tau )
     8.30182071E-07    2         -13        14   # BR(H+ -> mu+     nu_mu  )
     1.42121387E-08    2           2        -5   # BR(H+ -> u       bb     )
     5.14112937E-08    2           2        -3   # BR(H+ -> u       sb     )
     1.02438940E-05    2           4        -3   # BR(H+ -> c       sb     )
     9.41574353E-01    2           6        -5   # BR(H+ -> t       bb     )
     3.15752538E-04    2          24        25   # BR(H+ -> W+      h      )
     1.30254303E-12    2          24        36   # BR(H+ -> W+      A      )
     1.79046816E-02    2     1000024   1000022   # BR(H+ -> ~chi_1+ ~chi_10)
     1.30725140E-04    2     1000024   1000023   # BR(H+ -> ~chi_1+ ~chi_20)
     3.98262898E-02    2     1000024   1000025   # BR(H+ -> ~chi_1+ ~chi_30)
