#
#                              ======================
#                              | THE SUSYHIT OUTPUT |
#                              ======================
#
#
#              ------------------------------------------------------
#              |     This is the output of the SUSY-HIT package     |
#              |  created by A.Djouadi, M.Muehlleitner and M.Spira. |
#              |  In case of problems with SUSY-HIT email to        |
#              |           margarete.muehlleitner@kit.edu           |
#              |           michael.spira@psi.ch                     |
#              |           abdelhak.djouadi@cern.ch                 |
#              ------------------------------------------------------
#
#              ------------------------------------------------------
#              |  SUSY Les Houches Accord - MSSM Spectrum + Decays  |
#              |              based on the decay programs           |
#              |                                                    |
#              |                     SDECAY 1.5                     |
#              |                                                    |
#              |  Authors: M.Muhlleitner, A.Djouadi and Y.Mambrini  |
#              |  Ref.:    Comput.Phys.Commun.168(2005)46           |
#              |           [hep-ph/0311167]                         |
#              |                                                    |
#              |                     HDECAY 3.4                     |
#              |                                                    |
#              |  By: A.Djouadi,J.Kalinowski,M.Muhlleitner,M.Spira  |
#              |  Ref.:    Comput.Phys.Commun.108(1998)56           |
#              |           [hep-ph/9704448]                         |
#              |                                                    |
#              |                                                    |
#              |  If not stated otherwise all DRbar couplings and   |
#              |  soft SUSY breaking masses are given at the scale  |
#              |  Q=  0.91187600E+02
#              |                                                    |
#              ------------------------------------------------------
#
#
BLOCK DCINFO  # Decay Program information
     1   SDECAY/HDECAY # decay calculator
     2   1.5  /3.4    # version number
#
BLOCK SPINFO  # Spectrum calculator information
     1   SuSpect     # RGE +Spectrum calculator            
     2   2.43         # version number                     
#
BLOCK MODSEL  # Model selection
     1     2   # GMSB                                              
#
BLOCK SMINPUTS  # Standard Model inputs
         1     1.27932904E+02   # alpha_em^-1(M_Z)^MSbar
         2     1.16639000E-05   # G_F [GeV^-2]
         3     1.17200000E-01   # alpha_S(M_Z)^MSbar
         4     9.11870000E+01   # M_Z pole mass
         5     4.25000000E+00   # mb(mb)^MSbar
         6     1.72900000E+02   # mt pole mass
         7     1.77700000E+00   # mtau pole mass
#
BLOCK MINPAR  # Input parameters - minimal models
#
BLOCK EXTPAR  # Input parameters - non-minimal models
         0     9.11876000E+01   # EWSB                
         1     2.87000000E+02   # M_1                 
         2     3.00000000E+03   # M_2                 
         3     1.00000000E+03   # M_3                 
        11     0.00000000E+00   # A_t                 
        12     0.00000000E+00   # A_b                 
        13     0.00000000E+00   # A_tau               
        14     0.00000000E+00   # A_u                 
        15     0.00000000E+00   # A_d                 
        16     0.00000000E+00   # A_e                 
        23     2.50000000E+02   # mu(EWSB)            
        25     1.50000000E+00   # tanbeta(in)         
        26     2.00000000E+03   # MA_pole             
        31     5.00000000E+03   # M_eL                
        32     5.00000000E+03   # M_muL               
        33     5.00000000E+03   # M_tauL              
        34     5.00000000E+03   # M_eR                
        35     5.00000000E+03   # M_muR               
        36     5.00000000E+03   # M_tauR              
        41     5.00000000E+03   # M_q1L               
        42     5.00000000E+03   # M_q2L               
        43     5.00000000E+03   # M_q3L               
        44     5.00000000E+03   # M_uR                
        45     5.00000000E+03   # M_cR                
        46     5.00000000E+03   # M_tR                
        47     5.00000000E+03   # M_dR                
        48     5.00000000E+03   # M_sR                
        49     5.00000000E+03   # M_bR                
#
BLOCK MASS  # Mass Spectrum
# PDG code           mass       particle
        24     8.05375332E+01   # W+
        25     1.26000000E+02   # h
        35     2.00415240E+03   # H
        36     2.00000000E+03   # A
        37     2.00208614E+03   # H+
         5     4.87877839E+00   # b-quark pole mass calculated from mb(mb)_Msbar
   1000001     5.02256761E+03   # ~d_L
   2000001     5.02245821E+03   # ~d_R
   1000002     5.02232312E+03   # ~u_L
   2000002     5.02238117E+03   # ~u_R
   1000003     5.02256761E+03   # ~s_L
   2000003     5.02245821E+03   # ~s_R
   1000004     5.02232312E+03   # ~c_L
   2000004     5.02238117E+03   # ~c_R
   1000005     5.02239772E+03   # ~b_1
   2000005     5.02262957E+03   # ~b_2
   1000006     5.15200930E+03   # ~t_1
   2000006     5.44843146E+03   # ~t_2
   1000011     5.00008258E+03   # ~e_L
   2000011     5.00007599E+03   # ~e_R
   1000012     4.99984143E+03   # ~nu_eL
   1000013     5.00008258E+03   # ~mu_L
   2000013     5.00007599E+03   # ~mu_R
   1000014     4.99984143E+03   # ~nu_muL
   1000015     5.00001287E+03   # ~tau_1
   2000015     5.00014633E+03   # ~tau_2
   1000016     4.99984143E+03   # ~nu_tauL
   1000021     1.14584977E+03   # ~g
   1000022     2.38908243E+02   # ~chi_10
   1000023    -2.70380718E+02   # ~chi_20
   1000025     3.33131320E+02   # ~chi_30
   1000035     3.12901932E+03   # ~chi_40
   1000024     2.68137589E+02   # ~chi_1+
   1000037     3.12901889E+03   # ~chi_2+
   1000039     1.00000000E-09   # ~gravitino
#
BLOCK NMIX  # Neutralino Mixing Matrix
  1  1     5.56222003E-01   # N_11
  1  2    -2.22786893E-02   # N_12
  1  3     5.94589224E-01   # N_13
  1  4    -5.80158941E-01   # N_14
  2  1     1.53227352E-02   # N_21
  2  2    -4.61389521E-03   # N_22
  2  3    -7.05672727E-01   # N_23
  2  4    -7.08357204E-01   # N_24
  3  1     8.30892357E-01   # N_31
  3  2     1.55200242E-02   # N_32
  3  3    -3.85012395E-01   # N_33
  3  4     4.01425554E-01   # N_34
  4  1     4.33039068E-04   # N_41
  4  2    -9.99620678E-01   # N_42
  4  3    -1.59722289E-02   # N_43
  4  4     2.24321100E-02   # N_44
#
BLOCK UMIX  # Chargino Mixing Matrix U
  1  1    -2.25804993E-02   # U_11
  1  2     9.99745028E-01   # U_12
  2  1     9.99745028E-01   # U_21
  2  2     2.25804993E-02   # U_22
#
BLOCK VMIX  # Chargino Mixing Matrix V
  1  1    -3.17196031E-02   # V_11
  1  2     9.99496807E-01   # V_12
  2  1     9.99496807E-01   # V_21
  2  2     3.17196031E-02   # V_22
#
BLOCK STOPMIX  # Stop Mixing Matrix
  1  1     9.99911947E-01   # cos(theta_t)
  1  2    -1.32702015E-02   # sin(theta_t)
  2  1     1.32702015E-02   # -sin(theta_t)
  2  2     9.99911947E-01   # cos(theta_t)
#
BLOCK SBOTMIX  # Sbottom Mixing Matrix
  1  1     5.13870389E-01   # cos(theta_b)
  1  2     8.57867836E-01   # sin(theta_b)
  2  1    -8.57867836E-01   # -sin(theta_b)
  2  2     5.13870389E-01   # cos(theta_b)
#
BLOCK STAUMIX  # Stau Mixing Matrix
  1  1     6.89411408E-01   # cos(theta_tau)
  1  2     7.24370009E-01   # sin(theta_tau)
  2  1    -7.24370009E-01   # -sin(theta_tau)
  2  2     6.89411408E-01   # cos(theta_tau)
#
BLOCK ALPHA  # Higgs mixing
          -5.90198426E-01   # Mixing angle in the neutral Higgs boson sector
#
BLOCK HMIX Q=  9.11876000E+01  # DRbar Higgs Parameters
         1     2.50000000E+02   # mu(Q)               
         2     1.49999979E+00   # tanbeta(Q)          
         3     2.51787283E+02   # vev(Q)              
         4     3.84931112E+06   # MA^2(Q)             
#
BLOCK GAUGE Q=  9.11876000E+01  # The gauge couplings
     1     3.53061943E-01   # gprime(Q) DRbar
     2     6.28966870E-01   # g(Q) DRbar
     3     1.09169881E+00   # g3(Q) DRbar
#
BLOCK AU Q=  9.11876000E+01  # The trilinear couplings
  1  1     0.00000000E+00   # A_u(Q) DRbar
  2  2     0.00000000E+00   # A_c(Q) DRbar
  3  3     0.00000000E+00   # A_t(Q) DRbar
#
BLOCK AD Q=  9.11876000E+01  # The trilinear couplings
  1  1     0.00000000E+00   # A_d(Q) DRbar
  2  2     0.00000000E+00   # A_s(Q) DRbar
  3  3     0.00000000E+00   # A_b(Q) DRbar
#
BLOCK AE Q=  9.11876000E+01  # The trilinear couplings
  1  1     0.00000000E+00   # A_e(Q) DRbar
  2  2     0.00000000E+00   # A_mu(Q) DRbar
  3  3     0.00000000E+00   # A_tau(Q) DRbar
#
BLOCK Yu Q=  9.11876000E+01  # The Yukawa couplings
  1  1     0.00000000E+00   # y_u(Q) DRbar
  2  2     0.00000000E+00   # y_c(Q) DRbar
  3  3     1.02582774E+00   # y_t(Q) DRbar
#
BLOCK Yd Q=  9.11876000E+01  # The Yukawa couplings
  1  1     0.00000000E+00   # y_d(Q) DRbar
  2  2     0.00000000E+00   # y_s(Q) DRbar
  3  3     2.72211157E-02   # y_b(Q) DRbar
#
BLOCK Ye Q=  9.11876000E+01  # The Yukawa couplings
  1  1     0.00000000E+00   # y_e(Q) DRbar
  2  2     0.00000000E+00   # y_mu(Q) DRbar
  3  3     1.79960837E-02   # y_tau(Q) DRbar
#
BLOCK MSOFT Q=  9.11876000E+01  # The soft SUSY breaking masses at the scale Q
         1     2.87000000E+02   # M_1                 
         2     3.00000000E+03   # M_2                 
         3     1.00000000E+03   # M_3                 
        14     0.00000000E+00   # A_u                 
        15     0.00000000E+00   # A_d                 
        16     0.00000000E+00   # A_e                 
        21     2.99453760E+06   # M^2_Hd              
        22    -5.55806332E+06   # M^2_Hu              
        31     5.00000000E+03   # M_eL                
        32     5.00000000E+03   # M_muL               
        33     5.00000000E+03   # M_tauL              
        34     5.00000000E+03   # M_eR                
        35     5.00000000E+03   # M_muR               
        36     5.00000000E+03   # M_tauR              
        41     5.00000000E+03   # M_q1L               
        42     5.00000000E+03   # M_q2L               
        43     5.00000000E+03   # M_q3L               
        44     5.00000000E+03   # M_uR                
        45     5.00000000E+03   # M_cR                
        46     5.00000000E+03   # M_tR                
        47     5.00000000E+03   # M_dR                
        48     5.00000000E+03   # M_sR                
        49     5.00000000E+03   # M_bR                
#
#
#
#                             =================
#                             |The decay table|
#                             =================
#
# - The QCD corrections to the decays gluino -> squark  + quark
#                                     squark -> gaugino + quark_prime
#                                     squark -> squark_prime + Higgs
#                                     squark -> gluino  + quark
#   are included.
#
# - The multi-body decays for the inos, stops and sbottoms are included.
#
# - The loop induced decays for the gluino, neutralinos and stops
#   are included.
#
# - The SUSY decays of the top quark are included.
#
# - Possible decays of the NLSP in GMSB models are included.
#
#
#         PDG            Width
DECAY         6     1.37847869E+00   # top decays
#          BR         NDA      ID1       ID2
     1.00000000E+00    2           5        24   # BR(t ->  b    W+)
#
#         PDG            Width
DECAY   1000021     1.23554244E-04   # gluino decays
#          BR         NDA      ID1       ID2
     2.33652376E-02    2     1000022        21   # BR(~g -> ~chi_10 g)
     3.34232588E-02    2     1000023        21   # BR(~g -> ~chi_20 g)
     9.50327744E-03    2     1000025        21   # BR(~g -> ~chi_30 g)
#          BR         NDA      ID1       ID2
     1.84063276E-02    2     1000039        21   # BR(~g -> ~G      g)
#           BR         NDA      ID1       ID2       ID3
     3.62792338E-03    3     1000022         1        -1   # BR(~g -> ~chi_10 d  db)
     2.61364844E-06    3     1000023         1        -1   # BR(~g -> ~chi_20 d  db)
     5.58675130E-03    3     1000025         1        -1   # BR(~g -> ~chi_30 d  db)
     1.10145527E-02    3     1000022         2        -2   # BR(~g -> ~chi_10 u  ub)
     3.95934044E-06    3     1000023         2        -2   # BR(~g -> ~chi_20 u  ub)
     1.99890694E-02    3     1000025         2        -2   # BR(~g -> ~chi_30 u  ub)
     3.62792338E-03    3     1000022         3        -3   # BR(~g -> ~chi_10 s  sb)
     2.61364844E-06    3     1000023         3        -3   # BR(~g -> ~chi_20 s  sb)
     5.58675130E-03    3     1000025         3        -3   # BR(~g -> ~chi_30 s  sb)
     1.10145527E-02    3     1000022         4        -4   # BR(~g -> ~chi_10 c  cb)
     3.95934044E-06    3     1000023         4        -4   # BR(~g -> ~chi_20 c  cb)
     1.99890694E-02    3     1000025         4        -4   # BR(~g -> ~chi_30 c  cb)
     3.77716495E-03    3     1000022         5        -5   # BR(~g -> ~chi_10 b  bb)
     2.45818368E-04    3     1000023         5        -5   # BR(~g -> ~chi_20 b  bb)
     5.67055840E-03    3     1000025         5        -5   # BR(~g -> ~chi_30 b  bb)
     1.24990391E-01    3     1000022         6        -6   # BR(~g -> ~chi_10 t  tb)
     1.59942361E-01    3     1000023         6        -6   # BR(~g -> ~chi_20 t  tb)
     6.85827757E-02    3     1000025         6        -6   # BR(~g -> ~chi_30 t  tb)
     8.59266751E-05    3     1000024         1        -2   # BR(~g -> ~chi_1+ d  ub)
     8.59266751E-05    3    -1000024         2        -1   # BR(~g -> ~chi_1- u  db)
     8.59266751E-05    3     1000024         3        -4   # BR(~g -> ~chi_1+ s  cb)
     8.59266751E-05    3    -1000024         4        -3   # BR(~g -> ~chi_1- c  sb)
     2.35649691E-01    3     1000024         5        -6   # BR(~g -> ~chi_1+ b  tb)
     2.35649691E-01    3    -1000024         6        -5   # BR(~g -> ~chi_1- t  bb)
#
#         PDG            Width
DECAY   1000006     3.41985642E+02   # stop1 decays
#          BR         NDA      ID1       ID2
     7.16074913E-02    2     1000022         6   # BR(~t_1 -> ~chi_10 t )
     1.07764073E-01    2     1000023         6   # BR(~t_1 -> ~chi_20 t )
     3.73174685E-02    2     1000025         6   # BR(~t_1 -> ~chi_30 t )
     2.29471660E-02    2     1000035         6   # BR(~t_1 -> ~chi_40 t )
     1.22284240E-04    2     1000024         5   # BR(~t_1 -> ~chi_1+ b )
     4.57449757E-02    2     1000037         5   # BR(~t_1 -> ~chi_2+ b )
     6.98948135E-01    2     1000021         6   # BR(~t_1 -> ~g      t )
     4.13191327E-03    2     1000005        24   # BR(~t_1 -> ~b_1    W+)
     1.14164936E-02    2     2000005        24   # BR(~t_1 -> ~b_2    W+)
#
#         PDG            Width
DECAY   2000006     4.20154272E+02   # stop2 decays
#          BR         NDA      ID1       ID2
     7.19731919E-02    2     1000022         6   # BR(~t_2 -> ~chi_10 t )
     9.31408731E-02    2     1000023         6   # BR(~t_2 -> ~chi_20 t )
     4.78449750E-02    2     1000025         6   # BR(~t_2 -> ~chi_30 t )
    -2.90894228E-06    2     1000035         6   # BR(~t_2 -> ~chi_40 t )
     1.85911031E-01    2     1000024         5   # BR(~t_2 -> ~chi_1+ b )
    -5.68435889E-06    2     1000037         5   # BR(~t_2 -> ~chi_2+ b )
     6.00999981E-01    2     1000021         6   # BR(~t_2 -> ~g      t )
    -2.16350555E-05    2     1000006        25   # BR(~t_2 -> ~t_1    h )
     2.28512223E-05    2     1000006        23   # BR(~t_2 -> ~t_1    Z )
     3.62760721E-05    2     1000005        24   # BR(~t_2 -> ~b_1    W+)
     1.01048317E-04    2     2000005        24   # BR(~t_2 -> ~b_2    W+)
#
#         PDG            Width
DECAY   1000005     2.27703979E+02   # sbottom1 decays
#          BR         NDA      ID1       ID2
     4.18885536E-03    2     1000022         5   # BR(~b_1 -> ~chi_10 b )
     9.18370601E-05    2     1000023         5   # BR(~b_1 -> ~chi_20 b )
     7.71701133E-03    2     1000025         5   # BR(~b_1 -> ~chi_30 b )
    -2.57813652E-04    2     1000035         5   # BR(~b_1 -> ~chi_40 b )
    -3.70692789E-02    2    -1000024         6   # BR(~b_1 -> ~chi_1- t )
    -5.24875055E-04    2    -1000037         6   # BR(~b_1 -> ~chi_2- t )
     1.02585426E+00    2     1000021         5   # BR(~b_1 -> ~g      b )
#
#         PDG            Width
DECAY   2000005     3.36161677E+02   # sbottom2 decays
#          BR         NDA      ID1       ID2
     6.24228220E-04    2     1000022         5   # BR(~b_2 -> ~chi_10 b )
     9.34609117E-05    2     1000023         5   # BR(~b_2 -> ~chi_20 b )
     1.36802617E-03    2     1000025         5   # BR(~b_2 -> ~chi_30 b )
     2.14827991E-02    2     1000035         5   # BR(~b_2 -> ~chi_40 b )
     2.38397483E-01    2    -1000024         6   # BR(~b_2 -> ~chi_1- t )
     4.31076480E-02    2    -1000037         6   # BR(~b_2 -> ~chi_2- t )
     6.94926354E-01    2     1000021         5   # BR(~b_2 -> ~g      b )
#
#         PDG            Width
DECAY   1000002     2.55784401E+02   # sup_L decays
#          BR         NDA      ID1       ID2
     4.97478912E-04    2     1000022         2   # BR(~u_L -> ~chi_10 u)
     2.26598174E-07    2     1000023         2   # BR(~u_L -> ~chi_20 u)
     2.16477051E-03    2     1000025         2   # BR(~u_L -> ~chi_30 u)
     2.79887961E-02    2     1000035         2   # BR(~u_L -> ~chi_40 u)
     1.49445713E-04    2     1000024         1   # BR(~u_L -> ~chi_1+ d)
     5.59728128E-02    2     1000037         1   # BR(~u_L -> ~chi_2+ d)
     9.13226469E-01    2     1000021         2   # BR(~u_L -> ~g      u)
#
#         PDG            Width
DECAY   2000002     2.44215195E+02   # sup_R decays
#          BR         NDA      ID1       ID2
     1.34966052E-02    2     1000022         2   # BR(~u_R -> ~chi_10 u)
     1.02296299E-05    2     1000023         2   # BR(~u_R -> ~chi_20 u)
     2.99909347E-02    2     1000025         2   # BR(~u_R -> ~chi_30 u)
     3.08234397E-09    2     1000035         2   # BR(~u_R -> ~chi_40 u)
     9.56502227E-01    2     1000021         2   # BR(~u_R -> ~g      u)
#
#         PDG            Width
DECAY   1000001     2.55787171E+02   # sdown_L decays
#          BR         NDA      ID1       ID2
     1.18712526E-03    2     1000022         1   # BR(~d_L -> ~chi_10 d)
     4.15612930E-06    2     1000023         1   # BR(~d_L -> ~chi_20 d)
     1.45021659E-03    2     1000025         1   # BR(~d_L -> ~chi_30 d)
     2.80023640E-02    2     1000035         1   # BR(~d_L -> ~chi_40 d)
     7.57376461E-05    2    -1000024         2   # BR(~d_L -> ~chi_1- u)
     5.60096016E-02    2    -1000037         2   # BR(~d_L -> ~chi_2- u)
     9.13270799E-01    2     1000021         1   # BR(~d_L -> ~g      d)
#
#         PDG            Width
DECAY   2000001     2.36252494E+02   # sdown_R decays
#          BR         NDA      ID1       ID2
     3.48792854E-03    2     1000022         1   # BR(~d_R -> ~chi_10 d)
     2.64364402E-06    2     1000023         1   # BR(~d_R -> ~chi_20 d)
     7.75056016E-03    2     1000025         1   # BR(~d_R -> ~chi_30 d)
     7.96600960E-10    2     1000035         1   # BR(~d_R -> ~chi_40 d)
     9.88758867E-01    2     1000021         1   # BR(~d_R -> ~g      d)
#
#         PDG            Width
DECAY   1000004     2.55784401E+02   # scharm_L decays
#          BR         NDA      ID1       ID2
     4.97478912E-04    2     1000022         4   # BR(~c_L -> ~chi_10 c)
     2.26598174E-07    2     1000023         4   # BR(~c_L -> ~chi_20 c)
     2.16477051E-03    2     1000025         4   # BR(~c_L -> ~chi_30 c)
     2.79887961E-02    2     1000035         4   # BR(~c_L -> ~chi_40 c)
     1.49445713E-04    2     1000024         3   # BR(~c_L -> ~chi_1+ s)
     5.59728128E-02    2     1000037         3   # BR(~c_L -> ~chi_2+ s)
     9.13226469E-01    2     1000021         4   # BR(~c_L -> ~g      c)
#
#         PDG            Width
DECAY   2000004     2.44215195E+02   # scharm_R decays
#          BR         NDA      ID1       ID2
     1.34966052E-02    2     1000022         4   # BR(~c_R -> ~chi_10 c)
     1.02296299E-05    2     1000023         4   # BR(~c_R -> ~chi_20 c)
     2.99909347E-02    2     1000025         4   # BR(~c_R -> ~chi_30 c)
     3.08234397E-09    2     1000035         4   # BR(~c_R -> ~chi_40 c)
     9.56502227E-01    2     1000021         4   # BR(~c_R -> ~g      c)
#
#         PDG            Width
DECAY   1000003     2.55787171E+02   # sstrange_L decays
#          BR         NDA      ID1       ID2
     1.18712526E-03    2     1000022         3   # BR(~s_L -> ~chi_10 s)
     4.15612930E-06    2     1000023         3   # BR(~s_L -> ~chi_20 s)
     1.45021659E-03    2     1000025         3   # BR(~s_L -> ~chi_30 s)
     2.80023640E-02    2     1000035         3   # BR(~s_L -> ~chi_40 s)
     7.57376461E-05    2    -1000024         4   # BR(~s_L -> ~chi_1- c)
     5.60096016E-02    2    -1000037         4   # BR(~s_L -> ~chi_2- c)
     9.13270799E-01    2     1000021         3   # BR(~s_L -> ~g      s)
#
#         PDG            Width
DECAY   2000003     2.36252494E+02   # sstrange_R decays
#          BR         NDA      ID1       ID2
     3.48792854E-03    2     1000022         3   # BR(~s_R -> ~chi_10 s)
     2.64364402E-06    2     1000023         3   # BR(~s_R -> ~chi_20 s)
     7.75056016E-03    2     1000025         3   # BR(~s_R -> ~chi_30 s)
     7.96600960E-10    2     1000035         3   # BR(~s_R -> ~chi_40 s)
     9.88758867E-01    2     1000021         3   # BR(~s_R -> ~g      s)
#
#         PDG            Width
DECAY   1000011     2.80275337E+01   # selectron_L decays
#          BR         NDA      ID1       ID2
     5.87497068E-02    2     1000022        11   # BR(~e_L -> ~chi_10 e-)
     1.10959612E-05    2     1000023        11   # BR(~e_L -> ~chi_20 e-)
     1.61603912E-01    2     1000025        11   # BR(~e_L -> ~chi_30 e-)
     2.59513868E-01    2     1000035        11   # BR(~e_L -> ~chi_40 e-)
     7.11776359E-04    2    -1000024        12   # BR(~e_L -> ~chi_1- nu_e)
     5.19409641E-01    2    -1000037        12   # BR(~e_L -> ~chi_2- nu_e)
#
#         PDG            Width
DECAY   2000011     2.46125611E+01   # selectron_R decays
#          BR         NDA      ID1       ID2
     3.10307885E-01    2     1000022        11   # BR(~e_R -> ~chi_10 e-)
     2.35185611E-04    2     1000023        11   # BR(~e_R -> ~chi_20 e-)
     6.89456860E-01    2     1000025        11   # BR(~e_R -> ~chi_30 e-)
     6.99339093E-08    2     1000035        11   # BR(~e_R -> ~chi_40 e-)
#
#         PDG            Width
DECAY   1000013     2.80275337E+01   # smuon_L decays
#          BR         NDA      ID1       ID2
     5.87497068E-02    2     1000022        13   # BR(~mu_L -> ~chi_10 mu-)
     1.10959612E-05    2     1000023        13   # BR(~mu_L -> ~chi_20 mu-)
     1.61603912E-01    2     1000025        13   # BR(~mu_L -> ~chi_30 mu-)
     2.59513868E-01    2     1000035        13   # BR(~mu_L -> ~chi_40 mu-)
     7.11776359E-04    2    -1000024        14   # BR(~mu_L -> ~chi_1- nu_mu)
     5.19409641E-01    2    -1000037        14   # BR(~mu_L -> ~chi_2- nu_mu)
#
#         PDG            Width
DECAY   2000013     2.46125611E+01   # smuon_R decays
#          BR         NDA      ID1       ID2
     3.10307885E-01    2     1000022        13   # BR(~mu_R -> ~chi_10 mu-)
     2.35185611E-04    2     1000023        13   # BR(~mu_R -> ~chi_20 mu-)
     6.89456860E-01    2     1000025        13   # BR(~mu_R -> ~chi_30 mu-)
     6.99339093E-08    2     1000035        13   # BR(~mu_R -> ~chi_40 mu-)
#
#         PDG            Width
DECAY   1000015     2.63122740E+01   # stau_1 decays
#          BR         NDA      ID1       ID2
     1.88463667E-01    2     1000022        15   # BR(~tau_1 -> ~chi_10  tau-)
     4.47006007E-04    2     1000023        15   # BR(~tau_1 -> ~chi_20  tau-)
     4.15203007E-01    2     1000025        15   # BR(~tau_1 -> ~chi_30  tau-)
     1.31199372E-01    2     1000035        15   # BR(~tau_1 -> ~chi_40  tau-)
     1.95801811E-03    2    -1000024        16   # BR(~tau_1 -> ~chi_1-  nu_tau)
     2.62592194E-01    2    -1000037        16   # BR(~tau_1 -> ~chi_2-  nu_tau)
     1.36736240E-04    2     1000039        15   # BR(~tau_1 -> ~G       tau-)
#
#         PDG            Width
DECAY   2000015     2.64274863E+01   # stau_2 decays
#          BR         NDA      ID1       ID2
     1.64519298E-01    2     1000022        15   # BR(~tau_2 -> ~chi_10  tau-)
     9.92710824E-04    2     1000023        15   # BR(~tau_2 -> ~chi_20  tau-)
     4.00461915E-01    2     1000025        15   # BR(~tau_2 -> ~chi_30  tau-)
     1.44599136E-01    2     1000035        15   # BR(~tau_2 -> ~chi_40  tau-)
     1.67528307E-05    2    -1000024        16   # BR(~tau_2 -> ~chi_1-  nu_tau)
     2.89410188E-01    2    -1000037        16   # BR(~tau_2 -> ~chi_2-  nu_tau)
#
#         PDG            Width
DECAY   1000012     2.80261405E+01   # snu_eL decays
#          BR         NDA      ID1       ID2
     7.81937001E-02    2     1000022        12   # BR(~nu_eL -> ~chi_10 nu_e)
     1.21883772E-04    2     1000023        12   # BR(~nu_eL -> ~chi_20 nu_e)
     1.41457291E-01    2     1000025        12   # BR(~nu_eL -> ~chi_30 nu_e)
     2.59734543E-01    2     1000035        12   # BR(~nu_eL -> ~chi_40 nu_e)
     1.40453436E-03    2     1000024        11   # BR(~nu_eL -> ~chi_1+ e-)
     5.19088048E-01    2     1000037        11   # BR(~nu_eL -> ~chi_2+ e-)
#
#         PDG            Width
DECAY   1000014     2.80261405E+01   # snu_muL decays
#          BR         NDA      ID1       ID2
     7.81937001E-02    2     1000022        14   # BR(~nu_muL -> ~chi_10 nu_mu)
     1.21883772E-04    2     1000023        14   # BR(~nu_muL -> ~chi_20 nu_mu)
     1.41457291E-01    2     1000025        14   # BR(~nu_muL -> ~chi_30 nu_mu)
     2.59734543E-01    2     1000035        14   # BR(~nu_muL -> ~chi_40 nu_mu)
     1.40453436E-03    2     1000024        13   # BR(~nu_muL -> ~chi_1+ mu-)
     5.19088048E-01    2     1000037        13   # BR(~nu_muL -> ~chi_2+ mu-)
#
#         PDG            Width
DECAY   1000016     2.80581601E+01   # snu_tauL decays
#          BR         NDA      ID1       ID2
     7.81044663E-02    2     1000022        16   # BR(~nu_tauL -> ~chi_10 nu_tau)
     1.21744680E-04    2     1000023        16   # BR(~nu_tauL -> ~chi_20 nu_tau)
     1.41295862E-01    2     1000025        16   # BR(~nu_tauL -> ~chi_30 nu_tau)
     2.59438137E-01    2     1000035        16   # BR(~nu_tauL -> ~chi_40 nu_tau)
     2.54376666E-03    2     1000024        15   # BR(~nu_tauL -> ~chi_1+ tau-)
     5.18496023E-01    2     1000037        15   # BR(~nu_tauL -> ~chi_2+ tau-)
#
#         PDG            Width
DECAY   1000024     1.51828365E-05   # chargino1+ decays
#          BR         NDA      ID1       ID2
     3.65065033E-05    2     1000039        24   # BR(~chi_1+ -> ~G       W+)
#           BR         NDA      ID1       ID2       ID3
     3.33997322E-01    3     1000022         2        -1   # BR(~chi_1+ -> ~chi_10 u    db)
     3.33997322E-01    3     1000022         4        -3   # BR(~chi_1+ -> ~chi_10 c    sb)
     1.11332540E-01    3     1000022       -11        12   # BR(~chi_1+ -> ~chi_10 e+   nu_e)
     1.11332540E-01    3     1000022       -13        14   # BR(~chi_1+ -> ~chi_10 mu+  nu_mu)
     1.09303769E-01    3     1000022       -15        16   # BR(~chi_1+ -> ~chi_10 tau+ nu_tau)
#
#         PDG            Width
DECAY   1000037     3.41050442E+01   # chargino2+ decays
#          BR         NDA      ID1       ID2
     2.06986524E-01    2     1000024        23   # BR(~chi_2+ -> ~chi_1+  Z )
     1.33277112E-01    2     1000022        24   # BR(~chi_2+ -> ~chi_10  W+)
     2.02055458E-01    2     1000023        24   # BR(~chi_2+ -> ~chi_20  W+)
     6.85045370E-02    2     1000025        24   # BR(~chi_2+ -> ~chi_30  W+)
     2.07670231E-01    2     1000024        25   # BR(~chi_2+ -> ~chi_1+  h )
     4.52730677E-02    2     1000024        35   # BR(~chi_2+ -> ~chi_1+  H )
     4.55057826E-02    2     1000024        36   # BR(~chi_2+ -> ~chi_1+  A )
     3.25344735E-02    2     1000022        37   # BR(~chi_2+ -> ~chi_10  H+)
     4.51977682E-02    2     1000023        37   # BR(~chi_2+ -> ~chi_20  H+)
     1.29849497E-02    2     1000025        37   # BR(~chi_2+ -> ~chi_30  H+)
     1.00959594E-05    2     1000039        24   # BR(~chi_2+ -> ~G       W+)
     4.08110666E-10    2     1000039        37   # BR(~chi_2+ -> ~G       H+)
#
#         PDG            Width
DECAY   1000022     4.02396196E-10   # neutralino1 decays
#          BR         NDA      ID1       ID2
     5.00581085E-01    2     1000039        22   # BR(~chi_10 -> ~G        gam)
     4.92516058E-01    2     1000039        23   # BR(~chi_10 -> ~G        Z)
     6.90285695E-03    2     1000039        25   # BR(~chi_10 -> ~G        h)
#
#         PDG            Width
DECAY   1000023     1.77190331E-05   # neutralino2 decays
#          BR         NDA      ID1       ID2
     2.19208325E-03    2     1000022        22   # BR(~chi_20 -> ~chi_10 gam)
#          BR         NDA      ID1       ID2
     1.15748065E-08    2     1000039        22   # BR(~chi_20 -> ~G        gam)
     1.14259472E-06    2     1000039        23   # BR(~chi_20 -> ~G        Z)
     1.69759945E-05    2     1000039        25   # BR(~chi_20 -> ~G        h)
#           BR         NDA      ID1       ID2       ID3
     1.20451522E-01    3     1000022        -2         2   # BR(~chi_20 -> ~chi_10 ub      u)
     1.55909567E-01    3     1000022        -1         1   # BR(~chi_20 -> ~chi_10 db      d)
     1.20451522E-01    3     1000022        -4         4   # BR(~chi_20 -> ~chi_10 cb      c)
     1.55909567E-01    3     1000022        -3         3   # BR(~chi_20 -> ~chi_10 sb      s)
     1.25900268E-01    3     1000022        -5         5   # BR(~chi_20 -> ~chi_10 bb      b)
     3.55810273E-02    3     1000022       -11        11   # BR(~chi_20 -> ~chi_10 e+      e-)
     3.55810273E-02    3     1000022       -13        13   # BR(~chi_20 -> ~chi_10 mu+     mu-)
     3.48795511E-02    3     1000022       -15        15   # BR(~chi_20 -> ~chi_10 tau+    tau-)
     7.10397979E-02    3     1000022       -12        12   # BR(~chi_20 -> ~chi_10 nu_eb   nu_e)
     7.10397979E-02    3     1000022       -14        14   # BR(~chi_20 -> ~chi_10 nu_mub  nu_mu)
     7.10397979E-02    3     1000022       -16        16   # BR(~chi_20 -> ~chi_10 nu_taub nu_tau)
     1.18612142E-06    3     1000024        -2         1   # BR(~chi_20 -> ~chi_1+ ub      d)
     1.18612142E-06    3    -1000024        -1         2   # BR(~chi_20 -> ~chi_1- db      u)
     1.18612142E-06    3     1000024        -4         3   # BR(~chi_20 -> ~chi_1+ cb      s)
     1.18612142E-06    3    -1000024        -3         4   # BR(~chi_20 -> ~chi_1- sb      c)
     3.95373870E-07    3     1000024       -12        11   # BR(~chi_20 -> ~chi_1+ nu_eb   e-)
     3.95373870E-07    3    -1000024        12       -11   # BR(~chi_20 -> ~chi_1- nu_e    e+)
     3.95373870E-07    3     1000024       -14        13   # BR(~chi_20 -> ~chi_1+ nu_mub  mu-)
     3.95373870E-07    3    -1000024        14       -13   # BR(~chi_20 -> ~chi_1- nu_mu   mu+)
     8.19255860E-09    3     1000024       -16        15   # BR(~chi_20 -> ~chi_1+ nu_taub tau-)
     8.19255860E-09    3    -1000024        16       -15   # BR(~chi_20 -> ~chi_1- nu_tau  tau+)
#
#         PDG            Width
DECAY   1000025     1.44337041E-05   # neutralino3 decays
#          BR         NDA      ID1       ID2
     9.99750411E-01    2     1000022        23   # BR(~chi_30 -> ~chi_10   Z )
     1.75375362E-04    2     1000039        22   # BR(~chi_30 -> ~G        gam)
     7.29595392E-05    2     1000039        23   # BR(~chi_30 -> ~G        Z)
     1.25444167E-06    2     1000039        25   # BR(~chi_30 -> ~G        h)
#
#         PDG            Width
DECAY   1000035     3.41054167E+01   # neutralino4 decays
#          BR         NDA      ID1       ID2
     3.39922313E-03    2     1000022        23   # BR(~chi_40 -> ~chi_10   Z )
     2.01534954E-01    2     1000023        23   # BR(~chi_40 -> ~chi_20   Z )
     2.20348949E-03    2     1000025        23   # BR(~chi_40 -> ~chi_30   Z )
     2.01736253E-01    2     1000024       -24   # BR(~chi_40 -> ~chi_1+   W-)
     2.01736253E-01    2    -1000024        24   # BR(~chi_40 -> ~chi_1-   W+)
     1.33853490E-01    2     1000022        25   # BR(~chi_40 -> ~chi_10   h )
     2.26958089E-03    2     1000022        35   # BR(~chi_40 -> ~chi_10   H )
     3.02402474E-02    2     1000022        36   # BR(~chi_40 -> ~chi_10   A )
     5.68953940E-03    2     1000023        25   # BR(~chi_40 -> ~chi_20   h )
     4.20942182E-02    2     1000023        35   # BR(~chi_40 -> ~chi_20   H )
     3.02341229E-03    2     1000023        36   # BR(~chi_40 -> ~chi_20   A )
     6.83426947E-02    2     1000025        25   # BR(~chi_40 -> ~chi_30   h )
     7.74230203E-04    2     1000025        35   # BR(~chi_40 -> ~chi_30   H )
     1.22042966E-02    2     1000025        36   # BR(~chi_40 -> ~chi_30   A )
     4.54440114E-02    2     1000024       -37   # BR(~chi_40 -> ~chi_1+   H-)
     4.54440114E-02    2    -1000024        37   # BR(~chi_40 -> ~chi_1-   H+)
     2.42040351E-06    2     1000039        22   # BR(~chi_40 -> ~G        gam)
     7.67473965E-06    2     1000039        23   # BR(~chi_40 -> ~G        Z)
     4.77980309E-10    2     1000039        25   # BR(~chi_40 -> ~G        h)
     4.06209315E-10    2     1000039        35   # BR(~chi_40 -> ~G        H)
     4.44020948E-13    2     1000039        36   # BR(~chi_40 -> ~G        A)
#
#         PDG            Width
DECAY        25     4.21674332E-03   # h decays
#          BR         NDA      ID1       ID2
     6.01605345E-01    2           5        -5   # BR(h -> b       bb     )
     6.22619466E-02    2         -15        15   # BR(h -> tau+    tau-   )
     2.20380147E-04    2         -13        13   # BR(h -> mu+     mu-    )
     4.66281881E-04    2           3        -3   # BR(h -> s       sb     )
     2.01166415E-02    2           4        -4   # BR(h -> c       cb     )
     6.64330915E-02    2          21        21   # BR(h -> g       g      )
     2.31892176E-03    2          22        22   # BR(h -> gam     gam    )
     1.62705521E-03    2          22        23   # BR(h -> Z       gam    )
     2.16858626E-01    2          24       -24   # BR(h -> W+      W-     )
     2.80917094E-02    2          23        23   # BR(h -> Z       Z      )
#
#         PDG            Width
DECAY        35     4.01137864E+01   # H decays
#          BR         NDA      ID1       ID2
     1.39044477E-03    2           5        -5   # BR(H -> b       bb     )
     2.32293316E-04    2         -15        15   # BR(H -> tau+    tau-   )
     8.21243355E-07    2         -13        13   # BR(H -> mu+     mu-    )
     1.05148127E-06    2           3        -3   # BR(H -> s       sb     )
     9.48917490E-06    2           4        -4   # BR(H -> c       cb     )
     9.38913665E-01    2           6        -6   # BR(H -> t       tb     )
     7.51963728E-04    2          21        21   # BR(H -> g       g      )
     2.63842225E-06    2          22        22   # BR(H -> gam     gam    )
     1.09246075E-06    2          23        22   # BR(H -> Z       gam    )
     3.14447224E-04    2          24       -24   # BR(H -> W+      W-     )
     1.56794705E-04    2          23        23   # BR(H -> Z       Z      )
     8.53071378E-04    2          25        25   # BR(H -> h       h      )
     8.37669130E-24    2          36        36   # BR(H -> A       A      )
     3.32044629E-11    2          23        36   # BR(H -> Z       A      )
     2.46893552E-12    2          24       -37   # BR(H -> W+      H-     )
     2.46893552E-12    2         -24        37   # BR(H -> W-      H+     )
     7.23266251E-05    2     1000024  -1000024   # BR(H -> ~chi_1+ ~chi_1-)
     1.15115812E-03    2     1000022   1000022   # BR(H -> ~chi_10 ~chi_10)
     5.93567338E-05    2     1000023   1000023   # BR(H -> ~chi_20 ~chi_20)
     6.01835279E-04    2     1000025   1000025   # BR(H -> ~chi_30 ~chi_30)
     1.96663190E-02    2     1000022   1000023   # BR(H -> ~chi_10 ~chi_20)
     3.33096846E-04    2     1000022   1000025   # BR(H -> ~chi_10 ~chi_30)
     3.54881348E-02    2     1000023   1000025   # BR(H -> ~chi_20 ~chi_30)
#
#         PDG            Width
DECAY        36     4.05621150E+01   # A decays
#          BR         NDA      ID1       ID2
     1.39325421E-03    2           5        -5   # BR(A -> b       bb     )
     2.29924312E-04    2         -15        15   # BR(A -> tau+    tau-   )
     8.12865503E-07    2         -13        13   # BR(A -> mu+     mu-    )
     1.07164581E-06    2           3        -3   # BR(A -> s       sb     )
     9.39103459E-06    2           4        -4   # BR(A -> c       cb     )
     9.39876017E-01    2           6        -6   # BR(A -> t       tb     )
     8.89610506E-04    2          21        21   # BR(A -> g       g      )
     2.66248003E-06    2          22        22   # BR(A -> gam     gam    )
     1.27397601E-06    2          23        22   # BR(A -> Z       gam    )
     3.06408839E-04    2          23        25   # BR(A -> Z       h      )
     6.12148217E-04    2     1000024  -1000024   # BR(A -> ~chi_1+ ~chi_1-)
     2.74205988E-02    2     1000022   1000022   # BR(A -> ~chi_10 ~chi_10)
     2.47868710E-06    2     1000023   1000023   # BR(A -> ~chi_20 ~chi_20)
     2.11491029E-02    2     1000025   1000025   # BR(A -> ~chi_30 ~chi_30)
     4.99124602E-04    2     1000022   1000023   # BR(A -> ~chi_10 ~chi_20)
     6.14648423E-03    2     1000022   1000025   # BR(A -> ~chi_10 ~chi_30)
     1.45963606E-03    2     1000023   1000025   # BR(A -> ~chi_20 ~chi_30)
#
#         PDG            Width
DECAY        37     3.97574107E+01   # H+ decays
#          BR         NDA      ID1       ID2
     2.23569863E-06    2           4        -5   # BR(H+ -> c       bb     )
     2.34822745E-04    2         -15        16   # BR(H+ -> tau+    nu_tau )
     8.30183230E-07    2         -13        14   # BR(H+ -> mu+     nu_mu  )
     1.42143656E-08    2           2        -5   # BR(H+ -> u       bb     )
     5.14113609E-08    2           2        -3   # BR(H+ -> u       sb     )
     1.02439074E-05    2           4        -3   # BR(H+ -> c       sb     )
     9.41575810E-01    2           6        -5   # BR(H+ -> t       bb     )
     3.14037395E-04    2          24        25   # BR(H+ -> W+      h      )
     1.30660993E-12    2          24        36   # BR(H+ -> W+      A      )
     1.78985831E-02    2     1000024   1000022   # BR(H+ -> ~chi_1+ ~chi_10)
     1.30719060E-04    2     1000024   1000023   # BR(H+ -> ~chi_1+ ~chi_20)
     3.98326519E-02    2     1000024   1000025   # BR(H+ -> ~chi_1+ ~chi_30)
