# SUSY Les Houches Accord 2 - MSSM spectrum + Decays
# SPheno v3.1.12 
# W. Porod, Comput. Phys. Commun. 153 (2003) 275-315, hep-ph/0301101
# in case of problems send email to porod@physik.uni-wuerzburg.de
# Created: 12.11.2012,  11:44
Block SPINFO         # Program information
     1   SPheno      # spectrum calculator
     2   v3.1.12     # version number
#
Block SPhenoINFO     # SPheno specific information
    1      2         # using 2-loop RGEs
    2      1         # using running masses for boundary conditions at mZ
Block MODSEL  # Model selection
    1    2    # mGMSB model
Block MINPAR  # Input parameters
    1    1.00000000E+05  # Lambda, scale of SUSY breaking
    2    2.50000000E+05  # M_M, messenger mass scale
    3    1.00000000E+01  # tanb at m_Z   
    4    1.00000000E+00  # Sign(mu)
    5    3.00000000E+00  # N_5 number of effective five-plets
    6    1.00000000E+00  # c_grav, Gravitino mass factor
Block gauge Q=  2.50000000E+05  # (GMSB scale)
   1    4.93665566E-01  # g'(Q)^DRbar
   2    6.49307435E-01  # g(Q)^DRbar
   3    9.40589106E-01  # g3(Q)^DRbar
Block SMINPUTS  # SM parameters
         1     1.27932475E+02  # alpha_em^-1(MZ)^MSbar
         2     1.16639000E-05  # G_mu [GeV^-2]
         3     1.17200000E-01  # alpha_s(MZ)^MSbar
         4     9.11876000E+01  # m_Z(pole)
         5     4.20000000E+00  # m_b(m_b), MSbar
         6     1.72500000E+02  # m_t(pole)
         7     1.77700000E+00  # m_tau(pole)
         8     0.00000000E+00  # m_nu_3
        11     5.10998910E-04  # m_e(pole)
        12     0.00000000E+00  # m_nu_1
        13     1.05658000E-01  # m_muon(pole)
        14     0.00000000E+00  # m_nu_2
        21     5.00000000E-03  # m_d(2 GeV), MSbar
        22     3.00000000E-03  # m_u(2 GeV), MSbar
        23     1.05000000E-01  # m_s(2 GeV), MSbar
        24     1.27000000E+00  # m_c(m_c), MSbar
Block gauge Q=  1.92372546E+03  # (SUSY scale)
   1    3.64460619E-01  # g'(Q)^DRbar
   2    6.39502467E-01  # g(Q)^DRbar
   3    1.02530357E+00  # g3(Q)^DRbar
Block Yu Q=  1.92372546E+03  # (SUSY scale)
  1  1     8.43627666E-06   # Y_u(Q)^DRbar
  2  2     3.57135743E-03   # Y_c(Q)^DRbar
  3  3     8.46813985E-01   # Y_t(Q)^DRbar
Block Yd Q=  1.92372546E+03  # (SUSY scale)
  1  1     1.30588577E-04   # Y_d(Q)^DRbar
  2  2     2.74235949E-03   # Y_s(Q)^DRbar
  3  3     1.29233231E-01   # Y_b(Q)^DRbar
Block Ye Q=  1.92372546E+03  # (SUSY scale)
  1  1     2.86360252E-05   # Y_e(Q)^DRbar
  2  2     5.92100393E-03   # Y_mu(Q)^DRbar
  3  3     9.95950374E-02   # Y_tau(Q)^DRbar
Block Au Q=  1.92372546E+03  # (SUSY scale)
  1  1    -6.16972496E+02   # A_u(Q)^DRbar
  2  2    -6.16971729E+02   # A_c(Q)^DRbar
  3  3    -5.81182719E+02   # A_t(Q)^DRbar
Block Ad Q=  1.92372546E+03  # (SUSY scale)
  1  1    -6.57794688E+02   # A_d(Q)^DRbar
  2  2    -6.57794090E+02   # A_s(Q)^DRbar
  3  3    -6.45373484E+02   # A_b(Q)^DRbar
Block Ae Q=  1.92372546E+03  # (SUSY scale)
  1  1    -7.14581480E+01   # A_e(Q)^DRbar
  2  2    -7.14578924E+01   # A_mu(Q)^DRbar
  3  3    -7.13858418E+01   # A_tau(Q)^DRbar
Block MSOFT Q=  1.92372546E+03  # soft SUSY breaking masses at Q
   1    4.29688178E+02  # M_1
   2    7.90987258E+02  # M_2
   3    2.04270344E+03  # M_3
  21    3.72192591E+05  # M^2_(H,d)
  22   -4.08763544E+05  # M^2_(H,u)
  31    6.25767114E+02  # M_(L,11)
  32    6.25765766E+02  # M_(L,22)
  33    6.25385817E+02  # M_(L,33)
  34    3.02346488E+02  # M_(E,11)
  35    3.02340816E+02  # M_(E,22)
  36    3.00737413E+02  # M_(E,33)
  41    1.99761700E+03  # M_(Q,11)
  42    1.99761523E+03  # M_(Q,22)
  43    1.93430132E+03  # M_(Q,33)
  44    1.91669808E+03  # M_(U,11)
  45    1.91669576E+03  # M_(U,22)
  46    1.78299930E+03  # M_(U,33)
  47    1.90885969E+03  # M_(D,11)
  48    1.90885828E+03  # M_(D,22)
  49    1.90575175E+03  # M_(D,33)
Block MASS  # Mass spectrum
#   PDG code      mass          particle
         6     1.72500000E+02  # m_t(pole)
        23     9.11876000E+01  # m_Z(pole)
        24     8.03138509E+01  # W+
        15     1.77700000E+00  # m_tau(pole)
        25     1.17235721E+02  # h0
        35     9.46697817E+02  # H0
        36     9.46414634E+02  # A0
        37     9.50201855E+02  # H+
   1000001     2.08099897E+03  # ~d_L
   2000001     1.98759514E+03  # ~d_R
   1000002     2.07959229E+03  # ~u_L
   2000002     1.99458051E+03  # ~u_R
   1000003     2.08099692E+03  # ~s_L
   2000003     1.98759333E+03  # ~s_R
   1000004     2.07959046E+03  # ~c_L
   2000004     1.99457767E+03  # ~c_R
   1000005     1.98285810E+03  # ~b_1
   2000005     2.00505704E+03  # ~b_2
   1000006     1.83724985E+03  # ~t_1
   2000006     2.01426900E+03  # ~t_2
   1000011     6.39924182E+02  # ~e_L-
   2000011     3.16149878E+02  # ~e_R-
   1000012     6.34660990E+02  # ~nu_eL
   1000013     6.39923694E+02  # ~mu_L-
   2000013     3.16140068E+02  # ~mu_R-
   1000014     6.34659094E+02  # ~nu_muL
   1000015     3.13366443E+02  # ~tau_1-
   2000015     6.39784959E+02  # ~tau_2-
   1000016     6.34124754E+02  # ~nu_tauL
   1000021     2.15418870E+03  # ~g
   1000022     4.16778348E+02  # ~chi_10
   1000023     6.85686936E+02  # ~chi_20
   1000025    -7.13667968E+02  # ~chi_30
   1000035     8.38448319E+02  # ~chi_40
   1000024     6.83584925E+02  # ~chi_1+
   1000037     8.38409666E+02  # ~chi_2+
   1000039     6.00000000E-09  # ~G
# Higgs mixing
Block alpha # Effective Higgs mixing angle
          -1.06760141E-01   # alpha
Block Hmix Q=  1.92372546E+03  # Higgs mixing parameters
   1    7.03176442E+02  # mu
   2    9.56401193E+00  # tan[beta](Q)
   3    2.43686257E+02  # v(Q)
   4    7.90177145E+05  # m^2_A(Q)
Block stopmix # stop mixing matrix
   1  1     1.70003157E-01   # Re[R_st(1,1)]
   1  2     9.85443518E-01   # Re[R_st(1,2)]
   2  1    -9.85443518E-01   # Re[R_st(2,1)]
   2  2     1.70003157E-01   # Re[R_st(2,2)]
Block sbotmix # sbottom mixing matrix
   1  1     2.09930002E-01   # Re[R_sb(1,1)]
   1  2     9.77716418E-01   # Re[R_sb(1,2)]
   2  1    -9.77716418E-01   # Re[R_sb(2,1)]
   2  2     2.09930002E-01   # Re[R_sb(2,2)]
Block staumix # stau mixing matrix
   1  1     3.99447173E-02   # Re[R_sta(1,1)]
   1  2     9.99201891E-01   # Re[R_sta(1,2)]
   2  1    -9.99201891E-01   # Re[R_sta(2,1)]
   2  2     3.99447173E-02   # Re[R_sta(2,2)]
Block Nmix # neutralino mixing matrix
   1  1    -9.92326287E-01   # Re[N(1,1)]
   1  2     1.54102225E-02   # Re[N(1,2)]
   1  3    -1.02723866E-01   # Re[N(1,3)]
   1  4     6.70736418E-02   # Re[N(1,4)]
   2  1     1.15026462E-01   # Re[N(2,1)]
   2  2     4.37501813E-01   # Re[N(2,2)]
   2  3    -6.39978936E-01   # Re[N(2,3)]
   2  4     6.21118378E-01   # Re[N(2,4)]
   3  1     2.46300012E-02   # Re[N(3,1)]
   3  2    -3.28624234E-02   # Re[N(3,2)]
   3  3    -7.05096654E-01   # Re[N(3,3)]
   3  4    -7.07920993E-01   # Re[N(3,4)]
   4  1    -3.80895917E-02   # Re[N(4,1)]
   4  2     8.98484697E-01   # Re[N(4,2)]
   4  3     2.87599509E-01   # Re[N(4,3)]
   4  4    -3.29485896E-01   # Re[N(4,4)]
Block Umix # chargino mixing matrix
   1  1    -4.04698313E-01   # Re[U(1,1)]
   1  2     9.14450259E-01   # Re[U(1,2)]
   2  1     9.14450259E-01   # Re[U(2,1)]
   2  2     4.04698313E-01   # Re[U(2,2)]
Block Vmix # chargino mixing matrix
   1  1    -4.63765010E-01   # Re[V(1,1)]
   1  2     8.85958247E-01   # Re[V(1,2)]
   2  1     8.85958247E-01   # Re[V(2,1)]
   2  2     4.63765010E-01   # Re[V(2,2)]
DECAY   2000011     1.00599759E-10   # ~e^-_R
#    BR                NDA      ID1      ID2
     9.99351528E-01    2     1000039        11   # BR(~e^-_R -> ~G e^-)
#    BR                NDA      ID1      ID2       ID3
     1.59595013E-04    3     1000015        11       -15   # BR(~e^-_R -> ~tau^-_1 e^- tau^+)
     4.88876568E-04    3    -1000015        11        15   # BR(~e^-_R -> ~tau^+_1 e^- tau^-)
DECAY   1000011     2.61223051E-01   # ~e^-_L
#    BR                NDA      ID1      ID2
     9.99999954E-01    2     1000022        11   # BR(~e^-_L -> chi^0_1 e^-)
     1.62866742E-08    2     2000011        23   # BR(~e^-_L -> ~e^-_R Z)
     1.70285502E-08    2     2000011        25   # BR(~e^-_L -> ~e^-_R h^0)
     1.30761905E-08    2     1000039        11   # BR(~e^-_L -> ~G e^-)
DECAY   2000013     1.00578942E-10   # ~mu^-_R
#    BR                NDA      ID1      ID2
     9.99402855E-01    2     1000039        13   # BR(~mu^-_R -> ~G mu^-)
#    BR                NDA      ID1      ID2       ID3
     1.46958716E-04    3     1000015        13       -15   # BR(~mu^-_R -> ~tau^-_1 mu^- tau^+)
     4.50185804E-04    3    -1000015        13        15   # BR(~mu^-_R -> ~tau^+_1 mu^- tau^-)
DECAY   1000013     2.61596945E-01   # ~mu^-_L
#    BR                NDA      ID1      ID2
     9.98577682E-01    2     1000022        13   # BR(~mu^-_L -> chi^0_1 mu^-)
     6.95324710E-04    2     2000013        23   # BR(~mu^-_L -> ~mu^-_R Z)
     7.26979975E-04    2     2000013        25   # BR(~mu^-_L -> ~mu^-_R h^0)
     1.30574499E-08    2     1000039        13   # BR(~mu^-_L -> ~G mu^-)
DECAY   1000015     9.61737842E-11   # ~tau^-_1
#    BR                NDA      ID1      ID2
     1.00000000E+00    2     1000039        15   # BR(~tau^-_1 -> ~G tau^-)
DECAY   2000015     3.67402858E-01   # ~tau^-_2
#    BR                NDA      ID1      ID2
     7.12385198E-01    2     1000022        15   # BR(~tau^-_2 -> chi^0_1 tau^-)
     1.41091805E-01    2     1000015        23   # BR(~tau^-_2 -> ~tau^-_1 Z)
     1.46522988E-01    2     1000015        25   # BR(~tau^-_2 -> ~tau^-_1 h^0)
     9.28676222E-09    2     1000039        15   # BR(~tau^-_2 -> ~G tau^-)
DECAY   1000012     2.81870666E-01   # ~nu_e
#    BR                NDA      ID1      ID2
     9.99999959E-01    2     1000022        12   # BR(~nu_e -> chi^0_1 nu_e)
     2.90074527E-08    2     2000011        24   # BR(~nu_e -> ~e^-_R W^+)
     1.16281137E-08    2     1000039        12   # BR(~nu_e -> ~G nu_e)
DECAY   1000014     2.82216830E-01   # ~nu_mu
#    BR                NDA      ID1      ID2
     9.98761334E-01    2     1000022        14   # BR(~nu_mu -> chi^0_1 nu_mu)
     1.23865451E-03    2     2000013        24   # BR(~nu_mu -> ~mu^-_R W^+)
     1.16136773E-08    2     1000039        14   # BR(~nu_mu -> ~G nu_mu)
DECAY   1000016     3.80355176E-01   # ~nu_tau
#    BR                NDA      ID1      ID2
     7.38547432E-01    2     1000022        16   # BR(~nu_tau -> chi^0_1 nu_tau)
     2.61452559E-01    2     1000015        24   # BR(~nu_tau -> ~tau^-_1 W^+)
     8.58092944E-09    2     1000039        16   # BR(~nu_tau -> ~G nu_tau)
DECAY   2000001     1.06417696E+00   # ~d_R
#    BR                NDA      ID1      ID2
     9.87154539E-01    2     1000022         1   # BR(~d_R -> chi^0_1 d)
     1.12635797E-02    2     1000023         1   # BR(~d_R -> chi^0_2 d)
     5.05096066E-04    2     1000025         1   # BR(~d_R -> chi^0_3 d)
     1.07533913E-03    2     1000035         1   # BR(~d_R -> chi^0_4 d)
     5.03746730E-07    2    -1000024         2   # BR(~d_R -> chi^-_1 u)
     1.48168795E-08    2    -1000037         2   # BR(~d_R -> chi^-_2 u)
     9.27846009E-07    2     1000039         1   # BR(~d_R -> ~G d)
DECAY   1000001     1.85105251E+01   # ~d_L
#    BR                NDA      ID1      ID2
     1.75232014E-02    2     1000022         1   # BR(~d_L -> chi^0_1 d)
     6.27868313E-02    2     1000023         1   # BR(~d_L -> chi^0_2 d)
     5.01870713E-04    2     1000025         1   # BR(~d_L -> chi^0_3 d)
     2.63249922E-01    2     1000035         1   # BR(~d_L -> chi^0_4 d)
     1.19221006E-01    2    -1000024         2   # BR(~d_L -> chi^-_1 u)
     5.36717102E-01    2    -1000037         2   # BR(~d_L -> chi^-_2 u)
     1.10396056E-13    2     2000002       -24   # BR(~d_L -> ~u_R W^-)
     2.57981780E-12    2     2000001        23   # BR(~d_L -> ~d_R Z)
     6.71105371E-08    2     1000039         1   # BR(~d_L -> ~G d)
DECAY   2000003     1.06465288E+00   # ~s_R
#    BR                NDA      ID1      ID2
     9.86719187E-01    2     1000022         3   # BR(~s_R -> chi^0_1 s)
     1.13656796E-02    2     1000023         3   # BR(~s_R -> chi^0_2 s)
     6.07621366E-04    2     1000025         3   # BR(~s_R -> chi^0_3 s)
     1.07800083E-03    2     1000035         3   # BR(~s_R -> chi^0_4 s)
     2.22052351E-04    2    -1000024         4   # BR(~s_R -> chi^-_1 c)
     6.53127147E-06    2    -1000037         4   # BR(~s_R -> chi^-_2 c)
     9.27427019E-07    2     1000039         3   # BR(~s_R -> ~G s)
DECAY   1000003     1.85111156E+01   # ~s_L
#    BR                NDA      ID1      ID2
     1.75225170E-02    2     1000022         3   # BR(~s_L -> chi^0_1 s)
     6.27890153E-02    2     1000023         3   # BR(~s_L -> chi^0_2 s)
     5.08491141E-04    2     1000025         3   # BR(~s_L -> chi^0_3 s)
     2.63242865E-01    2     1000035         3   # BR(~s_L -> chi^0_4 s)
     1.19230937E-01    2    -1000024         4   # BR(~s_L -> chi^-_1 c)
     5.36706087E-01    2    -1000037         4   # BR(~s_L -> chi^-_2 c)
     1.97870114E-08    2     2000004       -24   # BR(~s_L -> ~c_R W^-)
     1.13748232E-09    2     2000003        23   # BR(~s_L -> ~s_R Z)
     6.71080658E-08    2     1000039         3   # BR(~s_L -> ~G s)
DECAY   1000005     3.65597986E+00   # ~b_1
#    BR                NDA      ID1      ID2
     2.93341117E-01    2     1000022         5   # BR(~b_1 -> chi^0_1 b)
     1.21118932E-01    2     1000023         5   # BR(~b_1 -> chi^0_2 b)
     6.16769996E-02    2     1000025         5   # BR(~b_1 -> chi^0_3 b)
     1.79466309E-02    2     1000035         5   # BR(~b_1 -> chi^0_4 b)
     4.10651139E-01    2    -1000024         6   # BR(~b_1 -> chi^-_1 t)
     9.24518553E-02    2    -1000037         6   # BR(~b_1 -> chi^-_2 t)
     2.81305906E-03    2     1000006       -24   # BR(~b_1 -> ~t_1 W^-)
     2.66868130E-07    2     1000039         5   # BR(~b_1 -> ~G b)
DECAY   2000005     3.79667232E+01   # ~b_2
#    BR                NDA      ID1      ID2
     7.84618589E-03    2     1000022         5   # BR(~b_2 -> chi^0_1 b)
     2.85688639E-02    2     1000023         5   # BR(~b_2 -> chi^0_2 b)
     7.50146059E-03    2     1000025         5   # BR(~b_2 -> chi^0_3 b)
     1.20278976E-01    2     1000035         5   # BR(~b_2 -> chi^0_4 b)
     4.57080754E-01    2    -1000024         6   # BR(~b_2 -> chi^-_1 t)
     3.68400647E-01    2    -1000037         6   # BR(~b_2 -> chi^-_2 t)
     1.03230851E-02    2     1000006       -24   # BR(~b_2 -> ~t_1 W^-)
     2.71689618E-08    2     1000039         5   # BR(~b_2 -> ~G b)
DECAY   2000002     4.27448250E+00   # ~u_R
#    BR                NDA      ID1      ID2
     9.87139116E-01    2     1000022         2   # BR(~u_R -> chi^0_1 u)
     1.12771940E-02    2     1000023         2   # BR(~u_R -> chi^0_2 u)
     5.05575059E-04    2     1000025         2   # BR(~u_R -> chi^0_3 u)
     1.07787946E-03    2     1000035         2   # BR(~u_R -> chi^0_4 u)
     5.29238399E-10    2     1000024         1   # BR(~u_R -> chi^+_1 d)
     2.14645211E-11    2     1000037         1   # BR(~u_R -> chi^+_2 d)
     2.35084741E-07    2     1000039         2   # BR(~u_R -> ~G u)
DECAY   1000002     1.85789791E+01   # ~u_L
#    BR                NDA      ID1      ID2
     1.25702054E-02    2     1000022         2   # BR(~u_L -> chi^0_1 u)
     7.63249912E-02    2     1000023         2   # BR(~u_L -> chi^0_2 u)
     2.81509019E-04    2     1000025         2   # BR(~u_L -> chi^0_3 u)
     2.53660616E-01    2     1000035         2   # BR(~u_L -> chi^0_4 u)
     1.55828567E-01    2     1000024         1   # BR(~u_L -> chi^+_1 d)
     5.01334045E-01    2     1000037         1   # BR(~u_L -> chi^+_2 d)
     5.46685664E-11    2     2000001        24   # BR(~u_L -> ~d_R W^+)
     6.66375892E-08    2     1000039         2   # BR(~u_L -> ~G u)
DECAY   2000004     4.27529139E+00   # ~c_R
#    BR                NDA      ID1      ID2
     9.86949530E-01    2     1000022         4   # BR(~c_R -> chi^0_1 c)
     1.13202820E-02    2     1000023         4   # BR(~c_R -> chi^0_2 c)
     5.51914753E-04    2     1000025         4   # BR(~c_R -> chi^0_3 c)
     1.07936506E-03    2     1000035         4   # BR(~c_R -> chi^0_4 c)
     9.48268491E-05    2     1000024         3   # BR(~c_R -> chi^+_1 s)
     3.84605609E-06    2     1000037         3   # BR(~c_R -> chi^+_2 s)
     2.35038209E-07    2     1000039         4   # BR(~c_R -> ~G c)
DECAY   1000004     1.85795484E+01   # ~c_L
#    BR                NDA      ID1      ID2
     1.25700310E-02    2     1000022         4   # BR(~c_L -> chi^0_1 c)
     7.63282154E-02    2     1000023         4   # BR(~c_L -> chi^0_2 c)
     2.92343510E-04    2     1000025         4   # BR(~c_L -> chi^0_3 c)
     2.53656980E-01    2     1000035         4   # BR(~c_L -> chi^0_4 c)
     1.55829102E-01    2     1000024         3   # BR(~c_L -> chi^+_1 s)
     5.01323237E-01    2     1000037         3   # BR(~c_L -> chi^+_2 s)
     2.41081118E-08    2     2000003        24   # BR(~c_L -> ~s_R W^+)
     6.66351537E-08    2     1000039         4   # BR(~c_L -> ~G c)
DECAY   1000006     4.13695956E+01   # ~t_1
#    BR                NDA      ID1      ID2
     2.32062230E-07    2     1000022         4   # BR(~t_1 -> chi^0_1 c)
     9.35090303E-02    2     1000022         6   # BR(~t_1 -> chi^0_1 t)
     1.34547479E-06    2     1000023         4   # BR(~t_1 -> chi^0_2 c)
     1.94552790E-01    2     1000023         6   # BR(~t_1 -> chi^0_2 t)
     2.33096555E-01    2     1000025         6   # BR(~t_1 -> chi^0_3 t)
     2.27427732E-02    2     1000035         6   # BR(~t_1 -> chi^0_4 t)
     4.09253303E-01    2     1000024         5   # BR(~t_1 -> chi^+_1 b)
     4.68357883E-02    2     1000037         5   # BR(~t_1 -> chi^+_2 b)
     1.55463393E-08    2     1000039         6   # BR(~t_1 -> ~G t)
#    BR                NDA      ID1      ID2       ID3
     8.16686356E-06    3     1000022        24         5   # BR(~t_1 -> chi^0_1 W^+ b)
DECAY   2000006     3.97407227E+01   # ~t_2
#    BR                NDA      ID1      ID2
     6.84032431E-03    2     1000022         6   # BR(~t_2 -> chi^0_1 t)
     2.17263783E-01    2     1000023         6   # BR(~t_2 -> chi^0_2 t)
     2.63132973E-01    2     1000025         6   # BR(~t_2 -> chi^0_3 t)
     1.99589551E-01    2     1000035         6   # BR(~t_2 -> chi^0_4 t)
     3.20776660E-02    2     1000024         5   # BR(~t_2 -> chi^+_1 b)
     2.71224385E-01    2     1000037         5   # BR(~t_2 -> chi^+_2 b)
     5.58378433E-03    2     1000006        23   # BR(~t_2 -> ~t_1 Z)
     4.28750724E-03    2     1000006        25   # BR(~t_2 -> ~t_1 h^0)
     2.57877960E-08    2     1000039         6   # BR(~t_2 -> ~G t)
DECAY   1000024     4.39958613E-01   # chi^+_1
#    BR                NDA      ID1      ID2
     8.12785199E-09    2    -2000011        12   # BR(chi^+_1 -> ~e^+_R nu_e)
     1.58304857E-02    2    -1000011        12   # BR(chi^+_1 -> ~e^+_L nu_e)
     3.47497781E-04    2    -2000013        14   # BR(chi^+_1 -> ~mu^+_R nu_mu)
     1.58291578E-02    2    -1000013        14   # BR(chi^+_1 -> ~mu^+_L nu_mu)
     9.90230458E-02    2    -1000015        16   # BR(chi^+_1 -> ~tau^+_1 nu_tau)
     1.54585460E-02    2    -2000015        16   # BR(chi^+_1 -> ~tau^+_2 nu_tau)
     2.58956571E-02    2     1000012       -11   # BR(chi^+_1 -> ~nu_e e^+)
     2.59082834E-02    2     1000014       -13   # BR(chi^+_1 -> ~nu_mu mu^+)
     2.95264093E-02    2     1000016       -15   # BR(chi^+_1 -> ~nu_tau tau^+)
     7.71604393E-01    2     1000022        24   # BR(chi^+_1 -> chi^0_1 W^+)
#    BR                NDA      ID1      ID2       ID3
     3.18495361E-08    3     1000022        -1         2   # BR(chi^+_1 -> chi^0_1 d_bar u)
     3.20244752E-08    3     1000022        -3         4   # BR(chi^+_1 -> chi^0_1 s_bar c)
     5.69136569E-04    3     1000022        -5         6   # BR(chi^+_1 -> chi^0_1 b_bar t)
     6.18059240E-13    3     1000022       -11        12   # BR(chi^+_1 -> chi^0_1 e^+ nu_e)
     2.64214705E-08    3     1000022       -13        14   # BR(chi^+_1 -> chi^0_1 mu^+ nu_mu)
     7.28907756E-06    3     1000022       -15        16   # BR(chi^+_1 -> chi^0_1 tau^+ nu_tau)
DECAY   1000037     4.89903814E+00   # chi^+_2
#    BR                NDA      ID1      ID2
     2.93705248E-11    2    -2000011        12   # BR(chi^+_2 -> ~e^+_R nu_e)
     1.01444303E-01    2    -1000011        12   # BR(chi^+_2 -> ~e^+_L nu_e)
     1.25573883E-06    2    -2000013        14   # BR(chi^+_2 -> ~mu^+_R nu_mu)
     1.01446141E-01    2    -1000013        14   # BR(chi^+_2 -> ~mu^+_L nu_mu)
     3.60461358E-04    2    -1000015        16   # BR(chi^+_2 -> ~tau^+_1 nu_tau)
     1.01965052E-01    2    -2000015        16   # BR(chi^+_2 -> ~tau^+_2 nu_tau)
     9.96249705E-02    2     1000012       -11   # BR(chi^+_2 -> ~nu_e e^+)
     9.96278432E-02    2     1000014       -13   # BR(chi^+_2 -> ~nu_mu mu^+)
     1.00439775E-01    2     1000016       -15   # BR(chi^+_2 -> ~nu_tau tau^+)
     9.43764025E-03    2     1000022        24   # BR(chi^+_2 -> chi^0_1 W^+)
     1.38727888E-01    2     1000023        24   # BR(chi^+_2 -> chi^0_2 W^+)
     6.83313755E-02    2     1000025        24   # BR(chi^+_2 -> chi^0_3 W^+)
     1.19657739E-01    2     1000024        23   # BR(chi^+_2 -> chi^+_1 Z)
     5.88843431E-02    2     1000024        25   # BR(chi^+_2 -> chi^+_1 h^0)
#    BR                NDA      ID1      ID2       ID3
     4.44335389E-09    3     1000024         2        -2   # BR(chi^+_2 -> chi^+_1 u u_bar)
     4.43800841E-09    3     1000024         4        -4   # BR(chi^+_2 -> chi^+_1 c c_bar)
     5.49426384E-09    3     1000024         1        -1   # BR(chi^+_2 -> chi^+_1 d d_bar)
     5.50177976E-09    3     1000024         3        -3   # BR(chi^+_2 -> chi^+_1 s s_bar)
     2.63349066E-08    3     1000024         5        -5   # BR(chi^+_2 -> chi^+_1 b b_bar)
     9.95907039E-07    3     1000024        11       -11   # BR(chi^+_2 -> chi^+_1 e^- e^+)
     9.96177867E-07    3     1000024        13       -13   # BR(chi^+_2 -> chi^+_1 mu^- mu^+)
     1.04921012E-06    3     1000024        15       -15   # BR(chi^+_2 -> chi^+_1 tau^- tau^+)
     2.64039167E-06    3     1000024        12       -12   # BR(chi^+_2 -> chi^+_1 nu_e nu_bar_e)
     1.00224214E-07    3     1000022        -1         2   # BR(chi^+_2 -> chi^0_1 d_bar u)
     1.00220183E-07    3     1000022        -3         4   # BR(chi^+_2 -> chi^0_1 s_bar c)
     4.35589701E-05    3     1000022        -5         6   # BR(chi^+_2 -> chi^0_1 b_bar t)
     2.59364001E-10    3     1000022       -13        14   # BR(chi^+_2 -> chi^0_1 mu^+ nu_mu)
     7.27168021E-08    3     1000022       -15        16   # BR(chi^+_2 -> chi^0_1 tau^+ nu_tau)
     2.39580026E-09    3     1000023        -1         2   # BR(chi^+_2 -> chi^0_2 d_bar u)
     2.40071616E-09    3     1000023        -3         4   # BR(chi^+_2 -> chi^0_2 s_bar c)
     5.37836389E-07    3     1000023       -11        12   # BR(chi^+_2 -> chi^0_2 e^+ nu_e)
     5.37929110E-07    3     1000023       -13        14   # BR(chi^+_2 -> chi^0_2 mu^+ nu_mu)
     5.49129078E-07    3     1000023       -15        16   # BR(chi^+_2 -> chi^0_2 tau^+ nu_tau)
     1.57291910E-11    3     1000025        -1         2   # BR(chi^+_2 -> chi^0_3 d_bar u)
     1.70896178E-11    3     1000025        -3         4   # BR(chi^+_2 -> chi^0_3 s_bar c)
     2.07178246E-09    3     1000025       -11        12   # BR(chi^+_2 -> chi^0_3 e^+ nu_e)
     2.12490942E-09    3     1000025       -13        14   # BR(chi^+_2 -> chi^0_3 mu^+ nu_mu)
     1.68733750E-08    3     1000025       -15        16   # BR(chi^+_2 -> chi^0_3 tau^+ nu_tau)
DECAY   1000022     1.19194757E+00   # chi^0_1
#    BR                NDA      ID1      ID2
     1.64033440E-01    2     2000011       -11   # BR(chi^0_1 -> ~e^-_R e^+)
     1.64033440E-01    2    -2000011        11   # BR(chi^0_1 -> ~e^+_R e^-)
     1.64060972E-01    2     2000013       -13   # BR(chi^0_1 -> ~mu^-_R mu^+)
     1.64060972E-01    2    -2000013        13   # BR(chi^0_1 -> ~mu^+_R mu^-)
     1.71905588E-01    2     1000015       -15   # BR(chi^0_1 -> ~tau^-_1 tau^+)
     1.71905588E-01    2    -1000015        15   # BR(chi^0_1 -> ~tau^+_1 tau^-)
     2.45219857E-10    2     1000039        22   # BR(chi^0_1 -> ~G photon)
     7.28395016E-11    2     1000039        23   # BR(chi^0_1 -> ~G Z)
     2.01157924E-12    2     1000039        25   # BR(chi^0_1 -> ~G h^0)
DECAY   1000023     5.76665191E-01   # chi^0_2
#    BR                NDA      ID1      ID2
     2.57771881E-02    2     2000011       -11   # BR(chi^0_2 -> ~e^-_R e^+)
     2.57771881E-02    2    -2000011        11   # BR(chi^0_2 -> ~e^+_R e^-)
     1.01892911E-02    2     1000011       -11   # BR(chi^0_2 -> ~e^-_L e^+)
     1.01892911E-02    2    -1000011        11   # BR(chi^0_2 -> ~e^+_L e^-)
     2.59061904E-02    2     2000013       -13   # BR(chi^0_2 -> ~mu^-_R mu^+)
     2.59061904E-02    2    -2000013        13   # BR(chi^0_2 -> ~mu^+_R mu^-)
     1.01924912E-02    2     1000013       -13   # BR(chi^0_2 -> ~mu^-_L mu^+)
     1.01924912E-02    2    -1000013        13   # BR(chi^0_2 -> ~mu^+_L mu^-)
     6.26020294E-02    2     1000015       -15   # BR(chi^0_2 -> ~tau^-_1 tau^+)
     6.26020294E-02    2    -1000015        15   # BR(chi^0_2 -> ~tau^+_1 tau^-)
     1.10969305E-02    2     2000015       -15   # BR(chi^0_2 -> ~tau^-_2 tau^+)
     1.10969305E-02    2    -2000015        15   # BR(chi^0_2 -> ~tau^+_2 tau^-)
     6.87026851E-03    2     1000012       -12   # BR(chi^0_2 -> ~nu_e nu_bar_e)
     6.87026851E-03    2    -1000012        12   # BR(chi^0_2 -> ~nu^*_e nu_e)
     6.87075947E-03    2     1000014       -14   # BR(chi^0_2 -> ~nu_mu nu_bar_mu)
     6.87075947E-03    2    -1000014        14   # BR(chi^0_2 -> ~nu^*_mu nu_mu)
     7.00973052E-03    2     1000016       -16   # BR(chi^0_2 -> ~nu_tau nu_bar_tau)
     7.00973052E-03    2    -1000016        16   # BR(chi^0_2 -> ~nu^*_tau nu_tau)
     3.01626910E-02    2     1000022        23   # BR(chi^0_2 -> chi^0_1 Z)
     6.36782142E-01    2     1000022        25   # BR(chi^0_2 -> chi^0_1 h^0)
     8.38449618E-10    2     1000039        22   # BR(chi^0_2 -> ~G photon)
     2.62248483E-12    2     1000039        23   # BR(chi^0_2 -> ~G Z)
     3.93142323E-09    2     1000039        25   # BR(chi^0_2 -> ~G h^0)
     1.00408323E-06    2     1000022        22   # BR(chi^0_2 -> chi^0_1 photon)
#    BR                NDA      ID1      ID2       ID3
     2.19347693E-08    3     1000022         2        -2   # BR(chi^0_2 -> chi^0_1 u u_bar)
     2.19521267E-08    3     1000022         4        -4   # BR(chi^0_2 -> chi^0_1 c c_bar)
     1.42615640E-08    3     1000022         1        -1   # BR(chi^0_2 -> chi^0_1 d d_bar)
     1.44419772E-08    3     1000022         3        -3   # BR(chi^0_2 -> chi^0_1 s s_bar)
     4.20104921E-07    3     1000022         5        -5   # BR(chi^0_2 -> chi^0_1 b b_bar)
     6.29322184E-06    3     1000022        11       -11   # BR(chi^0_2 -> chi^0_1 e^- e^+)
     6.31210939E-06    3     1000022        13       -13   # BR(chi^0_2 -> chi^0_1 mu^- mu^+)
     1.13016295E-05    3     1000022        15       -15   # BR(chi^0_2 -> chi^0_1 tau^- tau^+)
     4.01913930E-11    3     1000024         1        -2   # BR(chi^0_2 -> chi^+_1 d u_bar)
     4.01913930E-11    3    -1000024        -1         2   # BR(chi^0_2 -> chi^-_1 d_bar u)
     5.87986297E-12    3     1000024         3        -4   # BR(chi^0_2 -> chi^+_1 s c_bar)
     5.87986297E-12    3    -1000024        -3         4   # BR(chi^0_2 -> chi^-_1 s_bar c)
     1.29524673E-11    3     1000024        11       -12   # BR(chi^0_2 -> chi^+_1 e^- nu_bar_e)
     1.29524673E-11    3    -1000024       -11        12   # BR(chi^0_2 -> chi^-_1 e^+ nu_e)
     1.27908873E-11    3     1000024        13       -14   # BR(chi^0_2 -> chi^+_1 mu^- nu_bar_mu)
     1.27908873E-11    3    -1000024       -13        14   # BR(chi^0_2 -> chi^-_1 mu^+ nu_mu)
     1.01818083E-13    3     1000024        15       -16   # BR(chi^0_2 -> chi^+_1 tau^- nu_bar_tau)
     1.01818083E-13    3    -1000024       -15        16   # BR(chi^0_2 -> chi^-_1 tau^+ nu_tau)
DECAY   1000025     4.92158341E-01   # chi^0_3
#    BR                NDA      ID1      ID2
     1.50176666E-03    2     2000011       -11   # BR(chi^0_3 -> ~e^-_R e^+)
     1.50176666E-03    2    -2000011        11   # BR(chi^0_3 -> ~e^+_R e^-)
     4.01496613E-05    2     1000011       -11   # BR(chi^0_3 -> ~e^-_L e^+)
     4.01496613E-05    2    -1000011        11   # BR(chi^0_3 -> ~e^+_L e^-)
     1.66065035E-03    2     2000013       -13   # BR(chi^0_3 -> ~mu^-_R mu^+)
     1.66065035E-03    2    -2000013        13   # BR(chi^0_3 -> ~mu^+_R mu^-)
     5.01008478E-05    2     1000013       -13   # BR(chi^0_3 -> ~mu^-_L mu^+)
     5.01008478E-05    2    -1000013        13   # BR(chi^0_3 -> ~mu^+_L mu^-)
     4.68230726E-02    2     1000015       -15   # BR(chi^0_3 -> ~tau^-_1 tau^+)
     4.68230726E-02    2    -1000015        15   # BR(chi^0_3 -> ~tau^+_1 tau^-)
     2.87019762E-03    2     2000015       -15   # BR(chi^0_3 -> ~tau^-_2 tau^+)
     2.87019762E-03    2    -2000015        15   # BR(chi^0_3 -> ~tau^+_2 tau^-)
     2.83803588E-04    2     1000012       -12   # BR(chi^0_3 -> ~nu_e nu_bar_e)
     2.83803588E-04    2    -1000012        12   # BR(chi^0_3 -> ~nu^*_e nu_e)
     2.83816414E-04    2     1000014       -14   # BR(chi^0_3 -> ~nu_mu nu_bar_mu)
     2.83816414E-04    2    -1000014        14   # BR(chi^0_3 -> ~nu^*_mu nu_mu)
     2.87440355E-04    2     1000016       -16   # BR(chi^0_3 -> ~nu_tau nu_bar_tau)
     2.87440355E-04    2    -1000016        16   # BR(chi^0_3 -> ~nu^*_tau nu_tau)
     8.56950890E-01    2     1000022        23   # BR(chi^0_3 -> chi^0_1 Z)
     3.53080681E-02    2     1000022        25   # BR(chi^0_3 -> chi^0_1 h^0)
     3.14752517E-13    2     1000039        22   # BR(chi^0_3 -> ~G photon)
     9.14356208E-10    2     1000039        23   # BR(chi^0_3 -> ~G Z)
     4.73016004E-09    2     1000039        25   # BR(chi^0_3 -> ~G h^0)
     1.07582960E-06    2     1000022        22   # BR(chi^0_3 -> chi^0_1 photon)
     5.73852117E-09    2     1000023        22   # BR(chi^0_3 -> chi^0_2 photon)
#    BR                NDA      ID1      ID2       ID3
     3.34578203E-10    3     1000022         2        -2   # BR(chi^0_3 -> chi^0_1 u u_bar)
     3.90339215E-10    3     1000022         4        -4   # BR(chi^0_3 -> chi^0_1 c c_bar)
     9.44634504E-11    3     1000022         1        -1   # BR(chi^0_3 -> chi^0_1 d d_bar)
     4.21632230E-10    3     1000022         3        -3   # BR(chi^0_3 -> chi^0_1 s s_bar)
     7.32010810E-07    3     1000022         5        -5   # BR(chi^0_3 -> chi^0_1 b b_bar)
     1.79230855E-07    3     1000022        11       -11   # BR(chi^0_3 -> chi^0_1 e^- e^+)
     2.10168668E-07    3     1000022        13       -13   # BR(chi^0_3 -> chi^0_1 mu^- mu^+)
     8.75409726E-06    3     1000022        15       -15   # BR(chi^0_3 -> chi^0_1 tau^- tau^+)
     3.30300607E-06    3     1000023         2        -2   # BR(chi^0_3 -> chi^0_2 u u_bar)
     3.26267240E-06    3     1000023         4        -4   # BR(chi^0_3 -> chi^0_2 c c_bar)
     4.28530000E-06    3     1000023         1        -1   # BR(chi^0_3 -> chi^0_2 d d_bar)
     4.28483064E-06    3     1000023         3        -3   # BR(chi^0_3 -> chi^0_2 s s_bar)
     3.55966046E-06    3     1000023         5        -5   # BR(chi^0_3 -> chi^0_2 b b_bar)
     9.84983000E-07    3     1000023        11       -11   # BR(chi^0_3 -> chi^0_2 e^- e^+)
     9.84900775E-07    3     1000023        13       -13   # BR(chi^0_3 -> chi^0_2 mu^- mu^+)
     9.60787310E-07    3     1000023        15       -15   # BR(chi^0_3 -> chi^0_2 tau^- tau^+)
     5.88235652E-06    3     1000023        12       -12   # BR(chi^0_3 -> chi^0_2 nu_e nu_bar_e)
     1.68469297E-05    3     1000024         1        -2   # BR(chi^0_3 -> chi^+_1 d u_bar)
     1.68469297E-05    3    -1000024        -1         2   # BR(chi^0_3 -> chi^-_1 d_bar u)
     1.67069926E-05    3     1000024         3        -4   # BR(chi^0_3 -> chi^+_1 s c_bar)
     1.67069926E-05    3    -1000024        -3         4   # BR(chi^0_3 -> chi^-_1 s_bar c)
     5.60881148E-06    3     1000024        11       -12   # BR(chi^0_3 -> chi^+_1 e^- nu_bar_e)
     5.60881148E-06    3    -1000024       -11        12   # BR(chi^0_3 -> chi^-_1 e^+ nu_e)
     5.60878641E-06    3     1000024        13       -14   # BR(chi^0_3 -> chi^+_1 mu^- nu_bar_mu)
     5.60878641E-06    3    -1000024       -13        14   # BR(chi^0_3 -> chi^-_1 mu^+ nu_mu)
     5.51495216E-06    3     1000024        15       -16   # BR(chi^0_3 -> chi^+_1 tau^- nu_bar_tau)
     5.51495216E-06    3    -1000024       -15        16   # BR(chi^0_3 -> chi^-_1 tau^+ nu_tau)
DECAY   1000035     4.91301489E+00   # chi^0_4
#    BR                NDA      ID1      ID2
     4.81466683E-04    2     2000011       -11   # BR(chi^0_4 -> ~e^-_R e^+)
     4.81466683E-04    2    -2000011        11   # BR(chi^0_4 -> ~e^+_R e^-)
     4.65104199E-02    2     1000011       -11   # BR(chi^0_4 -> ~e^-_L e^+)
     4.65104199E-02    2    -1000011        11   # BR(chi^0_4 -> ~e^+_L e^-)
     4.81979753E-04    2     2000013       -13   # BR(chi^0_4 -> ~mu^-_R mu^+)
     4.81979753E-04    2    -2000013        13   # BR(chi^0_4 -> ~mu^+_R mu^-)
     4.65119593E-02    2     1000013       -13   # BR(chi^0_4 -> ~mu^-_L mu^+)
     4.65119593E-02    2    -1000013        13   # BR(chi^0_4 -> ~mu^+_L mu^-)
     6.31141320E-04    2     1000015       -15   # BR(chi^0_4 -> ~tau^-_1 tau^+)
     6.31141320E-04    2    -1000015        15   # BR(chi^0_4 -> ~tau^+_1 tau^-)
     4.69460465E-02    2     2000015       -15   # BR(chi^0_4 -> ~tau^-_2 tau^+)
     4.69460465E-02    2    -2000015        15   # BR(chi^0_4 -> ~tau^+_2 tau^-)
     5.35993164E-02    2     1000012       -12   # BR(chi^0_4 -> ~nu_e nu_bar_e)
     5.35993164E-02    2    -1000012        12   # BR(chi^0_4 -> ~nu^*_e nu_e)
     5.36001760E-02    2     1000014       -14   # BR(chi^0_4 -> ~nu_mu nu_bar_mu)
     5.36001760E-02    2    -1000014        14   # BR(chi^0_4 -> ~nu^*_mu nu_mu)
     5.38425442E-02    2     1000016       -16   # BR(chi^0_4 -> ~nu_tau nu_bar_tau)
     5.38425442E-02    2    -1000016        16   # BR(chi^0_4 -> ~nu^*_tau nu_tau)
     1.36674847E-01    2     1000024       -24   # BR(chi^0_4 -> chi^+_1 W^-)
     1.36674847E-01    2    -1000024        24   # BR(chi^0_4 -> chi^-_1 W^+)
     9.73825268E-04    2     1000022        23   # BR(chi^0_4 -> chi^0_1 Z)
     8.18531689E-04    2     1000023        23   # BR(chi^0_4 -> chi^0_2 Z)
     4.94153801E-02    2     1000025        23   # BR(chi^0_4 -> chi^0_3 Z)
     1.03751328E-02    2     1000022        25   # BR(chi^0_4 -> chi^0_1 h^0)
     5.98181421E-02    2     1000023        25   # BR(chi^0_4 -> chi^0_2 h^0)
     2.67675423E-05    2     1000025        25   # BR(chi^0_4 -> chi^0_3 h^0)
     4.55230800E-10    2     1000039        22   # BR(chi^0_4 -> ~G photon)
     2.56589899E-09    2     1000039        23   # BR(chi^0_4 -> ~G Z)
     3.44432477E-10    2     1000039        25   # BR(chi^0_4 -> ~G h^0)
     2.94777834E-07    2     1000022        22   # BR(chi^0_4 -> chi^0_1 photon)
     1.03664486E-06    2     1000023        22   # BR(chi^0_4 -> chi^0_2 photon)
     9.22184192E-07    2     1000025        22   # BR(chi^0_4 -> chi^0_3 photon)
#    BR                NDA      ID1      ID2       ID3
     4.21205176E-08    3     1000022         2        -2   # BR(chi^0_4 -> chi^0_1 u u_bar)
     4.21125992E-08    3     1000022         4        -4   # BR(chi^0_4 -> chi^0_1 c c_bar)
     1.78207326E-06    3     1000022         6        -6   # BR(chi^0_4 -> chi^0_1 t t_bar)
     5.88353212E-08    3     1000022         1        -1   # BR(chi^0_4 -> chi^0_1 d d_bar)
     5.88396844E-08    3     1000022         3        -3   # BR(chi^0_4 -> chi^0_1 s s_bar)
     7.78541000E-08    3     1000022         5        -5   # BR(chi^0_4 -> chi^0_1 b b_bar)
     3.12399393E-07    3     1000022        11       -11   # BR(chi^0_4 -> chi^0_1 e^- e^+)
     3.12544471E-07    3     1000022        13       -13   # BR(chi^0_4 -> chi^0_1 mu^- mu^+)
     3.51057987E-07    3     1000022        15       -15   # BR(chi^0_4 -> chi^0_1 tau^- tau^+)
     3.82055344E-09    3     1000023         2        -2   # BR(chi^0_4 -> chi^0_2 u u_bar)
     3.81591265E-09    3     1000023         4        -4   # BR(chi^0_4 -> chi^0_2 c c_bar)
     3.22035036E-09    3     1000023         1        -1   # BR(chi^0_4 -> chi^0_2 d d_bar)
     3.22282495E-09    3     1000023         3        -3   # BR(chi^0_4 -> chi^0_2 s s_bar)
     9.16322589E-09    3     1000023         5        -5   # BR(chi^0_4 -> chi^0_2 b b_bar)
     8.29302611E-07    3     1000023        11       -11   # BR(chi^0_4 -> chi^0_2 e^- e^+)
     8.29423775E-07    3     1000023        13       -13   # BR(chi^0_4 -> chi^0_2 mu^- mu^+)
     8.41718363E-07    3     1000023        15       -15   # BR(chi^0_4 -> chi^0_2 tau^- tau^+)
     1.36271073E-06    3     1000023        12       -12   # BR(chi^0_4 -> chi^0_2 nu_e nu_bar_e)
     1.88479516E-12    3     1000025         2        -2   # BR(chi^0_4 -> chi^0_3 u u_bar)
     1.98771250E-12    3     1000025         4        -4   # BR(chi^0_4 -> chi^0_3 c c_bar)
     3.44507298E-12    3     1000025         1        -1   # BR(chi^0_4 -> chi^0_3 d d_bar)
     5.23926483E-12    3     1000025         3        -3   # BR(chi^0_4 -> chi^0_3 s s_bar)
     4.02567063E-09    3     1000025         5        -5   # BR(chi^0_4 -> chi^0_3 b b_bar)
     1.17133751E-10    3     1000025        11       -11   # BR(chi^0_4 -> chi^0_3 e^- e^+)
     1.61746673E-10    3     1000025        13       -13   # BR(chi^0_4 -> chi^0_3 mu^- mu^+)
     1.26112065E-08    3     1000025        15       -15   # BR(chi^0_4 -> chi^0_3 tau^- tau^+)
     2.20938948E-09    3     1000025        12       -12   # BR(chi^0_4 -> chi^0_3 nu_e nu_bar_e)
     2.52088893E-09    3     1000024         1        -2   # BR(chi^0_4 -> chi^+_1 d u_bar)
     2.52088893E-09    3    -1000024        -1         2   # BR(chi^0_4 -> chi^-_1 d_bar u)
     2.52512592E-09    3     1000024         3        -4   # BR(chi^0_4 -> chi^+_1 s c_bar)
     2.52512592E-09    3    -1000024        -3         4   # BR(chi^0_4 -> chi^-_1 s_bar c)
     5.30682861E-07    3     1000024        11       -12   # BR(chi^0_4 -> chi^+_1 e^- nu_bar_e)
     5.30682861E-07    3    -1000024       -11        12   # BR(chi^0_4 -> chi^-_1 e^+ nu_e)
     5.30769754E-07    3     1000024        13       -14   # BR(chi^0_4 -> chi^+_1 mu^- nu_bar_mu)
     5.30769754E-07    3    -1000024       -13        14   # BR(chi^0_4 -> chi^-_1 mu^+ nu_mu)
     5.46750384E-07    3     1000024        15       -16   # BR(chi^0_4 -> chi^+_1 tau^- nu_bar_tau)
     5.46750384E-07    3    -1000024       -15        16   # BR(chi^0_4 -> chi^-_1 tau^+ nu_tau)
DECAY   1000021     9.09153278E+00   # ~g
#    BR                NDA      ID1      ID2
     5.04505175E-02    2     2000002        -2   # BR(~g -> ~u_R u_bar)
     5.04505175E-02    2    -2000002         2   # BR(~g -> ~u^*_R u)
     1.14764968E-02    2     1000002        -2   # BR(~g -> ~u_L u_bar)
     1.14764968E-02    2    -1000002         2   # BR(~g -> ~u^*_L u)
     5.04494807E-02    2     2000004        -4   # BR(~g -> ~c_R c_bar)
     5.04494807E-02    2    -2000004         4   # BR(~g -> ~c^*_R c)
     1.14760600E-02    2     1000004        -4   # BR(~g -> ~c_L c_bar)
     1.14760600E-02    2    -1000004         4   # BR(~g -> ~c^*_L c)
     8.77270045E-06    2     1000006        -4   # BR(~g -> ~t_1 c_bar)
     8.77270045E-06    2    -1000006         4   # BR(~g -> ~t^*_1 c)
     1.27577497E-01    2     1000006        -6   # BR(~g -> ~t_1 t_bar)
     1.27577497E-01    2    -1000006         6   # BR(~g -> ~t^*_1 t)
     5.47782337E-02    2     2000001        -1   # BR(~g -> ~d_R d_bar)
     5.47782337E-02    2    -2000001         1   # BR(~g -> ~d^*_R d)
     1.10550915E-02    2     1000001        -1   # BR(~g -> ~d_L d_bar)
     1.10550915E-02    2    -1000001         1   # BR(~g -> ~d^*_L d)
     5.47792896E-02    2     2000003        -3   # BR(~g -> ~s_R s_bar)
     5.47792896E-02    2    -2000003         3   # BR(~g -> ~s^*_R s)
     1.10557211E-02    2     1000003        -3   # BR(~g -> ~s_L s_bar)
     1.10557211E-02    2    -1000003         3   # BR(~g -> ~s^*_L s)
     5.71837080E-02    2     1000005        -5   # BR(~g -> ~b_1 b_bar)
     5.71837080E-02    2    -1000005         5   # BR(~g -> ~b^*_1 b)
     4.47811601E-02    2     2000005        -5   # BR(~g -> ~b_2 b_bar)
     4.47811601E-02    2    -2000005         5   # BR(~g -> ~b^*_2 b)
     4.25296894E-06    2     1000022        21   # BR(~g -> chi^0_1 g)
     1.55142088E-04    2     1000023        21   # BR(~g -> chi^0_2 g)
     1.83207298E-04    2     1000025        21   # BR(~g -> chi^0_3 g)
     3.46600399E-05    2     1000035        21   # BR(~g -> chi^0_4 g)
#    BR                NDA      ID1      ID2       ID3
     2.37142262E-04    3     1000022         6        -6   # BR(~g -> chi^0_1 t t_bar)
     6.23523594E-03    3     1000023         6        -6   # BR(~g -> chi^0_2 t t_bar)
     7.66296127E-03    3     1000025         6        -6   # BR(~g -> chi^0_3 t t_bar)
     6.75641544E-03    3     1000035         6        -6   # BR(~g -> chi^0_4 t t_bar)
     4.80849997E-04    3     1000024         5        -6   # BR(~g -> chi^+_1 b t_bar)
     4.80849997E-04    3    -1000024        -5         6   # BR(~g -> chi^-_1 b_bar t)
     3.81261293E-03    3     1000037         5        -6   # BR(~g -> chi^+_2 b t_bar)
     3.81261293E-03    3    -1000037        -5         6   # BR(~g -> chi^-_2 b_bar t)
DECAY        25     2.72042620E-03   # h^0
#    BR                NDA      ID1      ID2
     8.42547571E-09    2          11       -11   # BR(h^0 -> e^- e^+)
     3.60210085E-04    2          13       -13   # BR(h^0 -> mu^- mu^+)
     1.01665331E-01    2          15       -15   # BR(h^0 -> tau^- tau^+)
     7.16115215E-07    2           1        -1   # BR(h^0 -> d d_bar)
     3.15806296E-04    2           3        -3   # BR(h^0 -> s s_bar)
     6.79502180E-01    2           5        -5   # BR(h^0 -> b b_bar)
     2.41037620E-07    2           2        -2   # BR(h^0 -> u u_bar)
     4.31875996E-02    2           4        -4   # BR(h^0 -> c c_bar)
     6.34892158E-02    2          21        21   # BR(h^0 -> g g)
     2.94036038E-03    2          22        22   # BR(h^0 -> photon photon)
# writing decays into V V* as 3-body decays
#    BR                NDA      ID1      ID2       ID3
     5.01340501E-03    3          24        11        12   # BR(h^0 -> W^+ e^- nu_e)
     5.01340501E-03    3          24        13        14   # BR(h^0 -> W^+ mu^- nu_mu)
     5.01340501E-03    3          24        15        16   # BR(h^0 -> W^+ tau^- nu_tau)
     1.75469175E-02    3          24         1        -2   # BR(h^0 -> W^+ d u_bar)
     1.75469175E-02    3          24         3        -4   # BR(h^0 -> W^+ s c_bar)
     5.01340501E-03    3         -24       -11       -12   # BR(h^0 -> W^- e^+ nu_bar_e)
     5.01340501E-03    3         -24       -13       -14   # BR(h^0 -> W^- mu^+ nu_bar_mu)
     5.01340501E-03    3         -24       -15       -16   # BR(h^0 -> W^- tau^+ nu_bar_tau)
     1.75469175E-02    3         -24        -1         2   # BR(h^0 -> W^- d_bar u)
     1.75469175E-02    3         -24        -3         4   # BR(h^0 -> W^- s_bar c)
     2.89458099E-04    3          23        11       -11   # BR(h^0 -> Z e^- e^+)
     2.89458099E-04    3          23        13       -13   # BR(h^0 -> Z mu^- mu^+)
     2.48106942E-04    3          23        15       -15   # BR(h^0 -> Z tau^- tau^+)
     1.65404628E-03    3          23        12       -12   # BR(h^0 -> Z nu_e nu_bar_e)
     1.15783240E-03    3          23         1        -1   # BR(h^0 -> Z u u_bar)
     1.15783240E-03    3          23         3        -3   # BR(h^0 -> Z c c_bar)
     1.15783240E-03    3          23         5        -5   # BR(h^0 -> Z t t_bar)
     1.15783240E-03    3          23         2        -2   # BR(h^0 -> Z u u_bar)
     1.15783240E-03    3          23         4        -4   # BR(h^0 -> Z c c_bar)
DECAY        35     1.72905647E+00   # H^0
#    BR                NDA      ID1      ID2
     8.83076673E-09    2          11       -11   # BR(H^0 -> e^- e^+)
     3.77540551E-04    2          13       -13   # BR(H^0 -> mu^- mu^+)
     1.06816700E-01    2          15       -15   # BR(H^0 -> tau^- tau^+)
     6.25897860E-07    2           1        -1   # BR(H^0 -> d d_bar)
     2.76020844E-04    2           3        -3   # BR(H^0 -> s s_bar)
     6.12970190E-01    2           5        -5   # BR(H^0 -> b b_bar)
     3.00000445E-11    2           2        -2   # BR(H^0 -> u u_bar)
     5.37634951E-06    2           4        -4   # BR(H^0 -> c c_bar)
     2.63410687E-01    2           6        -6   # BR(H^0 -> t t_bar)
     1.07768327E-04    2     2000011  -2000011   # BR(H^0 -> ~e^-_R ~e^+_R)
     1.07711321E-04    2     2000013  -2000013   # BR(H^0 -> ~mu^-_R ~mu^+_R)
     9.21644563E-05    2     1000015  -1000015   # BR(H^0 -> ~tau^-_1 ~tau^+_1)
     1.44539273E-03    2     1000022   1000022   # BR(H^0 -> chi^0_1 chi^0_1)
     3.96082791E-03    2          23        23   # BR(H^0 -> Z Z)
     7.59478187E-03    2          24       -24   # BR(H^0 -> W^+ W^-)
     2.62757488E-03    2          25        25   # BR(H^0 -> h^0 h^0)
     2.05009797E-04    2          21        21   # BR(H^0 -> g g)
     1.61934592E-06    2          22        22   # BR(H^0 -> photon photon)
DECAY        36     1.71641568E+00   # A^0
#    BR                NDA      ID1      ID2
     8.90621588E-09    2          11       -11   # BR(A^0 -> e^- e^+)
     3.80766237E-04    2          13       -13   # BR(A^0 -> mu^- mu^+)
     1.07730849E-01    2          15       -15   # BR(A^0 -> tau^- tau^+)
     6.31243576E-07    2           1        -1   # BR(A^0 -> d d_bar)
     2.78378287E-04    2           3        -3   # BR(A^0 -> s s_bar)
     6.18212036E-01    2           5        -5   # BR(A^0 -> b b_bar)
     2.63443975E-11    2           2        -2   # BR(A^0 -> u u_bar)
     4.72121460E-06    2           4        -4   # BR(A^0 -> c c_bar)
     2.57320120E-01    2           6        -6   # BR(A^0 -> t t_bar)
     8.50164246E-03    2     1000022   1000022   # BR(A^0 -> chi^0_1 chi^0_1)
     7.46179667E-03    2          25        23   # BR(A^0 -> h^0 Z)
     1.08324292E-04    2          21        21   # BR(A^0 -> g g)
     7.25574429E-07    2          22        22   # BR(A^0 -> photon photon)
DECAY        37     1.45099606E+00   # H^+
#    BR                NDA      ID1      ID2
     1.05775207E-08    2         -11        12   # BR(H^+ -> e^+ nu_e)
     4.52219306E-04    2         -13        12   # BR(H^+ -> mu^+ nu_e)
     1.27947196E-01    2         -15        12   # BR(H^+ -> tau^+ nu_e)
     6.59945653E-07    2          -1         2   # BR(H^+ -> d_bar u)
     2.95958337E-04    2          -3         4   # BR(H^+ -> s_bar c)
     8.62548844E-01    2          -5         6   # BR(H^+ -> b_bar t)
     1.54922280E-07    2    -1000015   1000016   # BR(H^+ -> ~tau^+_1 ~nu_tau)
     8.75495753E-03    2          25        24   # BR(H^+ -> h^0 W^+)
DECAY         6     2.43000000E+00   # top
#    BR                NDA      ID1      ID2
     1.00000000E+00    2           5        24   # BR(t -> b W)
Block HiggsBoundsInputHiggsCouplingsFermions
# ScalarNormEffCoupSq PseudoSNormEffCoupSq NP IP1 IP2 IP2
    1.14680357E+00    0.00000000E+00        3  25   5   5  # h0-b-b eff. coupling^2, normalised to SM
    9.98531964E+01    0.00000000E+00        3  35   5   5  # H0-b-b eff. coupling^2, normalised to SM
    0.00000000E+00    1.00000000E+02        3  36   5   5  # A0-b-b eff. coupling^2, normalised to SM
#
    9.98531964E-01    0.00000000E+00        3  25   6   6  # h0-t-t eff. coupling^2, normalised to SM
    1.14680357E-02    0.00000000E+00        3  35   6   6  # H0-t-t eff. coupling^2, normalised to SM
    0.00000000E+00    1.00000000E-02        3  36   6   6  # A0-t-t eff. coupling^2, normalised to SM
#
    1.14680357E+00    0.00000000E+00        3  25  15  15  # h0-tau-tau eff. coupling^2, normalised to SM
    9.98531964E+01    0.00000000E+00        3  35  15  15  # H0-tau-tau eff. coupling^2, normalised to SM
    0.00000000E+00    1.00000000E+02        3  36  15  15  # A0-tau-tau eff. coupling^2, normalised to SM
#
Block HiggsBoundsInputHiggsCouplingsBosons
    9.99949712E-01        3  25  24  24  # h0-W-W eff. coupling^2, normalised to SM
    5.02883707E-05        3  35  24  24  # H0-W-W eff. coupling^2, normalised to SM
    0.00000000E+00        3  36  24  24  # A0-W-W eff. coupling^2, normalised to SM
#
    9.99949712E-01        3  25  23  23  # h0-Z-Z eff. coupling^2, normalised to SM
    5.02883707E-05        3  35  23  23  # H0-Z-Z eff. coupling^2, normalised to SM
    0.00000000E+00        3  36  23  23  # A0-Z-Z eff. coupling^2, normalised to SM
#
    1.16144323E+00        3  25  21  21  # h0-g-g eff. coupling^2, normalised to SM
    9.58221974E-03        3  35  21  21  # H0-g-g eff. coupling^2, normalised to SM
    1.24247016E-01        3  36  21  21  # A0-g-g eff. coupling^2, normalised to SM
#
    0.00000000E+00        3  25  25  23  # h0-h0-Z eff. coupling^2, normalised to SM
    0.00000000E+00        3  35  25  23  # H0-h0-Z eff. coupling^2, normalised to SM
    5.02883707E-05        3  36  25  23  # A0-h0-Z eff. coupling^2, normalised to SM
    0.00000000E+00        3  35  35  23  # H0-H0-Z eff. coupling^2, normalised to SM
    9.99949712E-01        3  36  35  23  # A0-H0-Z eff. coupling^2, normalised to SM
    0.00000000E+00        3  36  36  23  # A0-A0-Z eff. coupling^2, normalised to SM
#
    0.00000000E+00        4  25  21  21  23  # h0-g-g-Z eff. coupling^2, normalised to SM
    0.00000000E+00        4  35  21  21  23  # H0-g-g-Z eff. coupling^2, normalised to SM
    0.00000000E+00        4  36  21  21  23  # A0-g-g-Z eff. coupling^2, normalised to SM
Block SPhenoLowEnergy  # low energy observables
    1    3.20245966E-04   # BR(b -> s gamma)
    2    1.59007041E-06   # BR(b -> s mu+ mu-)
    3    3.53895254E-05   # BR(b -> s nu nu)
    4    5.17692718E-11   # BR(Bd -> mu+ mu-)
    5    3.38191554E-09   # BR(Bs -> mu+ mu-)
    6    1.10127698E-04   # BR(B_u -> tau nu)
    7    9.95789741E-01   # BR(B_u -> tau nu)/BR(B_u -> tau nu)_SM
    8    2.73556186E-01   # |Delta(M_Bd)| [ps^-1] 
    9    2.03022239E+01   # |Delta(M_Bs)| [ps^-1] 
   20    1.01033997E-14   # Delta(g-2)_electron/2
   21    2.15738409E-10   # Delta(g-2)_muon/2
   22    1.31515069E-08   # Delta(g-2)_tau/2
   23    0.00000000E+00   # electric dipole moment of the electron
   24    0.00000000E+00   # electric dipole moment of the muon
   25    0.00000000E+00   # electric dipole moment of the tau
   26    0.00000000E+00   # Br(mu -> e gamma)
   27    0.00000000E+00   # Br(tau -> e gamma)
   28    0.00000000E+00   # Br(tau -> mu gamma)
   29    0.00000000E+00   # Br(mu -> 3 e)
   30    0.00000000E+00   # Br(tau -> 3 e)
   31    0.00000000E+00   # Br(tau -> 3 mu)
   39    6.01644446E-04   # Delta(rho_parameter)
   40    0.00000000E+00   # BR(Z -> e mu)
   41    0.00000000E+00   # BR(Z -> e tau)
   42    0.00000000E+00   # BR(Z -> mu tau)
Block FWCOEF Q=  9.11876000E+01  # Wilson coefficients at scale Q
#    id        order  M        value         comment
Block FWCOEF Q=  1.60000000E+02  # Wilson coefficients at scale Q
#    id        order  M        value         comment
     0305 4422   00   0    -1.87757064E-01   # C7
     0305 4422   00   1    -2.15620576E-02   # C7
     0305 4322   00   1    -4.71758433E-04   # C7'
     0305 6421   00   0    -9.48892719E-02   # C8
     0305 6421   00   1    -2.84093079E-02   # C8
     0305 6321   00   1    -6.14423741E-04   # C8'
 03051111 4133   00   0    -1.02936222E+00   # C9 e+e-
 03051111 4133   00   1     1.24258418E-03   # C9 e+e-
 03051111 4233   00   1    -4.33770466E-06   # C9' e+e-
 03051111 4137   00   0    -3.95998155E+00   # C10 e+e-
 03051111 4137   00   1     2.89811985E-03   # C10 e+e-
 03051111 4237   00   1     1.02463597E-04   # C10' e+e-
 03051313 4133   00   0    -1.02936222E+00   # C9 mu+mu-
 03051313 4133   00   1     1.24256777E-03   # C9 mu+mu-
 03051313 4233   00   1    -4.33776912E-06   # C9' mu+mu-
 03051313 4137   00   0    -3.95998155E+00   # C10 mu+mu-
 03051313 4137   00   1     2.89810341E-03   # C10 mu+mu-
 03051313 4237   00   1     1.02463662E-04   # C10' mu+mu-
 03051212 4237   00   0     1.49014157E+00   # C11 nu_1 nu_1
 03051212 4237   00   1    -6.97666592E-04   # C11 nu_1 nu_1
 03051212 4137   00   1    -2.45489115E-05   # C11' nu_1 nu_1
 03051414 4237   00   0     1.49014157E+00   # C11 nu_2 nu_2
 03051414 4237   00   1    -6.97666576E-04   # C11 nu_2 nu_2
 03051414 4137   00   1    -2.45488964E-05   # C11' nu_2 nu_2
 03051616 4237   00   0     1.49014157E+00   # C11 nu_3 nu_3
 03051616 4237   00   1    -6.97661925E-04   # C11 nu_3 nu_3
 03051616 4137   00   1    -2.45446144E-05   # C11' nu_3 nu_3
