#
#                              ======================
#                              | THE SUSYHIT OUTPUT |
#                              ======================
#
#
#              ------------------------------------------------------
#              |     This is the output of the SUSY-HIT package     |
#              |  created by A.Djouadi, M.Muehlleitner and M.Spira. |
#              |  In case of problems with SUSY-HIT email to        |
#              |           margarete.muehlleitner@cern.ch           |
#              |           michael.spira@psi.ch                     |
#              |           abdelhak.djouadi@cern.ch                 |
#              ------------------------------------------------------
#
#              ------------------------------------------------------
#              |  SUSY Les Houches Accord - MSSM Spectrum + Decays  |
#              |              based on the decay programs           |
#              |                                                    |
#              |                     SDECAY 1.3b                    |
#              |                                                    |
#              |  Authors: M.Muhlleitner, A.Djouadi and Y.Mambrini  |
#              |  Ref.:    Comput.Phys.Commun.168(2005)46           |
#              |           [hep-ph/0311167]                         |
#              |                                                    |
#              |                     HDECAY 3.4                     |
#              |                                                    |
#              |  By: A.Djouadi,J.Kalinowski,M.Muhlleitner,M.Spira  |
#              |  Ref.:    Comput.Phys.Commun.108(1998)56           |
#              |           [hep-ph/9704448]                         |
#              |                                                    |
#              |                                                    |
#              |  If not stated otherwise all DRbar couplings and   |
#              |  soft SUSY breaking masses are given at the scale  |
#              |  Q=  0.91187600E+02
#              |                                                    |
#              ------------------------------------------------------
#
#
BLOCK DCINFO  # Decay Program information
     1   SDECAY/HDECAY # decay calculator
     2   1.3b  /3.4    # version number
#
BLOCK SPINFO  # Spectrum calculator information
     1   SuSpect     # RGE +Spectrum calculator            
     2   2.41         # version number                     
#
BLOCK MODSEL  # Model selection
     1     0   # #general MSSM low scale                           
#
BLOCK SMINPUTS  # Standard Model inputs
         1     1.27934000E+02   # alpha_em^-1(M_Z)^MSbar
         2     1.16639000E-05   # G_F [GeV^-2]
         3     1.17200000E-01   # alpha_S(M_Z)^MSbar
         4     9.11870000E+01   # M_Z pole mass
         5     4.25000000E+00   # mb(mb)^MSbar
         6     1.72500000E+02   # mt pole mass
         7     1.77700000E+00   # mtau pole mass
#
BLOCK MINPAR  # Input parameters - minimal models
#
BLOCK EXTPAR  # Input parameters - non-minimal models
         0     9.11876000E+01   # EWSB                
         1     8.00000000E+02   # M_1                 
         2     1.00000000E+05   # M_2                 
         3     1.00000000E+05   # M_3                 
        11     0.00000000E+00   # A_t                 
        12     0.00000000E+00   # A_b                 
        13     0.00000000E+00   # A_tau               
        14     0.00000000E+00   # A_u                 
        15     0.00000000E+00   # A_d                 
        16     0.00000000E+00   # A_e                 
        23     3.50000000E+03   # mu(EWSB)            
        25     1.50000000E+00   # tanbeta(in)         
        26     2.00000000E+03   # MA_pole             
        31     1.00000000E+05   # M_eL                
        32     1.00000000E+05   # M_muL               
        33     1.00000000E+05   # M_tauL              
        34     1.00000000E+05   # M_eR                
        35     1.00000000E+05   # M_muR               
        36     1.00000000E+05   # M_tauR              
        41     1.50000000E+03   # M_q1L               
        42     1.50000000E+03   # M_q2L               
        43     1.50000000E+03   # M_q3L               
        44     1.00000000E+05   # M_uR                
        45     1.00000000E+05   # M_cR                
        46     1.00000000E+05   # M_tR                
        47     1.50000000E+03   # M_dR                
        48     1.50000000E+03   # M_sR                
        49     1.50000000E+03   # M_bR                
#
BLOCK MASS  # Mass Spectrum
# PDG code           mass       particle
        24     8.05825432E+01   # W+
        25     1.25000000E+02   # h
        35     2.00400730E+03   # H
        36     2.00000000E+03   # A
        37     2.02369612E+03   # H+
         5     4.87877839E+00   # b-quark pole mass calculated from mb(mb)_Msbar
   1000001     1.50044285E+03   # ~d_L
   2000001     1.50008530E+03   # ~d_R
   1000002     1.49964234E+03   # ~u_L
   2000002     9.99999974E+04   # ~u_R
   1000003     1.50044285E+03   # ~s_L
   2000003     1.50008530E+03   # ~s_R
   1000004     1.49964234E+03   # ~c_L
   2000004     9.99999974E+04   # ~c_R
   1000005     1.49573440E+03   # ~b_1
   2000005     1.50478457E+03   # ~b_2
   1000006     1.50687453E+03   # ~t_1
   2000006     1.00000106E+05   # ~t_2
   1000011     1.00000004E+05   # ~e_L
   2000011     1.00000004E+05   # ~e_R
   1000012     9.99999921E+04   # ~nu_eL
   1000013     1.00000004E+05   # ~mu_L
   2000013     1.00000004E+05   # ~mu_R
   1000014     9.99999921E+04   # ~nu_muL
   1000015     9.99999574E+04   # ~tau_1
   2000015     1.00000051E+05   # ~tau_2
   1000016     9.99999921E+04   # ~nu_tauL
   1000021     1.00000000E+05   # ~g
   1000022     7.99307171E+02   # ~chi_10
   1000023    -3.50002018E+03   # ~chi_20
   1000025     3.50064847E+03   # ~chi_30
   1000035     1.00000065E+05   # ~chi_40
   1000024     3.49994010E+03   # ~chi_1+
   1000037     1.00000065E+05   # ~chi_2+
   1000039     1.00000000E-09   # ~gravitino
#
BLOCK NMIX  # Neutralino Mixing Matrix
  1  1     9.99866372E-01   # N_11
  1  2    -1.23510195E-05   # N_12
  1  3     1.29101221E-02   # N_13
  1  4    -1.00282821E-02   # N_14
  2  1     2.03780061E-03   # N_21
  2  2    -1.49741087E-04   # N_22
  2  3    -7.07095115E-01   # N_23
  2  4    -7.07115495E-01   # N_24
  3  1     1.62199011E-02   # N_31
  3  2     8.02862360E-04   # N_32
  3  3    -7.07000434E-01   # N_33
  3  4     7.07026630E-01   # N_34
  4  1     3.67837173E-07   # N_41
  4  2    -9.99999666E-01   # N_42
  4  3    -4.61902454E-04   # N_43
  4  4     6.73653395E-04   # N_44
#
BLOCK UMIX  # Chargino Mixing Matrix U
  1  1    -6.53228508E-04   # U_11
  1  2     9.99999787E-01   # U_12
  2  1     9.99999787E-01   # U_21
  2  2     6.53228508E-04   # U_22
#
BLOCK VMIX  # Chargino Mixing Matrix V
  1  1    -9.52689680E-04   # V_11
  1  2     9.99999546E-01   # V_12
  2  1     9.99999546E-01   # V_21
  2  2     9.52689680E-04   # V_22
#
BLOCK STOPMIX  # Stop Mixing Matrix
  1  1     9.99999999E-01   # cos(theta_t)
  1  2     4.47213589E-05   # sin(theta_t)
  2  1    -4.47213589E-05   # -sin(theta_t)
  2  2     9.99999999E-01   # cos(theta_t)
#
BLOCK SBOTMIX  # Sbottom Mixing Matrix
  1  1     6.92997802E-01   # cos(theta_b)
  1  2     7.20939697E-01   # sin(theta_b)
  2  1    -7.20939697E-01   # -sin(theta_b)
  2  2     6.92997802E-01   # cos(theta_b)
#
BLOCK STAUMIX  # Stau Mixing Matrix
  1  1     7.06171587E-01   # cos(theta_tau)
  1  2     7.08040740E-01   # sin(theta_tau)
  2  1    -7.08040740E-01   # -sin(theta_tau)
  2  2     7.06171587E-01   # cos(theta_tau)
#
BLOCK ALPHA  # Higgs mixing
          -5.90294118E-01   # Mixing angle in the neutral Higgs boson sector
#
BLOCK HMIX Q=  9.11876000E+01  # DRbar Higgs Parameters
         1     3.50000000E+03   # mu(Q)               
         2     1.49999982E+00   # tanbeta(Q)          
         3     2.54869382E+02   # vev(Q)              
         4    -6.82489346E+07   # MA^2(Q)             
#
BLOCK GAUGE Q=  9.11876000E+01  # The gauge couplings
     1     3.50591203E-01   # gprime(Q) DRbar
     2     6.20083604E-01   # g(Q) DRbar
     3     1.02511108E+00   # g3(Q) DRbar
#
BLOCK AU Q=  9.11876000E+01  # The trilinear couplings
  1  1     0.00000000E+00   # A_u(Q) DRbar
  2  2     0.00000000E+00   # A_c(Q) DRbar
  3  3     0.00000000E+00   # A_t(Q) DRbar
#
BLOCK AD Q=  9.11876000E+01  # The trilinear couplings
  1  1     0.00000000E+00   # A_d(Q) DRbar
  2  2     0.00000000E+00   # A_s(Q) DRbar
  3  3     0.00000000E+00   # A_b(Q) DRbar
#
BLOCK AE Q=  9.11876000E+01  # The trilinear couplings
  1  1     0.00000000E+00   # A_e(Q) DRbar
  2  2     0.00000000E+00   # A_mu(Q) DRbar
  3  3     0.00000000E+00   # A_tau(Q) DRbar
#
BLOCK Yu Q=  9.11876000E+01  # The Yukawa couplings
  1  1     0.00000000E+00   # y_u(Q) DRbar
  2  2     0.00000000E+00   # y_c(Q) DRbar
  3  3     9.83632678E-01   # y_t(Q) DRbar
#
BLOCK Yd Q=  9.11876000E+01  # The Yukawa couplings
  1  1     0.00000000E+00   # y_d(Q) DRbar
  2  2     0.00000000E+00   # y_s(Q) DRbar
  3  3     2.58501925E-02   # y_b(Q) DRbar
#
BLOCK Ye Q=  9.11876000E+01  # The Yukawa couplings
  1  1     0.00000000E+00   # y_e(Q) DRbar
  2  2     0.00000000E+00   # y_mu(Q) DRbar
  3  3     1.77397292E-02   # y_tau(Q) DRbar
#
BLOCK MSOFT Q=  9.11876000E+01  # The soft SUSY breaking masses at the scale Q
         1     8.00000000E+02   # M_1                 
         2     1.00000000E+05   # M_2                 
         3     1.00000000E+05   # M_3                 
        14     0.00000000E+00   # A_u                 
        15     0.00000000E+00   # A_d                 
        16     0.00000000E+00   # A_e                 
        21     6.32055287E+08   # M^2_Hd              
        22    -1.14853242E+09   # M^2_Hu              
        31     1.00000000E+05   # M_eL                
        32     1.00000000E+05   # M_muL               
        33     1.00000000E+05   # M_tauL              
        34     1.00000000E+05   # M_eR                
        35     1.00000000E+05   # M_muR               
        36     1.00000000E+05   # M_tauR              
        41     1.50000000E+03   # M_q1L               
        42     1.50000000E+03   # M_q2L               
        43     1.50000000E+03   # M_q3L               
        44     1.00000000E+05   # M_uR                
        45     1.00000000E+05   # M_cR                
        46     1.00000000E+05   # M_tR                
        47     1.50000000E+03   # M_dR                
        48     1.50000000E+03   # M_sR                
        49     1.50000000E+03   # M_bR                
#
#
#
#                             =================
#                             |The decay table|
#                             =================
#
# - The QCD corrections to the decays gluino -> squark  + quark
#                                     squark -> gaugino + quark_prime
#                                     squark -> squark_prime + Higgs
#                                     squark -> gluino  + quark
#   are included.
#
# - The multi-body decays for the inos, stops and sbottoms are included.
#
# - The loop induced decays for the gluino, neutralinos and stops
#   are included.
#
# - The SUSY decays of the top quark are included.
#
# - Possible decays of the NLSP in GMSB models are included.
#
#
#         PDG            Width
DECAY         6     1.32712024E+00   # top decays
#          BR         NDA      ID1       ID2
     1.00000000E+00    2           5        24   # BR(t ->  b    W+)
#
#         PDG            Width
DECAY   1000021     1.E-04   # gluino decays (OJ Mods)
#          BR         NDA      ID1       ID2
     6.15407088E-04    2     1000001        -1   # BR(~g -> ~d_L  db)
     6.15407088E-04    2    -1000001         1   # BR(~g -> ~d_L* d )
     6.15407220E-04    2     2000001        -1   # BR(~g -> ~d_R  db)
     6.15407220E-04    2    -2000001         1   # BR(~g -> ~d_R* d )
     6.15407384E-04    2     1000002        -2   # BR(~g -> ~u_L  ub)
     6.15407384E-04    2    -1000002         2   # BR(~g -> ~u_L* u )
     1.66481025E-18    2     2000002        -2   # BR(~g -> ~u_R  ub)
     1.66481025E-18    2    -2000002         2   # BR(~g -> ~u_R* u )
     6.15407088E-04    2     1000003        -3   # BR(~g -> ~s_L  sb)
     6.15407088E-04    2    -1000003         3   # BR(~g -> ~s_L* s )
     6.15407220E-04    2     2000003        -3   # BR(~g -> ~s_R  sb)
     6.15407220E-04    2    -2000003         3   # BR(~g -> ~s_R* s )
     6.15407384E-04    2     1000004        -4   # BR(~g -> ~c_L  cb)
     6.15407384E-04    2    -1000004         4   # BR(~g -> ~c_L* c )
     1.66481025E-18    2     2000004        -4   # BR(~g -> ~c_R  cb)
     1.66481025E-18    2    -2000004         4   # BR(~g -> ~c_R* c )
     2.43671452E-01    2     1000005        -5   # BR(~g -> ~b_1  bb)
     2.43671452E-01    2    -1000005         5   # BR(~g -> ~b_1* b )
     2.43409374E-01    2     2000005        -5   # BR(~g -> ~b_2  bb)
     2.43409374E-01    2    -2000005         5   # BR(~g -> ~b_2* b )
     6.05643897E-04    2     1000006        -6   # BR(~g -> ~t_1  tb)
     6.05643897E-04    2    -1000006         6   # BR(~g -> ~t_1* t )
     1.72421728E-02    2     1000039        21   # BR(~g -> ~G g)
#
#         PDG            Width
DECAY   1000006     1.25067163E-01   # stop1 decays
#          BR         NDA      ID1       ID2
     1.00000000E+00    2     1000022         6   # BR(~t_1 -> ~chi_10 t )
#
#         PDG            Width
DECAY   2000006     2.95508351E+05   # stop2 decays
#          BR         NDA      ID1       ID2
     7.05455427E-04    2     1000022         6   # BR(~t_2 -> ~chi_10 t )
     1.68957144E-03    2     1000023         6   # BR(~t_2 -> ~chi_20 t )
     1.68929948E-03    2     1000025         6   # BR(~t_2 -> ~chi_30 t )
     9.95974101E-01    2     1000024         5   # BR(~t_2 -> ~chi_1+ b )
    -4.60812869E-05    2     1000006        25   # BR(~t_2 -> ~t_1    h )
     4.82506344E-05    2     1000006        35   # BR(~t_2 -> ~t_1    H )
     4.81663980E-05    2     1000006        36   # BR(~t_2 -> ~t_1    A )
     4.53696491E-05    2     1000005        37   # BR(~t_2 -> ~b_1    H+)
     5.09614074E-05    2     2000005        37   # BR(~t_2 -> ~b_2    H+)
    -3.29041810E-05    2     1000006        23   # BR(~t_2 -> ~t_1    Z )
    -8.26953858E-05    2     1000005        24   # BR(~t_2 -> ~b_1    W+)
    -8.94946758E-05    2     2000005        24   # BR(~t_2 -> ~b_2    W+)
#
#         PDG            Width
DECAY   1000005     4.20669690E+01   # sbottom1 decays
#          BR         NDA      ID1       ID2
     1.00000000E+00    2     1000022         5   # BR(~b_1 -> ~chi_10 b )
#
#         PDG            Width
DECAY   2000005     4.04334563E+01   # sbottom2 decays
#          BR         NDA      ID1       ID2
     1.00000000E+00    2     1000022         5   # BR(~b_2 -> ~chi_10 b )
#
#         PDG            Width
DECAY   1000002     1.29770834E-01   # sup_L decays
#          BR         NDA      ID1       ID2
     1.00000000E+00    2     1000022         2   # BR(~u_L -> ~chi_10 u)
#
#         PDG            Width
DECAY   2000002     2.08396015E+02   # sup_R decays
#          BR         NDA      ID1       ID2
     9.99733069E-01    2     1000022         2   # BR(~u_R -> ~chi_10 u)
     4.14786953E-06    2     1000023         2   # BR(~u_R -> ~chi_20 u)
     2.62783367E-04    2     1000025         2   # BR(~u_R -> ~chi_30 u)
#
#         PDG            Width
DECAY   1000001     1.29975537E-01   # sdown_L decays
#          BR         NDA      ID1       ID2
     1.00000000E+00    2     1000022         1   # BR(~d_L -> ~chi_10 d)
#
#         PDG            Width
DECAY   2000001     5.19529120E-01   # sdown_R decays
#          BR         NDA      ID1       ID2
     1.00000000E+00    2     1000022         1   # BR(~d_R -> ~chi_10 d)
#
#         PDG            Width
DECAY   1000004     1.29770834E-01   # scharm_L decays
#          BR         NDA      ID1       ID2
     1.00000000E+00    2     1000022         4   # BR(~c_L -> ~chi_10 c)
#
#         PDG            Width
DECAY   2000004     2.08396015E+02   # scharm_R decays
#          BR         NDA      ID1       ID2
     9.99733069E-01    2     1000022         4   # BR(~c_R -> ~chi_10 c)
     4.14786953E-06    2     1000023         4   # BR(~c_R -> ~chi_20 c)
     2.62783367E-04    2     1000025         4   # BR(~c_R -> ~chi_30 c)
#
#         PDG            Width
DECAY   1000003     1.29975537E-01   # sstrange_L decays
#          BR         NDA      ID1       ID2
     1.00000000E+00    2     1000022         3   # BR(~s_L -> ~chi_10 s)
#
#         PDG            Width
DECAY   2000003     5.19529120E-01   # sstrange_R decays
#          BR         NDA      ID1       ID2
     1.00000000E+00    2     1000022         3   # BR(~s_R -> ~chi_10 s)
#
#         PDG            Width
DECAY   1000011     1.22250040E+02   # selectron_L decays
#          BR         NDA      ID1       ID2
     9.99683758E-01    2     1000022        11   # BR(~e_L -> ~chi_10 e-)
     3.13606236E-06    2     1000023        11   # BR(~e_L -> ~chi_20 e-)
     3.10442182E-04    2     1000025        11   # BR(~e_L -> ~chi_30 e-)
     2.66346669E-06    2    -1000024        12   # BR(~e_L -> ~chi_1- nu_e)
#
#         PDG            Width
DECAY   2000011     4.88997256E+02   # selectron_R decays
#          BR         NDA      ID1       ID2
     9.99733383E-01    2     1000022        11   # BR(~e_R -> ~chi_10 e-)
     4.14299543E-06    2     1000023        11   # BR(~e_R -> ~chi_20 e-)
     2.62474490E-04    2     1000025        11   # BR(~e_R -> ~chi_30 e-)
#
#         PDG            Width
DECAY   1000013     1.22250040E+02   # smuon_L decays
#          BR         NDA      ID1       ID2
     9.99683758E-01    2     1000022        13   # BR(~mu_L -> ~chi_10 mu-)
     3.13606236E-06    2     1000023        13   # BR(~mu_L -> ~chi_20 mu-)
     3.10442182E-04    2     1000025        13   # BR(~mu_L -> ~chi_30 mu-)
     2.66346669E-06    2    -1000024        14   # BR(~mu_L -> ~chi_1- nu_mu)
#
#         PDG            Width
DECAY   2000013     4.88997256E+02   # smuon_R decays
#          BR         NDA      ID1       ID2
     9.99733383E-01    2     1000022        13   # BR(~mu_R -> ~chi_10 mu-)
     4.14299543E-06    2     1000023        13   # BR(~mu_R -> ~chi_20 mu-)
     2.62474490E-04    2     1000025        13   # BR(~mu_R -> ~chi_30 mu-)
#
#         PDG            Width
DECAY   1000015     1.18199874E+04   # stau_1 decays
#          BR         NDA      ID1       ID2
     2.58999167E-02    2     1000022        15   # BR(~tau_1 -> ~chi_10  tau-)
     2.53177860E-05    2     1000023        15   # BR(~tau_1 -> ~chi_20  tau-)
     2.57295465E-05    2     1000025        15   # BR(~tau_1 -> ~chi_30  tau-)
     2.77087611E-05    2    -1000024        16   # BR(~tau_1 -> ~chi_1-  nu_tau)
     9.74021327E-01    2     1000039        15   # BR(~tau_1 -> ~G       tau-)
#
#         PDG            Width
DECAY   2000015     3.06053326E+02   # stau_2 decays
#          BR         NDA      ID1       ID2
     9.96368125E-01    2     1000022        15   # BR(~tau_2 -> ~chi_10  tau-)
     1.07063561E-03    2     1000023        15   # BR(~tau_2 -> ~chi_20  tau-)
     1.58968608E-03    2     1000025        15   # BR(~tau_2 -> ~chi_30  tau-)
     9.71552996E-04    2    -1000024        16   # BR(~tau_2 -> ~chi_1-  nu_tau)
#
#         PDG            Width
DECAY   1000012     1.22250100E+02   # snu_eL decays
#          BR         NDA      ID1       ID2
     9.99770518E-01    2     1000022        12   # BR(~nu_eL -> ~chi_10 nu_e)
     5.28983444E-06    2     1000023        12   # BR(~nu_eL -> ~chi_20 nu_e)
     2.18526996E-04    2     1000025        12   # BR(~nu_eL -> ~chi_30 nu_e)
     5.66525766E-06    2     1000024        11   # BR(~nu_eL -> ~chi_1+ e-)
#
#         PDG            Width
DECAY   1000014     1.22250100E+02   # snu_muL decays
#          BR         NDA      ID1       ID2
     9.99770518E-01    2     1000022        14   # BR(~nu_muL -> ~chi_10 nu_mu)
     5.28983444E-06    2     1000023        14   # BR(~nu_muL -> ~chi_20 nu_mu)
     2.18526996E-04    2     1000025        14   # BR(~nu_muL -> ~chi_30 nu_mu)
     5.66525766E-06    2     1000024        13   # BR(~nu_muL -> ~chi_1+ mu-)
#
#         PDG            Width
DECAY   1000016     1.22874639E+02   # snu_tauL decays
#          BR         NDA      ID1       ID2
     9.94688955E-01    2     1000022        16   # BR(~nu_tauL -> ~chi_10 nu_tau)
     5.26294764E-06    2     1000023        16   # BR(~nu_tauL -> ~chi_20 nu_tau)
     2.17416283E-04    2     1000025        16   # BR(~nu_tauL -> ~chi_30 nu_tau)
     5.08836563E-03    2     1000024        15   # BR(~nu_tauL -> ~chi_1+ tau-)
#
#         PDG            Width
DECAY   1000024     6.68780334E+01   # chargino1+ decays
#          BR         NDA      ID1       ID2
     4.29627695E-07    2     1000002        -1   # BR(~chi_1+ -> ~u_L     db)
     2.01893373E-07    2    -1000001         2   # BR(~chi_1+ -> ~d_L*    u )
     4.29627695E-07    2     1000004        -3   # BR(~chi_1+ -> ~c_L     sb)
     2.01893373E-07    2    -1000003         4   # BR(~chi_1+ -> ~s_L*    c )
     1.09921707E-01    2     1000006        -5   # BR(~chi_1+ -> ~t_1     bb)
     7.67555535E-02    2    -1000005         6   # BR(~chi_1+ -> ~b_1*    t )
     7.65140523E-01    2    -2000005         6   # BR(~chi_1+ -> ~b_2*    t )
     4.29292062E-02    2     1000022        24   # BR(~chi_1+ -> ~chi_10  W+)
     5.24634914E-03    2     1000022        37   # BR(~chi_1+ -> ~chi_10  H+)
     4.51115899E-06    2     1000039        24   # BR(~chi_1+ -> ~G       W+)
     8.87608232E-07    2     1000039        37   # BR(~chi_1+ -> ~G       H+)
#
#         PDG            Width
DECAY   1000037     1.83682949E+05   # chargino2+ decays
#          BR         NDA      ID1       ID2
     5.63549941E-03    2     1000002        -1   # BR(~chi_2+ -> ~u_L     db)
     5.63550120E-03    2    -1000001         2   # BR(~chi_2+ -> ~d_L*    u )
     5.63549941E-03    2     1000004        -3   # BR(~chi_2+ -> ~c_L     sb)
     5.63550120E-03    2    -1000003         4   # BR(~chi_2+ -> ~s_L*    c )
     9.04146400E-01    2     1000006        -5   # BR(~chi_2+ -> ~t_1     bb)
     1.22800755E-03    2    -1000005         6   # BR(~chi_2+ -> ~b_1*    t )
     5.35691400E-03    2    -2000005         6   # BR(~chi_2+ -> ~b_2*    t )
     4.16527810E-15    2     1000012       -11   # BR(~chi_2+ -> ~nu_eL   e+  )
     4.16527810E-15    2     1000014       -13   # BR(~chi_2+ -> ~nu_muL  mu+ )
     2.91641201E-15    2    -1000011        12   # BR(~chi_2+ -> ~e_L+    nu_e)
     2.91641201E-15    2    -1000013        14   # BR(~chi_2+ -> ~mu_L+   nu_mu)
     4.52499134E-15    2    -1000015        16   # BR(~chi_2+ -> ~tau_1+  nu_tau)
     7.70155049E-17    2    -2000015        16   # BR(~chi_2+ -> ~tau_2+  nu_tau)
     1.03355720E-03    2     1000024        23   # BR(~chi_2+ -> ~chi_1+  Z )
     2.17559536E-07    2     1000022        24   # BR(~chi_2+ -> ~chi_10  W+)
     1.00289592E-03    2     1000023        24   # BR(~chi_2+ -> ~chi_20  W+)
     1.00266750E-03    2     1000025        24   # BR(~chi_2+ -> ~chi_30  W+)
     1.04305497E-03    2     1000024        25   # BR(~chi_2+ -> ~chi_1+  h )
     9.15606104E-04    2     1000024        35   # BR(~chi_2+ -> ~chi_1+  H )
     9.15727088E-04    2     1000024        36   # BR(~chi_2+ -> ~chi_1+  A )
     2.69404831E-07    2     1000022        37   # BR(~chi_2+ -> ~chi_10  H+)
     9.15694950E-04    2     1000023        37   # BR(~chi_2+ -> ~chi_20  H+)
     9.15456070E-04    2     1000025        37   # BR(~chi_2+ -> ~chi_30  H+)
     5.89815134E-02    2     1000039        24   # BR(~chi_2+ -> ~G       W+)
     1.69200454E-08    2     1000039        37   # BR(~chi_2+ -> ~G       H+)
#
#         PDG            Width
DECAY   1000022     1.E-08   # neutralino1 decays (OJ Mods)
#          BR         NDA      ID1       ID2
     7.67154209E-01    2     1000039        22   # BR(~chi_10 -> ~G        gam)
     2.32845189E-01    2     1000039        23   # BR(~chi_10 -> ~G        Z)
     6.01669924E-07    2     1000039        25   # BR(~chi_10 -> ~G        h)
#
#         PDG            Width
DECAY   1000023     1.E-08   # neutralino2 decays (OJ Mods)
#          BR         NDA      ID1       ID2
     3.93332459E-02    2     1000022        23   # BR(~chi_20 -> ~chi_10   Z )
     6.10909545E-04    2     1000022        25   # BR(~chi_20 -> ~chi_10   h )
     4.18229187E-03    2     1000022        35   # BR(~chi_20 -> ~chi_10   H )
     7.40415133E-04    2     1000022        36   # BR(~chi_20 -> ~chi_10   A )
     1.35506816E-08    2     1000002        -2   # BR(~chi_20 -> ~u_L      ub)
     1.35506816E-08    2    -1000002         2   # BR(~chi_20 -> ~u_L*     u )
     7.02959685E-08    2     1000001        -1   # BR(~chi_20 -> ~d_L      db)
     7.02959685E-08    2    -1000001         1   # BR(~chi_20 -> ~d_L*     d )
     1.45582732E-07    2     2000001        -1   # BR(~chi_20 -> ~d_R      db)
     1.45582732E-07    2    -2000001         1   # BR(~chi_20 -> ~d_R*     d )
     1.35506816E-08    2     1000004        -4   # BR(~chi_20 -> ~c_L      cb)
     1.35506816E-08    2    -1000004         4   # BR(~chi_20 -> ~c_L*     c )
     7.02959685E-08    2     1000003        -3   # BR(~chi_20 -> ~s_L      sb)
     7.02959685E-08    2    -1000003         3   # BR(~chi_20 -> ~s_L*     s )
     1.45582732E-07    2     2000003        -3   # BR(~chi_20 -> ~s_R      sb)
     1.45582732E-07    2    -2000003         3   # BR(~chi_20 -> ~s_R*     s )
     3.79492815E-01    2     1000006        -6   # BR(~chi_20 -> ~t_1      tb)
     3.79492815E-01    2    -1000006         6   # BR(~chi_20 -> ~t_1*     t )
     4.74347791E-02    2     1000005        -5   # BR(~chi_20 -> ~b_1      bb)
     4.74347791E-02    2    -1000005         5   # BR(~chi_20 -> ~b_1*     b )
     5.06361247E-02    2     2000005        -5   # BR(~chi_20 -> ~b_2      bb)
     5.06361247E-02    2    -2000005         5   # BR(~chi_20 -> ~b_2*     b )
     2.36081236E-11    2     1000039        22   # BR(~chi_20 -> ~G        gam)
     1.56663388E-07    2     1000039        23   # BR(~chi_20 -> ~G        Z)
     3.90999978E-06    2     1000039        25   # BR(~chi_20 -> ~G        h)
     3.13242028E-08    2     1000039        35   # BR(~chi_20 -> ~G        H)
     8.07745205E-07    2     1000039        36   # BR(~chi_20 -> ~G        A)
#
#         PDG            Width
DECAY   1000025     7.42526420E+01   # neutralino3 decays
#          BR         NDA      ID1       ID2
     6.20377321E-04    2     1000022        23   # BR(~chi_30 -> ~chi_10   Z )
     3.95383292E-02    2     1000022        25   # BR(~chi_30 -> ~chi_10   h )
     7.18411478E-04    2     1000022        35   # BR(~chi_30 -> ~chi_10   H )
     4.20151465E-03    2     1000022        36   # BR(~chi_30 -> ~chi_10   A )
     3.66764904E-06    2     1000002        -2   # BR(~chi_30 -> ~u_L      ub)
     3.66764904E-06    2    -1000002         2   # BR(~chi_30 -> ~u_L*     u )
     1.25024651E-06    2     1000001        -1   # BR(~chi_30 -> ~d_L      db)
     1.25024651E-06    2    -1000001         1   # BR(~chi_30 -> ~d_L*     d )
     9.19989507E-06    2     2000001        -1   # BR(~chi_30 -> ~d_R      db)
     9.19989507E-06    2    -2000001         1   # BR(~chi_30 -> ~d_R*     d )
     3.66764904E-06    2     1000004        -4   # BR(~chi_30 -> ~c_L      cb)
     3.66764904E-06    2    -1000004         4   # BR(~chi_30 -> ~c_L*     c )
     1.25024651E-06    2     1000003        -3   # BR(~chi_30 -> ~s_L      sb)
     1.25024651E-06    2    -1000003         3   # BR(~chi_30 -> ~s_L*     s )
     9.19989507E-06    2     2000003        -3   # BR(~chi_30 -> ~s_R      sb)
     9.19989507E-06    2    -2000003         3   # BR(~chi_30 -> ~s_R*     s )
     3.78568181E-01    2     1000006        -6   # BR(~chi_30 -> ~t_1      tb)
     3.78568181E-01    2    -1000006         6   # BR(~chi_30 -> ~t_1*     t )
     3.98319014E-02    2     1000005        -5   # BR(~chi_30 -> ~b_1      bb)
     3.98319014E-02    2    -1000005         5   # BR(~chi_30 -> ~b_1*     b )
     5.90336964E-02    2     2000005        -5   # BR(~chi_30 -> ~b_2      bb)
     5.90336964E-02    2    -2000005         5   # BR(~chi_30 -> ~b_2*     b )
     1.71719880E-09    2     1000039        22   # BR(~chi_30 -> ~G        gam)
     3.90759038E-06    2     1000039        23   # BR(~chi_30 -> ~G        Z)
     1.52387854E-07    2     1000039        25   # BR(~chi_30 -> ~G        h)
     8.01000741E-07    2     1000039        35   # BR(~chi_30 -> ~G        H)
     3.22551980E-08    2     1000039        36   # BR(~chi_30 -> ~G        A)
#
#         PDG            Width
DECAY   1000035     1.83683717E+05   # neutralino4 decays
#          BR         NDA      ID1       ID2
     9.76046358E-10    2     1000022        23   # BR(~chi_40 -> ~chi_10   Z )
     9.98823875E-04    2     1000023        23   # BR(~chi_40 -> ~chi_20   Z )
     3.47290905E-05    2     1000025        23   # BR(~chi_40 -> ~chi_30   Z )
     1.00288564E-03    2     1000024       -24   # BR(~chi_40 -> ~chi_1+   W-)
     1.00288564E-03    2    -1000024        24   # BR(~chi_40 -> ~chi_1-   W+)
     2.25614775E-07    2     1000022        25   # BR(~chi_40 -> ~chi_10   h )
     2.62628393E-08    2     1000022        35   # BR(~chi_40 -> ~chi_10   H )
     2.42791839E-07    2     1000022        36   # BR(~chi_40 -> ~chi_10   A )
     3.42523894E-05    2     1000023        25   # BR(~chi_40 -> ~chi_20   h )
     8.76226134E-04    2     1000023        35   # BR(~chi_40 -> ~chi_20   H )
     4.02788179E-05    2     1000023        36   # BR(~chi_40 -> ~chi_20   A )
     1.00857393E-03    2     1000025        25   # BR(~chi_40 -> ~chi_30   h )
     3.93489725E-05    2     1000025        35   # BR(~chi_40 -> ~chi_30   H )
     8.75201857E-04    2     1000025        36   # BR(~chi_40 -> ~chi_30   A )
     9.15707182E-04    2     1000024       -37   # BR(~chi_40 -> ~chi_1+   H-)
     9.15707182E-04    2    -1000024        37   # BR(~chi_40 -> ~chi_1-   H+)
     2.69766534E-03    2     1000002        -2   # BR(~chi_40 -> ~u_L      ub)
     2.69766534E-03    2    -1000002         2   # BR(~chi_40 -> ~u_L*     u )
     4.33786633E-23    2     2000002        -2   # BR(~chi_40 -> ~u_R      ub)
     4.33786633E-23    2    -2000002         2   # BR(~chi_40 -> ~u_R*     u )
     2.69766658E-03    2     1000001        -1   # BR(~chi_40 -> ~d_L      db)
     2.69766658E-03    2    -1000001         1   # BR(~chi_40 -> ~d_L*     d )
     5.18583523E-17    2     2000001        -1   # BR(~chi_40 -> ~d_R      db)
     5.18583523E-17    2    -2000001         1   # BR(~chi_40 -> ~d_R*     d )
     2.69766534E-03    2     1000004        -4   # BR(~chi_40 -> ~c_L      cb)
     2.69766534E-03    2    -1000004         4   # BR(~chi_40 -> ~c_L*     c )
     4.33786633E-23    2     2000004        -4   # BR(~chi_40 -> ~c_R      cb)
     4.33786633E-23    2    -2000004         4   # BR(~chi_40 -> ~c_R*     c )
     2.69766658E-03    2     1000003        -3   # BR(~chi_40 -> ~s_L      sb)
     2.69766658E-03    2    -1000003         3   # BR(~chi_40 -> ~s_L*     s )
     5.18583523E-17    2     2000003        -3   # BR(~chi_40 -> ~s_R      sb)
     5.18583523E-17    2    -2000003         3   # BR(~chi_40 -> ~s_R*     s )
     3.29244660E-03    2     1000006        -6   # BR(~chi_40 -> ~t_1      tb)
     3.29244660E-03    2    -1000006         6   # BR(~chi_40 -> ~t_1*     t )
     2.16127622E-01    2     1000005        -5   # BR(~chi_40 -> ~b_1      bb)
     2.16127622E-01    2    -1000005         5   # BR(~chi_40 -> ~b_1*     b )
     2.35945768E-01    2     2000005        -5   # BR(~chi_40 -> ~b_2      bb)
     2.35945768E-01    2    -2000005         5   # BR(~chi_40 -> ~b_2*     b )
     1.45819931E-15    2     1000011       -11   # BR(~chi_40 -> ~e_L-     e+)
     1.45819931E-15    2    -1000011        11   # BR(~chi_40 -> ~e_L+     e-)
     2.52284237E-28    2     2000011       -11   # BR(~chi_40 -> ~e_R-     e+)
     2.52284237E-28    2    -2000011        11   # BR(~chi_40 -> ~e_R+     e-)
     1.45819931E-15    2     1000013       -13   # BR(~chi_40 -> ~mu_L-    mu+)
     1.45819931E-15    2    -1000013        13   # BR(~chi_40 -> ~mu_L+    mu-)
     2.52284237E-28    2     2000013       -13   # BR(~chi_40 -> ~mu_R-    mu+)
     2.52284237E-28    2    -2000013        13   # BR(~chi_40 -> ~mu_R+    mu-)
     2.08263223E-15    2     1000012       -12   # BR(~chi_40 -> ~nu_eL    nu_eb)
     2.08263223E-15    2    -1000012        12   # BR(~chi_40 -> ~nu_eL*   nu_e )
     2.08263223E-15    2     1000014       -14   # BR(~chi_40 -> ~nu_muL   nu_mub)
     2.08263223E-15    2    -1000014        14   # BR(~chi_40 -> ~nu_muL*  nu_mu )
     2.08263223E-15    2     1000016       -16   # BR(~chi_40 -> ~nu_tau1  nu_taub)
     2.08263223E-15    2    -1000016        16   # BR(~chi_40 -> ~nu_tau1* nu_tau )
     1.42873220E-02    2     1000039        22   # BR(~chi_40 -> ~G        gam)
     4.46939553E-02    2     1000039        23   # BR(~chi_40 -> ~G        Z)
     2.69960984E-09    2     1000039        25   # BR(~chi_40 -> ~G        h)
     1.69482325E-08    2     1000039        35   # BR(~chi_40 -> ~G        H)
     3.33978688E-12    2     1000039        36   # BR(~chi_40 -> ~G        A)
#
#
#
#
