#
#                              ======================
#                              | THE SUSYHIT OUTPUT |
#                              ======================
#
#
#              ------------------------------------------------------
#              |     This is the output of the SUSY-HIT package     |
#              |  created by A.Djouadi, M.Muehlleitner and M.Spira. |
#              |  In case of problems with SUSY-HIT email to        |
#              |           margarete.muehlleitner@cern.ch           |
#              |           michael.spira@psi.ch                     |
#              |           abdelhak.djouadi@cern.ch                 |
#              ------------------------------------------------------
#
#              ------------------------------------------------------
#              |  SUSY Les Houches Accord - MSSM Spectrum + Decays  |
#              |              based on the decay programs           |
#              |                                                    |
#              |                     SDECAY 1.3b                    |
#              |                                                    |
#              |  Authors: M.Muhlleitner, A.Djouadi and Y.Mambrini  |
#              |  Ref.:    Comput.Phys.Commun.168(2005)46           |
#              |           [hep-ph/0311167]                         |
#              |                                                    |
#              |                     HDECAY 3.4                     |
#              |                                                    |
#              |  By: A.Djouadi,J.Kalinowski,M.Muhlleitner,M.Spira  |
#              |  Ref.:    Comput.Phys.Commun.108(1998)56           |
#              |           [hep-ph/9704448]                         |
#              |                                                    |
#              |                                                    |
#              |  If not stated otherwise all DRbar couplings and   |
#              |  soft SUSY breaking masses are given at the scale  |
#              |  Q=  0.91187600E+02
#              |                                                    |
#              ------------------------------------------------------
#
#
BLOCK DCINFO  # Decay Program information
     1   SDECAY/HDECAY # decay calculator
     2   1.3b  /3.4    # version number
#
BLOCK SPINFO  # Spectrum calculator information
     1   SuSpect     # RGE +Spectrum calculator            
     2   2.41         # version number                     
#
BLOCK MODSEL  # Model selection
     1     0   # #general MSSM low scale                           
#
BLOCK SMINPUTS  # Standard Model inputs
         1     1.27934000E+02   # alpha_em^-1(M_Z)^MSbar
         2     1.16639000E-05   # G_F [GeV^-2]
         3     1.17200000E-01   # alpha_S(M_Z)^MSbar
         4     9.11870000E+01   # M_Z pole mass
         5     4.25000000E+00   # mb(mb)^MSbar
         6     1.72500000E+02   # mt pole mass
         7     1.77700000E+00   # mtau pole mass
#
BLOCK MINPAR  # Input parameters - minimal models
#
BLOCK EXTPAR  # Input parameters - non-minimal models
         0     9.11876000E+01   # EWSB                
         1     1.39000000E+03   # M_1                 
         2     1.00000000E+05   # M_2                 
         3     1.00000000E+05   # M_3                 
        11     0.00000000E+00   # A_t                 
        12     0.00000000E+00   # A_b                 
        13     0.00000000E+00   # A_tau               
        14     0.00000000E+00   # A_u                 
        15     0.00000000E+00   # A_d                 
        16     0.00000000E+00   # A_e                 
        23     3.50000000E+03   # mu(EWSB)            
        25     1.50000000E+00   # tanbeta(in)         
        26     2.00000000E+03   # MA_pole             
        31     1.00000000E+05   # M_eL                
        32     1.00000000E+05   # M_muL               
        33     1.00000000E+05   # M_tauL              
        34     1.00000000E+05   # M_eR                
        35     1.00000000E+05   # M_muR               
        36     1.00000000E+05   # M_tauR              
        41     1.40000000E+03   # M_q1L               
        42     1.40000000E+03   # M_q2L               
        43     1.40000000E+03   # M_q3L               
        44     1.00000000E+05   # M_uR                
        45     1.00000000E+05   # M_cR                
        46     1.00000000E+05   # M_tR                
        47     1.40000000E+03   # M_dR                
        48     1.40000000E+03   # M_sR                
        49     1.40000000E+03   # M_bR                
#
BLOCK MASS  # Mass Spectrum
# PDG code           mass       particle
        24     8.05821923E+01   # W+
        25     1.25000000E+02   # h
        35     2.00399248E+03   # H
        36     2.00000000E+03   # A
        37     2.02369642E+03   # H+
         5     4.87877839E+00   # b-quark pole mass calculated from mb(mb)_Msbar
   1000001     1.40047475E+03   # ~d_L
   2000001     1.40009140E+03   # ~d_R
   1000002     1.39961653E+03   # ~u_L
   2000002     9.99999974E+04   # ~u_R
   1000003     1.40047475E+03   # ~s_L
   2000003     1.40009140E+03   # ~s_R
   1000004     1.39961653E+03   # ~c_L
   2000004     9.99999974E+04   # ~c_R
   1000005     1.39543018E+03   # ~b_1
   2000005     1.40512398E+03   # ~b_2
   1000006     1.40736171E+03   # ~t_1
   2000006     1.00000106E+05   # ~t_2
   1000011     1.00000004E+05   # ~e_L
   2000011     1.00000004E+05   # ~e_R
   1000012     9.99999921E+04   # ~nu_eL
   1000013     1.00000004E+05   # ~mu_L
   2000013     1.00000004E+05   # ~mu_R
   1000014     9.99999921E+04   # ~nu_muL
   1000015     9.99999574E+04   # ~tau_1
   2000015     1.00000051E+05   # ~tau_2
   1000016     9.99999921E+04   # ~nu_tauL
   1000021     1.00000000E+05   # ~g
   1000022     1.38910634E+03   # ~chi_10
   1000023    -3.50001802E+03   # ~chi_20
   1000025     3.50084711E+03   # ~chi_30
   1000035     1.00000065E+05   # ~chi_40
   1000024     3.49994007E+03   # ~chi_1+
   1000037     1.00000065E+05   # ~chi_2+
   1000039     1.00000000E-09   # ~gravitino
#
BLOCK NMIX  # Neutralino Mixing Matrix
  1  1     9.99783059E-01   # N_11
  1  2    -1.60292474E-05   # N_12
  1  3     1.59405676E-02   # N_13
  1  4    -1.34064287E-02   # N_14
  2  1     1.79202301E-03   # N_21
  2  2    -1.49786243E-04   # N_22
  2  3    -7.07096534E-01   # N_23
  2  4    -7.07114742E-01   # N_24
  3  1     2.07514560E-02   # N_31
  3  2     8.03045516E-04   # N_32
  3  3    -7.06937180E-01   # N_33
  3  4     7.06971397E-01   # N_34
  4  1     3.70173557E-07   # N_41
  4  2    -9.99999666E-01   # N_42
  4  3    -4.62045069E-04   # N_43
  4  4     6.73861391E-04   # N_44
#
BLOCK UMIX  # Chargino Mixing Matrix U
  1  1    -6.53430195E-04   # U_11
  1  2     9.99999787E-01   # U_12
  2  1     9.99999787E-01   # U_21
  2  2     6.53430195E-04   # U_22
#
BLOCK VMIX  # Chargino Mixing Matrix V
  1  1    -9.52983828E-04   # V_11
  1  2     9.99999546E-01   # V_12
  2  1     9.99999546E-01   # V_21
  2  2     9.52983828E-04   # V_22
#
BLOCK STOPMIX  # Stop Mixing Matrix
  1  1     9.99999999E-01   # cos(theta_t)
  1  2     4.47213589E-05   # sin(theta_t)
  2  1    -4.47213589E-05   # -sin(theta_t)
  2  2     9.99999999E-01   # cos(theta_t)
#
BLOCK SBOTMIX  # Sbottom Mixing Matrix
  1  1     6.92984370E-01   # cos(theta_b)
  1  2     7.20952608E-01   # sin(theta_b)
  2  1    -7.20952608E-01   # -sin(theta_b)
  2  2     6.92984370E-01   # cos(theta_b)
#
BLOCK STAUMIX  # Stau Mixing Matrix
  1  1     7.06159994E-01   # cos(theta_tau)
  1  2     7.08052302E-01   # sin(theta_tau)
  2  1    -7.08052302E-01   # -sin(theta_tau)
  2  2     7.06159994E-01   # cos(theta_tau)
#
BLOCK ALPHA  # Higgs mixing
          -5.90281258E-01   # Mixing angle in the neutral Higgs boson sector
#
BLOCK HMIX Q=  9.11876000E+01  # DRbar Higgs Parameters
         1     3.50000000E+03   # mu(Q)               
         2     1.49999982E+00   # tanbeta(Q)          
         3     2.54878865E+02   # vev(Q)              
         4    -6.83123981E+07   # MA^2(Q)             
#
BLOCK GAUGE Q=  9.11876000E+01  # The gauge couplings
     1     3.50598258E-01   # gprime(Q) DRbar
     2     6.20251845E-01   # g(Q) DRbar
     3     1.02581539E+00   # g3(Q) DRbar
#
BLOCK AU Q=  9.11876000E+01  # The trilinear couplings
  1  1     0.00000000E+00   # A_u(Q) DRbar
  2  2     0.00000000E+00   # A_c(Q) DRbar
  3  3     0.00000000E+00   # A_t(Q) DRbar
#
BLOCK AD Q=  9.11876000E+01  # The trilinear couplings
  1  1     0.00000000E+00   # A_d(Q) DRbar
  2  2     0.00000000E+00   # A_s(Q) DRbar
  3  3     0.00000000E+00   # A_b(Q) DRbar
#
BLOCK AE Q=  9.11876000E+01  # The trilinear couplings
  1  1     0.00000000E+00   # A_e(Q) DRbar
  2  2     0.00000000E+00   # A_mu(Q) DRbar
  3  3     0.00000000E+00   # A_tau(Q) DRbar
#
BLOCK Yu Q=  9.11876000E+01  # The Yukawa couplings
  1  1     0.00000000E+00   # y_u(Q) DRbar
  2  2     0.00000000E+00   # y_c(Q) DRbar
  3  3     9.83524877E-01   # y_t(Q) DRbar
#
BLOCK Yd Q=  9.11876000E+01  # The Yukawa couplings
  1  1     0.00000000E+00   # y_d(Q) DRbar
  2  2     0.00000000E+00   # y_s(Q) DRbar
  3  3     2.58423473E-02   # y_b(Q) DRbar
#
BLOCK Ye Q=  9.11876000E+01  # The Yukawa couplings
  1  1     0.00000000E+00   # y_e(Q) DRbar
  2  2     0.00000000E+00   # y_mu(Q) DRbar
  3  3     1.77388185E-02   # y_tau(Q) DRbar
#
BLOCK MSOFT Q=  9.11876000E+01  # The soft SUSY breaking masses at the scale Q
         1     1.39000000E+03   # M_1                 
         2     1.00000000E+05   # M_2                 
         3     1.00000000E+05   # M_3                 
        14     0.00000000E+00   # A_u                 
        15     0.00000000E+00   # A_d                 
        16     0.00000000E+00   # A_e                 
        21     6.32550911E+08   # M^2_Hd              
        22    -1.14745186E+09   # M^2_Hu              
        31     1.00000000E+05   # M_eL                
        32     1.00000000E+05   # M_muL               
        33     1.00000000E+05   # M_tauL              
        34     1.00000000E+05   # M_eR                
        35     1.00000000E+05   # M_muR               
        36     1.00000000E+05   # M_tauR              
        41     1.40000000E+03   # M_q1L               
        42     1.40000000E+03   # M_q2L               
        43     1.40000000E+03   # M_q3L               
        44     1.00000000E+05   # M_uR                
        45     1.00000000E+05   # M_cR                
        46     1.00000000E+05   # M_tR                
        47     1.40000000E+03   # M_dR                
        48     1.40000000E+03   # M_sR                
        49     1.40000000E+03   # M_bR                
#
#
#
#                             =================
#                             |The decay table|
#                             =================
#
# - The QCD corrections to the decays gluino -> squark  + quark
#                                     squark -> gaugino + quark_prime
#                                     squark -> squark_prime + Higgs
#                                     squark -> gluino  + quark
#   are included.
#
# - The multi-body decays for the inos, stops and sbottoms are included.
#
# - The loop induced decays for the gluino, neutralinos and stops
#   are included.
#
# - The SUSY decays of the top quark are included.
#
# - Possible decays of the NLSP in GMSB models are included.
#
#
#         PDG            Width
DECAY         6     1.32785499E+00   # top decays
#          BR         NDA      ID1       ID2
     1.00000000E+00    2           5        24   # BR(t ->  b    W+)
#
#         PDG            Width
DECAY   1000021     1.E-04   # gluino decays (OJ Mods)
#          BR         NDA      ID1       ID2
    -8.61615214E-04    2     1000001        -1   # BR(~g -> ~d_L  db)
    -8.61615214E-04    2    -1000001         1   # BR(~g -> ~d_L* d )
    -8.61615400E-04    2     2000001        -1   # BR(~g -> ~d_R  db)
    -8.61615400E-04    2    -2000001         1   # BR(~g -> ~d_R* d )
    -8.61615629E-04    2     1000002        -2   # BR(~g -> ~u_L  ub)
    -8.61615629E-04    2    -1000002         2   # BR(~g -> ~u_L* u )
    -2.33072166E-18    2     2000002        -2   # BR(~g -> ~u_R  ub)
    -2.33072166E-18    2    -2000002         2   # BR(~g -> ~u_R* u )
    -8.61615214E-04    2     1000003        -3   # BR(~g -> ~s_L  sb)
    -8.61615214E-04    2    -1000003         3   # BR(~g -> ~s_L* s )
    -8.61615400E-04    2     2000003        -3   # BR(~g -> ~s_R  sb)
    -8.61615400E-04    2    -2000003         3   # BR(~g -> ~s_R* s )
    -8.61615629E-04    2     1000004        -4   # BR(~g -> ~c_L  cb)
    -8.61615629E-04    2    -1000004         4   # BR(~g -> ~c_L* c )
    -2.33072166E-18    2     2000004        -4   # BR(~g -> ~c_R  cb)
    -2.33072166E-18    2    -2000004         4   # BR(~g -> ~c_R* c )
     2.60036811E-01    2     1000005        -5   # BR(~g -> ~b_1  bb)
     2.60036811E-01    2    -1000005         5   # BR(~g -> ~b_1* b )
     2.58043700E-01    2     2000005        -5   # BR(~g -> ~b_2  bb)
     2.58043700E-01    2    -2000005         5   # BR(~g -> ~b_2* b )
    -8.47929153E-04    2     1000006        -6   # BR(~g -> ~t_1  tb)
    -8.47929153E-04    2    -1000006         6   # BR(~g -> ~t_1* t )
    -2.41257795E-02    2     1000039        21   # BR(~g -> ~G g)
#
#         PDG            Width
DECAY   1000006     1.47037435E-05   # stop1 decays
#          BR         NDA      ID1       ID2
     9.75901304E-01    2     1000022         4   # BR(~t_1 -> ~chi_10 c )
     7.52390297E-03    2     1000022         2   # BR(~t_1 -> ~chi_10 u )
#           BR         NDA      ID1       ID2       ID3
     5.58720682E-03    3     1000005        -1         2   # BR(~t_1 -> ~b_1     db u)
     1.40063630E-06    3     2000005        -1         2   # BR(~t_1 -> ~b_2     db u)
     5.58720682E-03    3     1000005        -3         4   # BR(~t_1 -> ~b_1     sb c)
     1.40063630E-06    3     2000005        -3         4   # BR(~t_1 -> ~b_2     sb c)
     1.67183089E-03    3     1000005       -15        16   # BR(~t_1 -> ~b_1     tau+ nu_tau)
     9.38933328E-09    3     2000005       -15        16   # BR(~t_1 -> ~b_2     tau+ nu_tau)
     1.86240227E-03    3     1000005       -11        12   # BR(~t_1 -> ~b_1     e+   nu_e)
     4.66878768E-07    3     2000005       -11        12   # BR(~t_1 -> ~b_2     e+   nu_e)
     1.86240227E-03    3     1000005       -13        14   # BR(~t_1 -> ~b_1     mu+  nu_mu)
     4.66878768E-07    3     2000005       -13        14   # BR(~t_1 -> ~b_2     mu+  nu_mu)
#
#         PDG            Width
DECAY   2000006    -2.02745978E+05   # stop2 decays
#          BR         NDA      ID1       ID2
    -1.02809107E-03    2     1000022         6   # BR(~t_2 -> ~chi_10 t )
    -2.45901280E-03    2     1000023         6   # BR(~t_2 -> ~chi_20 t )
    -2.45840108E-03    2     1000025         6   # BR(~t_2 -> ~chi_30 t )
     1.00585994E+00    2     1000024         5   # BR(~t_2 -> ~chi_1+ b )
     6.72462320E-05    2     1000006        25   # BR(~t_2 -> ~t_1    h )
    -7.04038549E-05    2     1000006        35   # BR(~t_2 -> ~t_1    H )
    -7.02815975E-05    2     1000006        36   # BR(~t_2 -> ~t_1    A )
    -6.62000275E-05    2     1000005        37   # BR(~t_2 -> ~b_1    H+)
    -7.43638579E-05    2     2000005        37   # BR(~t_2 -> ~b_2    H+)
     4.80832704E-05    2     1000006        23   # BR(~t_2 -> ~t_1    Z )
     1.20771270E-04    2     1000005        24   # BR(~t_2 -> ~b_1    W+)
     1.30711250E-04    2     2000005        24   # BR(~t_2 -> ~b_2    W+)
#
#         PDG            Width
DECAY   1000005    -1.35435936E-03   # sbottom1 decays
#          BR         NDA      ID1       ID2
     1.00000000E+00    2     1000022         5   # BR(~b_1 -> ~chi_10 b )
#
#         PDG            Width
DECAY   2000005    -3.47475875E-02   # sbottom2 decays
#          BR         NDA      ID1       ID2
     1.00000000E+00    2     1000022         5   # BR(~b_2 -> ~chi_10 b )
#
#         PDG            Width
DECAY   1000002     2.57718092E-04   # sup_L decays
#          BR         NDA      ID1       ID2
     1.00000000E+00    2     1000022         2   # BR(~u_L -> ~chi_10 u)
#
#         PDG            Width
DECAY   2000002     2.08382886E+02   # sup_R decays
#          BR         NDA      ID1       ID2
     9.99566644E-01    2     1000022         2   # BR(~u_R -> ~chi_10 u)
     3.20781156E-06    2     1000023         2   # BR(~u_R -> ~chi_20 u)
     4.30148600E-04    2     1000025         2   # BR(~u_R -> ~chi_30 u)
#
#         PDG            Width
DECAY   1000001     2.83427062E-04   # sdown_L decays
#          BR         NDA      ID1       ID2
     1.00000000E+00    2     1000022         1   # BR(~d_L -> ~chi_10 d)
#
#         PDG            Width
DECAY   2000001     1.08741632E-03   # sdown_R decays
#          BR         NDA      ID1       ID2
     1.00000000E+00    2     1000022         1   # BR(~d_R -> ~chi_10 d)
#
#         PDG            Width
DECAY   1000004     2.57718092E-04   # scharm_L decays
#          BR         NDA      ID1       ID2
     1.00000000E+00    2     1000022         4   # BR(~c_L -> ~chi_10 c)
#
#         PDG            Width
DECAY   2000004     2.08382886E+02   # scharm_R decays
#          BR         NDA      ID1       ID2
     9.99566644E-01    2     1000022         4   # BR(~c_R -> ~chi_10 c)
     3.20781156E-06    2     1000023         4   # BR(~c_R -> ~chi_20 c)
     4.30148600E-04    2     1000025         4   # BR(~c_R -> ~chi_30 c)
#
#         PDG            Width
DECAY   1000003     2.83427062E-04   # sstrange_L decays
#          BR         NDA      ID1       ID2
     1.00000000E+00    2     1000022         3   # BR(~s_L -> ~chi_10 s)
#
#         PDG            Width
DECAY   2000003     1.08741632E-03   # sstrange_R decays
#          BR         NDA      ID1       ID2
     1.00000000E+00    2     1000022         3   # BR(~s_R -> ~chi_10 s)
#
#         PDG            Width
DECAY   1000011     1.22223367E+02   # selectron_L decays
#          BR         NDA      ID1       ID2
     9.99504419E-01    2     1000022        11   # BR(~e_L -> ~chi_10 e-)
     2.32700509E-06    2     1000023        11   # BR(~e_L -> ~chi_20 e-)
     4.90586497E-04    2     1000025        11   # BR(~e_L -> ~chi_30 e-)
     2.66713997E-06    2    -1000024        12   # BR(~e_L -> ~chi_1- nu_e)
#
#         PDG            Width
DECAY   2000011     4.88890565E+02   # selectron_R decays
#          BR         NDA      ID1       ID2
     9.99567061E-01    2     1000022        11   # BR(~e_R -> ~chi_10 e-)
     3.20472294E-06    2     1000023        11   # BR(~e_R -> ~chi_20 e-)
     4.29734250E-04    2     1000025        11   # BR(~e_R -> ~chi_30 e-)
#
#         PDG            Width
DECAY   1000013     1.22223367E+02   # smuon_L decays
#          BR         NDA      ID1       ID2
     9.99504419E-01    2     1000022        13   # BR(~mu_L -> ~chi_10 mu-)
     2.32700509E-06    2     1000023        13   # BR(~mu_L -> ~chi_20 mu-)
     4.90586497E-04    2     1000025        13   # BR(~mu_L -> ~chi_30 mu-)
     2.66713997E-06    2    -1000024        14   # BR(~mu_L -> ~chi_1- nu_mu)
#
#         PDG            Width
DECAY   2000013     4.88890565E+02   # smuon_R decays
#          BR         NDA      ID1       ID2
     9.99567061E-01    2     1000022        13   # BR(~mu_R -> ~chi_10 mu-)
     3.20472294E-06    2     1000023        13   # BR(~mu_R -> ~chi_20 mu-)
     4.29734250E-04    2     1000025        13   # BR(~mu_R -> ~chi_30 mu-)
#
#         PDG            Width
DECAY   1000015     1.18199267E+04   # stau_1 decays
#          BR         NDA      ID1       ID2
     2.58927824E-02    2     1000022        15   # BR(~tau_1 -> ~chi_10  tau-)
     2.54199394E-05    2     1000023        15   # BR(~tau_1 -> ~chi_20  tau-)
     2.77539789E-05    2     1000025        15   # BR(~tau_1 -> ~chi_30  tau-)
     2.77077023E-05    2    -1000024        16   # BR(~tau_1 -> ~chi_1-  nu_tau)
     9.74026336E-01    2     1000039        15   # BR(~tau_1 -> ~G       tau-)
#
#         PDG            Width
DECAY   2000015     3.05980552E+02   # stau_2 decays
#          BR         NDA      ID1       ID2
     9.96113078E-01    2     1000022        15   # BR(~tau_2 -> ~chi_10  tau-)
     1.06492372E-03    2     1000023        15   # BR(~tau_2 -> ~chi_20  tau-)
     1.85037587E-03    2     1000025        15   # BR(~tau_2 -> ~chi_30  tau-)
     9.71622146E-04    2    -1000024        16   # BR(~tau_2 -> ~chi_1-  nu_tau)
#
#         PDG            Width
DECAY   1000012     1.22223429E+02   # snu_eL decays
#          BR         NDA      ID1       ID2
     9.99617199E-01    2     1000022        12   # BR(~nu_eL -> ~chi_10 nu_e)
     4.22254944E-06    2     1000023        12   # BR(~nu_eL -> ~chi_20 nu_e)
     3.72905012E-04    2     1000025        12   # BR(~nu_eL -> ~chi_30 nu_e)
     5.67307074E-06    2     1000024        11   # BR(~nu_eL -> ~chi_1+ e-)
#
#         PDG            Width
DECAY   1000014     1.22223429E+02   # snu_muL decays
#          BR         NDA      ID1       ID2
     9.99617199E-01    2     1000022        14   # BR(~nu_muL -> ~chi_10 nu_mu)
     4.22254944E-06    2     1000023        14   # BR(~nu_muL -> ~chi_20 nu_mu)
     3.72905012E-04    2     1000025        14   # BR(~nu_muL -> ~chi_30 nu_mu)
     5.67307074E-06    2     1000024        13   # BR(~nu_muL -> ~chi_1+ mu-)
#
#         PDG            Width
DECAY   1000016     1.22847904E+02   # snu_tauL decays
#          BR         NDA      ID1       ID2
     9.94535832E-01    2     1000022        16   # BR(~nu_tauL -> ~chi_10 nu_tau)
     4.20108490E-06    2     1000023        16   # BR(~nu_tauL -> ~chi_20 nu_tau)
     3.71009419E-04    2     1000025        16   # BR(~nu_tauL -> ~chi_30 nu_tau)
     5.08895758E-03    2     1000024        15   # BR(~nu_tauL -> ~chi_1+ tau-)
#
#         PDG            Width
DECAY   1000024     5.61937051E+01   # chargino1+ decays
#          BR         NDA      ID1       ID2
     5.40489373E-07    2     1000002        -1   # BR(~chi_1+ -> ~u_L     db)
     2.53993465E-07    2    -1000001         2   # BR(~chi_1+ -> ~d_L*    u )
     5.40489373E-07    2     1000004        -3   # BR(~chi_1+ -> ~c_L     sb)
     2.53993465E-07    2    -1000003         4   # BR(~chi_1+ -> ~s_L*    c )
    -1.12992874E-01    2     1000006        -5   # BR(~chi_1+ -> ~t_1     bb)
     9.22049975E-02    2    -1000005         6   # BR(~chi_1+ -> ~b_1*    t )
     9.61811528E-01    2    -2000005         6   # BR(~chi_1+ -> ~b_2*    t )
     5.82174329E-02    2     1000022        24   # BR(~chi_1+ -> ~chi_10  W+)
     7.50901894E-04    2     1000022        37   # BR(~chi_1+ -> ~chi_10  H+)
     5.36887074E-06    2     1000039        24   # BR(~chi_1+ -> ~G       W+)
     1.05637085E-06    2     1000039        37   # BR(~chi_1+ -> ~G       H+)
#
#         PDG            Width
DECAY   1000037    -1.14018032E+05   # chargino2+ decays
#          BR         NDA      ID1       ID2
    -1.07368305E-02    2     1000002        -1   # BR(~chi_2+ -> ~u_L     db)
    -1.07368341E-02    2    -1000001         2   # BR(~chi_2+ -> ~d_L*    u )
    -1.07368305E-02    2     1000004        -3   # BR(~chi_2+ -> ~c_L     sb)
    -1.07368341E-02    2    -1000003         4   # BR(~chi_2+ -> ~s_L*    c )
     1.18257183E+00    2     1000006        -5   # BR(~chi_2+ -> ~t_1     bb)
    -2.33137058E-03    2    -1000005         6   # BR(~chi_2+ -> ~b_1*    t )
    -1.02170872E-02    2    -2000005         6   # BR(~chi_2+ -> ~b_2*    t )
    -7.93606010E-15    2     1000012       -11   # BR(~chi_2+ -> ~nu_eL   e+  )
    -7.93606010E-15    2     1000014       -13   # BR(~chi_2+ -> ~nu_muL  mu+ )
    -5.55660880E-15    2    -1000011        12   # BR(~chi_2+ -> ~e_L+    nu_e)
    -5.55660880E-15    2    -1000013        14   # BR(~chi_2+ -> ~mu_L+   nu_mu)
    -8.62113483E-15    2    -1000015        16   # BR(~chi_2+ -> ~tau_1+  nu_tau)
    -1.46741615E-16    2    -2000015        16   # BR(~chi_2+ -> ~tau_2+  nu_tau)
    -1.97020204E-03    2     1000024        23   # BR(~chi_2+ -> ~chi_1+  Z )
    -7.12481029E-07    2     1000022        24   # BR(~chi_2+ -> ~chi_10  W+)
    -1.91200354E-03    2     1000023        24   # BR(~chi_2+ -> ~chi_20  W+)
    -1.91127069E-03    2     1000025        24   # BR(~chi_2+ -> ~chi_30  W+)
    -1.98732028E-03    2     1000024        25   # BR(~chi_2+ -> ~chi_1+  h )
    -1.74449588E-03    2     1000024        35   # BR(~chi_2+ -> ~chi_1+  H )
    -1.74472509E-03    2     1000024        36   # BR(~chi_2+ -> ~chi_1+  A )
    -8.10082349E-07    2     1000022        37   # BR(~chi_2+ -> ~chi_10  H+)
    -1.74466769E-03    2     1000023        37   # BR(~chi_2+ -> ~chi_20  H+)
    -1.74390810E-03    2     1000025        37   # BR(~chi_2+ -> ~chi_30  H+)
    -1.12315895E-01    2     1000039        24   # BR(~chi_2+ -> ~G       W+)
    -3.22399957E-08    2     1000039        37   # BR(~chi_2+ -> ~G       H+)
#
#         PDG            Width
DECAY   1000022     1.E-08   # neutralino1 decays (OJ Mods)
#          BR         NDA      ID1       ID2
     7.60847622E-01    2     1000039        22   # BR(~chi_10 -> ~G        gam)
     2.39149883E-01    2     1000039        23   # BR(~chi_10 -> ~G        Z)
     2.49486616E-06    2     1000039        25   # BR(~chi_10 -> ~G        h)
#
#         PDG            Width
DECAY   1000023     1.E-08   # neutralino2 decays (OJ Mods)
#          BR         NDA      ID1       ID2
     6.56371854E-02    2     1000022        23   # BR(~chi_20 -> ~chi_10   Z )
     4.81101678E-04    2     1000022        25   # BR(~chi_20 -> ~chi_10   h )
     3.50327823E-04    2     1000022        35   # BR(~chi_20 -> ~chi_10   H )
     6.44686190E-04    2     1000022        36   # BR(~chi_20 -> ~chi_10   A )
     1.33429121E-08    2     1000002        -2   # BR(~chi_20 -> ~u_L      ub)
     1.33429121E-08    2    -1000002         2   # BR(~chi_20 -> ~u_L*     u )
     8.97888444E-08    2     1000001        -1   # BR(~chi_20 -> ~d_L      db)
     8.97888444E-08    2    -1000001         1   # BR(~chi_20 -> ~d_L*     d )
     1.72369625E-07    2     2000001        -1   # BR(~chi_20 -> ~d_R      db)
     1.72369625E-07    2    -2000001         1   # BR(~chi_20 -> ~d_R*     d )
     1.33429121E-08    2     1000004        -4   # BR(~chi_20 -> ~c_L      cb)
     1.33429121E-08    2    -1000004         4   # BR(~chi_20 -> ~c_L*     c )
     8.97888444E-08    2     1000003        -3   # BR(~chi_20 -> ~s_L      sb)
     8.97888444E-08    2    -1000003         3   # BR(~chi_20 -> ~s_L*     s )
     1.72369625E-07    2     2000003        -3   # BR(~chi_20 -> ~s_R      sb)
     1.72369625E-07    2    -2000003         3   # BR(~chi_20 -> ~s_R*     s )
     5.80099391E-01    2     1000006        -6   # BR(~chi_20 -> ~t_1      tb)
     5.80099391E-01    2    -1000006         6   # BR(~chi_20 -> ~t_1*     t )
    -5.49590466E-02    2     1000005        -5   # BR(~chi_20 -> ~b_1      bb)
    -5.49590466E-02    2    -1000005         5   # BR(~chi_20 -> ~b_1*     b )
    -5.87010370E-02    2     2000005        -5   # BR(~chi_20 -> ~b_2      bb)
    -5.87010370E-02    2    -2000005         5   # BR(~chi_20 -> ~b_2*     b )
     2.62164229E-11    2     1000039        22   # BR(~chi_20 -> ~G        gam)
     2.27631384E-07    2     1000039        23   # BR(~chi_20 -> ~G        Z)
     5.68134836E-06    2     1000039        25   # BR(~chi_20 -> ~G        h)
     4.55231126E-08    2     1000039        35   # BR(~chi_20 -> ~G        H)
     1.17368290E-06    2     1000039        36   # BR(~chi_20 -> ~G        A)
#
#         PDG            Width
DECAY   1000025     5.07858981E+01   # neutralino3 decays
#          BR         NDA      ID1       ID2
     4.93296359E-04    2     1000022        23   # BR(~chi_30 -> ~chi_10   Z )
     6.63836665E-02    2     1000022        25   # BR(~chi_30 -> ~chi_10   h )
     6.21875119E-04    2     1000022        35   # BR(~chi_30 -> ~chi_10   H )
     3.74274533E-04    2     1000022        36   # BR(~chi_30 -> ~chi_10   A )
     8.42916968E-06    2     1000002        -2   # BR(~chi_30 -> ~u_L      ub)
     8.42916968E-06    2    -1000002         2   # BR(~chi_30 -> ~u_L*     u )
     3.66151526E-06    2     1000001        -1   # BR(~chi_30 -> ~d_L      db)
     3.66151526E-06    2    -1000001         1   # BR(~chi_30 -> ~d_L*     d )
     2.32001453E-05    2     2000001        -1   # BR(~chi_30 -> ~d_R      db)
     2.32001453E-05    2    -2000001         1   # BR(~chi_30 -> ~d_R*     d )
     8.42916968E-06    2     1000004        -4   # BR(~chi_30 -> ~c_L      cb)
     8.42916968E-06    2    -1000004         4   # BR(~chi_30 -> ~c_L*     c )
     3.66151526E-06    2     1000003        -3   # BR(~chi_30 -> ~s_L      sb)
     3.66151526E-06    2    -1000003         3   # BR(~chi_30 -> ~s_L*     s )
     2.32001453E-05    2     2000003        -3   # BR(~chi_30 -> ~s_R      sb)
     2.32001453E-05    2    -2000003         3   # BR(~chi_30 -> ~s_R*     s )
     5.82316690E-01    2     1000006        -6   # BR(~chi_30 -> ~t_1      tb)
     5.82316690E-01    2    -1000006         6   # BR(~chi_30 -> ~t_1*     t )
    -4.27506970E-02    2     1000005        -5   # BR(~chi_30 -> ~b_1      bb)
    -4.27506970E-02    2    -1000005         5   # BR(~chi_30 -> ~b_1*     b )
    -7.35673940E-02    2     2000005        -5   # BR(~chi_30 -> ~b_2      bb)
    -7.35673940E-02    2    -2000005         5   # BR(~chi_30 -> ~b_2*     b )
     4.06242654E-09    2     1000039        22   # BR(~chi_30 -> ~G        gam)
     5.71428891E-06    2     1000039        23   # BR(~chi_30 -> ~G        Z)
     2.22869314E-07    2     1000039        25   # BR(~chi_30 -> ~G        h)
     1.17153851E-06    2     1000039        35   # BR(~chi_30 -> ~G        H)
     4.71724908E-08    2     1000039        36   # BR(~chi_30 -> ~G        A)
#
#         PDG            Width
DECAY   1000035    -1.14018569E+05   # neutralino4 decays
#          BR         NDA      ID1       ID2
    -8.24461774E-09    2     1000022        23   # BR(~chi_40 -> ~chi_10   Z )
    -1.90399043E-03    2     1000023        23   # BR(~chi_40 -> ~chi_20   Z )
    -6.61945997E-05    2     1000025        23   # BR(~chi_40 -> ~chi_30   Z )
    -1.91198160E-03    2     1000024       -24   # BR(~chi_40 -> ~chi_1+   W-)
    -1.91198160E-03    2    -1000024        24   # BR(~chi_40 -> ~chi_1-   W+)
    -7.33137914E-07    2     1000022        25   # BR(~chi_40 -> ~chi_10   h )
    -6.39596455E-08    2     1000022        35   # BR(~chi_40 -> ~chi_10   H )
    -7.45142419E-07    2     1000022        36   # BR(~chi_40 -> ~chi_10   A )
    -6.52682481E-05    2     1000023        25   # BR(~chi_40 -> ~chi_20   h )
    -1.66945635E-03    2     1000023        35   # BR(~chi_40 -> ~chi_20   H )
    -7.67438690E-05    2     1000023        36   # BR(~chi_40 -> ~chi_20   A )
    -1.92131051E-03    2     1000025        25   # BR(~chi_40 -> ~chi_30   h )
    -7.49642649E-05    2     1000025        35   # BR(~chi_40 -> ~chi_30   H )
    -1.66722690E-03    2     1000025        36   # BR(~chi_40 -> ~chi_30   A )
    -1.74468488E-03    2     1000024       -37   # BR(~chi_40 -> ~chi_1+   H-)
    -1.74468488E-03    2    -1000024        37   # BR(~chi_40 -> ~chi_1-   H+)
    -5.13907502E-03    2     1000002        -2   # BR(~chi_40 -> ~u_L      ub)
    -5.13907502E-03    2    -1000002         2   # BR(~chi_40 -> ~u_L*     u )
    -8.37750121E-23    2     2000002        -2   # BR(~chi_40 -> ~u_R      ub)
    -8.37750121E-23    2    -2000002         2   # BR(~chi_40 -> ~u_R*     u )
    -5.13907755E-03    2     1000001        -1   # BR(~chi_40 -> ~d_L      db)
    -5.13907755E-03    2    -1000001         1   # BR(~chi_40 -> ~d_L*     d )
    -9.99993101E-17    2     2000001        -1   # BR(~chi_40 -> ~d_R      db)
    -9.99993101E-17    2    -2000001         1   # BR(~chi_40 -> ~d_R*     d )
    -5.13907502E-03    2     1000004        -4   # BR(~chi_40 -> ~c_L      cb)
    -5.13907502E-03    2    -1000004         4   # BR(~chi_40 -> ~c_L*     c )
    -8.37750121E-23    2     2000004        -4   # BR(~chi_40 -> ~c_R      cb)
    -8.37750121E-23    2    -2000004         4   # BR(~chi_40 -> ~c_R*     c )
    -5.13907755E-03    2     1000003        -3   # BR(~chi_40 -> ~s_L      sb)
    -5.13907755E-03    2    -1000003         3   # BR(~chi_40 -> ~s_L*     s )
    -9.99993101E-17    2     2000003        -3   # BR(~chi_40 -> ~s_R      sb)
    -9.99993101E-17    2    -2000003         3   # BR(~chi_40 -> ~s_R*     s )
    -6.27419947E-03    2     1000006        -6   # BR(~chi_40 -> ~t_1      tb)
    -6.27419947E-03    2    -1000006         6   # BR(~chi_40 -> ~t_1*     t )
     2.85783362E-01    2     1000005        -5   # BR(~chi_40 -> ~b_1      bb)
     2.85783362E-01    2    -1000005         5   # BR(~chi_40 -> ~b_1*     b )
     3.05502077E-01    2     2000005        -5   # BR(~chi_40 -> ~b_2      bb)
     3.05502077E-01    2    -2000005         5   # BR(~chi_40 -> ~b_2*     b )
    -2.77828800E-15    2     1000011       -11   # BR(~chi_40 -> ~e_L-     e+)
    -2.77828800E-15    2    -1000011        11   # BR(~chi_40 -> ~e_L+     e-)
    -4.86554943E-28    2     2000011       -11   # BR(~chi_40 -> ~e_R-     e+)
    -4.86554943E-28    2    -2000011        11   # BR(~chi_40 -> ~e_R+     e-)
    -2.77828800E-15    2     1000013       -13   # BR(~chi_40 -> ~mu_L-    mu+)
    -2.77828800E-15    2    -1000013        13   # BR(~chi_40 -> ~mu_L+    mu-)
    -4.86554943E-28    2     2000013       -13   # BR(~chi_40 -> ~mu_R-    mu+)
    -4.86554943E-28    2    -2000013        13   # BR(~chi_40 -> ~mu_R+    mu-)
    -3.96801186E-15    2     1000012       -12   # BR(~chi_40 -> ~nu_eL    nu_eb)
    -3.96801186E-15    2    -1000012        12   # BR(~chi_40 -> ~nu_eL*   nu_e )
    -3.96801186E-15    2     1000014       -14   # BR(~chi_40 -> ~nu_muL   nu_mub)
    -3.96801186E-15    2    -1000014        14   # BR(~chi_40 -> ~nu_muL*  nu_mu )
    -3.96801186E-15    2     1000016       -16   # BR(~chi_40 -> ~nu_tau1  nu_taub)
    -3.96801186E-15    2    -1000016        16   # BR(~chi_40 -> ~nu_tau1* nu_tau )
    -2.71963268E-02    2     1000039        22   # BR(~chi_40 -> ~G        gam)
    -8.51189720E-02    2     1000039        23   # BR(~chi_40 -> ~G        Z)
    -5.14424802E-09    2     1000039        25   # BR(~chi_40 -> ~G        h)
    -3.22933316E-08    2     1000039        35   # BR(~chi_40 -> ~G        H)
    -6.36372730E-12    2     1000039        36   # BR(~chi_40 -> ~G        A)
#
#
#
#
