#
#                              ======================
#                              | THE SUSYHIT OUTPUT |
#                              ======================
#
#
#              ------------------------------------------------------
#              |     This is the output of the SUSY-HIT package     |
#              |  created by A.Djouadi, M.Muehlleitner and M.Spira. |
#              |  In case of problems with SUSY-HIT email to        |
#              |           margarete.muehlleitner@cern.ch           |
#              |           michael.spira@psi.ch                     |
#              |           abdelhak.djouadi@cern.ch                 |
#              ------------------------------------------------------
#
#              ------------------------------------------------------
#              |  SUSY Les Houches Accord - MSSM Spectrum + Decays  |
#              |              based on the decay programs           |
#              |                                                    |
#              |                     SDECAY 1.3b                    |
#              |                                                    |
#              |  Authors: M.Muhlleitner, A.Djouadi and Y.Mambrini  |
#              |  Ref.:    Comput.Phys.Commun.168(2005)46           |
#              |           [hep-ph/0311167]                         |
#              |                                                    |
#              |                     HDECAY 3.4                     |
#              |                                                    |
#              |  By: A.Djouadi,J.Kalinowski,M.Muhlleitner,M.Spira  |
#              |  Ref.:    Comput.Phys.Commun.108(1998)56           |
#              |           [hep-ph/9704448]                         |
#              |                                                    |
#              |                                                    |
#              |  If not stated otherwise all DRbar couplings and   |
#              |  soft SUSY breaking masses are given at the scale  |
#              |  Q=  0.91187600E+02
#              |                                                    |
#              ------------------------------------------------------
#
#
BLOCK DCINFO  # Decay Program information
     1   SDECAY/HDECAY # decay calculator
     2   1.3b  /3.4    # version number
#
BLOCK SPINFO  # Spectrum calculator information
     1   SuSpect     # RGE +Spectrum calculator            
     2   2.41         # version number                     
#
BLOCK MODSEL  # Model selection
     1     0   # #general MSSM low scale                           
#
BLOCK SMINPUTS  # Standard Model inputs
         1     1.27934000E+02   # alpha_em^-1(M_Z)^MSbar
         2     1.16639000E-05   # G_F [GeV^-2]
         3     1.17200000E-01   # alpha_S(M_Z)^MSbar
         4     9.11870000E+01   # M_Z pole mass
         5     4.25000000E+00   # mb(mb)^MSbar
         6     1.72500000E+02   # mt pole mass
         7     1.77700000E+00   # mtau pole mass
#
BLOCK MINPAR  # Input parameters - minimal models
#
BLOCK EXTPAR  # Input parameters - non-minimal models
         0     9.11876000E+01   # EWSB                
         1     5.00000000E+01   # M_1                 
         2     1.00000000E+05   # M_2                 
         3     1.00000000E+05   # M_3                 
        11     0.00000000E+00   # A_t                 
        12     0.00000000E+00   # A_b                 
        13     0.00000000E+00   # A_tau               
        14     0.00000000E+00   # A_u                 
        15     0.00000000E+00   # A_d                 
        16     0.00000000E+00   # A_e                 
        23     3.50000000E+03   # mu(EWSB)            
        25     1.50000000E+00   # tanbeta(in)         
        26     2.00000000E+03   # MA_pole             
        31     1.00000000E+05   # M_eL                
        32     1.00000000E+05   # M_muL               
        33     1.00000000E+05   # M_tauL              
        34     1.00000000E+05   # M_eR                
        35     1.00000000E+05   # M_muR               
        36     1.00000000E+05   # M_tauR              
        41     1.20000000E+03   # M_q1L               
        42     1.20000000E+03   # M_q2L               
        43     1.20000000E+03   # M_q3L               
        44     1.00000000E+05   # M_uR                
        45     1.00000000E+05   # M_cR                
        46     1.00000000E+05   # M_tR                
        47     1.20000000E+03   # M_dR                
        48     1.20000000E+03   # M_sR                
        49     1.20000000E+03   # M_bR                
#
BLOCK MASS  # Mass Spectrum
# PDG code           mass       particle
        24     8.05814071E+01   # W+
        25     1.25000000E+02   # h
        35     2.00396031E+03   # H
        36     2.00000000E+03   # A
        37     2.02370042E+03   # H+
         5     4.87877839E+00   # b-quark pole mass calculated from mb(mb)_Msbar
   1000001     1.20055433E+03   # ~d_L
   2000001     1.20010662E+03   # ~d_R
   1000002     1.19955208E+03   # ~u_L
   2000002     9.99999974E+04   # ~u_R
   1000003     1.20055433E+03   # ~s_L
   2000003     1.20010662E+03   # ~s_R
   1000004     1.19955208E+03   # ~c_L
   2000004     9.99999974E+04   # ~c_R
   1000005     1.19466892E+03   # ~b_1
   2000005     1.20597103E+03   # ~b_2
   1000006     1.20857934E+03   # ~t_1
   2000006     1.00000106E+05   # ~t_2
   1000011     1.00000004E+05   # ~e_L
   2000011     1.00000004E+05   # ~e_R
   1000012     9.99999921E+04   # ~nu_eL
   1000013     1.00000004E+05   # ~mu_L
   2000013     1.00000004E+05   # ~mu_R
   1000014     9.99999921E+04   # ~nu_muL
   1000015     9.99999574E+04   # ~tau_1
   2000015     1.00000051E+05   # ~tau_2
   1000016     9.99999921E+04   # ~nu_tauL
   1000021     1.00000000E+05   # ~g
   1000022     4.94653832E+01   # ~chi_10
   1000023    -3.50002395E+03   # ~chi_20
   1000025     3.50049393E+03   # ~chi_30
   1000035     1.00000065E+05   # ~chi_40
   1000024     3.49994001E+03   # ~chi_1+
   1000037     1.00000065E+05   # ~chi_2+
   1000039     1.00000000E-09   # ~gravitino
#
BLOCK NMIX  # Neutralino Mixing Matrix
  1  1     9.99916359E-01   # N_11
  1  2    -9.46718337E-06   # N_12
  1  3     1.07226446E-02   # N_13
  1  4    -7.23183353E-03   # N_14
  2  1     2.46835472E-03   # N_21
  2  2    -1.49864256E-04   # N_22
  2  3    -7.07092521E-01   # N_23
  2  4    -7.07116717E-01   # N_24
  3  1     1.26957388E-02   # N_31
  3  2     8.03551678E-04   # N_32
  3  3    -7.07039587E-01   # N_33
  3  4     7.07059541E-01   # N_34
  4  1     3.65373790E-07   # N_41
  4  2    -9.99999666E-01   # N_42
  4  3    -4.62276620E-04   # N_43
  4  4     6.74199091E-04   # N_44
#
BLOCK UMIX  # Chargino Mixing Matrix U
  1  1    -6.53757660E-04   # U_11
  1  2     9.99999786E-01   # U_12
  2  1     9.99999786E-01   # U_21
  2  2     6.53757660E-04   # U_22
#
BLOCK VMIX  # Chargino Mixing Matrix V
  1  1    -9.53461413E-04   # V_11
  1  2     9.99999545E-01   # V_12
  2  1     9.99999545E-01   # V_21
  2  2     9.53461413E-04   # V_22
#
BLOCK STOPMIX  # Stop Mixing Matrix
  1  1     9.99999999E-01   # cos(theta_t)
  1  2     4.47213589E-05   # sin(theta_t)
  2  1    -4.47213589E-05   # -sin(theta_t)
  2  2     9.99999999E-01   # cos(theta_t)
#
BLOCK SBOTMIX  # Sbottom Mixing Matrix
  1  1     6.92959902E-01   # cos(theta_b)
  1  2     7.20976126E-01   # sin(theta_b)
  2  1    -7.20976126E-01   # -sin(theta_b)
  2  2     6.92959902E-01   # cos(theta_b)
#
BLOCK STAUMIX  # Stau Mixing Matrix
  1  1     7.06134682E-01   # cos(theta_tau)
  1  2     7.08077546E-01   # sin(theta_tau)
  2  1    -7.08077546E-01   # -sin(theta_tau)
  2  2     7.06134682E-01   # cos(theta_tau)
#
BLOCK ALPHA  # Higgs mixing
          -5.90256853E-01   # Mixing angle in the neutral Higgs boson sector
#
BLOCK HMIX Q=  9.11876000E+01  # DRbar Higgs Parameters
         1     3.50000000E+03   # mu(Q)               
         2     1.49999982E+00   # tanbeta(Q)          
         3     2.54853169E+02   # vev(Q)              
         4    -6.83465667E+07   # MA^2(Q)             
#
BLOCK GAUGE Q=  9.11876000E+01  # The gauge couplings
     1     3.50614469E-01   # gprime(Q) DRbar
     2     6.20625322E-01   # g(Q) DRbar
     3     1.02739232E+00   # g3(Q) DRbar
#
BLOCK AU Q=  9.11876000E+01  # The trilinear couplings
  1  1     0.00000000E+00   # A_u(Q) DRbar
  2  2     0.00000000E+00   # A_c(Q) DRbar
  3  3     0.00000000E+00   # A_t(Q) DRbar
#
BLOCK AD Q=  9.11876000E+01  # The trilinear couplings
  1  1     0.00000000E+00   # A_d(Q) DRbar
  2  2     0.00000000E+00   # A_s(Q) DRbar
  3  3     0.00000000E+00   # A_b(Q) DRbar
#
BLOCK AE Q=  9.11876000E+01  # The trilinear couplings
  1  1     0.00000000E+00   # A_e(Q) DRbar
  2  2     0.00000000E+00   # A_mu(Q) DRbar
  3  3     0.00000000E+00   # A_tau(Q) DRbar
#
BLOCK Yu Q=  9.11876000E+01  # The Yukawa couplings
  1  1     0.00000000E+00   # y_u(Q) DRbar
  2  2     0.00000000E+00   # y_c(Q) DRbar
  3  3     9.83584441E-01   # y_t(Q) DRbar
#
BLOCK Yd Q=  9.11876000E+01  # The Yukawa couplings
  1  1     0.00000000E+00   # y_d(Q) DRbar
  2  2     0.00000000E+00   # y_s(Q) DRbar
  3  3     2.58299221E-02   # y_b(Q) DRbar
#
BLOCK Ye Q=  9.11876000E+01  # The Yukawa couplings
  1  1     0.00000000E+00   # y_e(Q) DRbar
  2  2     0.00000000E+00   # y_mu(Q) DRbar
  3  3     1.77403544E-02   # y_tau(Q) DRbar
#
BLOCK MSOFT Q=  9.11876000E+01  # The soft SUSY breaking masses at the scale Q
         1     5.00000000E+01   # M_1                 
         2     1.00000000E+05   # M_2                 
         3     1.00000000E+05   # M_3                 
        14     0.00000000E+00   # A_u                 
        15     0.00000000E+00   # A_d                 
        16     0.00000000E+00   # A_e                 
        21     6.33633877E+08   # M^2_Hd              
        22    -1.14653755E+09   # M^2_Hu              
        31     1.00000000E+05   # M_eL                
        32     1.00000000E+05   # M_muL               
        33     1.00000000E+05   # M_tauL              
        34     1.00000000E+05   # M_eR                
        35     1.00000000E+05   # M_muR               
        36     1.00000000E+05   # M_tauR              
        41     1.20000000E+03   # M_q1L               
        42     1.20000000E+03   # M_q2L               
        43     1.20000000E+03   # M_q3L               
        44     1.00000000E+05   # M_uR                
        45     1.00000000E+05   # M_cR                
        46     1.00000000E+05   # M_tR                
        47     1.20000000E+03   # M_dR                
        48     1.20000000E+03   # M_sR                
        49     1.20000000E+03   # M_bR                
#
#
#
#                             =================
#                             |The decay table|
#                             =================
#
# - The QCD corrections to the decays gluino -> squark  + quark
#                                     squark -> gaugino + quark_prime
#                                     squark -> squark_prime + Higgs
#                                     squark -> gluino  + quark
#   are included.
#
# - The multi-body decays for the inos, stops and sbottoms are included.
#
# - The loop induced decays for the gluino, neutralinos and stops
#   are included.
#
# - The SUSY decays of the top quark are included.
#
# - Possible decays of the NLSP in GMSB models are included.
#
#
#         PDG            Width
DECAY         6     1.32948708E+00   # top decays
#          BR         NDA      ID1       ID2
     1.00000000E+00    2           5        24   # BR(t ->  b    W+)
#
#         PDG            Width
DECAY   1000021     1.E-04   # gluino decays (OJ Mods)
#          BR         NDA      ID1       ID2
    -2.60357595E-04    2     1000001        -1   # BR(~g -> ~d_L  db)
    -2.60357595E-04    2    -1000001         1   # BR(~g -> ~d_L* d )
    -2.60357651E-04    2     2000001        -1   # BR(~g -> ~d_R  db)
    -2.60357651E-04    2    -2000001         1   # BR(~g -> ~d_R* d )
    -2.60357720E-04    2     1000002        -2   # BR(~g -> ~u_L  ub)
    -2.60357720E-04    2    -1000002         2   # BR(~g -> ~u_L* u )
    -7.04209906E-19    2     2000002        -2   # BR(~g -> ~u_R  ub)
    -7.04209906E-19    2    -2000002         2   # BR(~g -> ~u_R* u )
    -2.60357595E-04    2     1000003        -3   # BR(~g -> ~s_L  sb)
    -2.60357595E-04    2    -1000003         3   # BR(~g -> ~s_L* s )
    -2.60357651E-04    2     2000003        -3   # BR(~g -> ~s_R  sb)
    -2.60357651E-04    2    -2000003         3   # BR(~g -> ~s_R* s )
    -2.60357720E-04    2     1000004        -4   # BR(~g -> ~c_L  cb)
    -2.60357720E-04    2    -1000004         4   # BR(~g -> ~c_L* c )
    -7.04209906E-19    2     2000004        -4   # BR(~g -> ~c_R  cb)
    -7.04209906E-19    2    -2000004         4   # BR(~g -> ~c_R* c )
     2.52559878E-01    2     1000005        -5   # BR(~g -> ~b_1  bb)
     2.52559878E-01    2    -1000005         5   # BR(~g -> ~b_1* b )
     2.52898884E-01    2     2000005        -5   # BR(~g -> ~b_2  bb)
     2.52898884E-01    2    -2000005         5   # BR(~g -> ~b_2* b )
    -2.56210739E-04    2     1000006        -6   # BR(~g -> ~t_1  tb)
    -2.56210739E-04    2    -1000006         6   # BR(~g -> ~t_1* t )
    -7.28080988E-03    2     1000039        21   # BR(~g -> ~G g)
#
#         PDG            Width
DECAY   1000006     1.91709376E-01   # stop1 decays
#          BR         NDA      ID1       ID2
     1.00000000E+00    2     1000022         6   # BR(~t_1 -> ~chi_10 t )
#
#         PDG            Width
DECAY   2000006    -7.40162733E+05   # stop2 decays
#          BR         NDA      ID1       ID2
    -2.81587805E-04    2     1000022         6   # BR(~t_2 -> ~chi_10 t )
    -6.71782775E-04    2     1000023         6   # BR(~t_2 -> ~chi_20 t )
    -6.71707803E-04    2     1000025         6   # BR(~t_2 -> ~chi_30 t )
     1.00160143E+00    2     1000024         5   # BR(~t_2 -> ~chi_1+ b )
     1.84812026E-05    2     1000006        25   # BR(~t_2 -> ~t_1    h )
    -1.93440427E-05    2     1000006        35   # BR(~t_2 -> ~t_1    H )
    -1.93107904E-05    2     1000006        36   # BR(~t_2 -> ~t_1    A )
    -1.81874914E-05    2     1000005        37   # BR(~t_2 -> ~b_1    H+)
    -2.04339439E-05    2     2000005        37   # BR(~t_2 -> ~b_2    H+)
     1.32468403E-05    2     1000006        23   # BR(~t_2 -> ~t_1    Z )
     3.32287248E-05    2     1000005        24   # BR(~t_2 -> ~b_1    W+)
     3.59685154E-05    2     2000005        24   # BR(~t_2 -> ~b_2    W+)
#
#         PDG            Width
DECAY   1000005    -1.56239528E+02   # sbottom1 decays
#          BR         NDA      ID1       ID2
     1.00000000E+00    2     1000022         5   # BR(~b_1 -> ~chi_10 b )
#
#         PDG            Width
DECAY   2000005    -1.49702941E+02   # sbottom2 decays
#          BR         NDA      ID1       ID2
     1.00000000E+00    2     1000022         5   # BR(~b_2 -> ~chi_10 b )
#
#         PDG            Width
DECAY   1000002     1.96353732E-01   # sup_L decays
#          BR         NDA      ID1       ID2
     1.00000000E+00    2     1000022         2   # BR(~u_L -> ~chi_10 u)
#
#         PDG            Width
DECAY   2000002     2.08363792E+02   # sup_R decays
#          BR         NDA      ID1       ID2
     9.99832900E-01    2     1000022         2   # BR(~u_R -> ~chi_10 u)
     6.08640765E-06    2     1000023         2   # BR(~u_R -> ~chi_20 u)
     1.61013271E-04    2     1000025         2   # BR(~u_R -> ~chi_30 u)
#
#         PDG            Width
DECAY   1000001     1.96551010E-01   # sdown_L decays
#          BR         NDA      ID1       ID2
     1.00000000E+00    2     1000022         1   # BR(~d_L -> ~chi_10 d)
#
#         PDG            Width
DECAY   2000001     7.85843086E-01   # sdown_R decays
#          BR         NDA      ID1       ID2
     1.00000000E+00    2     1000022         1   # BR(~d_R -> ~chi_10 d)
#
#         PDG            Width
DECAY   1000004     1.96353732E-01   # scharm_L decays
#          BR         NDA      ID1       ID2
     1.00000000E+00    2     1000022         4   # BR(~c_L -> ~chi_10 c)
#
#         PDG            Width
DECAY   2000004     2.08363792E+02   # scharm_R decays
#          BR         NDA      ID1       ID2
     9.99832900E-01    2     1000022         4   # BR(~c_R -> ~chi_10 c)
     6.08640765E-06    2     1000023         4   # BR(~c_R -> ~chi_20 c)
     1.61013271E-04    2     1000025         4   # BR(~c_R -> ~chi_30 c)
#
#         PDG            Width
DECAY   1000003     1.96551010E-01   # sstrange_L decays
#          BR         NDA      ID1       ID2
     1.00000000E+00    2     1000022         3   # BR(~s_L -> ~chi_10 s)
#
#         PDG            Width
DECAY   2000003     7.85843086E-01   # sstrange_R decays
#          BR         NDA      ID1       ID2
     1.00000000E+00    2     1000022         3   # BR(~s_R -> ~chi_10 s)
#
#         PDG            Width
DECAY   1000011     1.22281860E+02   # selectron_L decays
#          BR         NDA      ID1       ID2
     9.99793655E-01    2     1000022        11   # BR(~e_L -> ~chi_10 e-)
     4.84164786E-06    2     1000023        11   # BR(~e_L -> ~chi_20 e-)
     1.98831895E-04    2     1000025        11   # BR(~e_L -> ~chi_30 e-)
     2.67175144E-06    2    -1000024        12   # BR(~e_L -> ~chi_1- nu_e)
#
#         PDG            Width
DECAY   2000011     4.89124521E+02   # selectron_R decays
#          BR         NDA      ID1       ID2
     9.99833135E-01    2     1000022        11   # BR(~e_R -> ~chi_10 e-)
     6.07786213E-06    2     1000023        11   # BR(~e_R -> ~chi_20 e-)
     1.60787163E-04    2     1000025        11   # BR(~e_R -> ~chi_30 e-)
#
#         PDG            Width
DECAY   1000013     1.22281860E+02   # smuon_L decays
#          BR         NDA      ID1       ID2
     9.99793655E-01    2     1000022        13   # BR(~mu_L -> ~chi_10 mu-)
     4.84164786E-06    2     1000023        13   # BR(~mu_L -> ~chi_20 mu-)
     1.98831895E-04    2     1000025        13   # BR(~mu_L -> ~chi_30 mu-)
     2.67175144E-06    2    -1000024        14   # BR(~mu_L -> ~chi_1- nu_mu)
#
#         PDG            Width
DECAY   2000013     4.89124521E+02   # smuon_R decays
#          BR         NDA      ID1       ID2
     9.99833135E-01    2     1000022        13   # BR(~mu_R -> ~chi_10 mu-)
     6.07786213E-06    2     1000023        13   # BR(~mu_R -> ~chi_20 mu-)
     1.60787163E-04    2     1000025        13   # BR(~mu_R -> ~chi_30 mu-)
#
#         PDG            Width
DECAY   1000015     1.18200863E+04   # stau_1 decays
#          BR         NDA      ID1       ID2
     2.59090673E-02    2     1000022        15   # BR(~tau_1 -> ~chi_10  tau-)
     2.51430599E-05    2     1000023        15   # BR(~tau_1 -> ~chi_20  tau-)
     2.48909184E-05    2     1000025        15   # BR(~tau_1 -> ~chi_30  tau-)
     2.77152698E-05    2    -1000024        16   # BR(~tau_1 -> ~chi_1-  nu_tau)
     9.74013183E-01    2     1000039        15   # BR(~tau_1 -> ~G       tau-)
#
#         PDG            Width
DECAY   2000015     3.06113717E+02   # stau_2 decays
#          BR         NDA      ID1       ID2
     9.96532493E-01    2     1000022        15   # BR(~tau_2 -> ~chi_10  tau-)
     1.08106680E-03    2     1000023        15   # BR(~tau_2 -> ~chi_20  tau-)
     1.41519192E-03    2     1000025        15   # BR(~tau_2 -> ~chi_30  tau-)
     9.71248449E-04    2    -1000024        16   # BR(~tau_2 -> ~chi_1-  nu_tau)
#
#         PDG            Width
DECAY   1000012     1.22281918E+02   # snu_eL decays
#          BR         NDA      ID1       ID2
     9.99860086E-01    2     1000022        12   # BR(~nu_eL -> ~chi_10 nu_e)
     7.45439664E-06    2     1000023        12   # BR(~nu_eL -> ~chi_20 nu_e)
     1.26776796E-04    2     1000025        12   # BR(~nu_eL -> ~chi_30 nu_e)
     5.68287960E-06    2     1000024        11   # BR(~nu_eL -> ~chi_1+ e-)
#
#         PDG            Width
DECAY   1000014     1.22281918E+02   # snu_muL decays
#          BR         NDA      ID1       ID2
     9.99860086E-01    2     1000022        14   # BR(~nu_muL -> ~chi_10 nu_mu)
     7.45439664E-06    2     1000023        14   # BR(~nu_muL -> ~chi_20 nu_mu)
     1.26776796E-04    2     1000025        14   # BR(~nu_muL -> ~chi_30 nu_mu)
     5.68287960E-06    2     1000024        13   # BR(~nu_muL -> ~chi_1+ mu-)
#
#         PDG            Width
DECAY   1000016     1.22906501E+02   # snu_tauL decays
#          BR         NDA      ID1       ID2
     9.94779027E-01    2     1000022        16   # BR(~nu_tauL -> ~chi_10 nu_tau)
     7.41651512E-06    2     1000023        16   # BR(~nu_tauL -> ~chi_20 nu_tau)
     1.26132546E-04    2     1000025        16   # BR(~nu_tauL -> ~chi_30 nu_tau)
     5.08742370E-03    2     1000024        15   # BR(~nu_tauL -> ~chi_1+ tau-)
#
#         PDG            Width
DECAY   1000024     4.73985528E+01   # chargino1+ decays
#          BR         NDA      ID1       ID2
     7.05233032E-07    2     1000002        -1   # BR(~chi_1+ -> ~u_L     db)
     3.31419168E-07    2    -1000001         2   # BR(~chi_1+ -> ~d_L*    u )
     7.05233032E-07    2     1000004        -3   # BR(~chi_1+ -> ~c_L     sb)
     3.31419168E-07    2    -1000003         4   # BR(~chi_1+ -> ~s_L*    c )
    -4.27698149E-01    2     1000006        -5   # BR(~chi_1+ -> ~t_1     bb)
     1.09912919E-01    2    -1000005         6   # BR(~chi_1+ -> ~b_1*    t )
     1.25395396E+00    2    -2000005         6   # BR(~chi_1+ -> ~b_2*    t )
     4.46092203E-02    2     1000022        24   # BR(~chi_1+ -> ~chi_10  W+)
     1.92123573E-02    2     1000022        37   # BR(~chi_1+ -> ~chi_10  H+)
     6.36508328E-06    2     1000039        24   # BR(~chi_1+ -> ~G       W+)
     1.25237665E-06    2     1000039        37   # BR(~chi_1+ -> ~G       H+)
#
#         PDG            Width
DECAY   1000037    -4.35793102E+05   # chargino2+ decays
#          BR         NDA      ID1       ID2
    -2.59684837E-03    2     1000002        -1   # BR(~chi_2+ -> ~u_L     db)
    -2.59684934E-03    2    -1000001         2   # BR(~chi_2+ -> ~d_L*    u )
    -2.59684837E-03    2     1000004        -3   # BR(~chi_2+ -> ~c_L     sb)
    -2.59684934E-03    2    -1000003         4   # BR(~chi_2+ -> ~s_L*    c )
     1.04413079E+00    2     1000006        -5   # BR(~chi_2+ -> ~t_1     bb)
    -5.59802939E-04    2    -1000005         6   # BR(~chi_2+ -> ~b_1*    t )
    -2.47672996E-03    2    -2000005         6   # BR(~chi_2+ -> ~b_2*    t )
    -1.91964301E-15    2     1000012       -11   # BR(~chi_2+ -> ~nu_eL   e+  )
    -1.91964301E-15    2     1000014       -13   # BR(~chi_2+ -> ~nu_muL  mu+ )
    -1.34408070E-15    2    -1000011        12   # BR(~chi_2+ -> ~e_L+    nu_e)
    -1.34408070E-15    2    -1000013        14   # BR(~chi_2+ -> ~mu_L+   nu_mu)
    -2.08520532E-15    2    -1000015        16   # BR(~chi_2+ -> ~tau_1+  nu_tau)
    -3.54976648E-17    2    -2000015        16   # BR(~chi_2+ -> ~tau_2+  nu_tau)
    -4.76919017E-04    2     1000024        23   # BR(~chi_2+ -> ~chi_1+  Z )
    -5.76102883E-08    2     1000022        24   # BR(~chi_2+ -> ~chi_10  W+)
    -4.62964658E-04    2     1000023        24   # BR(~chi_2+ -> ~chi_20  W+)
    -4.62902163E-04    2     1000025        24   # BR(~chi_2+ -> ~chi_30  W+)
    -4.80709667E-04    2     1000024        25   # BR(~chi_2+ -> ~chi_1+  h )
    -4.21974382E-04    2     1000024        35   # BR(~chi_2+ -> ~chi_1+  H )
    -4.22029227E-04    2     1000024        36   # BR(~chi_2+ -> ~chi_1+  A )
    -8.13376067E-08    2     1000022        37   # BR(~chi_2+ -> ~chi_10  H+)
    -4.22012666E-04    2     1000023        37   # BR(~chi_2+ -> ~chi_20  H+)
    -4.21948897E-04    2     1000025        37   # BR(~chi_2+ -> ~chi_30  H+)
    -2.71352541E-02    2     1000039        24   # BR(~chi_2+ -> ~G       W+)
    -7.79691547E-09    2     1000039        37   # BR(~chi_2+ -> ~G       H+)
#
#         PDG            Width
DECAY   1000022     1.E-08   # neutralino1 decays (OJ Mods)
#          BR         NDA      ID1       ID2
     1.00000000E+00    2     1000039        22   # BR(~chi_10 -> ~G        gam)
#
#         PDG            Width
DECAY   1000023     1.E-08   # neutralino2 decays (OJ Mods)
#          BR         NDA      ID1       ID2
     7.96095691E-02    2     1000022        23   # BR(~chi_20 -> ~chi_10   Z )
     2.95893153E-03    2     1000022        25   # BR(~chi_20 -> ~chi_10   h )
     3.37942636E-02    2     1000022        35   # BR(~chi_20 -> ~chi_10   H )
     1.47391090E-03    2     1000022        36   # BR(~chi_20 -> ~chi_10   A )
     7.94043644E-08    2     1000002        -2   # BR(~chi_20 -> ~u_L      ub)
     7.94043644E-08    2    -1000002         2   # BR(~chi_20 -> ~u_L*     u )
     3.02323971E-07    2     1000001        -1   # BR(~chi_20 -> ~d_L      db)
     3.02323971E-07    2    -1000001         1   # BR(~chi_20 -> ~d_L*     d )
     6.91634690E-07    2     2000001        -1   # BR(~chi_20 -> ~d_R      db)
     6.91634690E-07    2    -2000001         1   # BR(~chi_20 -> ~d_R*     d )
     7.94043644E-08    2     1000004        -4   # BR(~chi_20 -> ~c_L      cb)
     7.94043644E-08    2    -1000004         4   # BR(~chi_20 -> ~c_L*     c )
     3.02323971E-07    2     1000003        -3   # BR(~chi_20 -> ~s_L      sb)
     3.02323971E-07    2    -1000003         3   # BR(~chi_20 -> ~s_L*     s )
     6.91634690E-07    2     2000003        -3   # BR(~chi_20 -> ~s_R      sb)
     6.91634690E-07    2    -2000003         3   # BR(~chi_20 -> ~s_R*     s )
     1.22389392E+00    2     1000006        -6   # BR(~chi_20 -> ~t_1      tb)
     1.22389392E+00    2    -1000006         6   # BR(~chi_20 -> ~t_1*     t )
    -3.76927983E-01    2     1000005        -5   # BR(~chi_20 -> ~b_1      bb)
    -3.76927983E-01    2    -1000005         5   # BR(~chi_20 -> ~b_1*     b )
    -4.05893029E-01    2     2000005        -5   # BR(~chi_20 -> ~b_2      bb)
    -4.05893029E-01    2    -2000005         5   # BR(~chi_20 -> ~b_2*     b )
     9.87904362E-11    2     1000039        22   # BR(~chi_20 -> ~G        gam)
     4.39987150E-07    2     1000039        23   # BR(~chi_20 -> ~G        Z)
     1.09804400E-05    2     1000039        25   # BR(~chi_20 -> ~G        h)
     8.80080606E-08    2     1000039        35   # BR(~chi_20 -> ~G        H)
     2.26842629E-06    2     1000039        36   # BR(~chi_20 -> ~G        A)
#
#         PDG            Width
DECAY   1000025     2.61469112E+01   # neutralino3 decays
#          BR         NDA      ID1       ID2
     3.03510686E-03    2     1000022        23   # BR(~chi_30 -> ~chi_10   Z )
     8.07516223E-02    2     1000022        25   # BR(~chi_30 -> ~chi_10   h )
     1.44747716E-03    2     1000022        35   # BR(~chi_30 -> ~chi_10   H )
     3.41789513E-02    2     1000022        36   # BR(~chi_30 -> ~chi_10   A )
     8.23724932E-06    2     1000002        -2   # BR(~chi_30 -> ~u_L      ub)
     8.23724932E-06    2    -1000002         2   # BR(~chi_30 -> ~u_L*     u )
     2.03293251E-06    2     1000001        -1   # BR(~chi_30 -> ~d_L      db)
     2.03293251E-06    2    -1000001         1   # BR(~chi_30 -> ~d_L*     d )
     1.84528641E-05    2     2000001        -1   # BR(~chi_30 -> ~d_R      db)
     1.84528641E-05    2    -2000001         1   # BR(~chi_30 -> ~d_R*     d )
     8.23724932E-06    2     1000004        -4   # BR(~chi_30 -> ~c_L      cb)
     8.23724932E-06    2    -1000004         4   # BR(~chi_30 -> ~c_L*     c )
     2.03293251E-06    2     1000003        -3   # BR(~chi_30 -> ~s_L      sb)
     2.03293251E-06    2    -1000003         3   # BR(~chi_30 -> ~s_L*     s )
     1.84528641E-05    2     2000003        -3   # BR(~chi_30 -> ~s_R      sb)
     1.84528641E-05    2    -2000003         3   # BR(~chi_30 -> ~s_R*     s )
     1.23435811E+00    2     1000006        -6   # BR(~chi_30 -> ~t_1      tb)
     1.23435811E+00    2    -1000006         6   # BR(~chi_30 -> ~t_1*     t )
    -3.39759817E-01    2     1000005        -5   # BR(~chi_30 -> ~b_1      bb)
    -3.39759817E-01    2    -1000005         5   # BR(~chi_30 -> ~b_1*     b )
    -4.54361862E-01    2     2000005        -5   # BR(~chi_30 -> ~b_2      bb)
    -4.54361862E-01    2    -2000005         5   # BR(~chi_30 -> ~b_2*     b )
     3.03348885E-09    2     1000039        22   # BR(~chi_30 -> ~G        gam)
     1.10949158E-05    2     1000039        23   # BR(~chi_30 -> ~G        Z)
     4.32843128E-07    2     1000039        25   # BR(~chi_30 -> ~G        h)
     2.27419778E-06    2     1000039        35   # BR(~chi_30 -> ~G        H)
     9.15757675E-08    2     1000039        36   # BR(~chi_30 -> ~G        A)
#
#         PDG            Width
DECAY   1000035    -4.35795050E+05   # neutralino4 decays
#          BR         NDA      ID1       ID2
    -4.71511609E-12    2     1000022        23   # BR(~chi_40 -> ~chi_10   Z )
    -4.60891124E-04    2     1000023        23   # BR(~chi_40 -> ~chi_20   Z )
    -1.60260721E-05    2     1000025        23   # BR(~chi_40 -> ~chi_30   Z )
    -4.62959677E-04    2     1000024       -24   # BR(~chi_40 -> ~chi_1+   W-)
    -4.62959677E-04    2    -1000024        24   # BR(~chi_40 -> ~chi_1-   W+)
    -5.99216932E-08    2     1000022        25   # BR(~chi_40 -> ~chi_10   h )
    -1.07471918E-08    2     1000022        35   # BR(~chi_40 -> ~chi_10   H )
    -7.04768040E-08    2     1000022        36   # BR(~chi_40 -> ~chi_10   A )
    -1.57921371E-05    2     1000023        25   # BR(~chi_40 -> ~chi_20   h )
    -4.03817063E-04    2     1000023        35   # BR(~chi_40 -> ~chi_20   H )
    -1.85627017E-05    2     1000023        36   # BR(~chi_40 -> ~chi_20   A )
    -4.64855892E-04    2     1000025        25   # BR(~chi_40 -> ~chi_30   h )
    -1.81441123E-05    2     1000025        35   # BR(~chi_40 -> ~chi_30   H )
    -4.03394103E-04    2     1000025        36   # BR(~chi_40 -> ~chi_30   A )
    -4.22019779E-04    2     1000024       -37   # BR(~chi_40 -> ~chi_1+   H-)
    -4.22019779E-04    2    -1000024        37   # BR(~chi_40 -> ~chi_1-   H+)
    -1.24267472E-03    2     1000002        -2   # BR(~chi_40 -> ~u_L      ub)
    -1.24267472E-03    2    -1000002         2   # BR(~chi_40 -> ~u_L*     u )
    -1.97808891E-23    2     2000002        -2   # BR(~chi_40 -> ~u_R      ub)
    -1.97808891E-23    2    -2000002         2   # BR(~chi_40 -> ~u_R*     u )
    -1.24267543E-03    2     1000001        -1   # BR(~chi_40 -> ~d_L      db)
    -1.24267543E-03    2    -1000001         1   # BR(~chi_40 -> ~d_L*     d )
    -2.35315661E-17    2     2000001        -1   # BR(~chi_40 -> ~d_R      db)
    -2.35315661E-17    2    -2000001         1   # BR(~chi_40 -> ~d_R*     d )
    -1.24267472E-03    2     1000004        -4   # BR(~chi_40 -> ~c_L      cb)
    -1.24267472E-03    2    -1000004         4   # BR(~chi_40 -> ~c_L*     c )
    -1.97808891E-23    2     2000004        -4   # BR(~chi_40 -> ~c_R      cb)
    -1.97808891E-23    2    -2000004         4   # BR(~chi_40 -> ~c_R*     c )
    -1.24267543E-03    2     1000003        -3   # BR(~chi_40 -> ~s_L      sb)
    -1.24267543E-03    2    -1000003         3   # BR(~chi_40 -> ~s_L*     s )
    -2.35315661E-17    2     2000003        -3   # BR(~chi_40 -> ~s_R      sb)
    -2.35315661E-17    2    -2000003         3   # BR(~chi_40 -> ~s_R*     s )
    -1.51825409E-03    2     1000006        -6   # BR(~chi_40 -> ~t_1      tb)
    -1.51825409E-03    2    -1000006         6   # BR(~chi_40 -> ~t_1*     t )
     2.51127955E-01    2     1000005        -5   # BR(~chi_40 -> ~b_1      bb)
     2.51127955E-01    2    -1000005         5   # BR(~chi_40 -> ~b_1*     b )
     2.70937333E-01    2     2000005        -5   # BR(~chi_40 -> ~b_2      bb)
     2.70937333E-01    2    -2000005         5   # BR(~chi_40 -> ~b_2*     b )
    -6.72036829E-16    2     1000011       -11   # BR(~chi_40 -> ~e_L-     e+)
    -6.72036829E-16    2    -1000011        11   # BR(~chi_40 -> ~e_L+     e-)
    -1.14532569E-28    2     2000011       -11   # BR(~chi_40 -> ~e_R-     e+)
    -1.14532569E-28    2    -2000011        11   # BR(~chi_40 -> ~e_R+     e-)
    -6.72036829E-16    2     1000013       -13   # BR(~chi_40 -> ~mu_L-    mu+)
    -6.72036829E-16    2    -1000013        13   # BR(~chi_40 -> ~mu_L+    mu-)
    -1.14532569E-28    2     2000013       -13   # BR(~chi_40 -> ~mu_R-    mu+)
    -1.14532569E-28    2    -2000013        13   # BR(~chi_40 -> ~mu_R+    mu-)
    -9.59817728E-16    2     1000012       -12   # BR(~chi_40 -> ~nu_eL    nu_eb)
    -9.59817728E-16    2    -1000012        12   # BR(~chi_40 -> ~nu_eL*   nu_e )
    -9.59817728E-16    2     1000014       -14   # BR(~chi_40 -> ~nu_muL   nu_mub)
    -9.59817728E-16    2    -1000014        14   # BR(~chi_40 -> ~nu_muL*  nu_mu )
    -9.59817728E-16    2     1000016       -16   # BR(~chi_40 -> ~nu_tau1  nu_taub)
    -9.59817728E-16    2    -1000016        16   # BR(~chi_40 -> ~nu_tau1* nu_tau )
    -6.56503962E-03    2     1000039        22   # BR(~chi_40 -> ~G        gam)
    -2.05700882E-02    2     1000039        23   # BR(~chi_40 -> ~G        Z)
    -1.24423720E-09    2     1000039        25   # BR(~chi_40 -> ~G        h)
    -7.80966768E-09    2     1000039        35   # BR(~chi_40 -> ~G        H)
    -1.53900404E-12    2     1000039        36   # BR(~chi_40 -> ~G        A)
#
#
#
#
