# SUSY Les Houches Accord 2 - MSSM spectrum + Decays
# SPheno v3.1.12 
# W. Porod, Comput. Phys. Commun. 153 (2003) 275-315, hep-ph/0301101
# in case of problems send email to porod@physik.uni-wuerzburg.de
# Created: 12.11.2012,  11:45
Block SPINFO         # Program information
     1   SPheno      # spectrum calculator
     2   v3.1.12     # version number
#
Block SPhenoINFO     # SPheno specific information
    1      2         # using 2-loop RGEs
    2      1         # using running masses for boundary conditions at mZ
Block MODSEL  # Model selection
    1    2    # mGMSB model
Block MINPAR  # Input parameters
    1    1.00000000E+05  # Lambda, scale of SUSY breaking
    2    2.50000000E+05  # M_M, messenger mass scale
    3    5.00000000E+01  # tanb at m_Z   
    4    1.00000000E+00  # Sign(mu)
    5    3.00000000E+00  # N_5 number of effective five-plets
    6    1.00000000E+00  # c_grav, Gravitino mass factor
Block gauge Q=  2.50000000E+05  # (GMSB scale)
   1    4.93698358E-01  # g'(Q)^DRbar
   2    6.49208021E-01  # g(Q)^DRbar
   3    9.40343984E-01  # g3(Q)^DRbar
Block SMINPUTS  # SM parameters
         1     1.27932537E+02  # alpha_em^-1(MZ)^MSbar
         2     1.16639000E-05  # G_mu [GeV^-2]
         3     1.17200000E-01  # alpha_s(MZ)^MSbar
         4     9.11876000E+01  # m_Z(pole)
         5     4.20000000E+00  # m_b(m_b), MSbar
         6     1.72500000E+02  # m_t(pole)
         7     1.77700000E+00  # m_tau(pole)
         8     0.00000000E+00  # m_nu_3
        11     5.10998910E-04  # m_e(pole)
        12     0.00000000E+00  # m_nu_1
        13     1.05658000E-01  # m_muon(pole)
        14     0.00000000E+00  # m_nu_2
        21     5.00000000E-03  # m_d(2 GeV), MSbar
        22     3.00000000E-03  # m_u(2 GeV), MSbar
        23     1.05000000E-01  # m_s(2 GeV), MSbar
        24     1.27000000E+00  # m_c(m_c), MSbar
Block gauge Q=  1.90546190E+03  # (SUSY scale)
   1    3.64480898E-01  # g'(Q)^DRbar
   2    6.39514237E-01  # g(Q)^DRbar
   3    1.02543453E+00  # g3(Q)^DRbar
Block Yu Q=  1.90546190E+03  # (SUSY scale)
  1  1     8.40649146E-06   # Y_u(Q)^DRbar
  2  2     3.55875053E-03   # Y_c(Q)^DRbar
  3  3     8.45122688E-01   # Y_t(Q)^DRbar
Block Yd Q=  1.90546190E+03  # (SUSY scale)
  1  1     5.86072901E-04   # Y_d(Q)^DRbar
  2  2     1.23075198E-02   # Y_s(Q)^DRbar
  3  3     5.95421553E-01   # Y_b(Q)^DRbar
Block Ye Q=  1.90546190E+03  # (SUSY scale)
  1  1     1.58576268E-04   # Y_e(Q)^DRbar
  2  2     3.27889355E-02   # Y_mu(Q)^DRbar
  3  3     5.53521616E-01   # Y_tau(Q)^DRbar
Block Au Q=  1.90546190E+03  # (SUSY scale)
  1  1    -6.18229623E+02   # A_u(Q)^DRbar
  2  2    -6.18226451E+02   # A_c(Q)^DRbar
  3  3    -5.76948863E+02   # A_t(Q)^DRbar
Block Ad Q=  1.90546190E+03  # (SUSY scale)
  1  1    -6.37476760E+02   # A_d(Q)^DRbar
  2  2    -6.37468806E+02   # A_s(Q)^DRbar
  3  3    -6.07947830E+02   # A_b(Q)^DRbar
Block Ae Q=  1.90546190E+03  # (SUSY scale)
  1  1    -5.01462849E+01   # A_e(Q)^DRbar
  2  2    -5.01400614E+01   # A_mu(Q)^DRbar
  3  3    -4.83811920E+01   # A_tau(Q)^DRbar
Block MSOFT Q=  1.90546190E+03  # soft SUSY breaking masses at Q
   1    4.29756036E+02  # M_1
   2    7.91094101E+02  # M_2
   3    2.04335806E+03  # M_3
  21   -2.03959328E+04  # M^2_(H,d)
  22   -4.03509214E+05  # M^2_(H,u)
  31    6.25626978E+02  # M_(L,11)
  32    6.25595868E+02  # M_(L,22)
  33    6.16776821E+02  # M_(L,33)
  34    3.02745331E+02  # M_(E,11)
  35    3.02613940E+02  # M_(E,22)
  36    2.62827051E+02  # M_(E,33)
  41    1.99745315E+03  # M_(Q,11)
  42    1.99743873E+03  # M_(Q,22)
  43    1.90366041E+03  # M_(Q,33)
  44    1.91651578E+03  # M_(U,11)
  45    1.91651347E+03  # M_(U,22)
  46    1.78379900E+03  # M_(U,33)
  47    1.90872576E+03  # M_(D,11)
  48    1.90869762E+03  # M_(D,22)
  49    1.84244995E+03  # M_(D,33)
Block MASS  # Mass spectrum
#   PDG code      mass          particle
         6     1.72500000E+02  # m_t(pole)
        23     9.11876000E+01  # m_Z(pole)
        24     8.03094167E+01  # W+
        15     1.77700000E+00  # m_tau(pole)
        25     1.18587250E+02  # h0
        35     6.39366561E+02  # H0
        36     6.39322720E+02  # A0
        37     6.45262852E+02  # H+
   1000001     2.08012333E+03  # ~d_L
   2000001     1.98670391E+03  # ~d_R
   1000002     2.07868888E+03  # ~u_L
   2000002     1.99377891E+03  # ~u_R
   1000003     2.08010734E+03  # ~s_L
   2000003     1.98666854E+03  # ~s_R
   1000004     2.07867170E+03  # ~c_L
   2000004     1.99377611E+03  # ~c_R
   1000005     1.90115163E+03  # ~b_1
   2000005     1.97167672E+03  # ~b_2
   1000006     1.83716926E+03  # ~t_1
   2000006     1.97629260E+03  # ~t_2
   1000011     6.39976889E+02  # ~e_L-
   2000011     3.15701516E+02  # ~e_R-
   1000012     6.34613949E+02  # ~nu_eL
   1000013     6.39973492E+02  # ~mu_L-
   2000013     3.15461320E+02  # ~mu_R-
   1000014     6.34569767E+02  # ~nu_muL
   1000015     2.41458340E+02  # ~tau_1-
   2000015     6.38290610E+02  # ~tau_2-
   1000016     6.22346149E+02  # ~nu_tauL
   1000021     2.15210057E+03  # ~g
   1000022     4.17368680E+02  # ~chi_10
   1000023     6.76364485E+02  # ~chi_20
   1000025    -6.99576865E+02  # ~chi_30
   1000035     8.32964890E+02  # ~chi_40
   1000024     6.74882692E+02  # ~chi_1+
   1000037     8.33082024E+02  # ~chi_2+
   1000039     6.00000000E-09  # ~G
# Higgs mixing
Block alpha # Effective Higgs mixing angle
          -2.14559881E-02   # alpha
Block Hmix Q=  1.90546190E+03  # Higgs mixing parameters
   1    6.92503224E+02  # mu
   2    4.91922367E+01  # tan[beta](Q)
   3    2.43564922E+02  # v(Q)
   4    3.75394265E+05  # m^2_A(Q)
Block stopmix # stop mixing matrix
   1  1     1.99903993E-01   # Re[R_st(1,1)]
   1  2     9.79815490E-01   # Re[R_st(1,2)]
   2  1    -9.79815490E-01   # Re[R_st(2,1)]
   2  2     1.99903993E-01   # Re[R_st(2,2)]
Block sbotmix # sbottom mixing matrix
   1  1     2.85805578E-01   # Re[R_sb(1,1)]
   1  2     9.58287625E-01   # Re[R_sb(1,2)]
   2  1    -9.58287625E-01   # Re[R_sb(2,1)]
   2  2     2.85805578E-01   # Re[R_sb(2,2)]
Block staumix # stau mixing matrix
   1  1     1.95062465E-01   # Re[R_sta(1,1)]
   1  2     9.80790821E-01   # Re[R_sta(1,2)]
   2  1    -9.80790821E-01   # Re[R_sta(2,1)]
   2  2     1.95062465E-01   # Re[R_sta(2,2)]
Block Nmix # neutralino mixing matrix
   1  1    -9.92588808E-01   # Re[N(1,1)]
   1  2     1.30871054E-02   # Re[N(1,2)]
   1  3    -1.02854026E-01   # Re[N(1,3)]
   1  4     6.33816626E-02   # Re[N(1,4)]
   2  1     1.13771163E-01   # Re[N(2,1)]
   2  2     3.88267828E-01   # Re[N(2,2)]
   2  3    -6.55745127E-01   # Re[N(2,3)]
   2  4     6.37418658E-01   # Re[N(2,4)]
   3  1     2.73614629E-02   # Re[N(3,1)]
   3  2    -3.64108110E-02   # Re[N(3,2)]
   3  3    -7.04885852E-01   # Re[N(3,3)]
   3  4    -7.07857004E-01   # Re[N(3,4)]
   4  1    -3.27861415E-02   # Re[N(4,1)]
   4  2     9.20733987E-01   # Re[N(4,2)]
   4  3     2.50110602E-01   # Re[N(4,3)]
   4  4    -2.97688900E-01   # Re[N(4,4)]
Block Umix # chargino mixing matrix
   1  1    -3.52637844E-01   # Re[U(1,1)]
   1  2     9.35759879E-01   # Re[U(1,2)]
   2  1     9.35759879E-01   # Re[U(2,1)]
   2  2     3.52637844E-01   # Re[U(2,2)]
Block Vmix # chargino mixing matrix
   1  1    -4.19687011E-01   # Re[V(1,1)]
   1  2     9.07668889E-01   # Re[V(1,2)]
   2  1     9.07668889E-01   # Re[V(2,1)]
   2  2     4.19687011E-01   # Re[V(2,2)]
DECAY   2000011     3.80204677E-06   # ~e^-_R
#    BR                NDA      ID1      ID2
     2.62552410E-05    2     1000039        11   # BR(~e^-_R -> ~G e^-)
#    BR                NDA      ID1      ID2       ID3
     6.95982415E-14    3     2000013        11       -13   # BR(~e^-_R -> ~mu^-_R e^- mu^+)
     2.14881303E-13    3    -2000013        11        13   # BR(~e^-_R -> ~mu^+_R e^- mu^-)
     2.07142853E-01    3     1000015        11       -15   # BR(~e^-_R -> ~tau^-_1 e^- tau^+)
     7.92830891E-01    3    -1000015        11        15   # BR(~e^-_R -> ~tau^+_1 e^- tau^-)
DECAY   1000011     2.62592482E-01   # ~e^-_L
#    BR                NDA      ID1      ID2
     9.99999016E-01    2     1000022        11   # BR(~e^-_L -> chi^0_1 e^-)
     4.71602982E-07    2     2000011        23   # BR(~e^-_L -> ~e^-_R Z)
     4.99592725E-07    2     2000011        25   # BR(~e^-_L -> ~e^-_R h^0)
     1.30133554E-08    2     1000039        11   # BR(~e^-_L -> ~G e^-)
DECAY   2000013     3.75295949E-06   # ~mu^-_R
#    BR                NDA      ID1      ID2
     2.64976058E-05    2     1000039        13   # BR(~mu^-_R -> ~G mu^-)
#    BR                NDA      ID1      ID2       ID3
     2.06419955E-01    3     1000015        13       -15   # BR(~mu^-_R -> ~tau^-_1 mu^- tau^+)
     7.93553547E-01    3    -1000015        13        15   # BR(~mu^-_R -> ~tau^+_1 mu^- tau^-)
DECAY   1000013     2.73581362E-01   # ~mu^-_L
#    BR                NDA      ID1      ID2
     9.60134335E-01    2     1000022        13   # BR(~mu^-_L -> chi^0_1 mu^-)
     1.93651773E-02    2     2000013        23   # BR(~mu^-_L -> ~mu^-_R Z)
     2.05004749E-02    2     2000013        25   # BR(~mu^-_L -> ~mu^-_R h^0)
     1.24903182E-08    2     1000039        13   # BR(~mu^-_L -> ~G mu^-)
DECAY   1000015     2.61196341E-11   # ~tau^-_1
#    BR                NDA      ID1      ID2
     1.00000000E+00    2     1000039        15   # BR(~tau^-_1 -> ~G tau^-)
DECAY   2000015     3.62715634E+00   # ~tau^-_2
#    BR                NDA      ID1      ID2
     7.73507842E-02    2     1000022        15   # BR(~tau^-_2 -> chi^0_1 tau^-)
     4.85352213E-01    2     1000015        23   # BR(~tau^-_2 -> ~tau^-_1 Z)
     4.37297002E-01    2     1000015        25   # BR(~tau^-_2 -> ~tau^-_1 h^0)
     9.29742462E-10    2     1000039        15   # BR(~tau^-_2 -> ~G tau^-)
DECAY   1000012     2.78511258E-01   # ~nu_e
#    BR                NDA      ID1      ID2
     9.99999134E-01    2     1000022        12   # BR(~nu_e -> chi^0_1 nu_e)
     8.53896146E-07    2     2000011        24   # BR(~nu_e -> ~e^-_R W^+)
     1.17640115E-08    2     1000039        12   # BR(~nu_e -> ~G nu_e)
DECAY   1000014     2.88604760E-01   # ~nu_mu
#    BR                NDA      ID1      ID2
     9.64753701E-01    2     1000022        14   # BR(~nu_mu -> chi^0_1 nu_mu)
     3.52462874E-02    2     2000013        24   # BR(~nu_mu -> ~mu^-_R W^+)
     1.13486323E-08    2     1000039        14   # BR(~nu_mu -> ~G nu_mu)
DECAY   1000016     3.52626689E+00   # ~nu_tau
#    BR                NDA      ID1      ID2
     7.28254133E-02    2     1000022        16   # BR(~nu_tau -> chi^0_1 nu_tau)
     9.27174586E-01    2     1000015        24   # BR(~nu_tau -> ~tau^-_1 W^+)
     8.42742662E-10    2     1000039        16   # BR(~nu_tau -> ~G nu_tau)
DECAY   2000001     1.06369787E+00   # ~d_R
#    BR                NDA      ID1      ID2
     9.87449591E-01    2     1000022         1   # BR(~d_R -> chi^0_1 d)
     1.11030008E-02    2     1000023         1   # BR(~d_R -> chi^0_2 d)
     6.34950310E-04    2     1000025         1   # BR(~d_R -> chi^0_3 d)
     8.01111151E-04    2     1000035         1   # BR(~d_R -> chi^0_4 d)
     1.02223430E-05    2    -1000024         2   # BR(~d_R -> chi^-_1 u)
     1.97980875E-07    2    -1000037         2   # BR(~d_R -> chi^-_2 u)
     9.26184643E-07    2     1000039         1   # BR(~d_R -> ~G d)
DECAY   1000001     1.84966369E+01   # ~d_L
#    BR                NDA      ID1      ID2
     1.71368983E-02    2     1000022         1   # BR(~d_L -> chi^0_1 d)
     4.91871992E-02    2     1000023         1   # BR(~d_L -> chi^0_2 d)
     6.23339548E-04    2     1000025         1   # BR(~d_L -> chi^0_3 d)
     2.77150487E-01    2     1000035         1   # BR(~d_L -> chi^0_4 d)
     9.10907888E-02    2    -1000024         2   # BR(~d_L -> chi^-_1 u)
     5.64811220E-01    2    -1000037         2   # BR(~d_L -> chi^-_2 u)
     9.38677474E-14    2     2000002       -24   # BR(~d_L -> ~u_R W^-)
     4.26182436E-11    2     2000001        23   # BR(~d_L -> ~d_R Z)
     6.70197472E-08    2     1000039         1   # BR(~d_L -> ~G d)
DECAY   2000003     1.07328999E+00   # ~s_R
#    BR                NDA      ID1      ID2
     9.78737543E-01    2     1000022         3   # BR(~s_R -> chi^0_1 s)
     1.31686617E-02    2     1000023         3   # BR(~s_R -> chi^0_2 s)
     2.70362628E-03    2     1000025         3   # BR(~s_R -> chi^0_3 s)
     8.35251325E-04    2     1000035         3   # BR(~s_R -> chi^0_4 s)
     4.46743288E-03    2    -1000024         4   # BR(~s_R -> chi^-_1 c)
     8.65670557E-05    2    -1000037         4   # BR(~s_R -> chi^-_2 c)
     9.17825491E-07    2     1000039         3   # BR(~s_R -> ~G s)
DECAY   1000003     1.85012931E+01   # ~s_L
#    BR                NDA      ID1      ID2
     1.71308099E-02    2     1000022         3   # BR(~s_L -> chi^0_1 s)
     4.92720434E-02    2     1000023         3   # BR(~s_L -> chi^0_2 s)
     7.58224584E-04    2     1000025         3   # BR(~s_L -> chi^0_3 s)
     2.77104386E-01    2     1000035         3   # BR(~s_L -> chi^0_4 s)
     9.10442674E-02    2    -1000024         4   # BR(~s_L -> chi^-_1 c)
     5.64690166E-01    2    -1000037         4   # BR(~s_L -> chi^-_2 c)
     1.67663082E-08    2     2000004       -24   # BR(~s_L -> ~c_R W^-)
     1.90303676E-08    2     2000003        23   # BR(~s_L -> ~s_R Z)
     6.70003042E-08    2     1000039         3   # BR(~s_L -> ~G s)
DECAY   1000005     2.28034620E+01   # ~b_1
#    BR                NDA      ID1      ID2
     5.99353272E-02    2     1000022         5   # BR(~b_1 -> chi^0_1 b)
     2.35579098E-01    2     1000023         5   # BR(~b_1 -> chi^0_2 b)
     2.11970940E-01    2     1000025         5   # BR(~b_1 -> chi^0_3 b)
     2.05951838E-03    2     1000035         5   # BR(~b_1 -> chi^0_4 b)
     4.79288588E-01    2    -1000024         6   # BR(~b_1 -> chi^-_1 t)
     1.11664948E-02    2    -1000037         6   # BR(~b_1 -> chi^-_2 t)
     3.46676696E-08    2     1000039         5   # BR(~b_1 -> ~G b)
DECAY   2000005     4.65921339E+01   # ~b_2
#    BR                NDA      ID1      ID2
     3.82621264E-03    2     1000022         5   # BR(~b_2 -> chi^0_1 b)
     9.59393848E-02    2     1000023         5   # BR(~b_2 -> chi^0_2 b)
     1.16873207E-01    2     1000025         5   # BR(~b_2 -> chi^0_3 b)
     1.24131277E-01    2     1000035         5   # BR(~b_2 -> chi^0_4 b)
     3.46030973E-01    2    -1000024         6   # BR(~b_2 -> chi^-_1 t)
     3.08702666E-01    2    -1000037         6   # BR(~b_2 -> chi^-_2 t)
     4.49625847E-03    2     1000006       -24   # BR(~b_2 -> ~t_1 W^-)
     2.03567381E-08    2     1000039         5   # BR(~b_2 -> ~G b)
DECAY   2000002     4.27271546E+00   # ~u_R
#    BR                NDA      ID1      ID2
     9.87454352E-01    2     1000022         2   # BR(~u_R -> chi^0_1 u)
     1.11114465E-02    2     1000023         2   # BR(~u_R -> chi^0_2 u)
     6.31048328E-04    2     1000025         2   # BR(~u_R -> chi^0_3 u)
     8.02917656E-04    2     1000035         2   # BR(~u_R -> chi^0_4 u)
     5.30818936E-10    2     1000024         1   # BR(~u_R -> chi^+_1 d)
     1.53939523E-11    2     1000037         1   # BR(~u_R -> chi^+_2 d)
     2.34709754E-07    2     1000039         2   # BR(~u_R -> ~G u)
DECAY   1000002     1.85669694E+01   # ~u_L
#    BR                NDA      ID1      ID2
     1.29174475E-02    2     1000022         2   # BR(~u_L -> chi^0_1 u)
     6.11737998E-02    2     1000023         2   # BR(~u_L -> chi^0_2 u)
     3.48900398E-04    2     1000025         2   # BR(~u_L -> chi^0_3 u)
     2.68402584E-01    2     1000035         2   # BR(~u_L -> chi^0_4 u)
     1.28404720E-01    2     1000024         1   # BR(~u_L -> chi^+_1 d)
     5.28752481E-01    2     1000037         1   # BR(~u_L -> chi^+_2 d)
     8.92547932E-10    2     2000001        24   # BR(~u_L -> ~d_R W^+)
     6.65359812E-08    2     1000039         2   # BR(~u_L -> ~G u)
DECAY   2000004     4.27352092E+00   # ~c_R
#    BR                NDA      ID1      ID2
     9.87265493E-01    2     1000022         4   # BR(~c_R -> chi^0_1 c)
     1.11548347E-02    2     1000023         4   # BR(~c_R -> chi^0_2 c)
     6.77605017E-04    2     1000025         4   # BR(~c_R -> chi^0_3 c)
     8.03959663E-04    2     1000035         4   # BR(~c_R -> chi^0_4 c)
     9.51158329E-05    2     1000024         3   # BR(~c_R -> chi^+_1 s)
     2.75730369E-06    2     1000037         3   # BR(~c_R -> chi^+_2 s)
     2.34663493E-07    2     1000039         4   # BR(~c_R -> ~G c)
DECAY   1000004     1.85720054E+01   # ~c_L
#    BR                NDA      ID1      ID2
     1.29140095E-02    2     1000022         4   # BR(~c_L -> chi^0_1 c)
     6.11630721E-02    2     1000023         4   # BR(~c_L -> chi^0_2 c)
     3.59670683E-04    2     1000025         4   # BR(~c_L -> chi^0_3 c)
     2.68329656E-01    2     1000035         4   # BR(~c_L -> chi^0_4 c)
     1.28599061E-01    2     1000024         3   # BR(~c_L -> chi^+_1 s)
     5.28634069E-01    2     1000037         3   # BR(~c_L -> chi^+_2 s)
     3.94333004E-07    2     2000003        24   # BR(~c_L -> ~s_R W^+)
     6.65150918E-08    2     1000039         4   # BR(~c_L -> ~G c)
DECAY   1000006     4.21655879E+01   # ~t_1
#    BR                NDA      ID1      ID2
     4.11500116E-04    2     1000022         4   # BR(~t_1 -> chi^0_1 c)
     9.10876035E-02    2     1000022         6   # BR(~t_1 -> chi^0_1 t)
     1.86516265E-03    2     1000023         4   # BR(~t_1 -> chi^0_2 c)
     2.00871906E-01    2     1000023         6   # BR(~t_1 -> chi^0_2 t)
     2.32716205E-01    2     1000025         6   # BR(~t_1 -> chi^0_3 t)
     1.43538093E-02    2     1000035         6   # BR(~t_1 -> chi^0_4 t)
     4.28427453E-01    2     1000024         5   # BR(~t_1 -> chi^+_1 b)
     3.02468110E-02    2     1000037         5   # BR(~t_1 -> chi^+_2 b)
     1.52494665E-08    2     1000039         6   # BR(~t_1 -> ~G t)
#    BR                NDA      ID1      ID2       ID3
     1.95335717E-05    3     1000022        24         5   # BR(~t_1 -> chi^0_1 W^+ b)
DECAY   2000006     4.82775605E+01   # ~t_2
#    BR                NDA      ID1      ID2
     5.82155582E-03    2     1000022         6   # BR(~t_2 -> chi^0_1 t)
     1.78617326E-01    2     1000023         6   # BR(~t_2 -> chi^0_2 t)
     2.09936721E-01    2     1000025         6   # BR(~t_2 -> chi^0_3 t)
     1.56032460E-01    2     1000035         6   # BR(~t_2 -> chi^0_4 t)
     1.96921441E-01    2     1000024         5   # BR(~t_2 -> chi^+_1 b)
     2.48936735E-01    2     1000037         5   # BR(~t_2 -> chi^+_2 b)
     2.14455200E-03    2     1000006        23   # BR(~t_2 -> ~t_1 Z)
     1.58919077E-03    2     1000006        25   # BR(~t_2 -> ~t_1 h^0)
     1.92785992E-08    2     1000039         6   # BR(~t_2 -> ~G t)
DECAY   1000024     1.93075703E+00   # chi^+_1
#    BR                NDA      ID1      ID2
     5.59598328E-08    2    -2000011        12   # BR(chi^+_1 -> ~e^+_R nu_e)
     1.79555991E-03    2    -1000011        12   # BR(chi^+_1 -> ~e^+_L nu_e)
     2.39402132E-03    2    -2000013        14   # BR(chi^+_1 -> ~mu^+_R nu_mu)
     1.78933451E-03    2    -1000013        14   # BR(chi^+_1 -> ~mu^+_L nu_mu)
     8.05586704E-01    2    -1000015        16   # BR(chi^+_1 -> ~tau^+_1 nu_tau)
     5.58665080E-04    2    -2000015        16   # BR(chi^+_1 -> ~tau^+_2 nu_tau)
     3.35725402E-03    2     1000012       -11   # BR(chi^+_1 -> ~nu_e e^+)
     3.41043233E-03    2     1000014       -13   # BR(chi^+_1 -> ~nu_mu mu^+)
     2.72405527E-02    2     1000016       -15   # BR(chi^+_1 -> ~nu_tau tau^+)
     1.53754224E-01    2     1000022        24   # BR(chi^+_1 -> chi^0_1 W^+)
#    BR                NDA      ID1      ID2       ID3
     4.90399798E-09    3     1000022        -1         2   # BR(chi^+_1 -> chi^0_1 d_bar u)
     9.17270029E-09    3     1000022        -3         4   # BR(chi^+_1 -> chi^0_1 s_bar c)
     8.81746571E-05    3     1000022        -5         6   # BR(chi^+_1 -> chi^0_1 b_bar t)
     3.48293497E-12    3     1000022       -11        12   # BR(chi^+_1 -> chi^0_1 e^+ nu_e)
     1.48573034E-07    3     1000022       -13        14   # BR(chi^+_1 -> chi^0_1 mu^+ nu_mu)
     2.48585314E-05    3     1000022       -15        16   # BR(chi^+_1 -> chi^0_1 tau^+ nu_tau)
DECAY   1000037     5.05030277E+00   # chi^+_2
#    BR                NDA      ID1      ID2
     4.22528459E-10    2    -2000011        12   # BR(chi^+_2 -> ~e^+_R nu_e)
     9.87135117E-02    2    -1000011        12   # BR(chi^+_2 -> ~e^+_L nu_e)
     1.80950496E-05    2    -2000013        14   # BR(chi^+_2 -> ~mu^+_R nu_mu)
     9.87492386E-02    2    -1000013        14   # BR(chi^+_2 -> ~mu^+_L nu_mu)
     7.68479206E-03    2    -1000015        16   # BR(chi^+_2 -> ~tau^+_1 nu_tau)
     1.09315044E-01    2    -2000015        16   # BR(chi^+_2 -> ~tau^+_2 nu_tau)
     9.73931254E-02    2     1000012       -11   # BR(chi^+_2 -> ~nu_e e^+)
     9.74669289E-02    2     1000014       -13   # BR(chi^+_2 -> ~nu_mu mu^+)
     1.19483092E-01    2     1000016       -15   # BR(chi^+_2 -> ~nu_tau tau^+)
     6.62562365E-03    2     1000022        24   # BR(chi^+_2 -> chi^0_1 W^+)
     1.22340446E-01    2     1000023        24   # BR(chi^+_2 -> chi^0_2 W^+)
     7.22494767E-02    2     1000025        24   # BR(chi^+_2 -> chi^0_3 W^+)
     1.05780317E-01    2     1000024        23   # BR(chi^+_2 -> chi^+_1 Z)
     6.41355229E-02    2     1000024        25   # BR(chi^+_2 -> chi^+_1 h^0)
#    BR                NDA      ID1      ID2       ID3
     3.76956653E-09    3     1000024         2        -2   # BR(chi^+_2 -> chi^+_1 u u_bar)
     3.76257524E-09    3     1000024         4        -4   # BR(chi^+_2 -> chi^+_1 c c_bar)
     5.04166496E-09    3     1000024         1        -1   # BR(chi^+_2 -> chi^+_1 d d_bar)
     5.96663206E-09    3     1000024         3        -3   # BR(chi^+_2 -> chi^+_1 s s_bar)
     2.19695963E-06    3     1000024         5        -5   # BR(chi^+_2 -> chi^+_1 b b_bar)
     1.07830400E-06    3     1000024        11       -11   # BR(chi^+_2 -> chi^+_1 e^- e^+)
     1.08874527E-06    3     1000024        13       -13   # BR(chi^+_2 -> chi^+_1 mu^- mu^+)
     4.03766801E-06    3     1000024        15       -15   # BR(chi^+_2 -> chi^+_1 tau^- tau^+)
     2.00079949E-06    3     1000024        12       -12   # BR(chi^+_2 -> chi^+_1 nu_e nu_bar_e)
     9.58245704E-08    3     1000022        -1         2   # BR(chi^+_2 -> chi^0_1 d_bar u)
     9.60019480E-08    3     1000022        -3         4   # BR(chi^+_2 -> chi^0_1 s_bar c)
     2.95085908E-05    3     1000022        -5         6   # BR(chi^+_2 -> chi^0_1 b_bar t)
     7.44465979E-14    3     1000022       -11        12   # BR(chi^+_2 -> chi^0_1 e^+ nu_e)
     3.18171031E-09    3     1000022       -13        14   # BR(chi^+_2 -> chi^0_1 mu^+ nu_mu)
     8.22572204E-07    3     1000022       -15        16   # BR(chi^+_2 -> chi^0_1 tau^+ nu_tau)
     2.15881338E-09    3     1000023        -1         2   # BR(chi^+_2 -> chi^0_2 d_bar u)
     2.76146972E-09    3     1000023        -3         4   # BR(chi^+_2 -> chi^0_2 s_bar c)
     6.01461252E-07    3     1000023       -11        12   # BR(chi^+_2 -> chi^0_2 e^+ nu_e)
     6.05613545E-07    3     1000023       -13        14   # BR(chi^+_2 -> chi^0_2 mu^+ nu_mu)
     1.86240480E-06    3     1000023       -15        16   # BR(chi^+_2 -> chi^0_2 tau^+ nu_tau)
     2.73907240E-11    3     1000025        -1         2   # BR(chi^+_2 -> chi^0_3 d_bar u)
     2.48084746E-10    3     1000025        -3         4   # BR(chi^+_2 -> chi^0_3 s_bar c)
     4.28990583E-09    3     1000025       -11        12   # BR(chi^+_2 -> chi^0_3 e^+ nu_e)
     6.80353194E-09    3     1000025       -13        14   # BR(chi^+_2 -> chi^0_3 mu^+ nu_mu)
     7.52060774E-07    3     1000025       -15        16   # BR(chi^+_2 -> chi^0_3 tau^+ nu_tau)
DECAY   1000022     1.76475976E+00   # chi^0_1
#    BR                NDA      ID1      ID2
     1.12726447E-01    2     2000011       -11   # BR(chi^0_1 -> ~e^-_R e^+)
     1.12726447E-01    2    -2000011        11   # BR(chi^0_1 -> ~e^+_R e^-)
     1.13186064E-01    2     2000013       -13   # BR(chi^0_1 -> ~mu^-_R mu^+)
     1.13186064E-01    2    -2000013        13   # BR(chi^0_1 -> ~mu^+_R mu^-)
     2.74087488E-01    2     1000015       -15   # BR(chi^0_1 -> ~tau^-_1 tau^+)
     2.74087488E-01    2    -1000015        15   # BR(chi^0_1 -> ~tau^+_1 tau^-)
     1.67337197E-10    2     1000039        22   # BR(chi^0_1 -> ~G photon)
     5.03780102E-11    2     1000039        23   # BR(chi^0_1 -> ~G Z)
     9.75852077E-13    2     1000039        25   # BR(chi^0_1 -> ~G h^0)
DECAY   1000023     2.05122407E+00   # chi^0_2
#    BR                NDA      ID1      ID2
     6.90040290E-03    2     2000011       -11   # BR(chi^0_2 -> ~e^-_R e^+)
     6.90040290E-03    2    -2000011        11   # BR(chi^0_2 -> ~e^+_R e^-)
     1.50961445E-03    2     1000011       -11   # BR(chi^0_2 -> ~e^-_L e^+)
     1.50961445E-03    2    -1000011        11   # BR(chi^0_2 -> ~e^+_L e^-)
     8.00728082E-03    2     2000013       -13   # BR(chi^0_2 -> ~mu^-_R mu^+)
     8.00728082E-03    2    -2000013        13   # BR(chi^0_2 -> ~mu^+_R mu^-)
     1.52435233E-03    2     1000013       -13   # BR(chi^0_2 -> ~mu^-_L mu^+)
     1.52435233E-03    2    -1000013        13   # BR(chi^0_2 -> ~mu^+_L mu^-)
     3.92129342E-01    2     1000015       -15   # BR(chi^0_2 -> ~tau^-_1 tau^+)
     3.92129342E-01    2    -1000015        15   # BR(chi^0_2 -> ~tau^+_1 tau^-)
     6.14063528E-03    2     2000015       -15   # BR(chi^0_2 -> ~tau^-_2 tau^+)
     6.14063528E-03    2    -2000015        15   # BR(chi^0_2 -> ~tau^+_2 tau^-)
     1.00433721E-03    2     1000012       -12   # BR(chi^0_2 -> ~nu_e nu_bar_e)
     1.00433721E-03    2    -1000012        12   # BR(chi^0_2 -> ~nu^*_e nu_e)
     1.00639614E-03    2     1000014       -14   # BR(chi^0_2 -> ~nu_mu nu_bar_mu)
     1.00639614E-03    2    -1000014        14   # BR(chi^0_2 -> ~nu^*_mu nu_mu)
     1.64995290E-03    2     1000016       -16   # BR(chi^0_2 -> ~nu_tau nu_bar_tau)
     1.64995290E-03    2    -1000016        16   # BR(chi^0_2 -> ~nu^*_tau nu_tau)
     9.81308376E-03    2     1000022        23   # BR(chi^0_2 -> chi^0_1 Z)
     1.50402901E-01    2     1000022        25   # BR(chi^0_2 -> chi^0_1 h^0)
     1.86132860E-10    2     1000039        22   # BR(chi^0_2 -> ~G photon)
     4.29155827E-12    2     1000039        23   # BR(chi^0_2 -> ~G Z)
     9.30993383E-10    2     1000039        25   # BR(chi^0_2 -> ~G h^0)
     2.40178293E-07    2     1000022        22   # BR(chi^0_2 -> chi^0_1 photon)
#    BR                NDA      ID1      ID2       ID3
     4.63934882E-09    3     1000022         2        -2   # BR(chi^0_2 -> chi^0_1 u u_bar)
     4.64382364E-09    3     1000022         4        -4   # BR(chi^0_2 -> chi^0_1 c c_bar)
     2.62043701E-09    3     1000022         1        -1   # BR(chi^0_2 -> chi^0_1 d d_bar)
     7.44570346E-09    3     1000022         3        -3   # BR(chi^0_2 -> chi^0_1 s s_bar)
     1.14370904E-05    3     1000022         5        -5   # BR(chi^0_2 -> chi^0_1 b b_bar)
     1.51992377E-06    3     1000022        11       -11   # BR(chi^0_2 -> chi^0_1 e^- e^+)
     1.64934343E-06    3     1000022        13       -13   # BR(chi^0_2 -> chi^0_1 mu^- mu^+)
     2.45197303E-05    3     1000022        15       -15   # BR(chi^0_2 -> chi^0_1 tau^- tau^+)
     1.83852682E-12    3     1000024         1        -2   # BR(chi^0_2 -> chi^+_1 d u_bar)
     1.83852682E-12    3    -1000024        -1         2   # BR(chi^0_2 -> chi^-_1 d_bar u)
     5.92301546E-13    3     1000024        11       -12   # BR(chi^0_2 -> chi^+_1 e^- nu_bar_e)
     5.92301546E-13    3    -1000024       -11        12   # BR(chi^0_2 -> chi^-_1 e^+ nu_e)
     5.77578650E-13    3     1000024        13       -14   # BR(chi^0_2 -> chi^+_1 mu^- nu_bar_mu)
     5.77578650E-13    3    -1000024       -13        14   # BR(chi^0_2 -> chi^-_1 mu^+ nu_mu)
DECAY   1000025     2.04382002E+00   # chi^0_3
#    BR                NDA      ID1      ID2
     4.29523227E-04    2     2000011       -11   # BR(chi^0_3 -> ~e^-_R e^+)
     4.29523227E-04    2    -2000011        11   # BR(chi^0_3 -> ~e^+_R e^-)
     8.03000691E-06    2     1000011       -11   # BR(chi^0_3 -> ~e^-_L e^+)
     8.03000691E-06    2    -1000011        11   # BR(chi^0_3 -> ~e^+_L e^-)
     1.55448312E-03    2     2000013       -13   # BR(chi^0_3 -> ~mu^-_R mu^+)
     1.55448312E-03    2    -2000013        13   # BR(chi^0_3 -> ~mu^+_R mu^-)
     5.77785242E-05    2     1000013       -13   # BR(chi^0_3 -> ~mu^-_L mu^+)
     5.77785242E-05    2    -1000013        13   # BR(chi^0_3 -> ~mu^+_L mu^-)
     3.92700079E-01    2     1000015       -15   # BR(chi^0_3 -> ~tau^-_1 tau^+)
     3.92700079E-01    2    -1000015        15   # BR(chi^0_3 -> ~tau^+_1 tau^-)
     1.50774771E-02    2     2000015       -15   # BR(chi^0_3 -> ~tau^-_2 tau^+)
     1.50774771E-02    2    -2000015        15   # BR(chi^0_3 -> ~tau^+_2 tau^-)
     5.90580886E-05    2     1000012       -12   # BR(chi^0_3 -> ~nu_e nu_bar_e)
     5.90580886E-05    2    -1000012        12   # BR(chi^0_3 -> ~nu^*_e nu_e)
     5.91345309E-05    2     1000014       -14   # BR(chi^0_3 -> ~nu_mu nu_bar_mu)
     5.91345309E-05    2    -1000014        14   # BR(chi^0_3 -> ~nu^*_mu nu_mu)
     8.19416911E-05    2     1000016       -16   # BR(chi^0_3 -> ~nu_tau nu_bar_tau)
     8.19416911E-05    2    -1000016        16   # BR(chi^0_3 -> ~nu^*_tau nu_tau)
     1.71024614E-01    2     1000022        23   # BR(chi^0_3 -> chi^0_1 Z)
     8.86082420E-03    2     1000022        25   # BR(chi^0_3 -> chi^0_1 h^0)
     8.60578113E-14    2     1000039        22   # BR(chi^0_3 -> ~G photon)
     2.37357632E-10    2     1000039        23   # BR(chi^0_3 -> ~G Z)
     1.25070479E-09    2     1000039        25   # BR(chi^0_3 -> ~G h^0)
     8.86098496E-08    2     1000022        22   # BR(chi^0_3 -> chi^0_1 photon)
     3.32191083E-09    2     1000023        22   # BR(chi^0_3 -> chi^0_2 photon)
#    BR                NDA      ID1      ID2       ID3
     7.87780598E-11    3     1000022         2        -2   # BR(chi^0_3 -> chi^0_1 u u_bar)
     8.96680710E-11    3     1000022         4        -4   # BR(chi^0_3 -> chi^0_1 c c_bar)
     3.75868263E-11    3     1000022         1        -1   # BR(chi^0_3 -> chi^0_1 d d_bar)
     7.09029282E-09    3     1000022         3        -3   # BR(chi^0_3 -> chi^0_1 s s_bar)
     1.66629728E-05    3     1000022         5        -5   # BR(chi^0_3 -> chi^0_1 b b_bar)
     4.46572651E-08    3     1000022        11       -11   # BR(chi^0_3 -> chi^0_1 e^- e^+)
     2.16831778E-07    3     1000022        13       -13   # BR(chi^0_3 -> chi^0_1 mu^- mu^+)
     3.05930934E-05    3     1000022        15       -15   # BR(chi^0_3 -> chi^0_1 tau^- tau^+)
     3.25646297E-07    3     1000023         2        -2   # BR(chi^0_3 -> chi^0_2 u u_bar)
     3.19801896E-07    3     1000023         4        -4   # BR(chi^0_3 -> chi^0_2 c c_bar)
     4.22495893E-07    3     1000023         1        -1   # BR(chi^0_3 -> chi^0_2 d d_bar)
     4.22426700E-07    3     1000023         3        -3   # BR(chi^0_3 -> chi^0_2 s s_bar)
     3.19294712E-07    3     1000023         5        -5   # BR(chi^0_3 -> chi^0_2 b b_bar)
     9.71484288E-08    3     1000023        11       -11   # BR(chi^0_3 -> chi^0_2 e^- e^+)
     9.70926221E-08    3     1000023        13       -13   # BR(chi^0_3 -> chi^0_2 mu^- mu^+)
     8.09847075E-08    3     1000023        15       -15   # BR(chi^0_3 -> chi^0_2 tau^- tau^+)
     5.79801854E-07    3     1000023        12       -12   # BR(chi^0_3 -> chi^0_2 nu_e nu_bar_e)
     1.55758665E-06    3     1000024         1        -2   # BR(chi^0_3 -> chi^+_1 d u_bar)
     1.55758665E-06    3    -1000024        -1         2   # BR(chi^0_3 -> chi^-_1 d_bar u)
     1.53800436E-06    3     1000024         3        -4   # BR(chi^0_3 -> chi^+_1 s c_bar)
     1.53800436E-06    3    -1000024        -3         4   # BR(chi^0_3 -> chi^-_1 s_bar c)
     5.18421157E-07    3     1000024        11       -12   # BR(chi^0_3 -> chi^+_1 e^- nu_bar_e)
     5.18421157E-07    3    -1000024       -11        12   # BR(chi^0_3 -> chi^-_1 e^+ nu_e)
     5.18414705E-07    3     1000024        13       -14   # BR(chi^0_3 -> chi^+_1 mu^- nu_bar_mu)
     5.18414705E-07    3    -1000024       -13        14   # BR(chi^0_3 -> chi^-_1 mu^+ nu_mu)
     5.02101084E-07    3     1000024        15       -16   # BR(chi^0_3 -> chi^+_1 tau^- nu_bar_tau)
     5.02101084E-07    3    -1000024       -15        16   # BR(chi^0_3 -> chi^-_1 tau^+ nu_tau)
DECAY   1000035     5.04934407E+00   # chi^0_4
#    BR                NDA      ID1      ID2
     3.43681958E-04    2     2000011       -11   # BR(chi^0_4 -> ~e^-_R e^+)
     3.43681958E-04    2    -2000011        11   # BR(chi^0_4 -> ~e^+_R e^-)
     4.58296633E-02    2     1000011       -11   # BR(chi^0_4 -> ~e^-_L e^+)
     4.58296633E-02    2    -1000011        11   # BR(chi^0_4 -> ~e^+_L e^-)
     3.50055099E-04    2     2000013       -13   # BR(chi^0_4 -> ~mu^-_R mu^+)
     3.50055099E-04    2    -2000013        13   # BR(chi^0_4 -> ~mu^+_R mu^-)
     4.58655109E-02    2     1000013       -13   # BR(chi^0_4 -> ~mu^-_L mu^+)
     4.58655109E-02    2    -1000013        13   # BR(chi^0_4 -> ~mu^+_L mu^-)
     4.50786141E-03    2     1000015       -15   # BR(chi^0_4 -> ~tau^-_1 tau^+)
     4.50786141E-03    2    -1000015        15   # BR(chi^0_4 -> ~tau^+_1 tau^-)
     5.60667507E-02    2     2000015       -15   # BR(chi^0_4 -> ~tau^-_2 tau^+)
     5.60667507E-02    2    -2000015        15   # BR(chi^0_4 -> ~tau^+_2 tau^-)
     5.21250497E-02    2     1000012       -12   # BR(chi^0_4 -> ~nu_e nu_bar_e)
     5.21250497E-02    2    -1000012        12   # BR(chi^0_4 -> ~nu^*_e nu_e)
     5.21451337E-02    2     1000014       -14   # BR(chi^0_4 -> ~nu_mu nu_bar_mu)
     5.21451337E-02    2    -1000014        14   # BR(chi^0_4 -> ~nu^*_mu nu_mu)
     5.77937322E-02    2     1000016       -16   # BR(chi^0_4 -> ~nu_tau nu_bar_tau)
     5.77937322E-02    2    -1000016        16   # BR(chi^0_4 -> ~nu^*_tau nu_tau)
     1.20567024E-01    2     1000024       -24   # BR(chi^0_4 -> chi^+_1 W^-)
     1.20567024E-01    2    -1000024        24   # BR(chi^0_4 -> chi^-_1 W^+)
     7.77358304E-04    2     1000022        23   # BR(chi^0_4 -> chi^0_1 Z)
     1.31867146E-03    2     1000023        23   # BR(chi^0_4 -> chi^0_2 Z)
     5.55342365E-02    2     1000025        23   # BR(chi^0_4 -> chi^0_3 Z)
     6.92954061E-03    2     1000022        25   # BR(chi^0_4 -> chi^0_1 h^0)
     6.41347214E-02    2     1000023        25   # BR(chi^0_4 -> chi^0_2 h^0)
     9.77644714E-05    2     1000025        25   # BR(chi^0_4 -> chi^0_3 h^0)
     4.61817102E-10    2     1000039        22   # BR(chi^0_4 -> ~G photon)
     2.36578285E-09    2     1000039        23   # BR(chi^0_4 -> ~G Z)
     2.31961703E-10    2     1000039        25   # BR(chi^0_4 -> ~G h^0)
     3.22545603E-07    2     1000022        22   # BR(chi^0_4 -> chi^0_1 photon)
     1.24342193E-06    2     1000023        22   # BR(chi^0_4 -> chi^0_2 photon)
     8.53586064E-07    2     1000025        22   # BR(chi^0_4 -> chi^0_3 photon)
#    BR                NDA      ID1      ID2       ID3
     4.13441744E-08    3     1000022         2        -2   # BR(chi^0_4 -> chi^0_1 u u_bar)
     4.13377437E-08    3     1000022         4        -4   # BR(chi^0_4 -> chi^0_1 c c_bar)
     9.77647042E-07    3     1000022         6        -6   # BR(chi^0_4 -> chi^0_1 t t_bar)
     5.50597325E-08    3     1000022         1        -1   # BR(chi^0_4 -> chi^0_1 d d_bar)
     5.53552241E-08    3     1000022         3        -3   # BR(chi^0_4 -> chi^0_1 s s_bar)
     7.64458885E-07    3     1000022         5        -5   # BR(chi^0_4 -> chi^0_1 b b_bar)
     2.14681845E-07    3     1000022        11       -11   # BR(chi^0_4 -> chi^0_1 e^- e^+)
     2.15370927E-07    3     1000022        13       -13   # BR(chi^0_4 -> chi^0_1 mu^- mu^+)
     9.81902345E-07    3     1000022        15       -15   # BR(chi^0_4 -> chi^0_1 tau^- tau^+)
     3.47902500E-09    3     1000023         2        -2   # BR(chi^0_4 -> chi^0_2 u u_bar)
     3.47498852E-09    3     1000023         4        -4   # BR(chi^0_4 -> chi^0_2 c c_bar)
     2.85183766E-09    3     1000023         1        -1   # BR(chi^0_4 -> chi^0_2 d d_bar)
     3.19128800E-09    3     1000023         3        -3   # BR(chi^0_4 -> chi^0_2 s s_bar)
     8.06325924E-07    3     1000023         5        -5   # BR(chi^0_4 -> chi^0_2 b b_bar)
     9.24375731E-07    3     1000023        11       -11   # BR(chi^0_4 -> chi^0_2 e^- e^+)
     9.29464645E-07    3     1000023        13       -13   # BR(chi^0_4 -> chi^0_2 mu^- mu^+)
     2.60206449E-06    3     1000023        15       -15   # BR(chi^0_4 -> chi^0_2 tau^- tau^+)
     1.29203432E-06    3     1000023        12       -12   # BR(chi^0_4 -> chi^0_2 nu_e nu_bar_e)
     3.22823259E-12    3     1000025         2        -2   # BR(chi^0_4 -> chi^0_3 u u_bar)
     3.40010603E-12    3     1000025         4        -4   # BR(chi^0_4 -> chi^0_3 c c_bar)
     6.44102991E-12    3     1000025         1        -1   # BR(chi^0_4 -> chi^0_3 d d_bar)
     2.56324218E-10    3     1000025         3        -3   # BR(chi^0_4 -> chi^0_3 s s_bar)
     5.85025840E-07    3     1000025         5        -5   # BR(chi^0_4 -> chi^0_3 b b_bar)
     2.51546615E-10    3     1000025        11       -11   # BR(chi^0_4 -> chi^0_3 e^- e^+)
     2.38037589E-09    3     1000025        13       -13   # BR(chi^0_4 -> chi^0_3 mu^- mu^+)
     6.34238714E-07    3     1000025        15       -15   # BR(chi^0_4 -> chi^0_3 tau^- tau^+)
     4.37426889E-09    3     1000025        12       -12   # BR(chi^0_4 -> chi^0_3 nu_e nu_bar_e)
     2.25128294E-09    3     1000024         1        -2   # BR(chi^0_4 -> chi^+_1 d u_bar)
     2.25128294E-09    3    -1000024        -1         2   # BR(chi^0_4 -> chi^-_1 d_bar u)
     2.80927787E-09    3     1000024         3        -4   # BR(chi^0_4 -> chi^+_1 s c_bar)
     2.80927787E-09    3    -1000024        -3         4   # BR(chi^0_4 -> chi^-_1 s_bar c)
     5.72345942E-07    3     1000024        11       -12   # BR(chi^0_4 -> chi^+_1 e^- nu_bar_e)
     5.72345942E-07    3    -1000024       -11        12   # BR(chi^0_4 -> chi^-_1 e^+ nu_e)
     5.75928778E-07    3     1000024        13       -14   # BR(chi^0_4 -> chi^+_1 mu^- nu_bar_mu)
     5.75928778E-07    3    -1000024       -13        14   # BR(chi^0_4 -> chi^-_1 mu^+ nu_mu)
     1.45584397E-06    3     1000024        15       -16   # BR(chi^0_4 -> chi^+_1 tau^- nu_bar_tau)
     1.45584397E-06    3    -1000024       -15        16   # BR(chi^0_4 -> chi^-_1 tau^+ nu_tau)
DECAY   1000021     1.06809558E+01   # ~g
#    BR                NDA      ID1      ID2
     4.23284400E-02    2     2000002        -2   # BR(~g -> ~u_R u_bar)
     4.23284400E-02    2    -2000002         2   # BR(~g -> ~u^*_R u)
     9.47745083E-03    2     1000002        -2   # BR(~g -> ~u_L u_bar)
     9.47745083E-03    2    -1000002         2   # BR(~g -> ~u^*_L u)
     4.23276046E-02    2     2000004        -4   # BR(~g -> ~c_R c_bar)
     4.23276046E-02    2    -2000004         4   # BR(~g -> ~c^*_R c)
     9.48091894E-03    2     1000004        -4   # BR(~g -> ~c_L c_bar)
     9.48091894E-03    2    -1000004         4   # BR(~g -> ~c^*_L c)
     1.29976900E-02    2     1000006        -4   # BR(~g -> ~t_1 c_bar)
     1.29976900E-02    2    -1000006         4   # BR(~g -> ~t^*_1 c)
     1.02682258E-01    2     1000006        -6   # BR(~g -> ~t_1 t_bar)
     1.02682258E-01    2    -1000006         6   # BR(~g -> ~t^*_1 t)
     1.43941872E-02    2     2000006        -6   # BR(~g -> ~t_2 t_bar)
     1.43941872E-02    2    -2000006         6   # BR(~g -> ~t^*_2 t)
     4.60385341E-02    2     2000001        -1   # BR(~g -> ~d_R d_bar)
     4.60385341E-02    2    -2000001         1   # BR(~g -> ~d^*_R d)
     9.11687182E-03    2     1000001        -1   # BR(~g -> ~d_L d_bar)
     9.11687182E-03    2    -1000001         1   # BR(~g -> ~d^*_L d)
     4.60571818E-02    2     2000003        -3   # BR(~g -> ~s_R s_bar)
     4.60571818E-02    2    -2000003         3   # BR(~g -> ~s^*_R s)
     9.12095666E-03    2     1000003        -3   # BR(~g -> ~s_L s_bar)
     9.12095666E-03    2    -1000003         3   # BR(~g -> ~s^*_L s)
     1.00645422E-01    2     1000005        -5   # BR(~g -> ~b_1 b_bar)
     1.00645422E-01    2    -1000005         5   # BR(~g -> ~b^*_1 b)
     5.50973477E-02    2     2000005        -5   # BR(~g -> ~b_2 b_bar)
     5.50973477E-02    2    -2000005         5   # BR(~g -> ~b^*_2 b)
     2.11295105E-06    2     1000022        21   # BR(~g -> chi^0_1 g)
     1.69593258E-04    2     1000023        21   # BR(~g -> chi^0_2 g)
     2.44363906E-04    2     1000025        21   # BR(~g -> chi^0_3 g)
     5.42020287E-05    2     1000035        21   # BR(~g -> chi^0_4 g)
DECAY        25     2.45939394E-03   # h^0
#    BR                NDA      ID1      ID2
     1.11506709E-08    2          11       -11   # BR(h^0 -> e^- e^+)
     4.76681159E-04    2          13       -13   # BR(h^0 -> mu^- mu^+)
     1.31445021E-01    2          15       -15   # BR(h^0 -> tau^- tau^+)
     6.21622643E-07    2           1        -1   # BR(h^0 -> d d_bar)
     2.74130206E-04    2           3        -3   # BR(h^0 -> s s_bar)
     5.98987091E-01    2           5        -5   # BR(h^0 -> b b_bar)
     2.70677825E-07    2           2        -2   # BR(h^0 -> u u_bar)
     4.84984397E-02    2           4        -4   # BR(h^0 -> c c_bar)
     7.29596806E-02    2          21        21   # BR(h^0 -> g g)
     3.47008235E-03    2          22        22   # BR(h^0 -> photon photon)
# writing decays into V V* as 3-body decays
#    BR                NDA      ID1      ID2       ID3
     6.61350829E-03    3          24        11        12   # BR(h^0 -> W^+ e^- nu_e)
     6.61350829E-03    3          24        13        14   # BR(h^0 -> W^+ mu^- nu_mu)
     6.61350829E-03    3          24        15        16   # BR(h^0 -> W^+ tau^- nu_tau)
     2.31472790E-02    3          24         1        -2   # BR(h^0 -> W^+ d u_bar)
     2.31472790E-02    3          24         3        -4   # BR(h^0 -> W^+ s c_bar)
     6.61350829E-03    3         -24       -11       -12   # BR(h^0 -> W^- e^+ nu_bar_e)
     6.61350829E-03    3         -24       -13       -14   # BR(h^0 -> W^- mu^+ nu_bar_mu)
     6.61350829E-03    3         -24       -15       -16   # BR(h^0 -> W^- tau^+ nu_bar_tau)
     2.31472790E-02    3         -24        -1         2   # BR(h^0 -> W^- d_bar u)
     2.31472790E-02    3         -24        -3         4   # BR(h^0 -> W^- s_bar c)
     4.06623166E-04    3          23        11       -11   # BR(h^0 -> Z e^- e^+)
     4.06623166E-04    3          23        13       -13   # BR(h^0 -> Z mu^- mu^+)
     3.48534142E-04    3          23        15       -15   # BR(h^0 -> Z tau^- tau^+)
     2.32356095E-03    3          23        12       -12   # BR(h^0 -> Z nu_e nu_bar_e)
     1.62649266E-03    3          23         1        -1   # BR(h^0 -> Z u u_bar)
     1.62649266E-03    3          23         3        -3   # BR(h^0 -> Z c c_bar)
     1.62649266E-03    3          23         5        -5   # BR(h^0 -> Z t t_bar)
     1.62649266E-03    3          23         2        -2   # BR(h^0 -> Z u u_bar)
     1.62649266E-03    3          23         4        -4   # BR(h^0 -> Z c c_bar)
DECAY        35     1.92305944E+01   # H^0
#    BR                NDA      ID1      ID2
     1.66250819E-08    2          11       -11   # BR(H^0 -> e^- e^+)
     7.10791084E-04    2          13       -13   # BR(H^0 -> mu^- mu^+)
     2.02551960E-01    2          15       -15   # BR(H^0 -> tau^- tau^+)
     7.70990042E-07    2           1        -1   # BR(H^0 -> d d_bar)
     3.40006004E-04    2           3        -3   # BR(H^0 -> s s_bar)
     7.95756114E-01    2           5        -5   # BR(H^0 -> b b_bar)
     7.30475023E-14    2           2        -2   # BR(H^0 -> u u_bar)
     1.30909593E-08    2           4        -4   # BR(H^0 -> c c_bar)
     5.09227163E-04    2           6        -6   # BR(H^0 -> t t_bar)
     1.23961241E-07    2     2000011  -2000011   # BR(H^0 -> ~e^-_R ~e^+_R)
     1.33375366E-07    2     2000013  -2000013   # BR(H^0 -> ~mu^-_R ~mu^+_R)
     1.83958895E-05    2     1000015  -1000015   # BR(H^0 -> ~tau^-_1 ~tau^+_1)
     4.34235208E-06    2          23        23   # BR(H^0 -> Z Z)
     8.45230317E-06    2          24       -24   # BR(H^0 -> W^+ W^-)
     1.43165353E-05    2          25        25   # BR(H^0 -> h^0 h^0)
     8.52199595E-05    2          21        21   # BR(H^0 -> g g)
     1.16315448E-07    2          22        22   # BR(H^0 -> photon photon)
DECAY        36     1.92307459E+01   # A^0
#    BR                NDA      ID1      ID2
     1.66248163E-08    2          11       -11   # BR(A^0 -> e^- e^+)
     7.10779807E-04    2          13       -13   # BR(A^0 -> mu^- mu^+)
     2.02554983E-01    2          15       -15   # BR(A^0 -> tau^- tau^+)
     7.70977216E-07    2           1        -1   # BR(A^0 -> d d_bar)
     3.40000337E-04    2           3        -3   # BR(A^0 -> s s_bar)
     7.95773141E-01    2           5        -5   # BR(A^0 -> b b_bar)
     6.34494483E-14    2           2        -2   # BR(A^0 -> u u_bar)
     1.13708817E-08    2           4        -4   # BR(A^0 -> c c_bar)
     5.87891399E-04    2           6        -6   # BR(A^0 -> t t_bar)
     7.87629131E-06    2          25        23   # BR(A^0 -> h^0 Z)
     2.44835433E-05    2          21        21   # BR(A^0 -> g g)
     4.59225756E-08    2          22        22   # BR(A^0 -> photon photon)
DECAY        37     1.57238902E+01   # H^+
#    BR                NDA      ID1      ID2
     2.05215190E-08    2         -11        12   # BR(H^+ -> e^+ nu_e)
     8.77380004E-04    2         -13        12   # BR(H^+ -> mu^+ nu_e)
     2.50032063E-01    2         -15        12   # BR(H^+ -> tau^+ nu_e)
     8.40925830E-07    2          -1         2   # BR(H^+ -> d_bar u)
     3.70857099E-04    2          -3         4   # BR(H^+ -> s_bar c)
     7.48709020E-01    2          -5         6   # BR(H^+ -> b_bar t)
     9.81881801E-06    2          25        24   # BR(H^+ -> h^0 W^+)
DECAY         6     2.43000000E+00   # top
#    BR                NDA      ID1      ID2
     1.00000000E+00    2           5        24   # BR(t -> b W)
Block HiggsBoundsInputHiggsCouplingsFermions
# ScalarNormEffCoupSq PseudoSNormEffCoupSq NP IP1 IP2 IP2
    1.15118225E+00    0.00000000E+00        3  25   5   5  # h0-b-b eff. coupling^2, normalised to SM
    2.49984882E+03    0.00000000E+00        3  35   5   5  # H0-b-b eff. coupling^2, normalised to SM
    0.00000000E+00    2.50000000E+03        3  36   5   5  # A0-b-b eff. coupling^2, normalised to SM
#
    9.99939527E-01    0.00000000E+00        3  25   6   6  # h0-t-t eff. coupling^2, normalised to SM
    4.60472901E-04    0.00000000E+00        3  35   6   6  # H0-t-t eff. coupling^2, normalised to SM
    0.00000000E+00    4.00000000E-04        3  36   6   6  # A0-t-t eff. coupling^2, normalised to SM
#
    1.15118225E+00    0.00000000E+00        3  25  15  15  # h0-tau-tau eff. coupling^2, normalised to SM
    2.49984882E+03    0.00000000E+00        3  35  15  15  # H0-tau-tau eff. coupling^2, normalised to SM
    0.00000000E+00    2.50000000E+03        3  36  15  15  # A0-tau-tau eff. coupling^2, normalised to SM
#
Block HiggsBoundsInputHiggsCouplingsBosons
    9.99997872E-01        3  25  24  24  # h0-W-W eff. coupling^2, normalised to SM
    2.12767031E-06        3  35  24  24  # H0-W-W eff. coupling^2, normalised to SM
    0.00000000E+00        3  36  24  24  # A0-W-W eff. coupling^2, normalised to SM
#
    9.99997872E-01        3  25  23  23  # h0-Z-Z eff. coupling^2, normalised to SM
    2.12767031E-06        3  35  23  23  # H0-Z-Z eff. coupling^2, normalised to SM
    0.00000000E+00        3  36  23  23  # A0-Z-Z eff. coupling^2, normalised to SM
#
    1.16297841E+00        3  25  21  21  # h0-g-g eff. coupling^2, normalised to SM
    6.16489980E-02        3  35  21  21  # H0-g-g eff. coupling^2, normalised to SM
    2.14640927E-01        3  36  21  21  # A0-g-g eff. coupling^2, normalised to SM
#
    0.00000000E+00        3  25  25  23  # h0-h0-Z eff. coupling^2, normalised to SM
    0.00000000E+00        3  35  25  23  # H0-h0-Z eff. coupling^2, normalised to SM
    2.12767031E-06        3  36  25  23  # A0-h0-Z eff. coupling^2, normalised to SM
    0.00000000E+00        3  35  35  23  # H0-H0-Z eff. coupling^2, normalised to SM
    9.99997872E-01        3  36  35  23  # A0-H0-Z eff. coupling^2, normalised to SM
    0.00000000E+00        3  36  36  23  # A0-A0-Z eff. coupling^2, normalised to SM
#
    0.00000000E+00        4  25  21  21  23  # h0-g-g-Z eff. coupling^2, normalised to SM
    0.00000000E+00        4  35  21  21  23  # H0-g-g-Z eff. coupling^2, normalised to SM
    0.00000000E+00        4  36  21  21  23  # A0-g-g-Z eff. coupling^2, normalised to SM
Block SPhenoLowEnergy  # low energy observables
    1    3.21484002E-04   # BR(b -> s gamma)
    2    1.58856480E-06   # BR(b -> s mu+ mu-)
    3    3.53739724E-05   # BR(b -> s nu nu)
    4    7.08552539E-11   # BR(Bd -> mu+ mu-)
    5    4.67597754E-09   # BR(Bs -> mu+ mu-)
    6    8.85255498E-05   # BR(B_u -> tau nu)
    7    8.00460156E-01   # BR(B_u -> tau nu)/BR(B_u -> tau nu)_SM
    8    2.73096983E-01   # |Delta(M_Bd)| [ps^-1] 
    9    2.01938775E+01   # |Delta(M_Bs)| [ps^-1] 
   20    5.48394873E-14   # Delta(g-2)_electron/2
   21    1.18698018E-09   # Delta(g-2)_muon/2
   22    1.23764807E-07   # Delta(g-2)_tau/2
   23    0.00000000E+00   # electric dipole moment of the electron
   24    0.00000000E+00   # electric dipole moment of the muon
   25    0.00000000E+00   # electric dipole moment of the tau
   26    0.00000000E+00   # Br(mu -> e gamma)
   27    0.00000000E+00   # Br(tau -> e gamma)
   28    0.00000000E+00   # Br(tau -> mu gamma)
   29    0.00000000E+00   # Br(mu -> 3 e)
   30    0.00000000E+00   # Br(tau -> 3 e)
   31    0.00000000E+00   # Br(tau -> 3 mu)
   39    1.75790787E-03   # Delta(rho_parameter)
   40    0.00000000E+00   # BR(Z -> e mu)
   41    0.00000000E+00   # BR(Z -> e tau)
   42    0.00000000E+00   # BR(Z -> mu tau)
Block FWCOEF Q=  9.11876000E+01  # Wilson coefficients at scale Q
#    id        order  M        value         comment
Block FWCOEF Q=  1.60000000E+02  # Wilson coefficients at scale Q
#    id        order  M        value         comment
     0305 4422   00   0    -1.87763579E-01   # C7
     0305 4422   00   1    -2.08316802E-02   # C7
     0305 4322   00   1    -4.39483683E-04   # C7'
     0305 6421   00   0    -9.48913533E-02   # C8
     0305 6421   00   1    -3.60694231E-02   # C8
     0305 6321   00   1    -7.56841635E-04   # C8'
 03051111 4133   00   0    -1.02102601E+00   # C9 e+e-
 03051111 4133   00   1     1.33253880E-03   # C9 e+e-
 03051111 4233   00   1    -1.77702538E-04   # C9' e+e-
 03051111 4137   00   0    -3.96016196E+00   # C10 e+e-
 03051111 4137   00   1     4.82121410E-03   # C10 e+e-
 03051111 4237   00   1     4.24416600E-03   # C10' e+e-
 03051313 4133   00   0    -1.02102601E+00   # C9 mu+mu-
 03051313 4133   00   1     1.33206441E-03   # C9 mu+mu-
 03051313 4233   00   1    -1.77845219E-04   # C9' mu+mu-
 03051313 4137   00   0    -3.96016196E+00   # C10 mu+mu-
 03051313 4137   00   1     4.82073918E-03   # C10 mu+mu-
 03051313 4237   00   1     4.24430877E-03   # C10' mu+mu-
 03051212 4237   00   0     1.49023424E+00   # C11 nu_1 nu_1
 03051212 4237   00   1    -1.15770413E-03   # C11 nu_1 nu_1
 03051212 4137   00   1    -1.01688607E-03   # C11' nu_1 nu_1
 03051414 4237   00   0     1.49023424E+00   # C11 nu_2 nu_2
 03051414 4237   00   1    -1.15770367E-03   # C11 nu_2 nu_2
 03051414 4137   00   1    -1.01685197E-03   # C11' nu_2 nu_2
 03051616 4237   00   0     1.49023424E+00   # C11 nu_3 nu_3
 03051616 4237   00   1    -1.15729205E-03   # C11 nu_3 nu_3
 03051616 4137   00   1    -1.00724273E-03   # C11' nu_3 nu_3
