#
#                              ======================
#                              | THE SUSYHIT OUTPUT |
#                              ======================
#
#
#              ------------------------------------------------------
#              |     This is the output of the SUSY-HIT package     |
#              |  created by A.Djouadi, M.Muehlleitner and M.Spira. |
#              |  In case of problems with SUSY-HIT email to        |
#              |           margarete.muehlleitner@cern.ch           |
#              |           michael.spira@psi.ch                     |
#              |           abdelhak.djouadi@cern.ch                 |
#              ------------------------------------------------------
#
#              ------------------------------------------------------
#              |  SUSY Les Houches Accord - MSSM Spectrum + Decays  |
#              |              based on the decay programs           |
#              |                                                    |
#              |                     SDECAY 1.3b                    |
#              |                                                    |
#              |  Authors: M.Muhlleitner, A.Djouadi and Y.Mambrini  |
#              |  Ref.:    Comput.Phys.Commun.168(2005)46           |
#              |           [hep-ph/0311167]                         |
#              |                                                    |
#              |                     HDECAY 3.4                     |
#              |                                                    |
#              |  By: A.Djouadi,J.Kalinowski,M.Muhlleitner,M.Spira  |
#              |  Ref.:    Comput.Phys.Commun.108(1998)56           |
#              |           [hep-ph/9704448]                         |
#              |                                                    |
#              |                                                    |
#              |  If not stated otherwise all DRbar couplings and   |
#              |  soft SUSY breaking masses are given at the scale  |
#              |  Q=  0.91187600E+02
#              |                                                    |
#              ------------------------------------------------------
#
#
BLOCK DCINFO  # Decay Program information
     1   SDECAY/HDECAY # decay calculator
     2   1.3b  /3.4    # version number
#
BLOCK SPINFO  # Spectrum calculator information
     1   SuSpect     # RGE +Spectrum calculator            
     2   2.41         # version number                     
#
BLOCK MODSEL  # Model selection
     1     0   # #general MSSM low scale                           
#
BLOCK SMINPUTS  # Standard Model inputs
         1     1.27934000E+02   # alpha_em^-1(M_Z)^MSbar
         2     1.16639000E-05   # G_F [GeV^-2]
         3     1.17200000E-01   # alpha_S(M_Z)^MSbar
         4     9.11870000E+01   # M_Z pole mass
         5     4.25000000E+00   # mb(mb)^MSbar
         6     1.72500000E+02   # mt pole mass
         7     1.77700000E+00   # mtau pole mass
#
BLOCK MINPAR  # Input parameters - minimal models
#
BLOCK EXTPAR  # Input parameters - non-minimal models
         0     9.11876000E+01   # EWSB                
         1     1.00000000E+01   # M_1                 
         2     1.00000000E+05   # M_2                 
         3     2.00000000E+03   # M_3                 
        11     0.00000000E+00   # A_t                 
        12     0.00000000E+00   # A_b                 
        13     0.00000000E+00   # A_tau               
        14     0.00000000E+00   # A_u                 
        15     0.00000000E+00   # A_d                 
        16     0.00000000E+00   # A_e                 
        23     1.00000000E+05   # mu(EWSB)            
        25     1.50000000E+00   # tanbeta(in)         
        26     2.00000000E+03   # MA_pole             
        31     1.00000000E+05   # M_eL                
        32     1.00000000E+05   # M_muL               
        33     1.00000000E+05   # M_tauL              
        34     1.00000000E+05   # M_eR                
        35     1.00000000E+05   # M_muR               
        36     1.00000000E+05   # M_tauR              
        41     3.00000000E+03   # M_q1L               
        42     3.00000000E+03   # M_q2L               
        43     3.00000000E+03   # M_q3L               
        44     1.00000000E+05   # M_uR                
        45     1.00000000E+05   # M_cR                
        46     1.00000000E+05   # M_tR                
        47     3.00000000E+03   # M_dR                
        48     3.00000000E+03   # M_sR                
        49     3.00000000E+03   # M_bR                
#
BLOCK MASS  # Mass Spectrum
# PDG code           mass       particle
        24     8.05442195E+01   # W+
        25     1.25000000E+02   # h
        35     2.00402134E+03   # H
        36     2.00000000E+03   # A
        37     2.02279503E+03   # H+
         5     4.87877839E+00   # b-quark pole mass calculated from mb(mb)_Msbar
   1000001     3.00021850E+03   # ~d_L
   2000001     3.00004281E+03   # ~d_R
   1000002     2.99982430E+03   # ~u_L
   2000002     9.99999974E+04   # ~u_R
   1000003     3.00021850E+03   # ~s_L
   2000003     3.00004281E+03   # ~s_R
   1000004     2.99982430E+03   # ~c_L
   2000004     9.99999974E+04   # ~c_R
   1000005     2.95046692E+03   # ~b_1
   2000005     3.04898683E+03   # ~b_2
   1000006     3.00184281E+03   # ~t_1
   2000006     1.00000155E+05   # ~t_2
   1000011     1.00000004E+05   # ~e_L
   2000011     1.00000004E+05   # ~e_R
   1000012     9.99999922E+04   # ~nu_eL
   1000013     1.00000004E+05   # ~mu_L
   2000013     1.00000004E+05   # ~mu_R
   1000014     9.99999922E+04   # ~nu_muL
   1000015     9.99986694E+04   # ~tau_1
   2000015     1.00001338E+05   # ~tau_2
   1000016     9.99999922E+04   # ~nu_tauL
   1000021     2.00000000E+03   # ~g
   1000022     9.98150247E+00   # ~chi_10
   1000023     9.99231131E+04   # ~chi_20
   1000025    -1.00000002E+05   # ~chi_30
   1000035     1.00076907E+05   # ~chi_40
   1000024     9.99231041E+04   # ~chi_1+
   1000037     1.00076898E+05   # ~chi_2+
   1000039     1.00000000E-09   # ~gravitino
#
BLOCK NMIX  # Neutralino Mixing Matrix
  1  1     9.99999900E-01   # N_11
  1  2    -3.24092803E-07   # N_12
  1  3     3.72471547E-04   # N_13
  1  4    -2.48334994E-04   # N_14
  2  1     3.10618934E-04   # N_21
  2  2     7.07148357E-01   # N_22
  2  3    -5.00009006E-01   # N_23
  2  4     4.99932094E-01   # N_24
  3  1     8.77777032E-05   # N_31
  3  2    -7.68970849E-05   # N_32
  3  3    -7.07106742E-01   # N_33
  3  4    -7.07106811E-01   # N_34
  4  1     3.10187554E-04   # N_41
  4  2    -7.07065205E-01   # N_42
  4  3    -4.99990907E-01   # N_43
  4  4     5.00067789E-01   # N_44
#
BLOCK UMIX  # Chargino Mixing Matrix U
  1  1    -7.07052405E-01   # U_11
  1  2     7.07161154E-01   # U_12
  2  1     7.07161154E-01   # U_21
  2  2     7.07052405E-01   # U_22
#
BLOCK VMIX  # Chargino Mixing Matrix V
  1  1    -7.07161154E-01   # V_11
  1  2     7.07052405E-01   # V_12
  2  1     7.07052405E-01   # V_21
  2  2     7.07161154E-01   # V_22
#
BLOCK STOPMIX  # Stop Mixing Matrix
  1  1     9.99999514E-01   # cos(theta_t)
  1  2     9.85900484E-04   # sin(theta_t)
  2  1    -9.85900484E-04   # -sin(theta_t)
  2  2     9.99999514E-01   # cos(theta_t)
#
BLOCK SBOTMIX  # Sbottom Mixing Matrix
  1  1     7.06475922E-01   # cos(theta_b)
  1  2     7.07737078E-01   # sin(theta_b)
  2  1    -7.07737078E-01   # -sin(theta_b)
  2  2     7.06475922E-01   # cos(theta_b)
#
BLOCK STAUMIX  # Stau Mixing Matrix
  1  1     7.07089122E-01   # cos(theta_tau)
  1  2     7.07124440E-01   # sin(theta_tau)
  2  1    -7.07124440E-01   # -sin(theta_tau)
  2  2     7.07089122E-01   # cos(theta_tau)
#
BLOCK ALPHA  # Higgs mixing
          -4.77318704E-01   # Mixing angle in the neutral Higgs boson sector
#
BLOCK HMIX Q=  9.11876000E+01  # DRbar Higgs Parameters
         1     1.00000000E+05   # mu(Q)               
         2     1.49999982E+00   # tanbeta(Q)          
         3     2.55667143E+02   # vev(Q)              
         4    -2.16652553E+09   # MA^2(Q)             
#
BLOCK GAUGE Q=  9.11876000E+01  # The gauge couplings
     1     3.50200784E-01   # gprime(Q) DRbar
     2     6.13520872E-01   # g(Q) DRbar
     3     1.07480271E+00   # g3(Q) DRbar
#
BLOCK AU Q=  9.11876000E+01  # The trilinear couplings
  1  1     0.00000000E+00   # A_u(Q) DRbar
  2  2     0.00000000E+00   # A_c(Q) DRbar
  3  3     0.00000000E+00   # A_t(Q) DRbar
#
BLOCK AD Q=  9.11876000E+01  # The trilinear couplings
  1  1     0.00000000E+00   # A_d(Q) DRbar
  2  2     0.00000000E+00   # A_s(Q) DRbar
  3  3     0.00000000E+00   # A_b(Q) DRbar
#
BLOCK AE Q=  9.11876000E+01  # The trilinear couplings
  1  1     0.00000000E+00   # A_e(Q) DRbar
  2  2     0.00000000E+00   # A_mu(Q) DRbar
  3  3     0.00000000E+00   # A_tau(Q) DRbar
#
BLOCK Yu Q=  9.11876000E+01  # The Yukawa couplings
  1  1     0.00000000E+00   # y_u(Q) DRbar
  2  2     0.00000000E+00   # y_c(Q) DRbar
  3  3     9.82161418E-01   # y_t(Q) DRbar
#
BLOCK Yd Q=  9.11876000E+01  # The Yukawa couplings
  1  1     0.00000000E+00   # y_d(Q) DRbar
  2  2     0.00000000E+00   # y_s(Q) DRbar
  3  3     1.96491268E-02   # y_b(Q) DRbar
#
BLOCK Ye Q=  9.11876000E+01  # The Yukawa couplings
  1  1     0.00000000E+00   # y_e(Q) DRbar
  2  2     0.00000000E+00   # y_mu(Q) DRbar
  3  3     1.77457108E-02   # y_tau(Q) DRbar
#
BLOCK MSOFT Q=  9.11876000E+01  # The soft SUSY breaking masses at the scale Q
         1     1.00000000E+01   # M_1                 
         2     1.00000000E+05   # M_2                 
         3     2.00000000E+03   # M_3                 
        14     0.00000000E+00   # A_u                 
        15     0.00000000E+00   # A_d                 
        16     0.00000000E+00   # A_e                 
        21    -1.06555843E+10   # M^2_Hd              
        22    -1.00541178E+10   # M^2_Hu              
        31     1.00000000E+05   # M_eL                
        32     1.00000000E+05   # M_muL               
        33     1.00000000E+05   # M_tauL              
        34     1.00000000E+05   # M_eR                
        35     1.00000000E+05   # M_muR               
        36     1.00000000E+05   # M_tauR              
        41     3.00000000E+03   # M_q1L               
        42     3.00000000E+03   # M_q2L               
        43     3.00000000E+03   # M_q3L               
        44     1.00000000E+05   # M_uR                
        45     1.00000000E+05   # M_cR                
        46     1.00000000E+05   # M_tR                
        47     3.00000000E+03   # M_dR                
        48     3.00000000E+03   # M_sR                
        49     3.00000000E+03   # M_bR                
#
#
#
#                             =================
#                             |The decay table|
#                             =================
#
# - The QCD corrections to the decays gluino -> squark  + quark
#                                     squark -> gaugino + quark_prime
#                                     squark -> squark_prime + Higgs
#                                     squark -> gluino  + quark
#   are included.
#
# - The multi-body decays for the inos, stops and sbottoms are included.
#
# - The loop induced decays for the gluino, neutralinos and stops
#   are included.
#
# - The SUSY decays of the top quark are included.
#
# - Possible decays of the NLSP in GMSB models are included.
#
#
#         PDG            Width
DECAY         6     1.30072856E+00   # top decays
#          BR         NDA      ID1       ID2
     1.00000000E+00    2           5        24   # BR(t ->  b    W+)
#
#         PDG            Width
DECAY   1000021     1.E-04   # gluino decays (OJ Mods)
#          BR         NDA      ID1       ID2
     4.14620277E-02    2     1000022        21   # BR(~g -> ~chi_10 g)
#          BR         NDA      ID1       ID2
     3.75135103E-02    2     1000039        21   # BR(~g -> ~G      g)
#           BR         NDA      ID1       ID2       ID3
     2.57346452E-01    3     1000022         1        -1   # BR(~g -> ~chi_10 d  db)
     5.14915132E-02    3     1000022         2        -2   # BR(~g -> ~chi_10 u  ub)
     2.57346452E-01    3     1000022         3        -3   # BR(~g -> ~chi_10 s  sb)
     5.14915132E-02    3     1000022         4        -4   # BR(~g -> ~chi_10 c  cb)
     2.58509237E-01    3     1000022         5        -5   # BR(~g -> ~chi_10 b  bb)
     4.48392954E-02    3     1000022         6        -6   # BR(~g -> ~chi_10 t  tb)
#
#         PDG            Width
DECAY   1000006     6.11764056E+01   # stop1 decays
#          BR         NDA      ID1       ID2
     6.29391746E-03    2     1000022         6   # BR(~t_1 -> ~chi_10 t )
     9.93706083E-01    2     1000021         6   # BR(~t_1 -> ~g      t )
#
#         PDG            Width
DECAY   2000006     4.82511036E+03   # stop2 decays
#          BR         NDA      ID1       ID2
     4.35613544E-02    2     1000022         6   # BR(~t_2 -> ~chi_10 t )
     3.20977259E-07    2     1000024         5   # BR(~t_2 -> ~chi_1+ b )
     5.57960474E-01    2     1000021         6   # BR(~t_2 -> ~g      t )
     1.41803684E-02    2     1000006        25   # BR(~t_2 -> ~t_1    h )
     5.78677978E-02    2     1000006        35   # BR(~t_2 -> ~t_1    H )
     5.10397473E-02    2     1000006        36   # BR(~t_2 -> ~t_1    A )
     5.07554780E-02    2     1000005        37   # BR(~t_2 -> ~b_1    H+)
     5.13561708E-02    2     2000005        37   # BR(~t_2 -> ~b_2    H+)
     5.72257508E-02    2     1000006        23   # BR(~t_2 -> ~t_1    Z )
     5.77945624E-02    2     1000005        24   # BR(~t_2 -> ~b_1    W+)
     5.82579753E-02    2     2000005        24   # BR(~t_2 -> ~b_2    W+)
#
#         PDG            Width
DECAY   1000005     5.85801316E+01   # sbottom1 decays
#          BR         NDA      ID1       ID2
     1.62630086E-02    2     1000022         5   # BR(~b_1 -> ~chi_10 b )
     9.83736991E-01    2     1000021         5   # BR(~b_1 -> ~g      b )
#
#         PDG            Width
DECAY   2000005     6.60500707E+01   # sbottom2 decays
#          BR         NDA      ID1       ID2
     1.48467692E-02    2     1000022         5   # BR(~b_2 -> ~chi_10 b )
     9.84554818E-01    2     1000021         5   # BR(~b_2 -> ~g      b )
     5.98412962E-04    2     1000005        23   # BR(~b_2 -> ~b_1    Z )
#
#         PDG            Width
DECAY   1000002     3.54231049E+01   # sup_L decays
#          BR         NDA      ID1       ID2
     1.09164345E-02    2     1000022         2   # BR(~u_L -> ~chi_10 u)
     9.89083565E-01    2     1000021         2   # BR(~u_L -> ~g      u)
#
#         PDG            Width
DECAY   2000002     3.99202609E+03   # sup_R decays
#          BR         NDA      ID1       ID2
     5.26524888E-02    2     1000022         2   # BR(~u_R -> ~chi_10 u)
     6.43755393E-13    2     1000023         2   # BR(~u_R -> ~chi_20 u)
     9.47347511E-01    2     1000021         2   # BR(~u_R -> ~g      u)
#
#         PDG            Width
DECAY   1000001     3.54425008E+01   # sdown_L decays
#          BR         NDA      ID1       ID2
     1.09120196E-02    2     1000022         1   # BR(~d_L -> ~chi_10 d)
     9.89087980E-01    2     1000021         1   # BR(~d_L -> ~g      d)
#
#         PDG            Width
DECAY   2000001     3.65940295E+01   # sdown_R decays
#          BR         NDA      ID1       ID2
     4.22718675E-02    2     1000022         1   # BR(~d_R -> ~chi_10 d)
     9.57728132E-01    2     1000021         1   # BR(~d_R -> ~g      d)
#
#         PDG            Width
DECAY   1000004     3.54231049E+01   # scharm_L decays
#          BR         NDA      ID1       ID2
     1.09164345E-02    2     1000022         4   # BR(~c_L -> ~chi_10 c)
     9.89083565E-01    2     1000021         4   # BR(~c_L -> ~g      c)
#
#         PDG            Width
DECAY   2000004     3.99202609E+03   # scharm_R decays
#          BR         NDA      ID1       ID2
     5.26524888E-02    2     1000022         4   # BR(~c_R -> ~chi_10 c)
     6.43755393E-13    2     1000023         4   # BR(~c_R -> ~chi_20 c)
     9.47347511E-01    2     1000021         4   # BR(~c_R -> ~g      c)
#
#         PDG            Width
DECAY   1000003     3.54425008E+01   # sstrange_L decays
#          BR         NDA      ID1       ID2
     1.09120196E-02    2     1000022         3   # BR(~s_L -> ~chi_10 s)
     9.89087980E-01    2     1000021         3   # BR(~s_L -> ~g      s)
#
#         PDG            Width
DECAY   2000003     3.65940295E+01   # sstrange_R decays
#          BR         NDA      ID1       ID2
     4.22718675E-02    2     1000022         3   # BR(~s_R -> ~chi_10 s)
     9.57728132E-01    2     1000021         3   # BR(~s_R -> ~g      s)
#
#         PDG            Width
DECAY   1000011     1.21994017E+02   # selectron_L decays
#          BR         NDA      ID1       ID2
     9.99989118E-01    2     1000022        11   # BR(~e_L -> ~chi_10 e-)
     3.62856572E-06    2     1000023        11   # BR(~e_L -> ~chi_20 e-)
     3.52522832E-24    2     1000025        11   # BR(~e_L -> ~chi_30 e-)
     7.25322237E-06    2    -1000024        12   # BR(~e_L -> ~chi_1- nu_e)
#
#         PDG            Width
DECAY   2000011     4.87971312E+02   # selectron_R decays
#          BR         NDA      ID1       ID2
     1.00000000E+00    2     1000022        11   # BR(~e_R -> ~chi_10 e-)
     2.27998397E-13    2     1000023        11   # BR(~e_R -> ~chi_20 e-)
     1.23278819E-23    2     1000025        11   # BR(~e_R -> ~chi_30 e-)
#
#         PDG            Width
DECAY   1000013     1.21994017E+02   # smuon_L decays
#          BR         NDA      ID1       ID2
     9.99989118E-01    2     1000022        13   # BR(~mu_L -> ~chi_10 mu-)
     3.62856572E-06    2     1000023        13   # BR(~mu_L -> ~chi_20 mu-)
     3.52522832E-24    2     1000025        13   # BR(~mu_L -> ~chi_30 mu-)
     7.25322237E-06    2    -1000024        14   # BR(~mu_L -> ~chi_1- nu_mu)
#
#         PDG            Width
DECAY   2000013     4.87971312E+02   # smuon_R decays
#          BR         NDA      ID1       ID2
     1.00000000E+00    2     1000022        13   # BR(~mu_R -> ~chi_10 mu-)
     2.27998397E-13    2     1000023        13   # BR(~mu_R -> ~chi_20 mu-)
     1.23278819E-23    2     1000025        13   # BR(~mu_R -> ~chi_30 mu-)
#
#         PDG            Width
DECAY   1000015     1.18171694E+04   # stau_1 decays
#          BR         NDA      ID1       ID2
     2.58090847E-02    2     1000022        15   # BR(~tau_1 -> ~chi_10  tau-)
     1.91301968E-08    2     1000023        15   # BR(~tau_1 -> ~chi_20  tau-)
     3.82719972E-08    2    -1000024        16   # BR(~tau_1 -> ~chi_1-  nu_tau)
     9.74190858E-01    2     1000039        15   # BR(~tau_1 -> ~G       tau-)
#
#         PDG            Width
DECAY   2000015     3.04974320E+02   # stau_2 decays
#          BR         NDA      ID1       ID2
     9.99997876E-01    2     1000022        15   # BR(~tau_2 -> ~chi_10  tau-)
     7.07838653E-07    2     1000023        15   # BR(~tau_2 -> ~chi_20  tau-)
     1.41588568E-06    2    -1000024        16   # BR(~tau_2 -> ~chi_1-  nu_tau)
#
#         PDG            Width
DECAY   1000012     1.21994279E+02   # snu_eL decays
#          BR         NDA      ID1       ID2
     9.99989123E-01    2     1000022        12   # BR(~nu_eL -> ~chi_10 nu_e)
     3.62380896E-06    2     1000023        12   # BR(~nu_eL -> ~chi_20 nu_e)
     7.25321338E-06    2     1000024        11   # BR(~nu_eL -> ~chi_1+ e-)
#
#         PDG            Width
DECAY   1000014     1.21994279E+02   # snu_muL decays
#          BR         NDA      ID1       ID2
     9.99989123E-01    2     1000022        14   # BR(~nu_muL -> ~chi_10 nu_mu)
     3.62380896E-06    2     1000023        14   # BR(~nu_muL -> ~chi_20 nu_mu)
     7.25321338E-06    2     1000024        13   # BR(~nu_muL -> ~chi_1+ mu-)
#
#         PDG            Width
DECAY   1000016     1.21994278E+02   # snu_tauL decays
#          BR         NDA      ID1       ID2
     9.99989129E-01    2     1000022        16   # BR(~nu_tauL -> ~chi_10 nu_tau)
     3.62380898E-06    2     1000023        16   # BR(~nu_tauL -> ~chi_20 nu_tau)
     7.24765009E-06    2     1000024        15   # BR(~nu_tauL -> ~chi_1+ tau-)
#
#         PDG            Width
DECAY   1000024     3.89892904E+03   # chargino1+ decays
#          BR         NDA      ID1       ID2
     3.53623918E-02    2     1000002        -1   # BR(~chi_1+ -> ~u_L     db)
     3.53515035E-02    2    -1000001         2   # BR(~chi_1+ -> ~d_L*    u )
     3.53623918E-02    2     1000004        -3   # BR(~chi_1+ -> ~c_L     sb)
     3.53515035E-02    2    -1000003         4   # BR(~chi_1+ -> ~s_L*    c )
     3.17021650E-02    2     1000006        -5   # BR(~chi_1+ -> ~t_1     bb)
     3.89817196E-02    2    -1000005         6   # BR(~chi_1+ -> ~b_1*    t )
     3.78076132E-02    2    -2000005         6   # BR(~chi_1+ -> ~b_2*    t )
     1.88330317E-03    2     1000022        24   # BR(~chi_1+ -> ~chi_10  W+)
     1.98505918E-03    2     1000022        37   # BR(~chi_1+ -> ~chi_10  H+)
     5.59877193E-01    2     1000039        24   # BR(~chi_1+ -> ~G       W+)
     1.86335156E-01    2     1000039        37   # BR(~chi_1+ -> ~G       H+)
#
#         PDG            Width
DECAY   1000037     3.90319071E+03   # chargino2+ decays
#          BR         NDA      ID1       ID2
     3.51935562E-02    2     1000002        -1   # BR(~chi_2+ -> ~u_L     db)
     3.52043702E-02    2    -1000001         2   # BR(~chi_2+ -> ~d_L*    u )
     3.51935562E-02    2     1000004        -3   # BR(~chi_2+ -> ~c_L     sb)
     3.52043702E-02    2    -1000003         4   # BR(~chi_2+ -> ~s_L*    c )
     3.14645764E-02    2     1000006        -5   # BR(~chi_2+ -> ~t_1     bb)
     2.33634749E-07    2     2000006        -5   # BR(~chi_2+ -> ~t_2     bb)
     3.72335513E-02    2    -1000005         6   # BR(~chi_2+ -> ~b_1*    t )
     3.90494646E-02    2    -2000005         6   # BR(~chi_2+ -> ~b_2*    t )
     2.86077083E-08    2     1000012       -11   # BR(~chi_2+ -> ~nu_eL   e+  )
     2.86077083E-08    2     1000014       -13   # BR(~chi_2+ -> ~nu_muL  mu+ )
     2.85857604E-08    2     1000016       -15   # BR(~chi_2+ -> ~nu_tau1 tau+)
     2.86077316E-08    2    -1000011        12   # BR(~chi_2+ -> ~e_L+    nu_e)
     2.86077316E-08    2    -1000013        14   # BR(~chi_2+ -> ~mu_L+   nu_mu)
     1.39598560E-08    2    -1000015        16   # BR(~chi_2+ -> ~tau_1+  nu_tau)
     1.46231806E-08    2    -2000015        16   # BR(~chi_2+ -> ~tau_2+  nu_tau)
     7.32011266E-05    2     1000024        23   # BR(~chi_2+ -> ~chi_1+  Z )
     1.86978421E-03    2     1000022        24   # BR(~chi_2+ -> ~chi_10  W+)
     8.37954617E-05    2     1000023        24   # BR(~chi_2+ -> ~chi_20  W+)
     1.59839849E-12    2     1000024        25   # BR(~chi_2+ -> ~chi_1+  h )
     1.96941753E-03    2     1000022        37   # BR(~chi_2+ -> ~chi_10  H+)
     5.60834643E-01    2     1000039        24   # BR(~chi_2+ -> ~G       W+)
     1.86625308E-01    2     1000039        37   # BR(~chi_2+ -> ~G       H+)
#
#         PDG            Width
DECAY   1000022     1.E-08   # neutralino1 decays (OJ Mods)
#          BR         NDA      ID1       ID2
     1.00000000E+00    2     1000039        22   # BR(~chi_10 -> ~G        gam)
#
#         PDG            Width
DECAY   1000023     1.E-08   # neutralino2 decays (OJ Mods)
#          BR         NDA      ID1       ID2
     7.47207598E-05    2     1000022        23   # BR(~chi_20 -> ~chi_10   Z )
     1.80369812E-03    2     1000022        25   # BR(~chi_20 -> ~chi_10   h )
     1.82784502E-04    2     1000022        35   # BR(~chi_20 -> ~chi_10   H )
     1.90810930E-03    2     1000022        36   # BR(~chi_20 -> ~chi_10   A )
     1.71280872E-02    2     1000002        -2   # BR(~chi_20 -> ~u_L      ub)
     1.71280872E-02    2    -1000002         2   # BR(~chi_20 -> ~u_L*     u )
     1.71223579E-02    2     1000001        -1   # BR(~chi_20 -> ~d_L      db)
     1.71223579E-02    2    -1000001         1   # BR(~chi_20 -> ~d_L*     d )
     4.78480252E-10    2     2000001        -1   # BR(~chi_20 -> ~d_R      db)
     4.78480252E-10    2    -2000001         1   # BR(~chi_20 -> ~d_R*     d )
     1.71280872E-02    2     1000004        -4   # BR(~chi_20 -> ~c_L      cb)
     1.71280872E-02    2    -1000004         4   # BR(~chi_20 -> ~c_L*     c )
     1.71223579E-02    2     1000003        -3   # BR(~chi_20 -> ~s_L      sb)
     1.71223579E-02    2    -1000003         3   # BR(~chi_20 -> ~s_L*     s )
     4.78480252E-10    2     2000003        -3   # BR(~chi_20 -> ~s_R      sb)
     4.78480252E-10    2    -2000003         3   # BR(~chi_20 -> ~s_R*     s )
     3.83936268E-02    2     1000006        -6   # BR(~chi_20 -> ~t_1      tb)
     3.83936268E-02    2    -1000006         6   # BR(~chi_20 -> ~t_1*     t )
     8.26503067E-03    2     1000005        -5   # BR(~chi_20 -> ~b_1      bb)
     8.26503067E-03    2    -1000005         5   # BR(~chi_20 -> ~b_1*     b )
     7.56948472E-03    2     2000005        -5   # BR(~chi_20 -> ~b_2      bb)
     7.56948472E-03    2    -2000005         5   # BR(~chi_20 -> ~b_2*     b )
     9.18694445E-02    2     1000039        22   # BR(~chi_20 -> ~G        gam)
     4.60793221E-01    2     1000039        23   # BR(~chi_20 -> ~G        Z)
     1.71477914E-02    2     1000039        25   # BR(~chi_20 -> ~G        h)
     1.69165715E-01    2     1000039        35   # BR(~chi_20 -> ~G        H)
     7.17040198E-03    2     1000039        36   # BR(~chi_20 -> ~G        A)
#
#         PDG            Width
DECAY   1000025     1.50614530E+03   # neutralino3 decays
#          BR         NDA      ID1       ID2
     4.42154197E-03    2     1000022        23   # BR(~chi_30 -> ~chi_10   Z )
     4.31025513E-04    2     1000022        25   # BR(~chi_30 -> ~chi_10   h )
     4.25328064E-03    2     1000022        35   # BR(~chi_30 -> ~chi_10   H )
     1.80224546E-04    2     1000022        36   # BR(~chi_30 -> ~chi_10   A )
     1.46673554E-10    2     1000002        -2   # BR(~chi_30 -> ~u_L      ub)
     1.46673554E-10    2    -1000002         2   # BR(~chi_30 -> ~u_L*     u )
     2.76603194E-18    2     2000002        -2   # BR(~chi_30 -> ~u_R      ub)
     2.76603194E-18    2    -2000002         2   # BR(~chi_30 -> ~u_R*     u )
     3.54614644E-10    2     1000001        -1   # BR(~chi_30 -> ~d_L      db)
     3.54614644E-10    2    -1000001         1   # BR(~chi_30 -> ~d_L*     d )
     4.51628452E-11    2     2000001        -1   # BR(~chi_30 -> ~d_R      db)
     4.51628452E-11    2    -2000001         1   # BR(~chi_30 -> ~d_R*     d )
     1.46673554E-10    2     1000004        -4   # BR(~chi_30 -> ~c_L      cb)
     1.46673554E-10    2    -1000004         4   # BR(~chi_30 -> ~c_L*     c )
     2.76603194E-18    2     2000004        -4   # BR(~chi_30 -> ~c_R      cb)
     2.76603194E-18    2    -2000004         4   # BR(~chi_30 -> ~c_R*     c )
     3.54614644E-10    2     1000003        -3   # BR(~chi_30 -> ~s_L      sb)
     3.54614644E-10    2    -1000003         3   # BR(~chi_30 -> ~s_L*     s )
     4.51628452E-11    2     2000003        -3   # BR(~chi_30 -> ~s_R      sb)
     4.51628452E-11    2    -2000003         3   # BR(~chi_30 -> ~s_R*     s )
     5.32071359E-02    2     1000006        -6   # BR(~chi_30 -> ~t_1      tb)
     5.32071359E-02    2    -1000006         6   # BR(~chi_30 -> ~t_1*     t )
     1.82469511E-05    2     1000005        -5   # BR(~chi_30 -> ~b_1      bb)
     1.82469511E-05    2    -1000005         5   # BR(~chi_30 -> ~b_1*     b )
     1.85805299E-05    2     2000005        -5   # BR(~chi_30 -> ~b_2      bb)
     1.85805299E-05    2    -2000005         5   # BR(~chi_30 -> ~b_2*     b )
     8.91660723E-24    2     1000012       -12   # BR(~chi_30 -> ~nu_eL    nu_eb)
     8.91660723E-24    2    -1000012        12   # BR(~chi_30 -> ~nu_eL*   nu_e )
     8.91660723E-24    2     1000014       -14   # BR(~chi_30 -> ~nu_muL   nu_mub)
     8.91660723E-24    2    -1000014        14   # BR(~chi_30 -> ~nu_muL*  nu_mu )
     8.91660723E-24    2     1000016       -16   # BR(~chi_30 -> ~nu_tau1  nu_taub)
     8.91660723E-24    2    -1000016        16   # BR(~chi_30 -> ~nu_tau1* nu_tau )
     1.28548839E-09    2     1000039        22   # BR(~chi_30 -> ~G        gam)
     1.70186879E-02    2     1000039        23   # BR(~chi_30 -> ~G        Z)
     4.01798860E-01    2     1000039        25   # BR(~chi_30 -> ~G        h)
     4.06204168E-02    2     1000039        35   # BR(~chi_30 -> ~G        H)
     4.24788033E-01    2     1000039        36   # BR(~chi_30 -> ~G        A)
#
#         PDG            Width
DECAY   1000035     3.90426635E+03   # neutralino4 decays
#          BR         NDA      ID1       ID2
     7.45205042E-05    2     1000022        23   # BR(~chi_40 -> ~chi_10   Z )
     2.93037625E-19    2     1000023        23   # BR(~chi_40 -> ~chi_20   Z )
     8.37692072E-05    2     1000024       -24   # BR(~chi_40 -> ~chi_1+   W-)
     8.37692072E-05    2    -1000024        24   # BR(~chi_40 -> ~chi_1-   W+)
     1.79110887E-03    2     1000022        25   # BR(~chi_40 -> ~chi_10   h )
     1.80930486E-04    2     1000022        35   # BR(~chi_40 -> ~chi_10   H )
     1.89389132E-03    2     1000022        36   # BR(~chi_40 -> ~chi_10   A )
     9.25957672E-13    2     1000023        25   # BR(~chi_40 -> ~chi_20   h )
     1.70422712E-02    2     1000002        -2   # BR(~chi_40 -> ~u_L      ub)
     1.70422712E-02    2    -1000002         2   # BR(~chi_40 -> ~u_L*     u )
     4.92767526E-13    2     2000002        -2   # BR(~chi_40 -> ~u_R      ub)
     4.92767526E-13    2    -2000002         2   # BR(~chi_40 -> ~u_R*     u )
     1.70479580E-02    2     1000001        -1   # BR(~chi_40 -> ~d_L      db)
     1.70479580E-02    2    -1000001         1   # BR(~chi_40 -> ~d_L*     d )
     4.75031870E-10    2     2000001        -1   # BR(~chi_40 -> ~d_R      db)
     4.75031870E-10    2    -2000001         1   # BR(~chi_40 -> ~d_R*     d )
     1.70422712E-02    2     1000004        -4   # BR(~chi_40 -> ~c_L      cb)
     1.70422712E-02    2    -1000004         4   # BR(~chi_40 -> ~c_L*     c )
     4.92767526E-13    2     2000004        -4   # BR(~chi_40 -> ~c_R      cb)
     4.92767526E-13    2    -2000004         4   # BR(~chi_40 -> ~c_R*     c )
     1.70479580E-02    2     1000003        -3   # BR(~chi_40 -> ~s_L      sb)
     1.70479580E-02    2    -1000003         3   # BR(~chi_40 -> ~s_L*     s )
     4.75031870E-10    2     2000003        -3   # BR(~chi_40 -> ~s_R      sb)
     4.75031870E-10    2    -2000003         3   # BR(~chi_40 -> ~s_R*     s )
     3.80889431E-02    2     1000006        -6   # BR(~chi_40 -> ~t_1      tb)
     3.80889431E-02    2    -1000006         6   # BR(~chi_40 -> ~t_1*     t )
     7.48318950E-03    2     1000005        -5   # BR(~chi_40 -> ~b_1      bb)
     7.48318950E-03    2    -1000005         5   # BR(~chi_40 -> ~b_1*     b )
     8.28384525E-03    2     2000005        -5   # BR(~chi_40 -> ~b_2      bb)
     8.28384525E-03    2    -2000005         5   # BR(~chi_40 -> ~b_2*     b )
     1.42948612E-08    2     1000011       -11   # BR(~chi_40 -> ~e_L-     e+)
     1.42948612E-08    2    -1000011        11   # BR(~chi_40 -> ~e_L+     e-)
     3.58725967E-15    2     2000011       -11   # BR(~chi_40 -> ~e_R-     e+)
     3.58725967E-15    2    -2000011        11   # BR(~chi_40 -> ~e_R+     e-)
     1.42948612E-08    2     1000013       -13   # BR(~chi_40 -> ~mu_L-    mu+)
     1.42948612E-08    2    -1000013        13   # BR(~chi_40 -> ~mu_L+    mu-)
     3.58725967E-15    2     2000013       -13   # BR(~chi_40 -> ~mu_R-    mu+)
     3.58725967E-15    2    -2000013        13   # BR(~chi_40 -> ~mu_R+    mu-)
     6.97022282E-09    2     1000015       -15   # BR(~chi_40 -> ~tau_1-   tau+)
     6.97022282E-09    2    -1000015        15   # BR(~chi_40 -> ~tau_1+   tau-)
     7.30132765E-09    2     2000015       -15   # BR(~chi_40 -> ~tau_2-   tau+)
     7.30132765E-09    2    -2000015        15   # BR(~chi_40 -> ~tau_2+   tau-)
     1.43135766E-08    2     1000012       -12   # BR(~chi_40 -> ~nu_eL    nu_eb)
     1.43135766E-08    2    -1000012        12   # BR(~chi_40 -> ~nu_eL*   nu_e )
     1.43135766E-08    2     1000014       -14   # BR(~chi_40 -> ~nu_muL   nu_mub)
     1.43135766E-08    2    -1000014        14   # BR(~chi_40 -> ~nu_muL*  nu_mu )
     1.43135766E-08    2     1000016       -16   # BR(~chi_40 -> ~nu_tau1  nu_taub)
     1.43135766E-08    2    -1000016        16   # BR(~chi_40 -> ~nu_tau1* nu_tau )
     9.17210943E-02    2     1000039        22   # BR(~chi_40 -> ~G        gam)
     4.61844692E-01    2     1000039        23   # BR(~chi_40 -> ~G        Z)
     1.71975425E-02    2     1000039        25   # BR(~chi_40 -> ~G        h)
     1.69476849E-01    2     1000039        35   # BR(~chi_40 -> ~G        H)
     7.17325248E-03    2     1000039        36   # BR(~chi_40 -> ~G        A)
#
#
#
#
