#
#                              ======================
#                              | THE SUSYHIT OUTPUT |
#                              ======================
#
#
#              ------------------------------------------------------
#              |     This is the output of the SUSY-HIT package     |
#              |  created by A.Djouadi, M.Muehlleitner and M.Spira. |
#              |  In case of problems with SUSY-HIT email to        |
#              |           margarete.muehlleitner@cern.ch           |
#              |           michael.spira@psi.ch                     |
#              |           abdelhak.djouadi@cern.ch                 |
#              ------------------------------------------------------
#
#              ------------------------------------------------------
#              |  SUSY Les Houches Accord - MSSM Spectrum + Decays  |
#              |              based on the decay programs           |
#              |                                                    |
#              |                     SDECAY 1.3b                    |
#              |                                                    |
#              |  Authors: M.Muhlleitner, A.Djouadi and Y.Mambrini  |
#              |  Ref.:    Comput.Phys.Commun.168(2005)46           |
#              |           [hep-ph/0311167]                         |
#              |                                                    |
#              |                     HDECAY 3.4                     |
#              |                                                    |
#              |  By: A.Djouadi,J.Kalinowski,M.Muhlleitner,M.Spira  |
#              |  Ref.:    Comput.Phys.Commun.108(1998)56           |
#              |           [hep-ph/9704448]                         |
#              |                                                    |
#              |                                                    |
#              |  If not stated otherwise all DRbar couplings and   |
#              |  soft SUSY breaking masses are given at the scale  |
#              |  Q=  0.91187600E+02
#              |                                                    |
#              ------------------------------------------------------
#
#
BLOCK DCINFO  # Decay Program information
     1   SDECAY/HDECAY # decay calculator
     2   1.3b  /3.4    # version number
#
BLOCK SPINFO  # Spectrum calculator information
     1   SuSpect     # RGE +Spectrum calculator            
     2   2.41         # version number                     
#
BLOCK MODSEL  # Model selection
     1     0   # #general MSSM low scale                           
#
BLOCK SMINPUTS  # Standard Model inputs
         1     1.27934000E+02   # alpha_em^-1(M_Z)^MSbar
         2     1.16639000E-05   # G_F [GeV^-2]
         3     1.17200000E-01   # alpha_S(M_Z)^MSbar
         4     9.11870000E+01   # M_Z pole mass
         5     4.25000000E+00   # mb(mb)^MSbar
         6     1.72500000E+02   # mt pole mass
         7     1.77700000E+00   # mtau pole mass
#
BLOCK MINPAR  # Input parameters - minimal models
#
BLOCK EXTPAR  # Input parameters - non-minimal models
         0     9.11876000E+01   # EWSB                
         1     5.00000000E+01   # M_1                 
         2     1.00000000E+05   # M_2                 
         3     1.00000000E+05   # M_3                 
        11     0.00000000E+00   # A_t                 
        12     0.00000000E+00   # A_b                 
        13     0.00000000E+00   # A_tau               
        14     0.00000000E+00   # A_u                 
        15     0.00000000E+00   # A_d                 
        16     0.00000000E+00   # A_e                 
        23     3.50000000E+03   # mu(EWSB)            
        25     1.50000000E+00   # tanbeta(in)         
        26     2.00000000E+03   # MA_pole             
        31     1.00000000E+05   # M_eL                
        32     1.00000000E+05   # M_muL               
        33     1.00000000E+05   # M_tauL              
        34     1.00000000E+05   # M_eR                
        35     1.00000000E+05   # M_muR               
        36     1.00000000E+05   # M_tauR              
        41     1.50000000E+03   # M_q1L               
        42     1.50000000E+03   # M_q2L               
        43     1.50000000E+03   # M_q3L               
        44     1.00000000E+05   # M_uR                
        45     1.00000000E+05   # M_cR                
        46     1.00000000E+05   # M_tR                
        47     1.50000000E+03   # M_dR                
        48     1.50000000E+03   # M_sR                
        49     1.50000000E+03   # M_bR                
#
BLOCK MASS  # Mass Spectrum
# PDG code           mass       particle
        24     8.05826146E+01   # W+
        25     1.25000000E+02   # h
        35     2.00400996E+03   # H
        36     2.00000000E+03   # A
        37     2.02369844E+03   # H+
         5     4.87877839E+00   # b-quark pole mass calculated from mb(mb)_Msbar
   1000001     1.50044281E+03   # ~d_L
   2000001     1.50008529E+03   # ~d_R
   1000002     1.49964238E+03   # ~u_L
   2000002     9.99999974E+04   # ~u_R
   1000003     1.50044281E+03   # ~s_L
   2000003     1.50008529E+03   # ~s_R
   1000004     1.49964238E+03   # ~c_L
   2000004     9.99999974E+04   # ~c_R
   1000005     1.49573438E+03   # ~b_1
   2000005     1.50478454E+03   # ~b_2
   1000006     1.50687513E+03   # ~t_1
   2000006     1.00000106E+05   # ~t_2
   1000011     1.00000004E+05   # ~e_L
   2000011     1.00000004E+05   # ~e_R
   1000012     9.99999921E+04   # ~nu_eL
   1000013     1.00000004E+05   # ~mu_L
   2000013     1.00000004E+05   # ~mu_R
   1000014     9.99999921E+04   # ~nu_muL
   1000015     9.99999574E+04   # ~tau_1
   2000015     1.00000051E+05   # ~tau_2
   1000016     9.99999921E+04   # ~nu_tauL
   1000021     1.00000000E+05   # ~g
   1000022     4.94654426E+01   # ~chi_10
   1000023    -3.50002395E+03   # ~chi_20
   1000025     3.50049397E+03   # ~chi_30
   1000035     1.00000065E+05   # ~chi_40
   1000024     3.49994011E+03   # ~chi_1+
   1000037     1.00000065E+05   # ~chi_2+
   1000039     1.00000000E-09   # ~gravitino
#
BLOCK NMIX  # Neutralino Mixing Matrix
  1  1     9.99916368E-01   # N_11
  1  2    -9.45853418E-06   # N_12
  1  3     1.07220488E-02   # N_13
  1  4    -7.23143180E-03   # N_14
  2  1     2.46821754E-03   # N_21
  2  2    -1.49735656E-04   # N_22
  2  3    -7.07092525E-01   # N_23
  2  4    -7.07116714E-01   # N_24
  3  1     1.26950334E-02   # N_31
  3  2     8.02862169E-04   # N_32
  3  3    -7.07039593E-01   # N_33
  3  4     7.07059549E-01   # N_34
  4  1     3.65039987E-07   # N_41
  4  2    -9.99999666E-01   # N_42
  4  3    -4.61879947E-04   # N_43
  4  4     6.73620570E-04   # N_44
#
BLOCK UMIX  # Chargino Mixing Matrix U
  1  1    -6.53196680E-04   # U_11
  1  2     9.99999787E-01   # U_12
  2  1     9.99999787E-01   # U_21
  2  2     6.53196680E-04   # U_22
#
BLOCK VMIX  # Chargino Mixing Matrix V
  1  1    -9.52643261E-04   # V_11
  1  2     9.99999546E-01   # V_12
  2  1     9.99999546E-01   # V_21
  2  2     9.52643261E-04   # V_22
#
BLOCK STOPMIX  # Stop Mixing Matrix
  1  1     9.99999999E-01   # cos(theta_t)
  1  2     4.47213589E-05   # sin(theta_t)
  2  1    -4.47213589E-05   # -sin(theta_t)
  2  2     9.99999999E-01   # cos(theta_t)
#
BLOCK SBOTMIX  # Sbottom Mixing Matrix
  1  1     6.92999158E-01   # cos(theta_b)
  1  2     7.20938393E-01   # sin(theta_b)
  2  1    -7.20938393E-01   # -sin(theta_b)
  2  2     6.92999158E-01   # cos(theta_b)
#
BLOCK STAUMIX  # Stau Mixing Matrix
  1  1     7.06171503E-01   # cos(theta_tau)
  1  2     7.08040824E-01   # sin(theta_tau)
  2  1    -7.08040824E-01   # -sin(theta_tau)
  2  2     7.06171503E-01   # cos(theta_tau)
#
BLOCK ALPHA  # Higgs mixing
          -5.90293696E-01   # Mixing angle in the neutral Higgs boson sector
#
BLOCK HMIX Q=  9.11876000E+01  # DRbar Higgs Parameters
         1     3.50000000E+03   # mu(Q)               
         2     1.49999982E+00   # tanbeta(Q)          
         3     2.54856138E+02   # vev(Q)              
         4    -6.82210724E+07   # MA^2(Q)             
#
BLOCK GAUGE Q=  9.11876000E+01  # The gauge couplings
     1     3.50590868E-01   # gprime(Q) DRbar
     2     6.20085481E-01   # g(Q) DRbar
     3     1.02511090E+00   # g3(Q) DRbar
#
BLOCK AU Q=  9.11876000E+01  # The trilinear couplings
  1  1     0.00000000E+00   # A_u(Q) DRbar
  2  2     0.00000000E+00   # A_c(Q) DRbar
  3  3     0.00000000E+00   # A_t(Q) DRbar
#
BLOCK AD Q=  9.11876000E+01  # The trilinear couplings
  1  1     0.00000000E+00   # A_d(Q) DRbar
  2  2     0.00000000E+00   # A_s(Q) DRbar
  3  3     0.00000000E+00   # A_b(Q) DRbar
#
BLOCK AE Q=  9.11876000E+01  # The trilinear couplings
  1  1     0.00000000E+00   # A_e(Q) DRbar
  2  2     0.00000000E+00   # A_mu(Q) DRbar
  3  3     0.00000000E+00   # A_tau(Q) DRbar
#
BLOCK Yu Q=  9.11876000E+01  # The Yukawa couplings
  1  1     0.00000000E+00   # y_u(Q) DRbar
  2  2     0.00000000E+00   # y_c(Q) DRbar
  3  3     9.83722259E-01   # y_t(Q) DRbar
#
BLOCK Yd Q=  9.11876000E+01  # The Yukawa couplings
  1  1     0.00000000E+00   # y_d(Q) DRbar
  2  2     0.00000000E+00   # y_s(Q) DRbar
  3  3     2.58514996E-02   # y_b(Q) DRbar
#
BLOCK Ye Q=  9.11876000E+01  # The Yukawa couplings
  1  1     0.00000000E+00   # y_e(Q) DRbar
  2  2     0.00000000E+00   # y_mu(Q) DRbar
  3  3     1.77406254E-02   # y_tau(Q) DRbar
#
BLOCK MSOFT Q=  9.11876000E+01  # The soft SUSY breaking masses at the scale Q
         1     5.00000000E+01   # M_1                 
         2     1.00000000E+05   # M_2                 
         3     1.00000000E+05   # M_3                 
        14     0.00000000E+00   # A_u                 
        15     0.00000000E+00   # A_d                 
        16     0.00000000E+00   # A_e                 
        21     6.32059902E+08   # M^2_Hd              
        22    -1.14896363E+09   # M^2_Hu              
        31     1.00000000E+05   # M_eL                
        32     1.00000000E+05   # M_muL               
        33     1.00000000E+05   # M_tauL              
        34     1.00000000E+05   # M_eR                
        35     1.00000000E+05   # M_muR               
        36     1.00000000E+05   # M_tauR              
        41     1.50000000E+03   # M_q1L               
        42     1.50000000E+03   # M_q2L               
        43     1.50000000E+03   # M_q3L               
        44     1.00000000E+05   # M_uR                
        45     1.00000000E+05   # M_cR                
        46     1.00000000E+05   # M_tR                
        47     1.50000000E+03   # M_dR                
        48     1.50000000E+03   # M_sR                
        49     1.50000000E+03   # M_bR                
#
#
#
#                             =================
#                             |The decay table|
#                             =================
#
# - The QCD corrections to the decays gluino -> squark  + quark
#                                     squark -> gaugino + quark_prime
#                                     squark -> squark_prime + Higgs
#                                     squark -> gluino  + quark
#   are included.
#
# - The multi-body decays for the inos, stops and sbottoms are included.
#
# - The loop induced decays for the gluino, neutralinos and stops
#   are included.
#
# - The SUSY decays of the top quark are included.
#
# - Possible decays of the NLSP in GMSB models are included.
#
#
#         PDG            Width
DECAY         6     1.32712532E+00   # top decays
#          BR         NDA      ID1       ID2
     1.00000000E+00    2           5        24   # BR(t ->  b    W+)
#
#         PDG            Width
DECAY   1000021     1.E-04   # gluino decays (OJ Mods)
#          BR         NDA      ID1       ID2
     6.14930964E-04    2     1000001        -1   # BR(~g -> ~d_L  db)
     6.14930964E-04    2    -1000001         1   # BR(~g -> ~d_L* d )
     6.14931096E-04    2     2000001        -1   # BR(~g -> ~d_R  db)
     6.14931096E-04    2    -2000001         1   # BR(~g -> ~d_R* d )
     6.14931259E-04    2     1000002        -2   # BR(~g -> ~u_L  ub)
     6.14931259E-04    2    -1000002         2   # BR(~g -> ~u_L* u )
     1.66352223E-18    2     2000002        -2   # BR(~g -> ~u_R  ub)
     1.66352223E-18    2    -2000002         2   # BR(~g -> ~u_R* u )
     6.14930964E-04    2     1000003        -3   # BR(~g -> ~s_L  sb)
     6.14930964E-04    2    -1000003         3   # BR(~g -> ~s_L* s )
     6.14931096E-04    2     2000003        -3   # BR(~g -> ~s_R  sb)
     6.14931096E-04    2    -2000003         3   # BR(~g -> ~s_R* s )
     6.14931259E-04    2     1000004        -4   # BR(~g -> ~c_L  cb)
     6.14931259E-04    2    -1000004         4   # BR(~g -> ~c_L* c )
     1.66352223E-18    2     2000004        -4   # BR(~g -> ~c_R  cb)
     1.66352223E-18    2    -2000004         4   # BR(~g -> ~c_R* c )
     2.43676358E-01    2     1000005        -5   # BR(~g -> ~b_1  bb)
     2.43676358E-01    2    -1000005         5   # BR(~g -> ~b_1* b )
     2.43414465E-01    2     2000005        -5   # BR(~g -> ~b_2  bb)
     2.43414465E-01    2    -2000005         5   # BR(~g -> ~b_2* b )
     6.05175304E-04    2     1000006        -6   # BR(~g -> ~t_1  tb)
     6.05175304E-04    2    -1000006         6   # BR(~g -> ~t_1* t )
     1.72288298E-02    2     1000039        21   # BR(~g -> ~G g)
#
#         PDG            Width
DECAY   1000006     2.39854034E-01   # stop1 decays
#          BR         NDA      ID1       ID2
     1.00000000E+00    2     1000022         6   # BR(~t_1 -> ~chi_10 t )
#
#         PDG            Width
DECAY   2000006     2.95798509E+05   # stop2 decays
#          BR         NDA      ID1       ID2
     7.04737504E-04    2     1000022         6   # BR(~t_2 -> ~chi_10 t )
     1.68823006E-03    2     1000023         6   # BR(~t_2 -> ~chi_20 t )
     1.68804151E-03    2     1000025         6   # BR(~t_2 -> ~chi_30 t )
     9.95977335E-01    2     1000024         5   # BR(~t_2 -> ~chi_1+ b )
    -4.60444385E-05    2     1000006        25   # BR(~t_2 -> ~t_1    h )
     4.82120535E-05    2     1000006        35   # BR(~t_2 -> ~t_1    H )
     4.81278998E-05    2     1000006        36   # BR(~t_2 -> ~t_1    A )
     4.53340418E-05    2     1000005        37   # BR(~t_2 -> ~b_1    H+)
     5.09205759E-05    2     2000005        37   # BR(~t_2 -> ~b_2    H+)
    -3.28723634E-05    2     1000006        23   # BR(~t_2 -> ~t_1    Z )
    -8.26147450E-05    2     1000005        24   # BR(~t_2 -> ~b_1    W+)
    -8.94071384E-05    2     2000005        24   # BR(~t_2 -> ~b_2    W+)
#
#         PDG            Width
DECAY   1000005     8.25448827E+01   # sbottom1 decays
#          BR         NDA      ID1       ID2
     1.00000000E+00    2     1000022         5   # BR(~b_1 -> ~chi_10 b )
#
#         PDG            Width
DECAY   2000005     7.81417375E+01   # sbottom2 decays
#          BR         NDA      ID1       ID2
     1.00000000E+00    2     1000022         5   # BR(~b_2 -> ~chi_10 b )
#
#         PDG            Width
DECAY   1000002     2.43093928E-01   # sup_L decays
#          BR         NDA      ID1       ID2
     1.00000000E+00    2     1000022         2   # BR(~u_L -> ~chi_10 u)
#
#         PDG            Width
DECAY   2000002     2.08375773E+02   # sup_R decays
#          BR         NDA      ID1       ID2
     9.99832920E-01    2     1000022         2   # BR(~u_R -> ~chi_10 u)
     6.08569162E-06    2     1000023         2   # BR(~u_R -> ~chi_20 u)
     1.60994333E-04    2     1000025         2   # BR(~u_R -> ~chi_30 u)
#
#         PDG            Width
DECAY   1000001     2.43267214E-01   # sdown_L decays
#          BR         NDA      ID1       ID2
     1.00000000E+00    2     1000022         1   # BR(~d_L -> ~chi_10 d)
#
#         PDG            Width
DECAY   2000001     9.72748813E-01   # sdown_R decays
#          BR         NDA      ID1       ID2
     1.00000000E+00    2     1000022         1   # BR(~d_R -> ~chi_10 d)
#
#         PDG            Width
DECAY   1000004     2.43093928E-01   # scharm_L decays
#          BR         NDA      ID1       ID2
     1.00000000E+00    2     1000022         4   # BR(~c_L -> ~chi_10 c)
#
#         PDG            Width
DECAY   2000004     2.08375773E+02   # scharm_R decays
#          BR         NDA      ID1       ID2
     9.99832920E-01    2     1000022         4   # BR(~c_R -> ~chi_10 c)
     6.08569162E-06    2     1000023         4   # BR(~c_R -> ~chi_20 c)
     1.60994333E-04    2     1000025         4   # BR(~c_R -> ~chi_30 c)
#
#         PDG            Width
DECAY   1000003     2.43267214E-01   # sstrange_L decays
#          BR         NDA      ID1       ID2
     1.00000000E+00    2     1000022         3   # BR(~s_L -> ~chi_10 s)
#
#         PDG            Width
DECAY   2000003     9.72748813E-01   # sstrange_R decays
#          BR         NDA      ID1       ID2
     1.00000000E+00    2     1000022         3   # BR(~s_R -> ~chi_10 s)
#
#         PDG            Width
DECAY   1000011     1.22265396E+02   # selectron_L decays
#          BR         NDA      ID1       ID2
     9.99793749E-01    2     1000022        11   # BR(~e_L -> ~chi_10 e-)
     4.84298061E-06    2     1000023        11   # BR(~e_L -> ~chi_20 e-)
     1.98745534E-04    2     1000025        11   # BR(~e_L -> ~chi_30 e-)
     2.66288878E-06    2    -1000024        12   # BR(~e_L -> ~chi_1- nu_e)
#
#         PDG            Width
DECAY   2000011     4.89058674E+02   # selectron_R decays
#          BR         NDA      ID1       ID2
     9.99833154E-01    2     1000022        11   # BR(~e_R -> ~chi_10 e-)
     6.07718659E-06    2     1000023        11   # BR(~e_R -> ~chi_20 e-)
     1.60769297E-04    2     1000025        11   # BR(~e_R -> ~chi_30 e-)
#
#         PDG            Width
DECAY   1000013     1.22265396E+02   # smuon_L decays
#          BR         NDA      ID1       ID2
     9.99793749E-01    2     1000022        13   # BR(~mu_L -> ~chi_10 mu-)
     4.84298061E-06    2     1000023        13   # BR(~mu_L -> ~chi_20 mu-)
     1.98745534E-04    2     1000025        13   # BR(~mu_L -> ~chi_30 mu-)
     2.66288878E-06    2    -1000024        14   # BR(~mu_L -> ~chi_1- nu_mu)
#
#         PDG            Width
DECAY   2000013     4.89058674E+02   # smuon_R decays
#          BR         NDA      ID1       ID2
     9.99833154E-01    2     1000022        13   # BR(~mu_R -> ~chi_10 mu-)
     6.07718659E-06    2     1000023        13   # BR(~mu_R -> ~chi_20 mu-)
     1.60769297E-04    2     1000025        13   # BR(~mu_R -> ~chi_30 mu-)
#
#         PDG            Width
DECAY   1000015     1.18200259E+04   # stau_1 decays
#          BR         NDA      ID1       ID2
     2.59040991E-02    2     1000022        15   # BR(~tau_1 -> ~chi_10  tau-)
     2.51443332E-05    2     1000023        15   # BR(~tau_1 -> ~chi_20  tau-)
     2.48896508E-05    2     1000025        15   # BR(~tau_1 -> ~chi_30  tau-)
     2.77113581E-05    2    -1000024        16   # BR(~tau_1 -> ~chi_1-  nu_tau)
     9.74018156E-01    2     1000039        15   # BR(~tau_1 -> ~G       tau-)
#
#         PDG            Width
DECAY   2000015     3.06091801E+02   # stau_2 decays
#          BR         NDA      ID1       ID2
     9.96532005E-01    2     1000022        15   # BR(~tau_2 -> ~chi_10  tau-)
     1.08116024E-03    2     1000023        15   # BR(~tau_2 -> ~chi_20  tau-)
     1.41530114E-03    2     1000025        15   # BR(~tau_2 -> ~chi_30  tau-)
     9.71533168E-04    2    -1000024        16   # BR(~tau_2 -> ~chi_1-  nu_tau)
#
#         PDG            Width
DECAY   1000012     1.22265454E+02   # snu_eL decays
#          BR         NDA      ID1       ID2
     9.99860071E-01    2     1000022        12   # BR(~nu_eL -> ~chi_10 nu_e)
     7.45124736E-06    2     1000023        12   # BR(~nu_eL -> ~chi_20 nu_e)
     1.26814041E-04    2     1000025        12   # BR(~nu_eL -> ~chi_30 nu_e)
     5.66402856E-06    2     1000024        11   # BR(~nu_eL -> ~chi_1+ e-)
#
#         PDG            Width
DECAY   1000014     1.22265454E+02   # snu_muL decays
#          BR         NDA      ID1       ID2
     9.99860071E-01    2     1000022        14   # BR(~nu_muL -> ~chi_10 nu_mu)
     7.45124736E-06    2     1000023        14   # BR(~nu_muL -> ~chi_20 nu_mu)
     1.26814041E-04    2     1000025        14   # BR(~nu_muL -> ~chi_30 nu_mu)
     5.66402856E-06    2     1000024        13   # BR(~nu_muL -> ~chi_1+ mu-)
#
#         PDG            Width
DECAY   1000016     1.22890055E+02   # snu_tauL decays
#          BR         NDA      ID1       ID2
     9.94778177E-01    2     1000022        16   # BR(~nu_tauL -> ~chi_10 nu_tau)
     7.41337561E-06    2     1000023        16   # BR(~nu_tauL -> ~chi_20 nu_tau)
     1.26169495E-04    2     1000025        16   # BR(~nu_tauL -> ~chi_30 nu_tau)
     5.08824029E-03    2     1000024        15   # BR(~nu_tauL -> ~chi_1+ tau-)
#
#         PDG            Width
DECAY   1000024     6.67038878E+01   # chargino1+ decays
#          BR         NDA      ID1       ID2
     4.30709931E-07    2     1000002        -1   # BR(~chi_1+ -> ~u_L     db)
     2.02401953E-07    2    -1000001         2   # BR(~chi_1+ -> ~d_L*    u )
     4.30709931E-07    2     1000004        -3   # BR(~chi_1+ -> ~c_L     sb)
     2.02401953E-07    2    -1000003         4   # BR(~chi_1+ -> ~s_L*    c )
     1.10306305E-01    2     1000006        -5   # BR(~chi_1+ -> ~t_1     bb)
     7.70756616E-02    2    -1000005         6   # BR(~chi_1+ -> ~b_1*    t )
     7.67322210E-01    2    -2000005         6   # BR(~chi_1+ -> ~b_2*    t )
     3.16389765E-02    2     1000022        24   # BR(~chi_1+ -> ~chi_10  W+)
     1.36501673E-02    2     1000022        37   # BR(~chi_1+ -> ~chi_10  H+)
     4.52293729E-06    2     1000039        24   # BR(~chi_1+ -> ~G       W+)
     8.89921445E-07    2     1000039        37   # BR(~chi_1+ -> ~G       H+)
#
#         PDG            Width
DECAY   1000037     1.83825143E+05   # chargino2+ decays
#          BR         NDA      ID1       ID2
     5.63143131E-03    2     1000002        -1   # BR(~chi_2+ -> ~u_L     db)
     5.63143310E-03    2    -1000001         2   # BR(~chi_2+ -> ~d_L*    u )
     5.63143131E-03    2     1000004        -3   # BR(~chi_2+ -> ~c_L     sb)
     5.63143310E-03    2    -1000003         4   # BR(~chi_2+ -> ~s_L*    c )
     9.04216244E-01    2     1000006        -5   # BR(~chi_2+ -> ~t_1     bb)
     1.22730906E-03    2    -1000005         6   # BR(~chi_2+ -> ~b_1*    t )
     5.35286868E-03    2    -2000005         6   # BR(~chi_2+ -> ~b_2*    t )
     4.16227125E-15    2     1000012       -11   # BR(~chi_2+ -> ~nu_eL   e+  )
     4.16227125E-15    2     1000014       -13   # BR(~chi_2+ -> ~nu_muL  mu+ )
     2.91430669E-15    2    -1000011        12   # BR(~chi_2+ -> ~e_L+    nu_e)
     2.91430669E-15    2    -1000013        14   # BR(~chi_2+ -> ~mu_L+   nu_mu)
     4.52172373E-15    2    -1000015        16   # BR(~chi_2+ -> ~tau_1+  nu_tau)
     7.69599267E-17    2    -2000015        16   # BR(~chi_2+ -> ~tau_2+  nu_tau)
     1.03270845E-03    2     1000024        23   # BR(~chi_2+ -> ~chi_1+  Z )
     1.24681792E-07    2     1000022        24   # BR(~chi_2+ -> ~chi_10  W+)
     1.00207236E-03    2     1000023        24   # BR(~chi_2+ -> ~chi_20  W+)
     1.00193712E-03    2     1000025        24   # BR(~chi_2+ -> ~chi_30  W+)
     1.04230198E-03    2     1000024        25   # BR(~chi_2+ -> ~chi_1+  h )
     9.14945160E-04    2     1000024        35   # BR(~chi_2+ -> ~chi_1+  H )
     9.15066037E-04    2     1000024        36   # BR(~chi_2+ -> ~chi_1+  A )
     1.76340892E-07    2     1000022        37   # BR(~chi_2+ -> ~chi_10  H+)
     9.15030133E-04    2     1000023        37   # BR(~chi_2+ -> ~chi_20  H+)
     9.14891873E-04    2     1000025        37   # BR(~chi_2+ -> ~chi_30  H+)
     5.89385787E-02    2     1000039        24   # BR(~chi_2+ -> ~G       W+)
     1.69060810E-08    2     1000039        37   # BR(~chi_2+ -> ~G       H+)
#
#         PDG            Width
DECAY   1000022     1.E-08   # neutralino1 decays (OJ Mods)
#          BR         NDA      ID1       ID2
     1.00000000E+00    2     1000039        22   # BR(~chi_10 -> ~G        gam)
#
#         PDG            Width
DECAY   1000023     1.E-08   # neutralino2 decays (OJ Mods)
#          BR         NDA      ID1       ID2
     2.83762765E-02    2     1000022        23   # BR(~chi_20 -> ~chi_10   Z )
     1.05569849E-03    2     1000022        25   # BR(~chi_20 -> ~chi_10   h )
     1.20613179E-02    2     1000022        35   # BR(~chi_20 -> ~chi_10   H )
     5.26063598E-04    2     1000022        36   # BR(~chi_20 -> ~chi_10   A )
     2.46186972E-08    2     1000002        -2   # BR(~chi_20 -> ~u_L      ub)
     2.46186972E-08    2    -1000002         2   # BR(~chi_20 -> ~u_L*     u )
     9.35137277E-08    2     1000001        -1   # BR(~chi_20 -> ~d_L      db)
     9.35137277E-08    2    -1000001         1   # BR(~chi_20 -> ~d_L*     d )
     2.14104683E-07    2     2000001        -1   # BR(~chi_20 -> ~d_R      db)
     2.14104683E-07    2    -2000001         1   # BR(~chi_20 -> ~d_R*     d )
     2.46186972E-08    2     1000004        -4   # BR(~chi_20 -> ~c_L      cb)
     2.46186972E-08    2    -1000004         4   # BR(~chi_20 -> ~c_L*     c )
     9.35137277E-08    2     1000003        -3   # BR(~chi_20 -> ~s_L      sb)
     9.35137277E-08    2    -1000003         3   # BR(~chi_20 -> ~s_L*     s )
     2.14104683E-07    2     2000003        -3   # BR(~chi_20 -> ~s_R      sb)
     2.14104683E-07    2    -2000003         3   # BR(~chi_20 -> ~s_R*     s )
     3.80575488E-01    2     1000006        -6   # BR(~chi_20 -> ~t_1      tb)
     3.80575488E-01    2    -1000006         6   # BR(~chi_20 -> ~t_1*     t )
     4.73112801E-02    2     1000005        -5   # BR(~chi_20 -> ~b_1      bb)
     4.73112801E-02    2    -1000005         5   # BR(~chi_20 -> ~b_1*     b )
     5.11005192E-02    2     2000005        -5   # BR(~chi_20 -> ~b_2      bb)
     5.11005192E-02    2    -2000005         5   # BR(~chi_20 -> ~b_2*     b )
     3.52470864E-11    2     1000039        22   # BR(~chi_20 -> ~G        gam)
     1.57059940E-07    2     1000039        23   # BR(~chi_20 -> ~G        Z)
     3.91968789E-06    2     1000039        25   # BR(~chi_20 -> ~G        h)
     3.14010361E-08    2     1000039        35   # BR(~chi_20 -> ~G        H)
     8.09748393E-07    2     1000039        36   # BR(~chi_20 -> ~G        A)
#
#         PDG            Width
DECAY   1000025     7.39857625E+01   # neutralino3 decays
#          BR         NDA      ID1       ID2
     1.07106252E-03    2     1000022        23   # BR(~chi_30 -> ~chi_10   Z )
     2.85348274E-02    2     1000022        25   # BR(~chi_30 -> ~chi_10   h )
     5.11265941E-04    2     1000022        35   # BR(~chi_30 -> ~chi_10   H )
     1.20774814E-02    2     1000022        36   # BR(~chi_30 -> ~chi_10   A )
     2.52266658E-06    2     1000002        -2   # BR(~chi_30 -> ~u_L      ub)
     2.52266658E-06    2    -1000002         2   # BR(~chi_30 -> ~u_L*     u )
     6.24081567E-07    2     1000001        -1   # BR(~chi_30 -> ~d_L      db)
     6.24081567E-07    2    -1000001         1   # BR(~chi_30 -> ~d_L*     d )
     5.65566492E-06    2     2000001        -1   # BR(~chi_30 -> ~d_R      db)
     5.65566492E-06    2    -2000001         1   # BR(~chi_30 -> ~d_R*     d )
     2.52266658E-06    2     1000004        -4   # BR(~chi_30 -> ~c_L      cb)
     2.52266658E-06    2    -1000004         4   # BR(~chi_30 -> ~c_L*     c )
     6.24081567E-07    2     1000003        -3   # BR(~chi_30 -> ~s_L      sb)
     6.24081567E-07    2    -1000003         3   # BR(~chi_30 -> ~s_L*     s )
     5.65566492E-06    2     2000003        -3   # BR(~chi_30 -> ~s_R      sb)
     5.65566492E-06    2    -2000003         3   # BR(~chi_30 -> ~s_R*     s )
     3.80031006E-01    2     1000006        -6   # BR(~chi_30 -> ~t_1      tb)
     3.80031006E-01    2    -1000006         6   # BR(~chi_30 -> ~t_1*     t )
     4.21365613E-02    2     1000005        -5   # BR(~chi_30 -> ~b_1      bb)
     4.21365613E-02    2    -1000005         5   # BR(~chi_30 -> ~b_1*     b )
     5.67174091E-02    2     2000005        -5   # BR(~chi_30 -> ~b_2      bb)
     5.67174091E-02    2    -2000005         5   # BR(~chi_30 -> ~b_2*     b )
     1.07152295E-09    2     1000039        22   # BR(~chi_30 -> ~G        gam)
     3.92103056E-06    2     1000039        23   # BR(~chi_30 -> ~G        Z)
     1.52913138E-07    2     1000039        25   # BR(~chi_30 -> ~G        h)
     8.03653394E-07    2     1000039        35   # BR(~chi_30 -> ~G        H)
     3.23635948E-08    2     1000039        36   # BR(~chi_30 -> ~G        A)
#
#         PDG            Width
DECAY   1000035     1.83825911E+05   # neutralino4 decays
#          BR         NDA      ID1       ID2
     1.02088489E-11    2     1000022        23   # BR(~chi_40 -> ~chi_10   Z )
     9.98002706E-04    2     1000023        23   # BR(~chi_40 -> ~chi_20   Z )
     3.47024775E-05    2     1000025        23   # BR(~chi_40 -> ~chi_30   Z )
     1.00206224E-03    2     1000024       -24   # BR(~chi_40 -> ~chi_1+   W-)
     1.00206224E-03    2    -1000024        24   # BR(~chi_40 -> ~chi_1-   W+)
     1.29915081E-07    2     1000022        25   # BR(~chi_40 -> ~chi_10   h )
     2.32960003E-08    2     1000022        35   # BR(~chi_40 -> ~chi_10   H )
     1.52794645E-07    2     1000022        36   # BR(~chi_40 -> ~chi_10   A )
     3.42286028E-05    2     1000023        25   # BR(~chi_40 -> ~chi_20   h )
     8.75590751E-04    2     1000023        35   # BR(~chi_40 -> ~chi_20   H )
     4.02486574E-05    2     1000023        36   # BR(~chi_40 -> ~chi_20   A )
     1.00794043E-03    2     1000025        25   # BR(~chi_40 -> ~chi_30   h )
     3.93263800E-05    2     1000025        35   # BR(~chi_40 -> ~chi_30   H )
     8.74660966E-04    2     1000025        36   # BR(~chi_40 -> ~chi_30   A )
     9.15046147E-04    2     1000024       -37   # BR(~chi_40 -> ~chi_1+   H-)
     9.15046147E-04    2    -1000024        37   # BR(~chi_40 -> ~chi_1-   H+)
     2.69571802E-03    2     1000002        -2   # BR(~chi_40 -> ~u_L      ub)
     2.69571802E-03    2    -1000002         2   # BR(~chi_40 -> ~u_L*     u )
     4.26902382E-23    2     2000002        -2   # BR(~chi_40 -> ~u_R      ub)
     4.26902382E-23    2    -2000002         2   # BR(~chi_40 -> ~u_R*     u )
     2.69571925E-03    2     1000001        -1   # BR(~chi_40 -> ~d_L      db)
     2.69571925E-03    2    -1000001         1   # BR(~chi_40 -> ~d_L*     d )
     5.10353728E-17    2     2000001        -1   # BR(~chi_40 -> ~d_R      db)
     5.10353728E-17    2    -2000001         1   # BR(~chi_40 -> ~d_R*     d )
     2.69571802E-03    2     1000004        -4   # BR(~chi_40 -> ~c_L      cb)
     2.69571802E-03    2    -1000004         4   # BR(~chi_40 -> ~c_L*     c )
     4.26902382E-23    2     2000004        -4   # BR(~chi_40 -> ~c_R      cb)
     4.26902382E-23    2    -2000004         4   # BR(~chi_40 -> ~c_R*     c )
     2.69571925E-03    2     1000003        -3   # BR(~chi_40 -> ~s_L      sb)
     2.69571925E-03    2    -1000003         3   # BR(~chi_40 -> ~s_L*     s )
     5.10353728E-17    2     2000003        -3   # BR(~chi_40 -> ~s_R      sb)
     5.10353728E-17    2    -2000003         3   # BR(~chi_40 -> ~s_R*     s )
     3.29006964E-03    2     1000006        -6   # BR(~chi_40 -> ~t_1      tb)
     3.29006964E-03    2    -1000006         6   # BR(~chi_40 -> ~t_1*     t )
     2.16146028E-01    2     1000005        -5   # BR(~chi_40 -> ~b_1      bb)
     2.16146028E-01    2    -1000005         5   # BR(~chi_40 -> ~b_1*     b )
     2.35962289E-01    2     2000005        -5   # BR(~chi_40 -> ~b_2      bb)
     2.35962289E-01    2    -2000005         5   # BR(~chi_40 -> ~b_2*     b )
     1.45714666E-15    2     1000011       -11   # BR(~chi_40 -> ~e_L-     e+)
     1.45714666E-15    2    -1000011        11   # BR(~chi_40 -> ~e_L+     e-)
     2.48280539E-28    2     2000011       -11   # BR(~chi_40 -> ~e_R-     e+)
     2.48280539E-28    2    -2000011        11   # BR(~chi_40 -> ~e_R+     e-)
     1.45714666E-15    2     1000013       -13   # BR(~chi_40 -> ~mu_L-    mu+)
     1.45714666E-15    2    -1000013        13   # BR(~chi_40 -> ~mu_L+    mu-)
     2.48280539E-28    2     2000013       -13   # BR(~chi_40 -> ~mu_R-    mu+)
     2.48280539E-28    2    -2000013        13   # BR(~chi_40 -> ~mu_R+    mu-)
     2.08112880E-15    2     1000012       -12   # BR(~chi_40 -> ~nu_eL    nu_eb)
     2.08112880E-15    2    -1000012        12   # BR(~chi_40 -> ~nu_eL*   nu_e )
     2.08112880E-15    2     1000014       -14   # BR(~chi_40 -> ~nu_muL   nu_mub)
     2.08112880E-15    2    -1000014        14   # BR(~chi_40 -> ~nu_muL*  nu_mu )
     2.08112880E-15    2     1000016       -16   # BR(~chi_40 -> ~nu_tau1  nu_taub)
     2.08112880E-15    2    -1000016        16   # BR(~chi_40 -> ~nu_tau1* nu_tau )
     1.42768357E-02    2     1000039        22   # BR(~chi_40 -> ~G        gam)
     4.46615071E-02    2     1000039        23   # BR(~chi_40 -> ~G        Z)
     2.69738751E-09    2     1000039        25   # BR(~chi_40 -> ~G        h)
     1.69342391E-08    2     1000039        35   # BR(~chi_40 -> ~G        H)
     3.33703052E-12    2     1000039        36   # BR(~chi_40 -> ~G        A)
#
#
#
#
