# SUSY Les Houches Accord 2 - MSSM spectrum + Decays
# SPheno v3.1.12 
# W. Porod, Comput. Phys. Commun. 153 (2003) 275-315, hep-ph/0301101
# in case of problems send email to porod@physik.uni-wuerzburg.de
# Created: 09.12.2016,  15:23
Block SPINFO         # Program information
     1   SPheno      # spectrum calculator
     2   v3.1.12     # version number
#
Block SPhenoINFO     # SPheno specific information
    1      2         # using 2-loop RGEs
    2      1         # using running masses for boundary conditions at mZ
Block MODSEL  # Model selection
    1    2    # mGMSB model
Block MINPAR  # Input parameters
    1    1.60000000E+05  # Lambda, scale of SUSY breaking
    2    2.50000000E+05  # M_M, messenger mass scale
    3    1.00000000E+01  # tanb at m_Z   
    4    1.00000000E+00  # Sign(mu)
    5    3.00000000E+00  # N_5 number of effective five-plets
    6    1.00000000E+00  # c_grav, Gravitino mass factor
Block gauge Q=  2.50000000E+05  # (GMSB scale)
   1    4.92774044E-01  # g'(Q)^DRbar
   2    6.45795055E-01  # g(Q)^DRbar
   3    9.30567556E-01  # g3(Q)^DRbar
Block SMINPUTS  # SM parameters
         1     1.27932453E+02  # alpha_em^-1(MZ)^MSbar
         2     1.16639000E-05  # G_mu [GeV^-2]
         3     1.17200000E-01  # alpha_s(MZ)^MSbar
         4     9.11876000E+01  # m_Z(pole)
         5     4.20000000E+00  # m_b(m_b), MSbar
         6     1.72500000E+02  # m_t(pole)
         7     1.77700000E+00  # m_tau(pole)
         8     0.00000000E+00  # m_nu_3
        11     5.10998910E-04  # m_e(pole)
        12     0.00000000E+00  # m_nu_1
        13     1.05658000E-01  # m_muon(pole)
        14     0.00000000E+00  # m_nu_2
        21     5.00000000E-03  # m_d(2 GeV), MSbar
        22     3.00000000E-03  # m_u(2 GeV), MSbar
        23     1.05000000E-01  # m_s(2 GeV), MSbar
        24     1.27000000E+00  # m_c(m_c), MSbar
Block gauge Q=  3.00499550E+03  # (SUSY scale)
   1    3.65400952E-01  # g'(Q)^DRbar
   2    6.37045996E-01  # g(Q)^DRbar
   3    1.00402726E+00  # g3(Q)^DRbar
Block Yu Q=  3.00499550E+03  # (SUSY scale)
  1  1     8.29770264E-06   # Y_u(Q)^DRbar
  2  2     3.51269456E-03   # Y_c(Q)^DRbar
  3  3     8.34949906E-01   # Y_t(Q)^DRbar
Block Yd Q=  3.00499550E+03  # (SUSY scale)
  1  1     1.28030542E-04   # Y_d(Q)^DRbar
  2  2     2.68864058E-03   # Y_s(Q)^DRbar
  3  3     1.26344336E-01   # Y_b(Q)^DRbar
Block Ye Q=  3.00499550E+03  # (SUSY scale)
  1  1     2.85466955E-05   # Y_e(Q)^DRbar
  2  2     5.90253326E-03   # Y_mu(Q)^DRbar
  3  3     9.92835211E-02   # Y_tau(Q)^DRbar
Block Au Q=  3.00499550E+03  # (SUSY scale)
  1  1    -8.95976765E+02   # A_u(Q)^DRbar
  2  2    -8.95975772E+02   # A_c(Q)^DRbar
  3  3    -8.49251980E+02   # A_t(Q)^DRbar
Block Ad Q=  3.00499550E+03  # (SUSY scale)
  1  1    -9.49396571E+02   # A_d(Q)^DRbar
  2  2    -9.49395799E+02   # A_s(Q)^DRbar
  3  3    -9.33220784E+02   # A_b(Q)^DRbar
Block Ae Q=  3.00499550E+03  # (SUSY scale)
  1  1    -1.07961492E+02   # A_e(Q)^DRbar
  2  2    -1.07961139E+02   # A_mu(Q)^DRbar
  3  3    -1.07861787E+02   # A_tau(Q)^DRbar
Block MSOFT Q=  3.00499550E+03  # soft SUSY breaking masses at Q
   1    7.28191715E+02  # M_1
   2    1.32399131E+03  # M_2
   3    3.30196606E+03  # M_3
  21    9.41549638E+05  # M^2_(H,d)
  22   -7.81149039E+05  # M^2_(H,u)
  31    9.91760532E+02  # M_(L,11)
  32    9.91758591E+02  # M_(L,22)
  33    9.91211289E+02  # M_(L,33)
  34    4.82960375E+02  # M_(E,11)
  35    4.82952260E+02  # M_(E,22)
  36    4.80659095E+02  # M_(E,33)
  41    3.11451238E+03  # M_(Q,11)
  42    3.11450990E+03  # M_(Q,22)
  43    3.02511504E+03  # M_(Q,33)
  44    2.98403089E+03  # M_(U,11)
  45    2.98402762E+03  # M_(U,22)
  46    2.79526657E+03  # M_(U,33)
  47    2.97120189E+03  # M_(D,11)
  48    2.97119992E+03  # M_(D,22)
  49    2.96687999E+03  # M_(D,33)
Block MASS  # Mass spectrum
#   PDG code      mass          particle
         6     1.72500000E+02  # m_t(pole)
        23     9.11876000E+01  # m_Z(pole)
        24     8.03154290E+01  # W+
        15     1.77700000E+00  # m_tau(pole)
        25     1.20246220E+02  # h0
        35     1.41910780E+03  # H0
        36     1.41890668E+03  # A0
        37     1.42098291E+03  # H+
   1000001     3.24293209E+03  # ~d_L
   2000001     3.09171344E+03  # ~d_R
   1000002     3.24195969E+03  # ~u_L
   2000002     3.10376849E+03  # ~u_R
   1000003     3.24292908E+03  # ~s_L
   2000003     3.09171096E+03  # ~s_R
   1000004     3.24195680E+03  # ~c_L
   2000004     3.10376451E+03  # ~c_R
   1000005     3.08600544E+03  # ~b_1
   2000005     3.13379616E+03  # ~b_2
   1000006     2.87686466E+03  # ~t_1
   2000006     3.13882771E+03  # ~t_2
   1000011     1.01452932E+03  # ~e_L-
   2000011     5.02298234E+02  # ~e_R-
   1000012     1.01105002E+03  # ~nu_eL
   1000013     1.01452724E+03  # ~mu_L-
   2000013     5.02286491E+02  # ~mu_R-
   1000014     1.01104722E+03  # ~nu_muL
   1000015     4.98967477E+02  # ~tau_1-
   2000015     1.01393919E+03  # ~tau_2-
   1000016     1.01025868E+03  # ~nu_tauL
   1000021     3.45072040E+03  # ~g
   1000022     7.08302675E+02  # ~chi_10
   1000023     1.00288920E+03  # ~chi_20
   1000025    -1.01053513E+03  # ~chi_30
   1000035     1.36244973E+03  # ~chi_40
   1000024     9.99800978E+02  # ~chi_1+
   1000037     1.36262516E+03  # ~chi_2+
   1000039     9.60000000E-09  # ~G
# Higgs mixing
Block alpha # Effective Higgs mixing angle
          -1.05916809E-01   # alpha
Block Hmix Q=  3.00499550E+03  # Higgs mixing parameters
   1    9.95894220E+02  # mu
   2    9.51352606E+00  # tan[beta](Q)
   3    2.43473234E+02  # v(Q)
   4    1.75319866E+06  # m^2_A(Q)
Block stopmix # stop mixing matrix
   1  1     1.05144192E-01   # Re[R_st(1,1)]
   1  2     9.94456987E-01   # Re[R_st(1,2)]
   2  1    -9.94456987E-01   # Re[R_st(2,1)]
   2  2     1.05144192E-01   # Re[R_st(2,2)]
Block sbotmix # sbottom mixing matrix
   1  1     8.65850324E-02   # Re[R_sb(1,1)]
   1  2     9.96244464E-01   # Re[R_sb(1,2)]
   2  1    -9.96244464E-01   # Re[R_sb(2,1)]
   2  2     8.65850324E-02   # Re[R_sb(2,2)]
Block staumix # stau mixing matrix
   1  1     2.25460594E-02   # Re[R_sta(1,1)]
   1  2     9.99745805E-01   # Re[R_sta(1,2)]
   2  1    -9.99745805E-01   # Re[R_sta(2,1)]
   2  2     2.25460594E-02   # Re[R_sta(2,2)]
Block Nmix # neutralino mixing matrix
   1  1    -9.92930504E-01   # Re[N(1,1)]
   1  2     9.76251613E-03   # Re[N(1,2)]
   1  3    -9.44405261E-02   # Re[N(1,3)]
   1  4     7.12368942E-02   # Re[N(1,4)]
   2  1    -1.17159072E-01   # Re[N(2,1)]
   2  2    -1.69815511E-01   # Re[N(2,2)]
   2  3     6.93704955E-01   # Re[N(2,3)]
   2  4    -6.90079619E-01   # Re[N(2,4)]
   3  1    -1.62047607E-02   # Re[N(3,1)]
   3  2     2.10689499E-02   # Re[N(3,2)]
   3  3     7.06218348E-01   # Re[N(3,3)]
   3  4     7.07494982E-01   # Re[N(3,4)]
   4  1    -1.00086152E-02   # Re[N(4,1)]
   4  2     9.85202256E-01   # Re[N(4,2)]
   4  3     1.05404305E-01   # Re[N(4,3)]
   4  4    -1.34782325E-01   # Re[N(4,4)]
Block Umix # chargino mixing matrix
   1  1    -1.49145000E-01   # Re[U(1,1)]
   1  2     9.88815336E-01   # Re[U(1,2)]
   2  1     9.88815336E-01   # Re[U(2,1)]
   2  2     1.49145000E-01   # Re[U(2,2)]
Block Vmix # chargino mixing matrix
   1  1    -1.90646288E-01   # Re[V(1,1)]
   1  2     9.81658797E-01   # Re[V(1,2)]
   2  1     9.81658797E-01   # Re[V(2,1)]
   2  2     1.90646288E-01   # Re[V(2,2)]
DECAY   2000011     3.97612629E-10   # ~e^-_R
#    BR                NDA      ID1      ID2
     9.99903868E-01    2     1000039        11   # BR(~e^-_R -> ~G e^-)
#    BR                NDA      ID1      ID2       ID3
     1.92017085E-05    3     1000015        11       -15   # BR(~e^-_R -> ~tau^-_1 e^- tau^+)
     7.69307738E-05    3    -1000015        11        15   # BR(~e^-_R -> ~tau^+_1 e^- tau^-)
DECAY   1000011     3.37432232E-01   # ~e^-_L
#    BR                NDA      ID1      ID2
     9.99196287E-01    2     1000022        11   # BR(~e^-_L -> chi^0_1 e^-)
     3.54915631E-04    2     1000023        11   # BR(~e^-_L -> chi^0_2 e^-)
     1.03910768E-07    2     1000025        11   # BR(~e^-_L -> chi^0_3 e^-)
     4.48619477E-04    2    -1000024        12   # BR(~e^-_L -> chi^-_1 nu_e)
     1.71965496E-08    2     2000011        23   # BR(~e^-_L -> ~e^-_R Z)
     1.73765119E-08    2     2000011        25   # BR(~e^-_L -> ~e^-_R h^0)
     3.96046903E-08    2     1000039        11   # BR(~e^-_L -> ~G e^-)
DECAY   2000013     3.97560851E-10   # ~mu^-_R
#    BR                NDA      ID1      ID2
     9.99917021E-01    2     1000039        13   # BR(~mu^-_R -> ~G mu^-)
#    BR                NDA      ID1      ID2       ID3
     1.65765209E-05    3     1000015        13       -15   # BR(~mu^-_R -> ~tau^-_1 mu^- tau^+)
     6.64021758E-05    3    -1000015        13        15   # BR(~mu^-_R -> ~tau^+_1 mu^- tau^-)
DECAY   1000013     3.37929005E-01   # ~mu^-_L
#    BR                NDA      ID1      ID2
     9.97721585E-01    2     1000022        13   # BR(~mu^-_L -> chi^0_1 mu^-)
     3.54508265E-04    2     1000023        13   # BR(~mu^-_L -> chi^0_2 mu^-)
     1.63861432E-07    2     1000025        13   # BR(~mu^-_L -> chi^0_3 mu^-)
     4.47760219E-04    2    -1000024        14   # BR(~mu^-_L -> chi^-_1 nu_mu)
     7.34132563E-04    2     2000013        23   # BR(~mu^-_L -> ~mu^-_R Z)
     7.41810684E-04    2     2000013        25   # BR(~mu^-_L -> ~mu^-_R h^0)
     3.95460611E-08    2     1000039        13   # BR(~mu^-_L -> ~G mu^-)
DECAY   1000015     3.84546909E-10   # ~tau^-_1
#    BR                NDA      ID1      ID2
     1.00000000E+00    2     1000039        15   # BR(~tau^-_1 -> ~G tau^-)
DECAY   2000015     4.78487417E-01   # ~tau^-_2
#    BR                NDA      ID1      ID2
     7.03470170E-01    2     1000022        15   # BR(~tau^-_2 -> chi^0_1 tau^-)
     2.66501092E-04    2     1000023        15   # BR(~tau^-_2 -> chi^0_2 tau^-)
     7.23997658E-06    2     1000025        15   # BR(~tau^-_2 -> chi^0_3 tau^-)
     2.78277573E-04    2    -1000024        16   # BR(~tau^-_2 -> chi^-_1 nu_tau)
     1.47347413E-01    2     1000015        23   # BR(~tau^-_2 -> ~tau^-_1 Z)
     1.48630371E-01    2     1000015        25   # BR(~tau^-_2 -> ~tau^-_1 h^0)
     2.78479892E-08    2     1000039        15   # BR(~tau^-_2 -> ~G tau^-)
DECAY   1000012     3.55306974E-01   # ~nu_e
#    BR                NDA      ID1      ID2
     9.99559771E-01    2     1000022        12   # BR(~nu_e -> chi^0_1 nu_e)
     3.12679333E-05    2     1000023        12   # BR(~nu_e -> chi^0_2 nu_e)
     1.09812437E-08    2     1000025        12   # BR(~nu_e -> chi^0_3 nu_e)
     4.08881873E-04    2     1000024        11   # BR(~nu_e -> chi^+_1 e^-)
     3.15112480E-08    2     2000011        24   # BR(~nu_e -> ~e^-_R W^+)
     3.69717192E-08    2     1000039        12   # BR(~nu_e -> ~G nu_e)
DECAY   1000014     3.55780985E-01   # ~nu_mu
#    BR                NDA      ID1      ID2
     9.98214633E-01    2     1000022        14   # BR(~nu_mu -> chi^0_1 nu_mu)
     3.12050359E-05    2     1000023        14   # BR(~nu_mu -> chi^0_2 nu_mu)
     1.08477951E-08    2     1000025        14   # BR(~nu_mu -> chi^0_3 nu_mu)
     4.08694076E-04    2     1000024        13   # BR(~nu_mu -> chi^+_1 mu^-)
     1.34542001E-03    2     2000013        24   # BR(~nu_mu -> ~mu^-_R W^+)
     3.69219504E-08    2     1000039        14   # BR(~nu_mu -> ~G nu_mu)
DECAY   1000016     4.89947794E-01   # ~nu_tau
#    BR                NDA      ID1      ID2
     7.22120418E-01    2     1000022        16   # BR(~nu_tau -> chi^0_1 nu_tau)
     1.85198355E-05    2     1000023        16   # BR(~nu_tau -> chi^0_2 nu_tau)
     3.49020118E-04    2     1000024        15   # BR(~nu_tau -> chi^+_1 tau^-)
     2.77512016E-01    2     1000015        24   # BR(~nu_tau -> ~tau^-_1 W^+)
     2.67068887E-08    2     1000039        16   # BR(~nu_tau -> ~G nu_tau)
DECAY   2000001     1.63590823E+00   # ~d_R
#    BR                NDA      ID1      ID2
     9.87430916E-01    2     1000022         1   # BR(~d_R -> chi^0_1 d)
     1.22599349E-02    2     1000023         1   # BR(~d_R -> chi^0_2 d)
     2.33937485E-04    2     1000025         1   # BR(~d_R -> chi^0_3 d)
     7.25609831E-05    2     1000035         1   # BR(~d_R -> chi^0_4 d)
     5.02972683E-07    2    -1000024         2   # BR(~d_R -> chi^-_1 u)
     1.03012959E-10    2    -1000037         2   # BR(~d_R -> chi^-_2 u)
     2.14707590E-06    2     1000039         1   # BR(~d_R -> ~G d)
DECAY   1000001     2.71976680E+01   # ~d_L
#    BR                NDA      ID1      ID2
     1.73916100E-02    2     1000022         1   # BR(~d_L -> chi^0_1 d)
     8.55496073E-03    2     1000023         1   # BR(~d_L -> chi^0_2 d)
     2.29197228E-04    2     1000025         1   # BR(~d_L -> chi^0_3 d)
     3.18055251E-01    2     1000035         1   # BR(~d_L -> chi^0_4 d)
     1.75365678E-02    2    -1000024         2   # BR(~d_L -> chi^-_1 u)
     6.38232249E-01    2    -1000037         2   # BR(~d_L -> chi^-_2 u)
     1.05491469E-12    2     2000002       -24   # BR(~d_L -> ~u_R W^-)
     1.13538169E-10    2     2000001        23   # BR(~d_L -> ~d_R Z)
     1.19946502E-10    2     2000001        25   # BR(~d_L -> ~d_R h^0)
     1.63971271E-07    2     1000039         1   # BR(~d_L -> ~G d)
DECAY   2000003     1.63662691E+00   # ~s_R
#    BR                NDA      ID1      ID2
     9.87000760E-01    2     1000022         3   # BR(~s_R -> chi^0_1 s)
     1.23620063E-02    2     1000023         3   # BR(~s_R -> chi^0_2 s)
     3.40790604E-04    2     1000025         3   # BR(~s_R -> chi^0_3 s)
     7.25386367E-05    2     1000035         3   # BR(~s_R -> chi^0_4 s)
     2.21713051E-04    2    -1000024         4   # BR(~s_R -> chi^-_1 c)
     4.54084040E-08    2    -1000037         4   # BR(~s_R -> chi^-_2 c)
     2.14612445E-06    2     1000039         3   # BR(~s_R -> ~G s)
DECAY   1000003     2.71986421E+01   # ~s_L
#    BR                NDA      ID1      ID2
     1.73909583E-02    2     1000022         3   # BR(~s_L -> chi^0_1 s)
     8.56117366E-03    2     1000023         3   # BR(~s_L -> chi^0_2 s)
     2.36199726E-04    2     1000025         3   # BR(~s_L -> chi^0_3 s)
     3.18043583E-01    2     1000035         3   # BR(~s_L -> chi^0_4 s)
     1.75581063E-02    2    -1000024         4   # BR(~s_L -> chi^-_1 c)
     6.38209523E-01    2    -1000037         4   # BR(~s_L -> chi^-_2 c)
     1.89048335E-07    2     2000004       -24   # BR(~s_L -> ~c_R W^-)
     5.00681148E-08    2     2000003        23   # BR(~s_L -> ~s_R Z)
     5.28940018E-08    2     2000003        25   # BR(~s_L -> ~s_R h^0)
     1.63964638E-07    2     1000039         3   # BR(~s_L -> ~G s)
DECAY   1000005     3.60902541E+00   # ~b_1
#    BR                NDA      ID1      ID2
     4.54457106E-01    2     1000022         5   # BR(~b_1 -> chi^0_1 b)
     1.20024271E-01    2     1000023         5   # BR(~b_1 -> chi^0_2 b)
     1.05219640E-01    2     1000025         5   # BR(~b_1 -> chi^0_3 b)
     7.02349793E-03    2     1000035         5   # BR(~b_1 -> chi^0_4 b)
     2.95822151E-01    2    -1000024         6   # BR(~b_1 -> chi^-_1 t)
     1.67060172E-02    2    -1000037         6   # BR(~b_1 -> chi^-_2 t)
     7.46352693E-04    2     1000006       -24   # BR(~b_1 -> ~t_1 W^-)
     9.64273963E-07    2     1000039         5   # BR(~b_1 -> ~G b)
DECAY   2000005     6.11781793E+01   # ~b_2
#    BR                NDA      ID1      ID2
     7.20217804E-03    2     1000022         5   # BR(~b_2 -> chi^0_1 b)
     9.32056533E-03    2     1000023         5   # BR(~b_2 -> chi^0_2 b)
     6.77958194E-03    2     1000025         5   # BR(~b_2 -> chi^0_3 b)
     1.32341956E-01    2     1000035         5   # BR(~b_2 -> chi^0_4 b)
     5.45439582E-01    2    -1000024         6   # BR(~b_2 -> chi^-_1 t)
     2.87406613E-01    2    -1000037         6   # BR(~b_2 -> chi^-_2 t)
     1.15094627E-02    2     1000006       -24   # BR(~b_2 -> ~t_1 W^-)
     6.14276941E-08    2     1000039         5   # BR(~b_2 -> ~G b)
DECAY   2000002     6.57485457E+00   # ~u_R
#    BR                NDA      ID1      ID2
     9.87421366E-01    2     1000022         2   # BR(~u_R -> chi^0_1 u)
     1.22713946E-02    2     1000023         2   # BR(~u_R -> chi^0_2 u)
     2.33924958E-04    2     1000025         2   # BR(~u_R -> chi^0_3 u)
     7.27691468E-05    2     1000035         2   # BR(~u_R -> chi^0_4 u)
     5.31445626E-10    2     1000024         1   # BR(~u_R -> chi^+_1 d)
     5.70304468E-13    2     1000037         1   # BR(~u_R -> chi^+_2 d)
     5.44716601E-07    2     1000039         2   # BR(~u_R -> ~G u)
DECAY   1000002     2.72398959E+01   # ~u_L
#    BR                NDA      ID1      ID2
     1.41285722E-02    2     1000022         2   # BR(~u_L -> chi^0_1 u)
     1.45161553E-02    2     1000023         2   # BR(~u_L -> chi^0_2 u)
     1.26471993E-04    2     1000025         2   # BR(~u_L -> chi^0_3 u)
     3.14928991E-01    2     1000035         2   # BR(~u_L -> chi^0_4 u)
     2.85973409E-02    2     1000024         1   # BR(~u_L -> chi^+_1 d)
     6.27702305E-01    2     1000037         1   # BR(~u_L -> chi^+_2 d)
     2.56608613E-10    2     2000001        24   # BR(~u_L -> ~d_R W^+)
     4.14251306E-13    2     2000002        23   # BR(~u_L -> ~u_R Z)
     3.18955412E-13    2     2000002        25   # BR(~u_L -> ~u_R h^0)
     1.63471773E-07    2     1000039         2   # BR(~u_L -> ~G u)
DECAY   2000004     6.57608458E+00   # ~c_R
#    BR                NDA      ID1      ID2
     9.87235342E-01    2     1000022         4   # BR(~c_R -> chi^0_1 c)
     1.23152650E-02    2     1000023         4   # BR(~c_R -> chi^0_2 c)
     2.80733715E-04    2     1000025         4   # BR(~c_R -> chi^0_3 c)
     7.27899952E-05    2     1000035         4   # BR(~c_R -> chi^0_4 c)
     9.52229123E-05    2     1000024         3   # BR(~c_R -> chi^+_1 s)
     1.02193040E-07    2     1000037         3   # BR(~c_R -> chi^+_2 s)
     5.44610856E-07    2     1000039         4   # BR(~c_R -> ~G c)
DECAY   1000004     2.72408575E+01   # ~c_L
#    BR                NDA      ID1      ID2
     1.41281199E-02    2     1000022         4   # BR(~c_L -> chi^0_1 c)
     1.45263915E-02    2     1000023         4   # BR(~c_L -> chi^0_2 c)
     1.38294474E-04    2     1000025         4   # BR(~c_L -> chi^0_3 c)
     3.14918191E-01    2     1000035         4   # BR(~c_L -> chi^0_4 c)
     2.86085144E-02    2     1000024         3   # BR(~c_L -> chi^+_1 s)
     6.27680080E-01    2     1000037         3   # BR(~c_L -> chi^+_2 s)
     1.13159953E-07    2     2000003        24   # BR(~c_L -> ~s_R W^+)
     7.42376087E-08    2     2000004        23   # BR(~c_L -> ~c_R Z)
     5.71600147E-08    2     2000004        25   # BR(~c_L -> ~c_R h^0)
     1.63465172E-07    2     1000039         4   # BR(~c_L -> ~G c)
DECAY   1000006     6.70951267E+01   # ~t_1
#    BR                NDA      ID1      ID2
     8.09149503E-08    2     1000022         4   # BR(~t_1 -> chi^0_1 c)
     9.06886913E-02    2     1000022         6   # BR(~t_1 -> chi^0_1 t)
     8.06157457E-08    2     1000023         4   # BR(~t_1 -> chi^0_2 c)
     2.20505214E-01    2     1000023         6   # BR(~t_1 -> chi^0_2 t)
     2.30216253E-01    2     1000025         6   # BR(~t_1 -> chi^0_3 t)
     2.16015882E-03    2     1000035         6   # BR(~t_1 -> chi^0_4 t)
     4.52025572E-01    2     1000024         5   # BR(~t_1 -> chi^+_1 b)
     4.39705786E-03    2     1000037         5   # BR(~t_1 -> chi^+_2 b)
     3.59964235E-08    2     1000039         6   # BR(~t_1 -> ~G t)
#    BR                NDA      ID1      ID2       ID3
     6.85556748E-06    3     1000022        24         5   # BR(~t_1 -> chi^0_1 W^+ b)
DECAY   2000006     6.16148520E+01   # ~t_2
#    BR                NDA      ID1      ID2
     7.43447684E-03    2     1000022         6   # BR(~t_2 -> chi^0_1 t)
     2.69812147E-01    2     1000023         6   # BR(~t_2 -> chi^0_2 t)
     2.78664717E-01    2     1000025         6   # BR(~t_2 -> chi^0_3 t)
     1.47621094E-01    2     1000035         6   # BR(~t_2 -> chi^0_4 t)
     1.36026423E-02    2     1000024         5   # BR(~t_2 -> chi^+_1 b)
     2.72484800E-01    2     1000037         5   # BR(~t_2 -> chi^+_2 b)
     5.96630755E-03    2     1000006        23   # BR(~t_2 -> ~t_1 Z)
     4.41375424E-03    2     1000006        25   # BR(~t_2 -> ~t_1 h^0)
     6.07445732E-08    2     1000039         6   # BR(~t_2 -> ~G t)
DECAY   1000024     5.54527254E-01   # chi^+_1
#    BR                NDA      ID1      ID2
     8.34001554E-09    2    -2000011        12   # BR(chi^+_1 -> ~e^+_R nu_e)
     3.56570017E-04    2    -2000013        14   # BR(chi^+_1 -> ~mu^+_R nu_mu)
     1.01720846E-01    2    -1000015        16   # BR(chi^+_1 -> ~tau^+_1 nu_tau)
     8.96777455E-01    2     1000022        24   # BR(chi^+_1 -> chi^0_1 W^+)
#    BR                NDA      ID1      ID2       ID3
     1.24199815E-09    3     1000022        -1         2   # BR(chi^+_1 -> chi^0_1 d_bar u)
     1.29055645E-09    3     1000022        -3         4   # BR(chi^+_1 -> chi^0_1 s_bar c)
     1.12301591E-03    3     1000022        -5         6   # BR(chi^+_1 -> chi^0_1 b_bar t)
     6.61711274E-06    3     1000022       -11        12   # BR(chi^+_1 -> chi^0_1 e^+ nu_e)
     6.62442820E-06    3     1000022       -13        14   # BR(chi^+_1 -> chi^0_1 mu^+ nu_mu)
     8.86032912E-06    3     1000022       -15        16   # BR(chi^+_1 -> chi^0_1 tau^+ nu_tau)
DECAY   1000037     1.44741385E+01   # chi^+_2
#    BR                NDA      ID1      ID2
     1.85382203E-14    2    -2000011        12   # BR(chi^+_2 -> ~e^+_R nu_e)
     7.38010691E-02    2    -1000011        12   # BR(chi^+_2 -> ~e^+_L nu_e)
     7.92924664E-10    2    -2000013        14   # BR(chi^+_2 -> ~mu^+_R nu_mu)
     7.38019678E-02    2    -1000013        14   # BR(chi^+_2 -> ~mu^+_L nu_mu)
     2.54161481E-07    2    -1000015        16   # BR(chi^+_2 -> ~tau^+_1 nu_tau)
     7.40555857E-02    2    -2000015        16   # BR(chi^+_2 -> ~tau^+_2 nu_tau)
     7.39809345E-02    2     1000012       -11   # BR(chi^+_2 -> ~nu_e e^+)
     7.39820101E-02    2     1000014       -13   # BR(chi^+_2 -> ~nu_mu mu^+)
     7.42853923E-02    2     1000016       -15   # BR(chi^+_2 -> ~nu_tau tau^+)
     4.00033077E-06    2     1000022        24   # BR(chi^+_2 -> chi^0_1 W^+)
     1.41084655E-01    2     1000023        24   # BR(chi^+_2 -> chi^0_2 W^+)
     1.35470315E-01    2     1000025        24   # BR(chi^+_2 -> chi^0_3 W^+)
     1.43508037E-01    2     1000024        23   # BR(chi^+_2 -> chi^+_1 Z)
     1.35187325E-01    2     1000024        25   # BR(chi^+_2 -> chi^+_1 h^0)
#    BR                NDA      ID1      ID2       ID3
     2.44093409E-09    3     1000024         2        -2   # BR(chi^+_2 -> chi^+_1 u u_bar)
     2.44269028E-09    3     1000024         4        -4   # BR(chi^+_2 -> chi^+_1 c c_bar)
     8.21677234E-06    3     1000024         6        -6   # BR(chi^+_2 -> chi^+_1 t t_bar)
     3.93639819E-09    3     1000024         1        -1   # BR(chi^+_2 -> chi^+_1 d d_bar)
     3.97877771E-09    3     1000024         3        -3   # BR(chi^+_2 -> chi^+_1 s s_bar)
     1.00894582E-07    3     1000024         5        -5   # BR(chi^+_2 -> chi^+_1 b b_bar)
     5.29103240E-11    3     1000024        13       -13   # BR(chi^+_2 -> chi^+_1 mu^- mu^+)
     1.49664280E-08    3     1000024        15       -15   # BR(chi^+_2 -> chi^+_1 tau^- tau^+)
     5.40663585E-14    3     1000024        12       -12   # BR(chi^+_2 -> chi^+_1 nu_e nu_bar_e)
     6.66920822E-08    3     1000022        -1         2   # BR(chi^+_2 -> chi^0_1 d_bar u)
     6.66912926E-08    3     1000022        -3         4   # BR(chi^+_2 -> chi^0_1 s_bar c)
     8.06330058E-08    3     1000022        -5         6   # BR(chi^+_2 -> chi^0_1 b_bar t)
     1.76163807E-12    3     1000022       -13        14   # BR(chi^+_2 -> chi^0_1 mu^+ nu_mu)
     5.08747732E-10    3     1000022       -15        16   # BR(chi^+_2 -> chi^0_1 tau^+ nu_tau)
     1.62372526E-09    3     1000023        -1         2   # BR(chi^+_2 -> chi^0_2 d_bar u)
     1.64303090E-09    3     1000023        -3         4   # BR(chi^+_2 -> chi^0_2 s_bar c)
     4.41970405E-04    3     1000023        -5         6   # BR(chi^+_2 -> chi^0_2 b_bar t)
     2.72684900E-11    3     1000023       -13        14   # BR(chi^+_2 -> chi^0_2 mu^+ nu_mu)
     7.71362273E-09    3     1000023       -15        16   # BR(chi^+_2 -> chi^0_2 tau^+ nu_tau)
     6.36275212E-11    3     1000025        -1         2   # BR(chi^+_2 -> chi^0_3 d_bar u)
     7.97702264E-11    3     1000025        -3         4   # BR(chi^+_2 -> chi^0_3 s_bar c)
     3.87885767E-04    3     1000025        -5         6   # BR(chi^+_2 -> chi^0_3 b_bar t)
     2.37294124E-11    3     1000025       -13        14   # BR(chi^+_2 -> chi^0_3 mu^+ nu_mu)
     2.64566694E-08    3     1000025       -15        16   # BR(chi^+_2 -> chi^0_3 tau^+ nu_tau)
DECAY   1000022     2.77538112E+00   # chi^0_1
#    BR                NDA      ID1      ID2
     1.65151713E-01    2     2000011       -11   # BR(chi^0_1 -> ~e^-_R e^+)
     1.65151713E-01    2    -2000011        11   # BR(chi^0_1 -> ~e^+_R e^-)
     1.65167621E-01    2     2000013       -13   # BR(chi^0_1 -> ~mu^-_R mu^+)
     1.65167621E-01    2    -2000013        13   # BR(chi^0_1 -> ~mu^+_R mu^-)
     1.69680665E-01    2     1000015       -15   # BR(chi^0_1 -> ~tau^-_1 tau^+)
     1.69680665E-01    2    -1000015        15   # BR(chi^0_1 -> ~tau^+_1 tau^-)
     5.85843911E-10    2     1000039        22   # BR(chi^0_1 -> ~G photon)
     1.70695924E-10    2     1000039        23   # BR(chi^0_1 -> ~G Z)
     5.21288872E-12    2     1000039        25   # BR(chi^0_1 -> ~G h^0)
DECAY   1000023     7.28759200E-01   # chi^0_2
#    BR                NDA      ID1      ID2
     2.81595466E-02    2     2000011       -11   # BR(chi^0_2 -> ~e^-_R e^+)
     2.81595466E-02    2    -2000011        11   # BR(chi^0_2 -> ~e^+_R e^-)
     2.82921409E-02    2     2000013       -13   # BR(chi^0_2 -> ~mu^-_R mu^+)
     2.82921409E-02    2    -2000013        13   # BR(chi^0_2 -> ~mu^+_R mu^-)
     6.60110327E-02    2     1000015       -15   # BR(chi^0_2 -> ~tau^-_1 tau^+)
     6.60110327E-02    2    -1000015        15   # BR(chi^0_2 -> ~tau^+_1 tau^-)
     1.69653645E-02    2     1000022        23   # BR(chi^0_2 -> chi^0_1 Z)
     7.38084426E-01    2     1000022        25   # BR(chi^0_2 -> chi^0_1 h^0)
     5.99618329E-10    2     1000039        22   # BR(chi^0_2 -> ~G photon)
     1.44391831E-09    2     1000039        23   # BR(chi^0_2 -> ~G Z)
     9.98421789E-09    2     1000039        25   # BR(chi^0_2 -> ~G h^0)
     3.25200488E-07    2     1000022        22   # BR(chi^0_2 -> chi^0_1 photon)
#    BR                NDA      ID1      ID2       ID3
     3.27411832E-09    3     1000022         2        -2   # BR(chi^0_2 -> chi^0_1 u u_bar)
     3.27807960E-09    3     1000022         4        -4   # BR(chi^0_2 -> chi^0_1 c c_bar)
     5.88703601E-10    3     1000022         1        -1   # BR(chi^0_2 -> chi^0_1 d d_bar)
     6.36864240E-10    3     1000022         3        -3   # BR(chi^0_2 -> chi^0_1 s s_bar)
     1.07543388E-07    3     1000022         5        -5   # BR(chi^0_2 -> chi^0_1 b b_bar)
     6.58012336E-06    3     1000022        11       -11   # BR(chi^0_2 -> chi^0_1 e^- e^+)
     6.58446982E-06    3     1000022        13       -13   # BR(chi^0_2 -> chi^0_1 mu^- mu^+)
     7.88318225E-06    3     1000022        15       -15   # BR(chi^0_2 -> chi^0_1 tau^- tau^+)
     3.26780860E-06    3     1000022        12       -12   # BR(chi^0_2 -> chi^0_1 nu_e nu_bar_e)
     1.59924415E-10    3     1000024         1        -2   # BR(chi^0_2 -> chi^+_1 d u_bar)
     1.59924415E-10    3    -1000024        -1         2   # BR(chi^0_2 -> chi^-_1 d_bar u)
     7.01961065E-11    3     1000024         3        -4   # BR(chi^0_2 -> chi^+_1 s c_bar)
     7.01961065E-11    3    -1000024        -3         4   # BR(chi^0_2 -> chi^-_1 s_bar c)
     5.40953763E-11    3     1000024        11       -12   # BR(chi^0_2 -> chi^+_1 e^- nu_bar_e)
     5.40953763E-11    3    -1000024       -11        12   # BR(chi^0_2 -> chi^-_1 e^+ nu_e)
     5.37811727E-11    3     1000024        13       -14   # BR(chi^0_2 -> chi^+_1 mu^- nu_bar_mu)
     5.37811727E-11    3    -1000024       -13        14   # BR(chi^0_2 -> chi^-_1 mu^+ nu_mu)
     1.00859304E-11    3     1000024        15       -16   # BR(chi^0_2 -> chi^+_1 tau^- nu_bar_tau)
     1.00859304E-11    3    -1000024       -15        16   # BR(chi^0_2 -> chi^-_1 tau^+ nu_tau)
DECAY   1000025     5.91250981E-01   # chi^0_3
#    BR                NDA      ID1      ID2
     6.75842778E-04    2     2000011       -11   # BR(chi^0_3 -> ~e^-_R e^+)
     6.75842778E-04    2    -2000011        11   # BR(chi^0_3 -> ~e^+_R e^-)
     8.42045740E-04    2     2000013       -13   # BR(chi^0_3 -> ~mu^-_R mu^+)
     8.42045740E-04    2    -2000013        13   # BR(chi^0_3 -> ~mu^+_R mu^-)
     4.80988031E-02    2     1000015       -15   # BR(chi^0_3 -> ~tau^-_1 tau^+)
     4.80988031E-02    2    -1000015        15   # BR(chi^0_3 -> ~tau^+_1 tau^-)
     9.51886255E-10    2     1000016       -16   # BR(chi^0_3 -> ~nu_tau nu_bar_tau)
     9.51886255E-10    2    -1000016        16   # BR(chi^0_3 -> ~nu^*_tau nu_tau)
     8.84496941E-01    2     1000022        23   # BR(chi^0_3 -> chi^0_1 Z)
     1.62656312E-02    2     1000022        25   # BR(chi^0_3 -> chi^0_1 h^0)
     2.83036554E-13    2     1000039        22   # BR(chi^0_3 -> ~G photon)
     1.87030090E-09    2     1000039        23   # BR(chi^0_3 -> ~G Z)
     8.76252952E-09    2     1000039        25   # BR(chi^0_3 -> ~G h^0)
     7.70521434E-07    2     1000022        22   # BR(chi^0_3 -> chi^0_1 photon)
     2.94272643E-10    2     1000023        22   # BR(chi^0_3 -> chi^0_2 photon)
#    BR                NDA      ID1      ID2       ID3
     2.72657710E-11    3     1000022         2        -2   # BR(chi^0_3 -> chi^0_1 u u_bar)
     3.78866349E-11    3     1000022         4        -4   # BR(chi^0_3 -> chi^0_1 c c_bar)
     7.12463863E-12    3     1000022         1        -1   # BR(chi^0_3 -> chi^0_1 d d_bar)
     7.29761757E-11    3     1000022         3        -3   # BR(chi^0_3 -> chi^0_1 s s_bar)
     1.46323501E-07    3     1000022         5        -5   # BR(chi^0_3 -> chi^0_1 b b_bar)
     2.71479164E-08    3     1000022        11       -11   # BR(chi^0_3 -> chi^0_1 e^- e^+)
     3.49135298E-08    3     1000022        13       -13   # BR(chi^0_3 -> chi^0_1 mu^- mu^+)
     2.27681963E-06    3     1000022        15       -15   # BR(chi^0_3 -> chi^0_1 tau^- tau^+)
     2.03395792E-07    3     1000022        12       -12   # BR(chi^0_3 -> chi^0_1 nu_e nu_bar_e)
     4.96355511E-09    3     1000023         2        -2   # BR(chi^0_3 -> chi^0_2 u u_bar)
     4.11799158E-09    3     1000023         4        -4   # BR(chi^0_3 -> chi^0_2 c c_bar)
     6.44655698E-09    3     1000023         1        -1   # BR(chi^0_3 -> chi^0_2 d d_bar)
     6.43674912E-09    3     1000023         3        -3   # BR(chi^0_3 -> chi^0_2 s s_bar)
     1.47978091E-09    3     1000023        11       -11   # BR(chi^0_3 -> chi^0_2 e^- e^+)
     1.47830205E-09    3     1000023        13       -13   # BR(chi^0_3 -> chi^0_2 mu^- mu^+)
     1.02327613E-09    3     1000023        15       -15   # BR(chi^0_3 -> chi^0_2 tau^- tau^+)
     8.93056403E-09    3     1000023        12       -12   # BR(chi^0_3 -> chi^0_2 nu_e nu_bar_e)
     9.29081405E-08    3     1000024         1        -2   # BR(chi^0_3 -> chi^+_1 d u_bar)
     9.29081405E-08    3    -1000024        -1         2   # BR(chi^0_3 -> chi^-_1 d_bar u)
     8.67578650E-08    3     1000024         3        -4   # BR(chi^0_3 -> chi^+_1 s c_bar)
     8.67578650E-08    3    -1000024        -3         4   # BR(chi^0_3 -> chi^-_1 s_bar c)
     3.10681356E-08    3     1000024        11       -12   # BR(chi^0_3 -> chi^+_1 e^- nu_bar_e)
     3.10681356E-08    3    -1000024       -11        12   # BR(chi^0_3 -> chi^-_1 e^+ nu_e)
     3.10527204E-08    3     1000024        13       -14   # BR(chi^0_3 -> chi^+_1 mu^- nu_bar_mu)
     3.10527204E-08    3    -1000024       -13        14   # BR(chi^0_3 -> chi^-_1 mu^+ nu_mu)
     2.69981619E-08    3     1000024        15       -16   # BR(chi^0_3 -> chi^+_1 tau^- nu_bar_tau)
     2.69981619E-08    3    -1000024       -15        16   # BR(chi^0_3 -> chi^-_1 tau^+ nu_tau)
DECAY   1000035     1.44984413E+01   # chi^0_4
#    BR                NDA      ID1      ID2
     1.86691644E-05    2     2000011       -11   # BR(chi^0_4 -> ~e^-_R e^+)
     1.86691644E-05    2    -2000011        11   # BR(chi^0_4 -> ~e^+_R e^-)
     3.61172072E-02    2     1000011       -11   # BR(chi^0_4 -> ~e^-_L e^+)
     3.61172072E-02    2    -1000011        11   # BR(chi^0_4 -> ~e^+_L e^-)
     1.86639236E-05    2     2000013       -13   # BR(chi^0_4 -> ~mu^-_R mu^+)
     1.86639236E-05    2    -2000013        13   # BR(chi^0_4 -> ~mu^+_R mu^-)
     3.61176848E-02    2     1000013       -13   # BR(chi^0_4 -> ~mu^-_L mu^+)
     3.61176848E-02    2    -1000013        13   # BR(chi^0_4 -> ~mu^+_L mu^-)
     1.72413272E-05    2     1000015       -15   # BR(chi^0_4 -> ~tau^-_1 tau^+)
     1.72413272E-05    2    -1000015        15   # BR(chi^0_4 -> ~tau^+_1 tau^-)
     3.62524927E-02    2     2000015       -15   # BR(chi^0_4 -> ~tau^-_2 tau^+)
     3.62524927E-02    2    -2000015        15   # BR(chi^0_4 -> ~tau^+_2 tau^-)
     3.76017043E-02    2     1000012       -12   # BR(chi^0_4 -> ~nu_e nu_bar_e)
     3.76017043E-02    2    -1000012        12   # BR(chi^0_4 -> ~nu^*_e nu_e)
     3.76022145E-02    2     1000014       -14   # BR(chi^0_4 -> ~nu_mu nu_bar_mu)
     3.76022145E-02    2    -1000014        14   # BR(chi^0_4 -> ~nu^*_mu nu_mu)
     3.77460697E-02    2     1000016       -16   # BR(chi^0_4 -> ~nu_tau nu_bar_tau)
     3.77460697E-02    2    -1000016        16   # BR(chi^0_4 -> ~nu^*_tau nu_tau)
     1.42373437E-01    2     1000024       -24   # BR(chi^0_4 -> chi^+_1 W^-)
     1.42373437E-01    2    -1000024        24   # BR(chi^0_4 -> chi^-_1 W^+)
     2.79439018E-06    2     1000022        23   # BR(chi^0_4 -> chi^0_1 Z)
     2.33261462E-03    2     1000023        23   # BR(chi^0_4 -> chi^0_2 Z)
     1.33388608E-01    2     1000025        23   # BR(chi^0_4 -> chi^0_3 Z)
     5.01921112E-06    2     1000022        25   # BR(chi^0_4 -> chi^0_1 h^0)
     1.33840634E-01    2     1000023        25   # BR(chi^0_4 -> chi^0_2 h^0)
     1.80698126E-03    2     1000025        25   # BR(chi^0_4 -> chi^0_3 h^0)
     9.33453571E-10    2     1000039        22   # BR(chi^0_4 -> ~G photon)
     3.49625156E-09    2     1000039        23   # BR(chi^0_4 -> ~G Z)
     8.48437989E-11    2     1000039        25   # BR(chi^0_4 -> ~G h^0)
     1.20291998E-07    2     1000022        22   # BR(chi^0_4 -> chi^0_1 photon)
     5.04808858E-07    2     1000023        22   # BR(chi^0_4 -> chi^0_2 photon)
     7.63914221E-07    2     1000025        22   # BR(chi^0_4 -> chi^0_3 photon)
#    BR                NDA      ID1      ID2       ID3
     2.98146500E-08    3     1000022         2        -2   # BR(chi^0_4 -> chi^0_1 u u_bar)
     2.98131442E-08    3     1000022         4        -4   # BR(chi^0_4 -> chi^0_1 c c_bar)
     2.56710169E-08    3     1000022         6        -6   # BR(chi^0_4 -> chi^0_1 t t_bar)
     3.68207584E-08    3     1000022         1        -1   # BR(chi^0_4 -> chi^0_1 d d_bar)
     3.68217155E-08    3     1000022         3        -3   # BR(chi^0_4 -> chi^0_1 s s_bar)
     4.47107748E-08    3     1000022         5        -5   # BR(chi^0_4 -> chi^0_1 b b_bar)
     8.61591147E-09    3     1000022        11       -11   # BR(chi^0_4 -> chi^0_1 e^- e^+)
     8.61455864E-09    3     1000022        13       -13   # BR(chi^0_4 -> chi^0_1 mu^- mu^+)
     8.26137340E-09    3     1000022        15       -15   # BR(chi^0_4 -> chi^0_1 tau^- tau^+)
     2.86397998E-09    3     1000023         2        -2   # BR(chi^0_4 -> chi^0_2 u u_bar)
     2.86332547E-09    3     1000023         4        -4   # BR(chi^0_4 -> chi^0_2 c c_bar)
     2.74705037E-07    3     1000023         6        -6   # BR(chi^0_4 -> chi^0_2 t t_bar)
     1.69532913E-09    3     1000023         1        -1   # BR(chi^0_4 -> chi^0_2 d d_bar)
     1.71500598E-09    3     1000023         3        -3   # BR(chi^0_4 -> chi^0_2 s s_bar)
     4.63335470E-08    3     1000023         5        -5   # BR(chi^0_4 -> chi^0_2 b b_bar)
     4.14600090E-12    3     1000023        11       -11   # BR(chi^0_4 -> chi^0_2 e^- e^+)
     2.79502423E-11    3     1000023        13       -13   # BR(chi^0_4 -> chi^0_2 mu^- mu^+)
     6.74439159E-09    3     1000023        15       -15   # BR(chi^0_4 -> chi^0_2 tau^- tau^+)
     7.82573190E-12    3     1000025         2        -2   # BR(chi^0_4 -> chi^0_3 u u_bar)
     8.90422358E-12    3     1000025         4        -4   # BR(chi^0_4 -> chi^0_3 c c_bar)
     1.14900190E-06    3     1000025         6        -6   # BR(chi^0_4 -> chi^0_3 t t_bar)
     1.42873899E-11    3     1000025         1        -1   # BR(chi^0_4 -> chi^0_3 d d_bar)
     3.37743521E-11    3     1000025         3        -3   # BR(chi^0_4 -> chi^0_3 s s_bar)
     4.39944081E-08    3     1000025         5        -5   # BR(chi^0_4 -> chi^0_3 b b_bar)
     2.49421861E-14    3     1000025        11       -11   # BR(chi^0_4 -> chi^0_3 e^- e^+)
     2.37319967E-11    3     1000025        13       -13   # BR(chi^0_4 -> chi^0_3 mu^- mu^+)
     6.71465323E-09    3     1000025        15       -15   # BR(chi^0_4 -> chi^0_3 tau^- tau^+)
     1.47609178E-08    3     1000025        12       -12   # BR(chi^0_4 -> chi^0_3 nu_e nu_bar_e)
     1.67327558E-09    3     1000024         1        -2   # BR(chi^0_4 -> chi^+_1 d u_bar)
     1.67327558E-09    3    -1000024        -1         2   # BR(chi^0_4 -> chi^-_1 d_bar u)
     1.69646869E-09    3     1000024         3        -4   # BR(chi^0_4 -> chi^+_1 s c_bar)
     1.69646869E-09    3    -1000024        -3         4   # BR(chi^0_4 -> chi^-_1 s_bar c)
     4.44691640E-04    3     1000024         5        -6   # BR(chi^0_4 -> chi^+_1 b t_bar)
     4.44691640E-04    3    -1000024        -5         6   # BR(chi^0_4 -> chi^-_1 b_bar t)
     2.80633913E-11    3     1000024        13       -14   # BR(chi^0_4 -> chi^+_1 mu^- nu_bar_mu)
     2.80633913E-11    3    -1000024       -13        14   # BR(chi^0_4 -> chi^-_1 mu^+ nu_mu)
     7.92993152E-09    3     1000024        15       -16   # BR(chi^0_4 -> chi^+_1 tau^- nu_bar_tau)
     7.92993152E-09    3    -1000024       -15        16   # BR(chi^0_4 -> chi^-_1 tau^+ nu_tau)
DECAY   1000021     2.68453343E+01   # ~g
#    BR                NDA      ID1      ID2
     4.70120566E-02    2     2000002        -2   # BR(~g -> ~u_R u_bar)
     4.70120566E-02    2    -2000002         2   # BR(~g -> ~u^*_R u)
     1.77456000E-02    2     1000002        -2   # BR(~g -> ~u_L u_bar)
     1.77456000E-02    2    -1000002         2   # BR(~g -> ~u^*_L u)
     4.70124833E-02    2     2000004        -4   # BR(~g -> ~c_R c_bar)
     4.70124833E-02    2    -2000004         4   # BR(~g -> ~c^*_R c)
     1.77459604E-02    2     1000004        -4   # BR(~g -> ~c_L c_bar)
     1.77459604E-02    2    -1000004         4   # BR(~g -> ~c^*_L c)
     1.95797861E-06    2     1000006        -4   # BR(~g -> ~t_1 c_bar)
     1.95797861E-06    2    -1000006         4   # BR(~g -> ~t^*_1 c)
     1.07375623E-01    2     1000006        -6   # BR(~g -> ~t_1 t_bar)
     1.07375623E-01    2    -1000006         6   # BR(~g -> ~t^*_1 t)
     3.63169913E-02    2     2000006        -6   # BR(~g -> ~t_2 t_bar)
     3.63169913E-02    2    -2000006         6   # BR(~g -> ~t^*_2 t)
     5.01507498E-02    2     2000001        -1   # BR(~g -> ~d_R d_bar)
     5.01507498E-02    2    -2000001         1   # BR(~g -> ~d^*_R d)
     1.75857772E-02    2     1000001        -1   # BR(~g -> ~d_L d_bar)
     1.75857772E-02    2    -1000001         1   # BR(~g -> ~d^*_L d)
     5.01513856E-02    2     2000003        -3   # BR(~g -> ~s_R s_bar)
     5.01513856E-02    2    -2000003         3   # BR(~g -> ~s^*_R s)
     1.75862790E-02    2     1000003        -3   # BR(~g -> ~s_L s_bar)
     1.75862790E-02    2    -1000003         3   # BR(~g -> ~s^*_L s)
     5.15564662E-02    2     1000005        -5   # BR(~g -> ~b_1 b_bar)
     5.15564662E-02    2    -1000005         5   # BR(~g -> ~b^*_1 b)
     3.96786272E-02    2     2000005        -5   # BR(~g -> ~b_2 b_bar)
     3.96786272E-02    2    -2000005         5   # BR(~g -> ~b^*_2 b)
     2.27560209E-06    2     1000022        21   # BR(~g -> chi^0_1 g)
     7.49717795E-05    2     1000023        21   # BR(~g -> chi^0_2 g)
     7.90437106E-05    2     1000025        21   # BR(~g -> chi^0_3 g)
     3.79330279E-06    2     1000035        21   # BR(~g -> chi^0_4 g)
DECAY        25     2.83738996E-03   # h^0
#    BR                NDA      ID1      ID2
     8.16822828E-09    2          11       -11   # BR(h^0 -> e^- e^+)
     3.49211981E-04    2          13       -13   # BR(h^0 -> mu^- mu^+)
     9.85505227E-02    2          15       -15   # BR(h^0 -> tau^- tau^+)
     6.84297296E-07    2           1        -1   # BR(h^0 -> d d_bar)
     3.01774490E-04    2           3        -3   # BR(h^0 -> s s_bar)
     6.43483752E-01    2           5        -5   # BR(h^0 -> b b_bar)
     2.33362158E-07    2           2        -2   # BR(h^0 -> u u_bar)
     4.18124211E-02    2           4        -4   # BR(h^0 -> c c_bar)
     6.13519834E-02    2          21        21   # BR(h^0 -> g g)
     3.10769640E-03    2          22        22   # BR(h^0 -> photon photon)
# writing decays into V V* as 3-body decays
#    BR                NDA      ID1      ID2       ID3
     6.90032845E-03    3          24        11        12   # BR(h^0 -> W^+ e^- nu_e)
     6.90032845E-03    3          24        13        14   # BR(h^0 -> W^+ mu^- nu_mu)
     6.90032845E-03    3          24        15        16   # BR(h^0 -> W^+ tau^- nu_tau)
     2.41511496E-02    3          24         1        -2   # BR(h^0 -> W^+ d u_bar)
     2.41511496E-02    3          24         3        -4   # BR(h^0 -> W^+ s c_bar)
     6.90032845E-03    3         -24       -11       -12   # BR(h^0 -> W^- e^+ nu_bar_e)
     6.90032845E-03    3         -24       -13       -14   # BR(h^0 -> W^- mu^+ nu_bar_mu)
     6.90032845E-03    3         -24       -15       -16   # BR(h^0 -> W^- tau^+ nu_bar_tau)
     2.41511496E-02    3         -24        -1         2   # BR(h^0 -> W^- d_bar u)
     2.41511496E-02    3         -24        -3         4   # BR(h^0 -> W^- s_bar c)
     4.56229994E-04    3          23        11       -11   # BR(h^0 -> Z e^- e^+)
     4.56229994E-04    3          23        13       -13   # BR(h^0 -> Z mu^- mu^+)
     3.91054280E-04    3          23        15       -15   # BR(h^0 -> Z tau^- tau^+)
     2.60702853E-03    3          23        12       -12   # BR(h^0 -> Z nu_e nu_bar_e)
     1.82491997E-03    3          23         1        -1   # BR(h^0 -> Z u u_bar)
     1.82491997E-03    3          23         3        -3   # BR(h^0 -> Z c c_bar)
     1.82491997E-03    3          23         5        -5   # BR(h^0 -> Z t t_bar)
     1.82491997E-03    3          23         2        -2   # BR(h^0 -> Z u u_bar)
     1.82491997E-03    3          23         4        -4   # BR(h^0 -> Z c c_bar)
DECAY        35     2.56444975E+00   # H^0
#    BR                NDA      ID1      ID2
     8.87118855E-09    2          11       -11   # BR(H^0 -> e^- e^+)
     3.79268693E-04    2          13       -13   # BR(H^0 -> mu^- mu^+)
     1.07305104E-01    2          15       -15   # BR(H^0 -> tau^- tau^+)
     6.08238097E-07    2           1        -1   # BR(H^0 -> d d_bar)
     2.68232791E-04    2           3        -3   # BR(H^0 -> s s_bar)
     5.92322815E-01    2           5        -5   # BR(H^0 -> b b_bar)
     2.88767705E-11    2           2        -2   # BR(H^0 -> u u_bar)
     5.17504275E-06    2           4        -4   # BR(H^0 -> c c_bar)
     2.77410900E-01    2           6        -6   # BR(H^0 -> t t_bar)
     4.65776414E-05    2     2000011  -2000011   # BR(H^0 -> ~e^-_R ~e^+_R)
     4.65558010E-05    2     2000013  -2000013   # BR(H^0 -> ~mu^-_R ~mu^+_R)
     4.05725140E-05    2     1000015  -1000015   # BR(H^0 -> ~tau^-_1 ~tau^+_1)
     2.33999093E-06    2     1000022   1000022   # BR(H^0 -> chi^0_1 chi^0_1)
     7.21025307E-03    2          23        23   # BR(H^0 -> Z Z)
     1.36423505E-02    2          24       -24   # BR(H^0 -> W^+ W^-)
     1.18842343E-03    2          25        25   # BR(H^0 -> h^0 h^0)
     1.29403620E-04    2          21        21   # BR(H^0 -> g g)
     1.41016089E-06    2          22        22   # BR(H^0 -> photon photon)
DECAY        36     2.49166914E+00   # A^0
#    BR                NDA      ID1      ID2
     9.14079390E-09    2          11       -11   # BR(A^0 -> e^- e^+)
     3.90795101E-04    2          13       -13   # BR(A^0 -> mu^- mu^+)
     1.10566920E-01    2          15       -15   # BR(A^0 -> tau^- tau^+)
     6.26722141E-07    2           1        -1   # BR(A^0 -> d d_bar)
     2.76384285E-04    2           3        -3   # BR(A^0 -> s s_bar)
     6.10324773E-01    2           5        -5   # BR(A^0 -> b b_bar)
     2.63247239E-11    2           2        -2   # BR(A^0 -> u u_bar)
     4.71768457E-06    2           4        -4   # BR(A^0 -> c c_bar)
     2.63507998E-01    2           6        -6   # BR(A^0 -> t t_bar)
     8.97107264E-04    2     1000022   1000022   # BR(A^0 -> chi^0_1 chi^0_1)
     1.39519077E-02    2          25        23   # BR(A^0 -> h^0 Z)
     7.81787540E-05    2          21        21   # BR(A^0 -> g g)
     5.82218578E-07    2          22        22   # BR(A^0 -> photon photon)
DECAY        37     2.17960322E+00   # H^+
#    BR                NDA      ID1      ID2
     1.04648226E-08    2         -11        12   # BR(H^+ -> e^+ nu_e)
     4.47401119E-04    2         -13        12   # BR(H^+ -> mu^+ nu_e)
     1.26582354E-01    2         -15        12   # BR(H^+ -> tau^+ nu_e)
     6.31519628E-07    2          -1         2   # BR(H^+ -> d_bar u)
     2.83241420E-04    2          -3         4   # BR(H^+ -> s_bar c)
     8.57102402E-01    2          -5         6   # BR(H^+ -> b_bar t)
     1.55839587E-02    2          25        24   # BR(H^+ -> h^0 W^+)
DECAY         6     2.43000000E+00   # top
#    BR                NDA      ID1      ID2
     1.00000000E+00    2           5        24   # BR(t -> b W)
Block HiggsBoundsInputHiggsCouplingsFermions
# ScalarNormEffCoupSq PseudoSNormEffCoupSq NP IP1 IP2 IP2
    1.12882473E+00    0.00000000E+00        3  25   5   5  # h0-b-b eff. coupling^2, normalised to SM
    9.98711753E+01    0.00000000E+00        3  35   5   5  # H0-b-b eff. coupling^2, normalised to SM
    0.00000000E+00    1.00000000E+02        3  36   5   5  # A0-b-b eff. coupling^2, normalised to SM
#
    9.98711753E-01    0.00000000E+00        3  25   6   6  # h0-t-t eff. coupling^2, normalised to SM
    1.12882473E-02    0.00000000E+00        3  35   6   6  # H0-t-t eff. coupling^2, normalised to SM
    0.00000000E+00    1.00000000E-02        3  36   6   6  # A0-t-t eff. coupling^2, normalised to SM
#
    1.12882473E+00    0.00000000E+00        3  25  15  15  # h0-tau-tau eff. coupling^2, normalised to SM
    9.98711753E+01    0.00000000E+00        3  35  15  15  # H0-tau-tau eff. coupling^2, normalised to SM
    0.00000000E+00    1.00000000E+02        3  36  15  15  # A0-tau-tau eff. coupling^2, normalised to SM
#
Block HiggsBoundsInputHiggsCouplingsBosons
    9.99960961E-01        3  25  24  24  # h0-W-W eff. coupling^2, normalised to SM
    3.90389475E-05        3  35  24  24  # H0-W-W eff. coupling^2, normalised to SM
    0.00000000E+00        3  36  24  24  # A0-W-W eff. coupling^2, normalised to SM
#
    9.99960961E-01        3  25  23  23  # h0-Z-Z eff. coupling^2, normalised to SM
    3.90389475E-05        3  35  23  23  # H0-Z-Z eff. coupling^2, normalised to SM
    0.00000000E+00        3  36  23  23  # A0-Z-Z eff. coupling^2, normalised to SM
#
    1.15405128E+00        3  25  21  21  # h0-g-g eff. coupling^2, normalised to SM
    7.95328757E-03        3  35  21  21  # H0-g-g eff. coupling^2, normalised to SM
    1.24466680E-01        3  36  21  21  # A0-g-g eff. coupling^2, normalised to SM
#
    0.00000000E+00        3  25  25  23  # h0-h0-Z eff. coupling^2, normalised to SM
    0.00000000E+00        3  35  25  23  # H0-h0-Z eff. coupling^2, normalised to SM
    3.90389475E-05        3  36  25  23  # A0-h0-Z eff. coupling^2, normalised to SM
    0.00000000E+00        3  35  35  23  # H0-H0-Z eff. coupling^2, normalised to SM
    9.99960961E-01        3  36  35  23  # A0-H0-Z eff. coupling^2, normalised to SM
    0.00000000E+00        3  36  36  23  # A0-A0-Z eff. coupling^2, normalised to SM
#
    0.00000000E+00        4  25  21  21  23  # h0-g-g-Z eff. coupling^2, normalised to SM
    0.00000000E+00        4  35  21  21  23  # H0-g-g-Z eff. coupling^2, normalised to SM
    0.00000000E+00        4  36  21  21  23  # A0-g-g-Z eff. coupling^2, normalised to SM
Block SPhenoLowEnergy  # low energy observables
    1    3.10981176E-04   # BR(b -> s gamma)
    2    1.59236737E-06   # BR(b -> s mu+ mu-)
    3    3.54120233E-05   # BR(b -> s nu nu)
    4    5.18156624E-11   # BR(Bd -> mu+ mu-)
    5    3.38489090E-09   # BR(Bs -> mu+ mu-)
    6    1.10388084E-04   # BR(B_u -> tau nu)
    7    9.98144190E-01   # BR(B_u -> tau nu)/BR(B_u -> tau nu)_SM
    8    2.73853338E-01   # |Delta(M_Bd)| [ps^-1] 
    9    2.03249031E+01   # |Delta(M_Bs)| [ps^-1] 
   20    3.84261031E-15   # Delta(g-2)_electron/2
   21    8.22234379E-11   # Delta(g-2)_muon/2
   22    4.55844351E-09   # Delta(g-2)_tau/2
   23    0.00000000E+00   # electric dipole moment of the electron
   24    0.00000000E+00   # electric dipole moment of the muon
   25    0.00000000E+00   # electric dipole moment of the tau
   26    0.00000000E+00   # Br(mu -> e gamma)
   27    0.00000000E+00   # Br(tau -> e gamma)
   28    0.00000000E+00   # Br(tau -> mu gamma)
   29    0.00000000E+00   # Br(mu -> 3 e)
   30    0.00000000E+00   # Br(tau -> 3 e)
   31    0.00000000E+00   # Br(tau -> 3 mu)
   39    6.32580813E-04   # Delta(rho_parameter)
   40    0.00000000E+00   # BR(Z -> e mu)
   41    0.00000000E+00   # BR(Z -> e tau)
   42    0.00000000E+00   # BR(Z -> mu tau)
Block FWCOEF Q=  9.11876000E+01  # Wilson coefficients at scale Q
#    id        order  M        value         comment
Block FWCOEF Q=  1.60000000E+02  # Wilson coefficients at scale Q
#    id        order  M        value         comment
     0305 4422   00   0    -1.87754745E-01   # C7
     0305 4422   00   1    -1.26648350E-02   # C7
     0305 4322   00   1    -2.76744458E-04   # C7'
     0305 6421   00   0    -9.48885311E-02   # C8
     0305 6421   00   1    -1.67743090E-02   # C8
     0305 6321   00   1    -3.63693918E-04   # C8'
 03051111 4133   00   0    -1.44720809E+00   # C9 e+e-
 03051111 4133   00   1     4.85795459E-04   # C9 e+e-
 03051111 4233   00   1    -2.12987779E-06   # C9' e+e-
 03051111 4137   00   0    -3.93847605E+00   # C10 e+e-
 03051111 4137   00   1     7.87629379E-04   # C10 e+e-
 03051111 4237   00   1     5.77150573E-05   # C10' e+e-
 03051313 4133   00   0    -1.44720809E+00   # C9 mu+mu-
 03051313 4133   00   1     4.85789069E-04   # C9 mu+mu-
 03051313 4233   00   1    -2.12989415E-06   # C9' mu+mu-
 03051313 4137   00   0    -3.93847605E+00   # C10 mu+mu-
 03051313 4137   00   1     7.87622977E-04   # C10 mu+mu-
 03051313 4237   00   1     5.77150736E-05   # C10' mu+mu-
 03051212 4237   00   0     1.49010860E+00   # C11 nu_1 nu_1
 03051212 4237   00   1    -1.90901598E-04   # C11 nu_1 nu_1
 03051212 4137   00   1    -1.39028321E-05   # C11' nu_1 nu_1
 03051414 4237   00   0     1.49010860E+00   # C11 nu_2 nu_2
 03051414 4237   00   1    -1.90901595E-04   # C11 nu_2 nu_2
 03051414 4137   00   1    -1.39028282E-05   # C11' nu_2 nu_2
 03051616 4237   00   0     1.49010860E+00   # C11 nu_3 nu_3
 03051616 4237   00   1    -1.90900769E-04   # C11 nu_3 nu_3
 03051616 4137   00   1    -1.39017443E-05   # C11' nu_3 nu_3
