# SUSY Les Houches Accord 2 - MSSM spectrum + Decays
# SPheno v3.1.12 
# W. Porod, Comput. Phys. Commun. 153 (2003) 275-315, hep-ph/0301101
# in case of problems send email to porod@physik.uni-wuerzburg.de
# Created: 09.12.2016,  15:23
Block SPINFO         # Program information
     1   SPheno      # spectrum calculator
     2   v3.1.12     # version number
#
Block SPhenoINFO     # SPheno specific information
    1      2         # using 2-loop RGEs
    2      1         # using running masses for boundary conditions at mZ
Block MODSEL  # Model selection
    1    2    # mGMSB model
Block MINPAR  # Input parameters
    1    1.40000000E+05  # Lambda, scale of SUSY breaking
    2    2.50000000E+05  # M_M, messenger mass scale
    3    1.00000000E+01  # tanb at m_Z   
    4    1.00000000E+00  # Sign(mu)
    5    3.00000000E+00  # N_5 number of effective five-plets
    6    1.00000000E+00  # c_grav, Gravitino mass factor
Block gauge Q=  2.50000000E+05  # (GMSB scale)
   1    4.93031255E-01  # g'(Q)^DRbar
   2    6.46810193E-01  # g(Q)^DRbar
   3    9.33475456E-01  # g3(Q)^DRbar
Block SMINPUTS  # SM parameters
         1     1.27932463E+02  # alpha_em^-1(MZ)^MSbar
         2     1.16639000E-05  # G_mu [GeV^-2]
         3     1.17200000E-01  # alpha_s(MZ)^MSbar
         4     9.11876000E+01  # m_Z(pole)
         5     4.20000000E+00  # m_b(m_b), MSbar
         6     1.72500000E+02  # m_t(pole)
         7     1.77700000E+00  # m_tau(pole)
         8     0.00000000E+00  # m_nu_3
        11     5.10998910E-04  # m_e(pole)
        12     0.00000000E+00  # m_nu_1
        13     1.05658000E-01  # m_muon(pole)
        14     0.00000000E+00  # m_nu_2
        21     5.00000000E-03  # m_d(2 GeV), MSbar
        22     3.00000000E-03  # m_u(2 GeV), MSbar
        23     1.05000000E-01  # m_s(2 GeV), MSbar
        24     1.27000000E+00  # m_c(m_c), MSbar
Block gauge Q=  2.64325723E+03  # (SUSY scale)
   1    3.65130835E-01  # g'(Q)^DRbar
   2    6.37760717E-01  # g(Q)^DRbar
   3    1.01008590E+00  # g3(Q)^DRbar
Block Yu Q=  2.64325723E+03  # (SUSY scale)
  1  1     8.33668661E-06   # Y_u(Q)^DRbar
  2  2     3.52919774E-03   # Y_c(Q)^DRbar
  3  3     8.38295781E-01   # Y_t(Q)^DRbar
Block Yd Q=  2.64325723E+03  # (SUSY scale)
  1  1     1.28749242E-04   # Y_d(Q)^DRbar
  2  2     2.70373332E-03   # Y_s(Q)^DRbar
  3  3     1.27154268E-01   # Y_b(Q)^DRbar
Block Ye Q=  2.64325723E+03  # (SUSY scale)
  1  1     2.85715177E-05   # Y_e(Q)^DRbar
  2  2     5.90766573E-03   # Y_mu(Q)^DRbar
  3  3     9.93701127E-02   # Y_tau(Q)^DRbar
Block Au Q=  2.64325723E+03  # (SUSY scale)
  1  1    -8.01883039E+02   # A_u(Q)^DRbar
  2  2    -8.01882120E+02   # A_c(Q)^DRbar
  3  3    -7.58726351E+02   # A_t(Q)^DRbar
Block Ad Q=  2.64325723E+03  # (SUSY scale)
  1  1    -8.51188175E+02   # A_d(Q)^DRbar
  2  2    -8.51187460E+02   # A_s(Q)^DRbar
  3  3    -8.36236514E+02   # A_b(Q)^DRbar
Block Ae Q=  2.64325723E+03  # (SUSY scale)
  1  1    -9.55321484E+01   # A_e(Q)^DRbar
  2  2    -9.55318280E+01   # A_mu(Q)^DRbar
  3  3    -9.54415104E+01   # A_tau(Q)^DRbar
Block MSOFT Q=  2.64325723E+03  # soft SUSY breaking masses at Q
   1    6.22792037E+02  # M_1
   2    1.13642725E+03  # M_2
   3    2.86258318E+03  # M_3
  21    7.22997019E+05  # M^2_(H,d)
  22   -6.52677927E+05  # M^2_(H,u)
  31    8.69903689E+02  # M_(L,11)
  32    8.69901936E+02  # M_(L,22)
  33    8.69407695E+02  # M_(L,33)
  34    4.22801047E+02  # M_(E,11)
  35    4.22793708E+02  # M_(E,22)
  36    4.20719612E+02  # M_(E,33)
  41    2.74203007E+03  # M_(Q,11)
  42    2.74202781E+03  # M_(Q,22)
  43    2.66085481E+03  # M_(Q,33)
  44    2.62799801E+03  # M_(U,11)
  45    2.62799504E+03  # M_(U,22)
  46    2.45657502E+03  # M_(U,33)
  47    2.61682208E+03  # M_(D,11)
  48    2.61682029E+03  # M_(D,22)
  49    2.61288092E+03  # M_(D,33)
Block MASS  # Mass spectrum
#   PDG code      mass          particle
         6     1.72500000E+02  # m_t(pole)
        23     9.11876000E+01  # m_Z(pole)
        24     8.03147256E+01  # W+
        15     1.77700000E+00  # m_tau(pole)
        25     1.19415632E+02  # h0
        35     1.26511828E+03  # H0
        36     1.26488802E+03  # A0
        37     1.26748840E+03  # H+
   1000001     2.85514976E+03  # ~d_L
   2000001     2.72319148E+03  # ~d_R
   1000002     2.85404942E+03  # ~u_L
   2000002     2.73358318E+03  # ~u_R
   1000003     2.85514705E+03  # ~s_L
   2000003     2.72318922E+03  # ~s_R
   1000004     2.85404687E+03  # ~c_L
   2000004     2.73357957E+03  # ~c_R
   1000005     2.71787332E+03  # ~b_1
   2000005     2.75687770E+03  # ~b_2
   1000006     2.52897058E+03  # ~t_1
   2000006     2.76270433E+03  # ~t_2
   1000011     8.89523465E+02  # ~e_L-
   2000011     4.40103841E+02  # ~e_R-
   1000012     8.85617741E+02  # ~nu_eL
   1000013     8.89521830E+02  # ~mu_L-
   2000013     4.40092857E+02  # ~mu_R-
   1000014     8.85615237E+02  # ~nu_muL
   1000015     4.36988099E+02  # ~tau_1-
   2000015     8.89060591E+02  # ~tau_2-
   1000016     8.84909802E+02  # ~nu_tauL
   1000021     3.00199678E+03  # ~g
   1000022     6.05511751E+02  # ~chi_10
   1000023     9.05027134E+02  # ~chi_20
   1000025    -9.16772197E+02  # ~chi_30
   1000035     1.17524571E+03  # ~chi_40
   1000024     9.02326841E+02  # ~chi_1+
   1000037     1.17540129E+03  # ~chi_2+
   1000039     8.40000000E-09  # ~G
# Higgs mixing
Block alpha # Effective Higgs mixing angle
          -1.06054080E-01   # alpha
Block Hmix Q=  2.64325723E+03  # Higgs mixing parameters
   1    9.03445302E+02  # mu
   2    9.52776478E+00  # tan[beta](Q)
   3    2.43522370E+02  # v(Q)
   4    1.39831419E+06  # m^2_A(Q)
Block stopmix # stop mixing matrix
   1  1     1.20623818E-01   # Re[R_st(1,1)]
   1  2     9.92698290E-01   # Re[R_st(1,2)]
   2  1    -9.92698290E-01   # Re[R_st(2,1)]
   2  2     1.20623818E-01   # Re[R_st(2,2)]
Block sbotmix # sbottom mixing matrix
   1  1     1.10947878E-01   # Re[R_sb(1,1)]
   1  2     9.93826226E-01   # Re[R_sb(1,2)]
   2  1    -9.93826226E-01   # Re[R_sb(2,1)]
   2  2     1.10947878E-01   # Re[R_sb(2,2)]
Block staumix # stau mixing matrix
   1  1     2.65913034E-02   # Re[R_sta(1,1)]
   1  2     9.99646389E-01   # Re[R_sta(1,2)]
   2  1    -9.99646389E-01   # Re[R_sta(2,1)]
   2  2     2.65913034E-02   # Re[R_sta(2,2)]
Block Nmix # neutralino mixing matrix
   1  1    -9.93262493E-01   # Re[N(1,1)]
   1  2     1.07677844E-02   # Re[N(1,2)]
   1  3    -9.36572835E-02   # Re[N(1,3)]
   1  4     6.73942715E-02   # Re[N(1,4)]
   2  1    -1.13420882E-01   # Re[N(2,1)]
   2  2    -2.28437923E-01   # Re[N(2,2)]
   2  3     6.86898798E-01   # Re[N(2,3)]
   2  4    -6.80530573E-01   # Re[N(2,4)]
   3  1    -1.82981551E-02   # Re[N(3,1)]
   3  2     2.39901184E-02   # Re[N(3,2)]
   3  3     7.05982818E-01   # Re[N(3,3)]
   3  4     7.07585975E-01   # Re[N(3,4)]
   4  1    -1.51822539E-02   # Re[N(4,1)]
   4  2     9.73203290E-01   # Re[N(4,2)]
   4  3     1.44867580E-01   # Re[N(4,3)]
   4  4    -1.77927624E-01   # Re[N(4,4)]
Block Umix # chargino mixing matrix
   1  1    -2.05011902E-01   # Re[U(1,1)]
   1  2     9.78759480E-01   # Re[U(1,2)]
   2  1     9.78759480E-01   # Re[U(2,1)]
   2  2     2.05011902E-01   # Re[U(2,2)]
Block Vmix # chargino mixing matrix
   1  1    -2.51685043E-01   # Re[V(1,1)]
   1  2     9.67809196E-01   # Re[V(1,2)]
   2  1     9.67809196E-01   # Re[V(2,1)]
   2  2     2.51685043E-01   # Re[V(2,2)]
DECAY   2000011     2.68184173E-10   # ~e^-_R
#    BR                NDA      ID1      ID2
     9.99854275E-01    2     1000039        11   # BR(~e^-_R -> ~G e^-)
#    BR                NDA      ID1      ID2       ID3
     3.14803062E-05    3     1000015        11       -15   # BR(~e^-_R -> ~tau^-_1 e^- tau^+)
     1.14245117E-04    3    -1000015        11        15   # BR(~e^-_R -> ~tau^+_1 e^- tau^-)
DECAY   1000011     3.22569809E-01   # ~e^-_L
#    BR                NDA      ID1      ID2
     9.99999938E-01    2     1000022        11   # BR(~e^-_L -> chi^0_1 e^-)
     1.66473497E-08    2     2000011        23   # BR(~e^-_L -> ~e^-_R Z)
     1.69306779E-08    2     2000011        25   # BR(~e^-_L -> ~e^-_R h^0)
     2.80386683E-08    2     1000039        11   # BR(~e^-_L -> ~G e^-)
DECAY   2000013     2.68150916E-10   # ~mu^-_R
#    BR                NDA      ID1      ID2
     9.99853272E-01    2     1000039        13   # BR(~mu^-_R -> ~G mu^-)
#    BR                NDA      ID1      ID2       ID3
     3.16914972E-05    3     1000015        13       -15   # BR(~mu^-_R -> ~tau^-_1 mu^- tau^+)
     1.15036746E-04    3    -1000015        13        15   # BR(~mu^-_R -> ~tau^+_1 mu^- tau^-)
DECAY   1000013     3.23031781E-01   # ~mu^-_L
#    BR                NDA      ID1      ID2
     9.98566450E-01    2     1000022        13   # BR(~mu^-_L -> chi^0_1 mu^-)
     7.10716546E-04    2     2000013        23   # BR(~mu^-_L -> ~mu^-_R Z)
     7.22805720E-04    2     2000013        25   # BR(~mu^-_L -> ~mu^-_R h^0)
     2.79983109E-08    2     1000039        13   # BR(~mu^-_L -> ~G mu^-)
DECAY   1000015     2.58769673E-10   # ~tau^-_1
#    BR                NDA      ID1      ID2
     1.00000000E+00    2     1000039        15   # BR(~tau^-_1 -> ~G tau^-)
DECAY   2000015     4.53751496E-01   # ~tau^-_2
#    BR                NDA      ID1      ID2
     7.10208515E-01    2     1000022        15   # BR(~tau^-_2 -> chi^0_1 tau^-)
     1.43865022E-01    2     1000015        23   # BR(~tau^-_2 -> ~tau^-_1 Z)
     1.45926443E-01    2     1000015        25   # BR(~tau^-_2 -> ~tau^-_1 h^0)
     1.98804334E-08    2     1000039        15   # BR(~tau^-_2 -> ~G tau^-)
DECAY   1000012     3.41157599E-01   # ~nu_e
#    BR                NDA      ID1      ID2
     9.99999944E-01    2     1000022        12   # BR(~nu_e -> chi^0_1 nu_e)
     3.03575807E-08    2     2000011        24   # BR(~nu_e -> ~e^-_R W^+)
     2.59340620E-08    2     1000039        12   # BR(~nu_e -> ~G nu_e)
DECAY   1000014     3.41596024E-01   # ~nu_mu
#    BR                NDA      ID1      ID2
     9.98703747E-01    2     1000022        14   # BR(~nu_mu -> chi^0_1 nu_mu)
     1.29622719E-03    2     2000013        24   # BR(~nu_mu -> ~mu^-_R W^+)
     2.59004106E-08    2     1000039        14   # BR(~nu_mu -> ~G nu_mu)
DECAY   1000016     4.65736166E-01   # ~nu_tau
#    BR                NDA      ID1      ID2
     7.29871567E-01    2     1000022        16   # BR(~nu_tau -> chi^0_1 nu_tau)
     2.70128414E-01    2     1000015        24   # BR(~nu_tau -> ~tau^-_1 W^+)
     1.89212194E-08    2     1000039        16   # BR(~nu_tau -> ~G nu_tau)
DECAY   2000001     1.44781003E+00   # ~d_R
#    BR                NDA      ID1      ID2
     9.88251138E-01    2     1000022         1   # BR(~d_R -> chi^0_1 d)
     1.12854049E-02    2     1000023         1   # BR(~d_R -> chi^0_2 d)
     2.92059899E-04    2     1000025         1   # BR(~d_R -> chi^0_3 d)
     1.69213385E-04    2     1000035         1   # BR(~d_R -> chi^0_4 d)
     5.02736082E-07    2    -1000024         2   # BR(~d_R -> chi^-_1 u)
     1.01021665E-09    2    -1000037         2   # BR(~d_R -> chi^-_2 u)
     1.67986110E-06    2     1000039         1   # BR(~d_R -> ~G d)
DECAY   1000001     2.44748374E+01   # ~d_L
#    BR                NDA      ID1      ID2
     1.72746858E-02    2     1000022         1   # BR(~d_L -> chi^0_1 d)
     1.63312815E-02    2     1000023         1   # BR(~d_L -> chi^0_2 d)
     2.86771509E-04    2     1000025         1   # BR(~d_L -> chi^0_3 d)
     3.10214925E-01    2     1000035         1   # BR(~d_L -> chi^0_4 d)
     3.21451606E-02    2    -1000024         2   # BR(~d_L -> chi^-_1 u)
     6.23747050E-01    2    -1000037         2   # BR(~d_L -> chi^-_2 u)
     8.43283841E-13    2     2000002       -24   # BR(~d_L -> ~u_R W^-)
     8.77384675E-11    2     2000001        23   # BR(~d_L -> ~d_R Z)
     8.71490675E-11    2     2000001        25   # BR(~d_L -> ~d_R h^0)
     1.25897963E-07    2     1000039         1   # BR(~d_L -> ~G d)
DECAY   2000003     1.44844546E+00   # ~s_R
#    BR                NDA      ID1      ID2
     9.87821379E-01    2     1000022         3   # BR(~s_R -> chi^0_1 s)
     1.13879121E-02    2     1000023         3   # BR(~s_R -> chi^0_2 s)
     3.97645354E-04    2     1000025         3   # BR(~s_R -> chi^0_3 s)
     1.69329978E-04    2     1000035         3   # BR(~s_R -> chi^0_4 s)
     2.21608820E-04    2    -1000024         4   # BR(~s_R -> chi^-_1 c)
     4.45302885E-07    2    -1000037         4   # BR(~s_R -> chi^-_2 c)
     1.67911716E-06    2     1000039         3   # BR(~s_R -> ~G s)
DECAY   1000003     2.44756844E+01   # ~s_L
#    BR                NDA      ID1      ID2
     1.72740351E-02    2     1000022         3   # BR(~s_L -> chi^0_1 s)
     1.63367866E-02    2     1000023         3   # BR(~s_L -> chi^0_2 s)
     2.93619554E-04    2     1000025         3   # BR(~s_L -> chi^0_3 s)
     3.10204152E-01    2     1000035         3   # BR(~s_L -> chi^0_4 s)
     3.21645114E-02    2    -1000024         4   # BR(~s_L -> chi^-_1 c)
     6.23726541E-01    2    -1000037         4   # BR(~s_L -> chi^-_2 c)
     1.51123685E-07    2     2000004       -24   # BR(~s_L -> ~c_R W^-)
     3.86908836E-08    2     2000003        23   # BR(~s_L -> ~s_R Z)
     3.84306745E-08    2     2000003        25   # BR(~s_L -> ~s_R h^0)
     1.25893010E-07    2     1000039         3   # BR(~s_L -> ~G s)
DECAY   1000005     3.42242622E+00   # ~b_1
#    BR                NDA      ID1      ID2
     4.25115287E-01    2     1000022         5   # BR(~b_1 -> chi^0_1 b)
     1.19080105E-01    2     1000023         5   # BR(~b_1 -> chi^0_2 b)
     9.63345506E-02    2     1000025         5   # BR(~b_1 -> chi^0_3 b)
     9.73693817E-03    2     1000035         5   # BR(~b_1 -> chi^0_4 b)
     3.22097990E-01    2    -1000024         6   # BR(~b_1 -> chi^-_1 t)
     2.64544386E-02    2    -1000037         6   # BR(~b_1 -> chi^-_2 t)
     1.17998695E-03    2     1000006       -24   # BR(~b_1 -> ~t_1 W^-)
     7.03723194E-07    2     1000039         5   # BR(~b_1 -> ~G b)
DECAY   2000005     5.38020989E+01   # ~b_2
#    BR                NDA      ID1      ID2
     7.27361686E-03    2     1000022         5   # BR(~b_2 -> chi^0_1 b)
     1.19994166E-02    2     1000023         5   # BR(~b_2 -> chi^0_2 b)
     6.86530880E-03    2     1000025         5   # BR(~b_2 -> chi^0_3 b)
     1.32105111E-01    2     1000035         5   # BR(~b_2 -> chi^0_4 b)
     5.27083081E-01    2    -1000024         6   # BR(~b_2 -> chi^-_1 t)
     3.03219728E-01    2    -1000037         6   # BR(~b_2 -> chi^-_2 t)
     1.14536897E-02    2     1000006       -24   # BR(~b_2 -> ~t_1 W^-)
     4.80704633E-08    2     1000039         5   # BR(~b_2 -> ~G b)
DECAY   2000002     5.81799284E+00   # ~u_R
#    BR                NDA      ID1      ID2
     9.88240362E-01    2     1000022         2   # BR(~u_R -> chi^0_1 u)
     1.12973940E-02    2     1000023         2   # BR(~u_R -> chi^0_2 u)
     2.92152334E-04    2     1000025         2   # BR(~u_R -> chi^0_3 u)
     1.69665455E-04    2     1000035         2   # BR(~u_R -> chi^0_4 u)
     5.30413545E-10    2     1000024         1   # BR(~u_R -> chi^+_1 d)
     2.34863670E-12    2     1000037         1   # BR(~u_R -> chi^+_2 d)
     4.26071355E-07    2     1000039         2   # BR(~u_R -> ~G u)
DECAY   1000002     2.45231691E+01   # ~u_L
#    BR                NDA      ID1      ID2
     1.37267038E-02    2     1000022         2   # BR(~u_L -> chi^0_1 u)
     2.38242643E-02    2     1000023         2   # BR(~u_L -> chi^0_2 u)
     1.59124642E-04    2     1000025         2   # BR(~u_L -> chi^0_3 u)
     3.05724308E-01    2     1000035         2   # BR(~u_L -> chi^0_4 u)
     4.83252428E-02    2     1000024         1   # BR(~u_L -> chi^+_1 d)
     6.08240231E-01    2     1000037         1   # BR(~u_L -> chi^+_2 d)
     2.16196436E-10    2     2000001        24   # BR(~u_L -> ~d_R W^+)
     2.78352305E-13    2     2000002        23   # BR(~u_L -> ~u_R Z)
     8.66633765E-14    2     2000002        25   # BR(~u_L -> ~u_R h^0)
     1.25407905E-07    2     1000039         2   # BR(~u_L -> ~G u)
DECAY   2000004     5.81907813E+00   # ~c_R
#    BR                NDA      ID1      ID2
     9.88054389E-01    2     1000022         4   # BR(~c_R -> chi^0_1 c)
     1.13412545E-02    2     1000023         4   # BR(~c_R -> chi^0_2 c)
     3.38667121E-04    2     1000025         4   # BR(~c_R -> chi^0_3 c)
     1.69804957E-04    2     1000035         4   # BR(~c_R -> chi^0_4 c)
     9.50379819E-05    2     1000024         3   # BR(~c_R -> chi^+_1 s)
     4.20841661E-07    2     1000037         3   # BR(~c_R -> chi^+_2 s)
     4.25988709E-07    2     1000039         4   # BR(~c_R -> ~G c)
DECAY   1000004     2.45240014E+01   # ~c_L
#    BR                NDA      ID1      ID2
     1.37263037E-02    2     1000022         4   # BR(~c_L -> chi^0_1 c)
     2.38331972E-02    2     1000023         4   # BR(~c_L -> chi^0_2 c)
     1.70611408E-04    2     1000025         4   # BR(~c_L -> chi^0_3 c)
     3.05714866E-01    2     1000035         4   # BR(~c_L -> chi^0_4 c)
     4.83344613E-02    2     1000024         3   # BR(~c_L -> chi^+_1 s)
     6.08220275E-01    2     1000037         3   # BR(~c_L -> chi^+_2 s)
     9.53390221E-08    2     2000003        24   # BR(~c_L -> ~s_R W^+)
     4.98841881E-08    2     2000004        23   # BR(~c_L -> ~c_R Z)
     1.55382412E-08    2     2000004        25   # BR(~c_L -> ~c_R h^0)
     1.25402987E-07    2     1000039         4   # BR(~c_L -> ~G c)
DECAY   1000006     5.84000641E+01   # ~t_1
#    BR                NDA      ID1      ID2
     1.09434946E-07    2     1000022         4   # BR(~t_1 -> chi^0_1 c)
     9.16040643E-02    2     1000022         6   # BR(~t_1 -> chi^0_1 t)
     1.83180219E-07    2     1000023         4   # BR(~t_1 -> chi^0_2 c)
     2.16902164E-01    2     1000023         6   # BR(~t_1 -> chi^0_2 t)
     2.30689243E-01    2     1000025         6   # BR(~t_1 -> chi^0_3 t)
     4.71761103E-03    2     1000035         6   # BR(~t_1 -> chi^0_4 t)
     4.46425760E-01    2     1000024         5   # BR(~t_1 -> chi^+_1 b)
     9.65364737E-03    2     1000037         5   # BR(~t_1 -> chi^+_2 b)
     2.82356934E-08    2     1000039         6   # BR(~t_1 -> ~G t)
#    BR                NDA      ID1      ID2       ID3
     7.18887260E-06    3     1000022        24         5   # BR(~t_1 -> chi^0_1 W^+ b)
DECAY   2000006     5.44591635E+01   # ~t_2
#    BR                NDA      ID1      ID2
     7.10708848E-03    2     1000022         6   # BR(~t_2 -> chi^0_1 t)
     2.59361508E-01    2     1000023         6   # BR(~t_2 -> chi^0_2 t)
     2.74039131E-01    2     1000025         6   # BR(~t_2 -> chi^0_3 t)
     1.57599913E-01    2     1000035         6   # BR(~t_2 -> chi^0_4 t)
     1.53236239E-02    2     1000024         5   # BR(~t_2 -> chi^+_1 b)
     2.76181402E-01    2     1000037         5   # BR(~t_2 -> chi^+_2 b)
     5.95460668E-03    2     1000006        23   # BR(~t_2 -> ~t_1 Z)
     4.43268035E-03    2     1000006        25   # BR(~t_2 -> ~t_1 h^0)
     4.72508167E-08    2     1000039         6   # BR(~t_2 -> ~G t)
DECAY   1000024     5.29822967E-01   # chi^+_1
#    BR                NDA      ID1      ID2
     8.25626226E-09    2    -2000011        12   # BR(chi^+_1 -> ~e^+_R nu_e)
     2.29934362E-04    2    -1000011        12   # BR(chi^+_1 -> ~e^+_L nu_e)
     3.52988728E-04    2    -2000013        14   # BR(chi^+_1 -> ~mu^+_R nu_mu)
     2.29959833E-04    2    -1000013        14   # BR(chi^+_1 -> ~mu^+_L nu_mu)
     1.00659842E-01    2    -1000015        16   # BR(chi^+_1 -> ~tau^+_1 nu_tau)
     2.36897325E-04    2    -2000015        16   # BR(chi^+_1 -> ~tau^+_2 nu_tau)
     5.87654852E-04    2     1000012       -11   # BR(chi^+_1 -> ~nu_e e^+)
     5.88850785E-04    2     1000014       -13   # BR(chi^+_1 -> ~nu_mu mu^+)
     9.47007923E-04    2     1000016       -15   # BR(chi^+_1 -> ~nu_tau tau^+)
     8.94941171E-01    2     1000022        24   # BR(chi^+_1 -> chi^0_1 W^+)
#    BR                NDA      ID1      ID2       ID3
     3.98623805E-09    3     1000022        -1         2   # BR(chi^+_1 -> chi^0_1 d_bar u)
     4.07116649E-09    3     1000022        -3         4   # BR(chi^+_1 -> chi^0_1 s_bar c)
     1.22247744E-03    3     1000022        -5         6   # BR(chi^+_1 -> chi^0_1 b_bar t)
     2.68508875E-13    3     1000022       -11        12   # BR(chi^+_1 -> chi^0_1 e^+ nu_e)
     1.14787832E-08    3     1000022       -13        14   # BR(chi^+_1 -> chi^0_1 mu^+ nu_mu)
     3.18777917E-06    3     1000022       -15        16   # BR(chi^+_1 -> chi^0_1 tau^+ nu_tau)
DECAY   1000037     1.07931221E+01   # chi^+_2
#    BR                NDA      ID1      ID2
     9.17215233E-13    2    -2000011        12   # BR(chi^+_2 -> ~e^+_R nu_e)
     7.70604380E-02    2    -1000011        12   # BR(chi^+_2 -> ~e^+_L nu_e)
     3.92175111E-08    2    -2000013        14   # BR(chi^+_2 -> ~mu^+_R nu_mu)
     7.70614778E-02    2    -1000013        14   # BR(chi^+_2 -> ~mu^+_L nu_mu)
     1.14113023E-05    2    -1000015        16   # BR(chi^+_2 -> ~tau^+_1 nu_tau)
     7.73550212E-02    2    -2000015        16   # BR(chi^+_2 -> ~tau^+_2 nu_tau)
     7.71260440E-02    2     1000012       -11   # BR(chi^+_2 -> ~nu_e e^+)
     7.71273565E-02    2     1000014       -13   # BR(chi^+_2 -> ~nu_mu mu^+)
     7.74977243E-02    2     1000016       -15   # BR(chi^+_2 -> ~nu_tau tau^+)
     4.28291436E-04    2     1000022        24   # BR(chi^+_2 -> chi^0_1 W^+)
     1.41460137E-01    2     1000023        24   # BR(chi^+_2 -> chi^0_2 W^+)
     1.29155134E-01    2     1000025        24   # BR(chi^+_2 -> chi^0_3 W^+)
     1.41274954E-01    2     1000024        23   # BR(chi^+_2 -> chi^+_1 Z)
     1.24227185E-01    2     1000024        25   # BR(chi^+_2 -> chi^+_1 h^0)
#    BR                NDA      ID1      ID2       ID3
     2.59568642E-09    3     1000024         2        -2   # BR(chi^+_2 -> chi^+_1 u u_bar)
     2.59535424E-09    3     1000024         4        -4   # BR(chi^+_2 -> chi^+_1 c c_bar)
     3.83191096E-09    3     1000024         1        -1   # BR(chi^+_2 -> chi^+_1 d d_bar)
     3.85384574E-09    3     1000024         3        -3   # BR(chi^+_2 -> chi^+_1 s s_bar)
     5.50799984E-08    3     1000024         5        -5   # BR(chi^+_2 -> chi^+_1 b b_bar)
     1.22804450E-06    3     1000024        11       -11   # BR(chi^+_2 -> chi^+_1 e^- e^+)
     1.22941333E-06    3     1000024        13       -13   # BR(chi^+_2 -> chi^+_1 mu^- mu^+)
     1.58355824E-06    3     1000024        15       -15   # BR(chi^+_2 -> chi^+_1 tau^- tau^+)
     2.70872567E-06    3     1000024        12       -12   # BR(chi^+_2 -> chi^+_1 nu_e nu_bar_e)
     7.13891029E-08    3     1000022        -1         2   # BR(chi^+_2 -> chi^0_1 d_bar u)
     7.13868318E-08    3     1000022        -3         4   # BR(chi^+_2 -> chi^0_1 s_bar c)
     3.66771325E-06    3     1000022        -5         6   # BR(chi^+_2 -> chi^0_1 b_bar t)
     8.33812039E-12    3     1000022       -13        14   # BR(chi^+_2 -> chi^0_1 mu^+ nu_mu)
     2.38339764E-09    3     1000022       -15        16   # BR(chi^+_2 -> chi^0_1 tau^+ nu_tau)
     1.58708296E-09    3     1000023        -1         2   # BR(chi^+_2 -> chi^0_2 d_bar u)
     1.59780339E-09    3     1000023        -3         4   # BR(chi^+_2 -> chi^0_2 s_bar c)
     1.21097126E-04    3     1000023        -5         6   # BR(chi^+_2 -> chi^0_2 b_bar t)
     7.63884746E-07    3     1000023       -11        12   # BR(chi^+_2 -> chi^0_2 e^+ nu_e)
     7.64514920E-07    3     1000023       -13        14   # BR(chi^+_2 -> chi^0_2 mu^+ nu_mu)
     9.11327830E-07    3     1000023       -15        16   # BR(chi^+_2 -> chi^0_2 tau^+ nu_tau)
     4.14308151E-11    3     1000025        -1         2   # BR(chi^+_2 -> chi^0_3 d_bar u)
     4.90455450E-11    3     1000025        -3         4   # BR(chi^+_2 -> chi^0_3 s_bar c)
     8.04405612E-05    3     1000025        -5         6   # BR(chi^+_2 -> chi^0_3 b_bar t)
     1.05122290E-08    3     1000025       -11        12   # BR(chi^+_2 -> chi^0_3 e^+ nu_e)
     1.10230724E-08    3     1000025       -13        14   # BR(chi^+_2 -> chi^0_3 mu^+ nu_mu)
     1.52657034E-07    3     1000025       -15        16   # BR(chi^+_2 -> chi^0_3 tau^+ nu_tau)
DECAY   1000022     2.13822229E+00   # chi^0_1
#    BR                NDA      ID1      ID2
     1.64888856E-01    2     2000011       -11   # BR(chi^0_1 -> ~e^-_R e^+)
     1.64888856E-01    2    -2000011        11   # BR(chi^0_1 -> ~e^+_R e^-)
     1.64907505E-01    2     2000013       -13   # BR(chi^0_1 -> ~mu^-_R mu^+)
     1.64907505E-01    2    -2000013        13   # BR(chi^0_1 -> ~mu^+_R mu^-)
     1.70203638E-01    2     1000015       -15   # BR(chi^0_1 -> ~tau^-_1 tau^+)
     1.70203638E-01    2    -1000015        15   # BR(chi^0_1 -> ~tau^+_1 tau^-)
     4.53678808E-10    2     1000039        22   # BR(chi^0_1 -> ~G photon)
     1.33414203E-10    2     1000039        23   # BR(chi^0_1 -> ~G Z)
     3.65329912E-12    2     1000039        25   # BR(chi^0_1 -> ~G h^0)
DECAY   1000023     6.88566440E-01   # chi^0_2
#    BR                NDA      ID1      ID2
     2.61441401E-02    2     2000011       -11   # BR(chi^0_2 -> ~e^-_R e^+)
     2.61441401E-02    2    -2000011        11   # BR(chi^0_2 -> ~e^+_R e^-)
     2.64044857E-04    2     1000011       -11   # BR(chi^0_2 -> ~e^-_L e^+)
     2.64044857E-04    2    -1000011        11   # BR(chi^0_2 -> ~e^+_L e^-)
     2.62767966E-02    2     2000013       -13   # BR(chi^0_2 -> ~mu^-_R mu^+)
     2.62767966E-02    2    -2000013        13   # BR(chi^0_2 -> ~mu^+_R mu^-)
     2.64441528E-04    2     1000013       -13   # BR(chi^0_2 -> ~mu^-_L mu^+)
     2.64441528E-04    2    -1000013        13   # BR(chi^0_2 -> ~mu^+_L mu^-)
     6.40077762E-02    2     1000015       -15   # BR(chi^0_2 -> ~tau^-_1 tau^+)
     6.40077762E-02    2    -1000015        15   # BR(chi^0_2 -> ~tau^+_1 tau^-)
     3.80320347E-04    2     2000015       -15   # BR(chi^0_2 -> ~tau^-_2 tau^+)
     3.80320347E-04    2    -2000015        15   # BR(chi^0_2 -> ~tau^+_2 tau^-)
     1.27980861E-04    2     1000012       -12   # BR(chi^0_2 -> ~nu_e nu_bar_e)
     1.27980861E-04    2    -1000012        12   # BR(chi^0_2 -> ~nu^*_e nu_e)
     1.28013520E-04    2     1000014       -14   # BR(chi^0_2 -> ~nu_mu nu_bar_mu)
     1.28013520E-04    2    -1000014        14   # BR(chi^0_2 -> ~nu^*_mu nu_mu)
     1.37378383E-04    2     1000016       -16   # BR(chi^0_2 -> ~nu_tau nu_bar_tau)
     1.37378383E-04    2    -1000016        16   # BR(chi^0_2 -> ~nu^*_tau nu_tau)
     2.24500030E-02    2     1000022        23   # BR(chi^0_2 -> chi^0_1 Z)
     7.42076788E-01    2     1000022        25   # BR(chi^0_2 -> chi^0_1 h^0)
     6.43196458E-10    2     1000039        22   # BR(chi^0_2 -> ~G photon)
     7.63136330E-10    2     1000039        23   # BR(chi^0_2 -> ~G Z)
     8.04033074E-09    2     1000039        25   # BR(chi^0_2 -> ~G h^0)
     5.21914540E-07    2     1000022        22   # BR(chi^0_2 -> chi^0_1 photon)
#    BR                NDA      ID1      ID2       ID3
     6.20998344E-09    3     1000022         2        -2   # BR(chi^0_2 -> chi^0_1 u u_bar)
     6.21809534E-09    3     1000022         4        -4   # BR(chi^0_2 -> chi^0_1 c c_bar)
     1.76450586E-09    3     1000022         1        -1   # BR(chi^0_2 -> chi^0_1 d d_bar)
     1.85001649E-09    3     1000022         3        -3   # BR(chi^0_2 -> chi^0_1 s s_bar)
     1.92216927E-07    3     1000022         5        -5   # BR(chi^0_2 -> chi^0_1 b b_bar)
     2.79975356E-06    3     1000022        11       -11   # BR(chi^0_2 -> chi^0_1 e^- e^+)
     2.80826199E-06    3     1000022        13       -13   # BR(chi^0_2 -> chi^0_1 mu^- mu^+)
     5.07644289E-06    3     1000022        15       -15   # BR(chi^0_2 -> chi^0_1 tau^- tau^+)
     9.09750036E-11    3     1000024         1        -2   # BR(chi^0_2 -> chi^+_1 d u_bar)
     9.09750036E-11    3    -1000024        -1         2   # BR(chi^0_2 -> chi^-_1 d_bar u)
     3.05017627E-11    3     1000024         3        -4   # BR(chi^0_2 -> chi^+_1 s c_bar)
     3.05017627E-11    3    -1000024        -3         4   # BR(chi^0_2 -> chi^-_1 s_bar c)
     2.96463377E-11    3     1000024        11       -12   # BR(chi^0_2 -> chi^+_1 e^- nu_bar_e)
     2.96463377E-11    3    -1000024       -11        12   # BR(chi^0_2 -> chi^-_1 e^+ nu_e)
     2.94209143E-11    3     1000024        13       -14   # BR(chi^0_2 -> chi^+_1 mu^- nu_bar_mu)
     2.94209143E-11    3    -1000024       -13        14   # BR(chi^0_2 -> chi^-_1 mu^+ nu_mu)
     2.92382832E-12    3     1000024        15       -16   # BR(chi^0_2 -> chi^+_1 tau^- nu_bar_tau)
     2.92382832E-12    3    -1000024       -15        16   # BR(chi^0_2 -> chi^-_1 tau^+ nu_tau)
DECAY   1000025     5.76870328E-01   # chi^0_3
#    BR                NDA      ID1      ID2
     8.35784318E-04    2     2000011       -11   # BR(chi^0_3 -> ~e^-_R e^+)
     8.35784318E-04    2    -2000011        11   # BR(chi^0_3 -> ~e^+_R e^-)
     2.01358432E-06    2     1000011       -11   # BR(chi^0_3 -> ~e^-_L e^+)
     2.01358432E-06    2    -1000011        11   # BR(chi^0_3 -> ~e^+_L e^-)
     9.96948372E-04    2     2000013       -13   # BR(chi^0_3 -> ~mu^-_R mu^+)
     9.96948372E-04    2    -2000013        13   # BR(chi^0_3 -> ~mu^+_R mu^-)
     2.97897838E-06    2     1000013       -13   # BR(chi^0_3 -> ~mu^-_L mu^+)
     2.97897838E-06    2    -1000013        13   # BR(chi^0_3 -> ~mu^+_L mu^-)
     4.68089076E-02    2     1000015       -15   # BR(chi^0_3 -> ~tau^-_1 tau^+)
     4.68089076E-02    2    -1000015        15   # BR(chi^0_3 -> ~tau^+_1 tau^-)
     2.84663762E-04    2     2000015       -15   # BR(chi^0_3 -> ~tau^-_2 tau^+)
     2.84663762E-04    2    -2000015        15   # BR(chi^0_3 -> ~tau^+_2 tau^-)
     1.70469764E-05    2     1000012       -12   # BR(chi^0_3 -> ~nu_e nu_bar_e)
     1.70469764E-05    2    -1000012        12   # BR(chi^0_3 -> ~nu^*_e nu_e)
     1.70496688E-05    2     1000014       -14   # BR(chi^0_3 -> ~nu_mu nu_bar_mu)
     1.70496688E-05    2    -1000014        14   # BR(chi^0_3 -> ~nu^*_mu nu_mu)
     1.78165088E-05    2     1000016       -16   # BR(chi^0_3 -> ~nu_tau nu_bar_tau)
     1.78165088E-05    2    -1000016        16   # BR(chi^0_3 -> ~nu^*_tau nu_tau)
     8.79927749E-01    2     1000022        23   # BR(chi^0_3 -> chi^0_1 Z)
     2.20985154E-02    2     1000022        25   # BR(chi^0_3 -> chi^0_1 h^0)
     2.85930749E-13    2     1000039        22   # BR(chi^0_3 -> ~G photon)
     1.50158937E-09    2     1000039        23   # BR(chi^0_3 -> ~G Z)
     7.20827369E-09    2     1000039        25   # BR(chi^0_3 -> ~G h^0)
     8.59909060E-07    2     1000022        22   # BR(chi^0_3 -> chi^0_1 photon)
     9.75592664E-10    2     1000023        22   # BR(chi^0_3 -> chi^0_2 photon)
#    BR                NDA      ID1      ID2       ID3
     6.43011902E-11    3     1000022         2        -2   # BR(chi^0_3 -> chi^0_1 u u_bar)
     8.39075017E-11    3     1000022         4        -4   # BR(chi^0_3 -> chi^0_1 c c_bar)
     1.70731422E-11    3     1000022         1        -1   # BR(chi^0_3 -> chi^0_1 d d_bar)
     1.35775240E-10    3     1000022         3        -3   # BR(chi^0_3 -> chi^0_1 s s_bar)
     2.64288691E-07    3     1000022         5        -5   # BR(chi^0_3 -> chi^0_1 b b_bar)
     3.65023508E-08    3     1000022        11       -11   # BR(chi^0_3 -> chi^0_1 e^- e^+)
     4.84246239E-08    3     1000022        13       -13   # BR(chi^0_3 -> chi^0_1 mu^- mu^+)
     3.35433370E-06    3     1000022        15       -15   # BR(chi^0_3 -> chi^0_1 tau^- tau^+)
     4.25402019E-08    3     1000023         2        -2   # BR(chi^0_3 -> chi^0_2 u u_bar)
     3.94909685E-08    3     1000023         4        -4   # BR(chi^0_3 -> chi^0_2 c c_bar)
     5.52345741E-08    3     1000023         1        -1   # BR(chi^0_3 -> chi^0_2 d d_bar)
     5.51990737E-08    3     1000023         3        -3   # BR(chi^0_3 -> chi^0_2 s s_bar)
     1.32822745E-08    3     1000023         5        -5   # BR(chi^0_3 -> chi^0_2 b b_bar)
     1.27159838E-08    3     1000023        11       -11   # BR(chi^0_3 -> chi^0_2 e^- e^+)
     1.27109183E-08    3     1000023        13       -13   # BR(chi^0_3 -> chi^0_2 mu^- mu^+)
     1.11071641E-08    3     1000023        15       -15   # BR(chi^0_3 -> chi^0_2 tau^- tau^+)
     7.60627935E-08    3     1000023        12       -12   # BR(chi^0_3 -> chi^0_2 nu_e nu_bar_e)
     4.12464481E-07    3     1000024         1        -2   # BR(chi^0_3 -> chi^+_1 d u_bar)
     4.12464481E-07    3    -1000024        -1         2   # BR(chi^0_3 -> chi^-_1 d_bar u)
     3.97156783E-07    3     1000024         3        -4   # BR(chi^0_3 -> chi^+_1 s c_bar)
     3.97156783E-07    3    -1000024        -3         4   # BR(chi^0_3 -> chi^-_1 s_bar c)
     1.37369596E-07    3     1000024        11       -12   # BR(chi^0_3 -> chi^+_1 e^- nu_bar_e)
     1.37369596E-07    3    -1000024       -11        12   # BR(chi^0_3 -> chi^-_1 e^+ nu_e)
     1.37334494E-07    3     1000024        13       -14   # BR(chi^0_3 -> chi^+_1 mu^- nu_bar_mu)
     1.37334494E-07    3    -1000024       -13        14   # BR(chi^0_3 -> chi^-_1 mu^+ nu_mu)
     1.27757027E-07    3     1000024        15       -16   # BR(chi^0_3 -> chi^+_1 tau^- nu_bar_tau)
     1.27757027E-07    3    -1000024       -15        16   # BR(chi^0_3 -> chi^-_1 tau^+ nu_tau)
DECAY   1000035     1.08216532E+01   # chi^0_4
#    BR                NDA      ID1      ID2
     4.90789632E-05    2     2000011       -11   # BR(chi^0_4 -> ~e^-_R e^+)
     4.90789632E-05    2    -2000011        11   # BR(chi^0_4 -> ~e^+_R e^-)
     3.72865050E-02    2     1000011       -11   # BR(chi^0_4 -> ~e^-_L e^+)
     3.72865050E-02    2    -1000011        11   # BR(chi^0_4 -> ~e^+_L e^-)
     4.90842417E-05    2     2000013       -13   # BR(chi^0_4 -> ~mu^-_R mu^+)
     4.90842417E-05    2    -2000013        13   # BR(chi^0_4 -> ~mu^+_R mu^-)
     3.72870956E-02    2     1000013       -13   # BR(chi^0_4 -> ~mu^-_L mu^+)
     3.72870956E-02    2    -1000013        13   # BR(chi^0_4 -> ~mu^+_L mu^-)
     5.08547921E-05    2     1000015       -15   # BR(chi^0_4 -> ~tau^-_1 tau^+)
     5.08547921E-05    2    -1000015        15   # BR(chi^0_4 -> ~tau^+_1 tau^-)
     3.74538525E-02    2     2000015       -15   # BR(chi^0_4 -> ~tau^-_2 tau^+)
     3.74538525E-02    2    -2000015        15   # BR(chi^0_4 -> ~tau^+_2 tau^-)
     3.95563278E-02    2     1000012       -12   # BR(chi^0_4 -> ~nu_e nu_bar_e)
     3.95563278E-02    2    -1000012        12   # BR(chi^0_4 -> ~nu^*_e nu_e)
     3.95569155E-02    2     1000014       -14   # BR(chi^0_4 -> ~nu_mu nu_bar_mu)
     3.95569155E-02    2    -1000014        14   # BR(chi^0_4 -> ~nu^*_mu nu_mu)
     3.97226347E-02    2     1000016       -16   # BR(chi^0_4 -> ~nu_tau nu_bar_tau)
     3.97226347E-02    2    -1000016        16   # BR(chi^0_4 -> ~nu^*_tau nu_tau)
     1.42963397E-01    2     1000024       -24   # BR(chi^0_4 -> chi^+_1 W^-)
     1.42963397E-01    2    -1000024        24   # BR(chi^0_4 -> chi^-_1 W^+)
     4.93387985E-05    2     1000022        23   # BR(chi^0_4 -> chi^0_1 Z)
     1.75229661E-03    2     1000023        23   # BR(chi^0_4 -> chi^0_2 Z)
     1.24359721E-01    2     1000025        23   # BR(chi^0_4 -> chi^0_3 Z)
     4.62879791E-04    2     1000022        25   # BR(chi^0_4 -> chi^0_1 h^0)
     1.24081839E-01    2     1000023        25   # BR(chi^0_4 -> chi^0_2 h^0)
     1.08117253E-03    2     1000025        25   # BR(chi^0_4 -> chi^0_3 h^0)
     7.44406947E-10    2     1000039        22   # BR(chi^0_4 -> ~G photon)
     3.02280291E-09    2     1000039        23   # BR(chi^0_4 -> ~G Z)
     1.24362304E-10    2     1000039        25   # BR(chi^0_4 -> ~G h^0)
     1.52812788E-07    2     1000022        22   # BR(chi^0_4 -> chi^0_1 photon)
     5.80173669E-07    2     1000023        22   # BR(chi^0_4 -> chi^0_2 photon)
     8.16019888E-07    2     1000025        22   # BR(chi^0_4 -> chi^0_3 photon)
#    BR                NDA      ID1      ID2       ID3
     3.14983972E-08    3     1000022         2        -2   # BR(chi^0_4 -> chi^0_1 u u_bar)
     3.14958810E-08    3     1000022         4        -4   # BR(chi^0_4 -> chi^0_1 c c_bar)
     8.60410365E-07    3     1000022         6        -6   # BR(chi^0_4 -> chi^0_1 t t_bar)
     3.98310369E-08    3     1000022         1        -1   # BR(chi^0_4 -> chi^0_1 d d_bar)
     3.98311780E-08    3     1000022         3        -3   # BR(chi^0_4 -> chi^0_1 s s_bar)
     4.64081803E-08    3     1000022         5        -5   # BR(chi^0_4 -> chi^0_1 b b_bar)
     2.49026015E-08    3     1000022        11       -11   # BR(chi^0_4 -> chi^0_1 e^- e^+)
     2.49019803E-08    3     1000022        13       -13   # BR(chi^0_4 -> chi^0_1 mu^- mu^+)
     2.47284975E-08    3     1000022        15       -15   # BR(chi^0_4 -> chi^0_1 tau^- tau^+)
     2.69614074E-09    3     1000023         2        -2   # BR(chi^0_4 -> chi^0_2 u u_bar)
     2.69472367E-09    3     1000023         4        -4   # BR(chi^0_4 -> chi^0_2 c c_bar)
     1.86225770E-09    3     1000023         1        -1   # BR(chi^0_4 -> chi^0_2 d d_bar)
     1.87210874E-09    3     1000023         3        -3   # BR(chi^0_4 -> chi^0_2 s s_bar)
     2.43488840E-08    3     1000023         5        -5   # BR(chi^0_4 -> chi^0_2 b b_bar)
     1.11059978E-06    3     1000023        11       -11   # BR(chi^0_4 -> chi^0_2 e^- e^+)
     1.11121995E-06    3     1000023        13       -13   # BR(chi^0_4 -> chi^0_2 mu^- mu^+)
     1.24876554E-06    3     1000023        15       -15   # BR(chi^0_4 -> chi^0_2 tau^- tau^+)
     9.82399225E-07    3     1000023        12       -12   # BR(chi^0_4 -> chi^0_2 nu_e nu_bar_e)
     5.04697775E-12    3     1000025         2        -2   # BR(chi^0_4 -> chi^0_3 u u_bar)
     5.58266975E-12    3     1000025         4        -4   # BR(chi^0_4 -> chi^0_3 c c_bar)
     9.18481140E-12    3     1000025         1        -1   # BR(chi^0_4 -> chi^0_3 d d_bar)
     1.85105457E-11    3     1000025         3        -3   # BR(chi^0_4 -> chi^0_3 s s_bar)
     2.10709547E-08    3     1000025         5        -5   # BR(chi^0_4 -> chi^0_3 b b_bar)
     7.10188604E-10    3     1000025        11       -11   # BR(chi^0_4 -> chi^0_3 e^- e^+)
     1.19238664E-09    3     1000025        13       -13   # BR(chi^0_4 -> chi^0_3 mu^- mu^+)
     1.35064603E-07    3     1000025        15       -15   # BR(chi^0_4 -> chi^0_3 tau^- tau^+)
     1.31139798E-08    3     1000025        12       -12   # BR(chi^0_4 -> chi^0_3 nu_e nu_bar_e)
     1.65987580E-09    3     1000024         1        -2   # BR(chi^0_4 -> chi^+_1 d u_bar)
     1.65987580E-09    3    -1000024        -1         2   # BR(chi^0_4 -> chi^-_1 d_bar u)
     1.67215051E-09    3     1000024         3        -4   # BR(chi^0_4 -> chi^+_1 s c_bar)
     1.67215051E-09    3    -1000024        -3         4   # BR(chi^0_4 -> chi^-_1 s_bar c)
     1.24691745E-04    3     1000024         5        -6   # BR(chi^0_4 -> chi^+_1 b t_bar)
     1.24691745E-04    3    -1000024        -5         6   # BR(chi^0_4 -> chi^-_1 b_bar t)
     7.03876073E-07    3     1000024        11       -12   # BR(chi^0_4 -> chi^+_1 e^- nu_bar_e)
     7.03876073E-07    3    -1000024       -11        12   # BR(chi^0_4 -> chi^-_1 e^+ nu_e)
     7.04504593E-07    3     1000024        13       -14   # BR(chi^0_4 -> chi^+_1 mu^- nu_bar_mu)
     7.04504593E-07    3    -1000024       -13        14   # BR(chi^0_4 -> chi^-_1 mu^+ nu_mu)
     8.59407025E-07    3     1000024        15       -16   # BR(chi^0_4 -> chi^+_1 tau^- nu_bar_tau)
     8.59407025E-07    3    -1000024       -15        16   # BR(chi^0_4 -> chi^-_1 tau^+ nu_tau)
DECAY   1000021     1.86649731E+01   # ~g
#    BR                NDA      ID1      ID2
     4.76345933E-02    2     2000002        -2   # BR(~g -> ~u_R u_bar)
     4.76345933E-02    2    -2000002         2   # BR(~g -> ~u^*_R u)
     1.50862791E-02    2     1000002        -2   # BR(~g -> ~u_L u_bar)
     1.50862791E-02    2    -1000002         2   # BR(~g -> ~u^*_L u)
     4.76348502E-02    2     2000004        -4   # BR(~g -> ~c_R c_bar)
     4.76348502E-02    2    -2000004         4   # BR(~g -> ~c^*_R c)
     1.50865300E-02    2     1000004        -4   # BR(~g -> ~c_L c_bar)
     1.50865300E-02    2    -1000004         4   # BR(~g -> ~c^*_L c)
     3.02514318E-06    2     1000006        -4   # BR(~g -> ~t_1 c_bar)
     3.02514318E-06    2    -1000006         4   # BR(~g -> ~t^*_1 c)
     1.17354197E-01    2     1000006        -6   # BR(~g -> ~t_1 t_bar)
     1.17354197E-01    2    -1000006         6   # BR(~g -> ~t^*_1 t)
     3.18294404E-02    2     2000006        -6   # BR(~g -> ~t_2 t_bar)
     3.18294404E-02    2    -2000006         6   # BR(~g -> ~t^*_2 t)
     5.12082966E-02    2     2000001        -1   # BR(~g -> ~d_R d_bar)
     5.12082966E-02    2    -2000001         1   # BR(~g -> ~d^*_R d)
     1.48682968E-02    2     1000001        -1   # BR(~g -> ~d_L d_bar)
     1.48682968E-02    2    -1000001         1   # BR(~g -> ~d^*_L d)
     5.12090561E-02    2     2000003        -3   # BR(~g -> ~s_R s_bar)
     5.12090561E-02    2    -2000003         3   # BR(~g -> ~s^*_R s)
     1.48688411E-02    2     1000003        -3   # BR(~g -> ~s_L s_bar)
     1.48688411E-02    2    -1000003         3   # BR(~g -> ~s^*_L s)
     5.28948993E-02    2     1000005        -5   # BR(~g -> ~b_1 b_bar)
     5.28948993E-02    2    -1000005         5   # BR(~g -> ~b^*_1 b)
     4.02010358E-02    2     2000005        -5   # BR(~g -> ~b_2 b_bar)
     4.02010358E-02    2    -2000005         5   # BR(~g -> ~b^*_2 b)
     3.03884996E-06    2     1000022        21   # BR(~g -> chi^0_1 g)
     1.09425534E-04    2     1000023        21   # BR(~g -> chi^0_2 g)
     1.18944921E-04    2     1000025        21   # BR(~g -> chi^0_3 g)
     9.90936880E-06    2     1000035        21   # BR(~g -> chi^0_4 g)
DECAY        25     2.79804928E-03   # h^0
#    BR                NDA      ID1      ID2
     8.24302142E-09    2          11       -11   # BR(h^0 -> e^- e^+)
     3.52409615E-04    2          13       -13   # BR(h^0 -> mu^- mu^+)
     9.94562187E-02    2          15       -15   # BR(h^0 -> tau^- tau^+)
     6.93473665E-07    2           1        -1   # BR(h^0 -> d d_bar)
     3.05821297E-04    2           3        -3   # BR(h^0 -> s s_bar)
     6.53773212E-01    2           5        -5   # BR(h^0 -> b b_bar)
     2.36069875E-07    2           2        -2   # BR(h^0 -> u u_bar)
     4.22975622E-02    2           4        -4   # BR(h^0 -> c c_bar)
     6.21451308E-02    2          21        21   # BR(h^0 -> g g)
     3.06962717E-03    2          22        22   # BR(h^0 -> photon photon)
# writing decays into V V* as 3-body decays
#    BR                NDA      ID1      ID2       ID3
     6.35042819E-03    3          24        11        12   # BR(h^0 -> W^+ e^- nu_e)
     6.35042819E-03    3          24        13        14   # BR(h^0 -> W^+ mu^- nu_mu)
     6.35042819E-03    3          24        15        16   # BR(h^0 -> W^+ tau^- nu_tau)
     2.22264987E-02    3          24         1        -2   # BR(h^0 -> W^+ d u_bar)
     2.22264987E-02    3          24         3        -4   # BR(h^0 -> W^+ s c_bar)
     6.35042819E-03    3         -24       -11       -12   # BR(h^0 -> W^- e^+ nu_bar_e)
     6.35042819E-03    3         -24       -13       -14   # BR(h^0 -> W^- mu^+ nu_bar_mu)
     6.35042819E-03    3         -24       -15       -16   # BR(h^0 -> W^- tau^+ nu_bar_tau)
     2.22264987E-02    3         -24        -1         2   # BR(h^0 -> W^- d_bar u)
     2.22264987E-02    3         -24        -3         4   # BR(h^0 -> W^- s_bar c)
     4.05668075E-04    3          23        11       -11   # BR(h^0 -> Z e^- e^+)
     4.05668075E-04    3          23        13       -13   # BR(h^0 -> Z mu^- mu^+)
     3.47715493E-04    3          23        15       -15   # BR(h^0 -> Z tau^- tau^+)
     2.31810329E-03    3          23        12       -12   # BR(h^0 -> Z nu_e nu_bar_e)
     1.62267230E-03    3          23         1        -1   # BR(h^0 -> Z u u_bar)
     1.62267230E-03    3          23         3        -3   # BR(h^0 -> Z c c_bar)
     1.62267230E-03    3          23         5        -5   # BR(h^0 -> Z t t_bar)
     1.62267230E-03    3          23         2        -2   # BR(h^0 -> Z u u_bar)
     1.62267230E-03    3          23         4        -4   # BR(h^0 -> Z c c_bar)
DECAY        35     2.29347615E+00   # H^0
#    BR                NDA      ID1      ID2
     8.85808354E-09    2          11       -11   # BR(H^0 -> e^- e^+)
     3.78708420E-04    2          13       -13   # BR(H^0 -> mu^- mu^+)
     1.07146891E-01    2          15       -15   # BR(H^0 -> tau^- tau^+)
     6.13107123E-07    2           1        -1   # BR(H^0 -> d d_bar)
     2.70380077E-04    2           3        -3   # BR(H^0 -> s s_bar)
     5.98010781E-01    2           5        -5   # BR(H^0 -> b b_bar)
     2.91308931E-11    2           2        -2   # BR(H^0 -> u u_bar)
     5.22058630E-06    2           4        -4   # BR(H^0 -> c c_bar)
     2.74938121E-01    2           6        -6   # BR(H^0 -> t t_bar)
     5.91378040E-05    2     2000011  -2000011   # BR(H^0 -> ~e^-_R ~e^+_R)
     5.91089168E-05    2     2000013  -2000013   # BR(H^0 -> ~mu^-_R ~mu^+_R)
     5.12072683E-05    2     1000015  -1000015   # BR(H^0 -> ~tau^-_1 ~tau^+_1)
     2.68321291E-04    2     1000022   1000022   # BR(H^0 -> chi^0_1 chi^0_1)
     5.92595083E-03    2          23        23   # BR(H^0 -> Z Z)
     1.12495219E-02    2          24       -24   # BR(H^0 -> W^+ W^-)
     1.48786971E-03    2          25        25   # BR(H^0 -> h^0 h^0)
     1.46683097E-04    2          21        21   # BR(H^0 -> g g)
     1.47503207E-06    2          22        22   # BR(H^0 -> photon photon)
DECAY        36     2.24404131E+00   # A^0
#    BR                NDA      ID1      ID2
     9.06351427E-09    2          11       -11   # BR(A^0 -> e^- e^+)
     3.87491182E-04    2          13       -13   # BR(A^0 -> mu^- mu^+)
     1.09632635E-01    2          15       -15   # BR(A^0 -> tau^- tau^+)
     6.27324651E-07    2           1        -1   # BR(A^0 -> d d_bar)
     2.76650035E-04    2           3        -3   # BR(A^0 -> s s_bar)
     6.11880683E-01    2           5        -5   # BR(A^0 -> b b_bar)
     2.63020791E-11    2           2        -2   # BR(A^0 -> u u_bar)
     4.71362837E-06    2           4        -4   # BR(A^0 -> c c_bar)
     2.61939163E-01    2           6        -6   # BR(A^0 -> t t_bar)
     4.41218920E-03    2     1000022   1000022   # BR(A^0 -> chi^0_1 chi^0_1)
     1.13789059E-02    2          25        23   # BR(A^0 -> h^0 Z)
     8.63078963E-05    2          21        21   # BR(A^0 -> g g)
     6.24799867E-07    2          22        22   # BR(A^0 -> photon photon)
DECAY        37     1.94509993E+00   # H^+
#    BR                NDA      ID1      ID2
     1.04779777E-08    2         -11        12   # BR(H^+ -> e^+ nu_e)
     4.47963542E-04    2         -13        12   # BR(H^+ -> mu^+ nu_e)
     1.26742044E-01    2         -15        12   # BR(H^+ -> tau^+ nu_e)
     6.38321798E-07    2          -1         2   # BR(H^+ -> d_bar u)
     2.86283415E-04    2          -3         4   # BR(H^+ -> s_bar c)
     8.59650684E-01    2          -5         6   # BR(H^+ -> b_bar t)
     1.28723770E-02    2          25        24   # BR(H^+ -> h^0 W^+)
DECAY         6     2.43000000E+00   # top
#    BR                NDA      ID1      ID2
     1.00000000E+00    2           5        24   # BR(t -> b W)
Block HiggsBoundsInputHiggsCouplingsFermions
# ScalarNormEffCoupSq PseudoSNormEffCoupSq NP IP1 IP2 IP2
    1.13174161E+00    0.00000000E+00        3  25   5   5  # h0-b-b eff. coupling^2, normalised to SM
    9.98682584E+01    0.00000000E+00        3  35   5   5  # H0-b-b eff. coupling^2, normalised to SM
    0.00000000E+00    1.00000000E+02        3  36   5   5  # A0-b-b eff. coupling^2, normalised to SM
#
    9.98682584E-01    0.00000000E+00        3  25   6   6  # h0-t-t eff. coupling^2, normalised to SM
    1.13174161E-02    0.00000000E+00        3  35   6   6  # H0-t-t eff. coupling^2, normalised to SM
    0.00000000E+00    1.00000000E-02        3  36   6   6  # A0-t-t eff. coupling^2, normalised to SM
#
    1.13174161E+00    0.00000000E+00        3  25  15  15  # h0-tau-tau eff. coupling^2, normalised to SM
    9.98682584E+01    0.00000000E+00        3  35  15  15  # H0-tau-tau eff. coupling^2, normalised to SM
    0.00000000E+00    1.00000000E+02        3  36  15  15  # A0-tau-tau eff. coupling^2, normalised to SM
#
Block HiggsBoundsInputHiggsCouplingsBosons
    9.99959227E-01        3  25  24  24  # h0-W-W eff. coupling^2, normalised to SM
    4.07731258E-05        3  35  24  24  # H0-W-W eff. coupling^2, normalised to SM
    0.00000000E+00        3  36  24  24  # A0-W-W eff. coupling^2, normalised to SM
#
    9.99959227E-01        3  25  23  23  # h0-Z-Z eff. coupling^2, normalised to SM
    4.07731258E-05        3  35  23  23  # H0-Z-Z eff. coupling^2, normalised to SM
    0.00000000E+00        3  36  23  23  # A0-Z-Z eff. coupling^2, normalised to SM
#
    1.15599596E+00        3  25  21  21  # h0-g-g eff. coupling^2, normalised to SM
    8.26124765E-03        3  35  21  21  # H0-g-g eff. coupling^2, normalised to SM
    1.24581668E-01        3  36  21  21  # A0-g-g eff. coupling^2, normalised to SM
#
    0.00000000E+00        3  25  25  23  # h0-h0-Z eff. coupling^2, normalised to SM
    0.00000000E+00        3  35  25  23  # H0-h0-Z eff. coupling^2, normalised to SM
    4.07731258E-05        3  36  25  23  # A0-h0-Z eff. coupling^2, normalised to SM
    0.00000000E+00        3  35  35  23  # H0-H0-Z eff. coupling^2, normalised to SM
    9.99959227E-01        3  36  35  23  # A0-H0-Z eff. coupling^2, normalised to SM
    0.00000000E+00        3  36  36  23  # A0-A0-Z eff. coupling^2, normalised to SM
#
    0.00000000E+00        4  25  21  21  23  # h0-g-g-Z eff. coupling^2, normalised to SM
    0.00000000E+00        4  35  21  21  23  # H0-g-g-Z eff. coupling^2, normalised to SM
    0.00000000E+00        4  36  21  21  23  # A0-g-g-Z eff. coupling^2, normalised to SM
Block SPhenoLowEnergy  # low energy observables
    1    3.13212017E-04   # BR(b -> s gamma)
    2    1.59187390E-06   # BR(b -> s mu+ mu-)
    3    3.54082067E-05   # BR(b -> s nu nu)
    4    5.18078458E-11   # BR(Bd -> mu+ mu-)
    5    3.38439403E-09   # BR(Bs -> mu+ mu-)
    6    1.10334294E-04   # BR(B_u -> tau nu)
    7    9.97657810E-01   # BR(B_u -> tau nu)/BR(B_u -> tau nu)_SM
    8    2.73791732E-01   # |Delta(M_Bd)| [ps^-1] 
    9    2.03201956E+01   # |Delta(M_Bs)| [ps^-1] 
   20    5.07530772E-15   # Delta(g-2)_electron/2
   21    1.08823343E-10   # Delta(g-2)_muon/2
   22    6.33090430E-09   # Delta(g-2)_tau/2
   23    0.00000000E+00   # electric dipole moment of the electron
   24    0.00000000E+00   # electric dipole moment of the muon
   25    0.00000000E+00   # electric dipole moment of the tau
   26    0.00000000E+00   # Br(mu -> e gamma)
   27    0.00000000E+00   # Br(tau -> e gamma)
   28    0.00000000E+00   # Br(tau -> mu gamma)
   29    0.00000000E+00   # Br(mu -> 3 e)
   30    0.00000000E+00   # Br(tau -> 3 e)
   31    0.00000000E+00   # Br(tau -> 3 mu)
   39    6.22991992E-04   # Delta(rho_parameter)
   40    0.00000000E+00   # BR(Z -> e mu)
   41    0.00000000E+00   # BR(Z -> e tau)
   42    0.00000000E+00   # BR(Z -> mu tau)
Block FWCOEF Q=  9.11876000E+01  # Wilson coefficients at scale Q
#    id        order  M        value         comment
Block FWCOEF Q=  1.60000000E+02  # Wilson coefficients at scale Q
#    id        order  M        value         comment
     0305 4422   00   0    -1.87755779E-01   # C7
     0305 4422   00   1    -1.48202085E-02   # C7
     0305 4322   00   1    -3.23887886E-04   # C7'
     0305 6421   00   0    -9.48888613E-02   # C8
     0305 6421   00   1    -1.95926770E-02   # C8
     0305 6321   00   1    -4.24469744E-04   # C8'
 03051111 4133   00   0    -1.32700589E+00   # C9 e+e-
 03051111 4133   00   1     6.38214708E-04   # C9 e+e-
 03051111 4233   00   1    -2.62429010E-06   # C9' e+e-
 03051111 4137   00   0    -3.94471702E+00   # C10 e+e-
 03051111 4137   00   1     1.18249471E-03   # C10 e+e-
 03051111 4237   00   1     6.82175862E-05   # C10' e+e-
 03051313 4133   00   0    -1.32700589E+00   # C9 mu+mu-
 03051313 4133   00   1     6.38206320E-04   # C9 mu+mu-
 03051313 4233   00   1    -2.62431435E-06   # C9' mu+mu-
 03051313 4137   00   0    -3.94471702E+00   # C10 mu+mu-
 03051313 4137   00   1     1.18248631E-03   # C10 mu+mu-
 03051313 4237   00   1     6.82176105E-05   # C10' mu+mu-
 03051212 4237   00   0     1.49012329E+00   # C11 nu_1 nu_1
 03051212 4237   00   1    -2.85990263E-04   # C11 nu_1 nu_1
 03051212 4137   00   1    -1.64069853E-05   # C11' nu_1 nu_1
 03051414 4237   00   0     1.49012329E+00   # C11 nu_2 nu_2
 03051414 4237   00   1    -2.85990259E-04   # C11 nu_2 nu_2
 03051414 4137   00   1    -1.64069796E-05   # C11' nu_2 nu_2
 03051616 4237   00   0     1.49012329E+00   # C11 nu_3 nu_3
 03051616 4237   00   1    -2.85988901E-04   # C11 nu_3 nu_3
 03051616 4137   00   1    -1.64053717E-05   # C11' nu_3 nu_3
