# SUSY Les Houches Accord 2 - MSSM-RpV/Bi Spectrum + Decays + Flavor Observables
# SPheno module generated by SARAH
# ----------------------------------------------------------------------
# SPheno v3.3.6  
#   W. Porod, Comput. Phys. Commun. 153 (2003) 275-315, hep-ph/0301101
#   W. Porod, F.Staub, Comput.Phys.Commun.183 (2012) 2458-2469, arXiv:1104.1573
# SARAH: SARAHVER
#   F. Staub; arXiv:0806.0538 (online manual)
#   F. Staub; Comput. Phys. Commun. 181 (2010) 1077-1086; arXiv:0909.2863
#   F. Staub; Comput. Phys. Commun. 182 (2011)  808-833; arXiv:1002.0840
#   F. Staub; Comput. Phys. Commun. 184 (2013)  1792-1809; arXiv:1207.0906
#   F. Staub; Comput. Phys. Commun. 185 (2014)  1773-1790; arXiv:1309.7223 
# Including the calculation of flavor observables based on the FlavorKit 
#   W. Porod, F. Staub, A. Vicente; Eur.Phys.J. C74 (2014) 8, 2992; arXiv:1405.1434 
# Two-loop masss corrections to Higgs fields based on 
#   M. D. Goodsell, K. Nickel, F. Staub; arXiv:1411.0675 
#   M. D. Goodsell, K. Nickel, F. Staub; arXiv:1503.03098
#  
# in case of problems send email to florian.staub@cern.ch and goodsell@lpthe.jussieu.fr 
# ----------------------------------------------------------------------
# Created: 01.02.2018,  11:40
Block SPINFO         # Program information
     1   SPhenoSARAH      # spectrum calculator
     2   v3.3.6      # version number of SPheno
     9   SARAHVER    # version number of SARAH
Block MODSEL  # Input parameters
     1  0   #  SUSY Scale input
     2  1   #  Boundary conditions 
Block MINPAR  # Input parameters
    1    0.00000000E+00  # m0
    2    0.00000000E+00  # m12
    3    5.00000000E+00  # TanBeta
    4    0.00000000E+00  # SignumMue
    5    0.00000000E+00  # Azero
Block EXTPAR  # Input parameters
    1   -1.10000000E+03  # M1input
    2    2.00000000E+03  # M2input
    3    3.20000000E+03  # M3input
   23    7.00000000E+02  # Muinput
   25    5.00000000E+00  # TanBeta
   24    1.00000000E+06  # MA2input
Block gaugeGUT Q=  1.99755184E+03  # (GUT scale)
   1    4.69696704E-01  # g1(Q)^DRbar
   2    6.36622988E-01  # g2(Q)^DRbar
   3    1.02085925E+00  # g3(Q)^DRbar
Block SMINPUTS  # SM parameters
         1     1.27932466E+02  # alpha_em^-1(MZ)^MSbar
         2     1.16637000E-05  # G_mu [GeV^-2]
         3     1.18700000E-01  # alpha_s(MZ)^MSbar
         4     9.11887000E+01  # m_Z(pole)
         5     4.18000000E+00  # m_b(m_b), MSbar
         6     1.73500000E+02  # m_t(pole)
         7     1.77669000E+00  # m_tau(pole)
Block GAUGE Q=  1.99755184E+03  # (SUSY Scale)
   1    3.63825502E-01  # g1
   2    6.36622988E-01  # g2
   3    1.02085925E+00  # g3
Block HMIX Q=  1.99755184E+03  # (SUSY Scale)
   1    7.00000000E+02  # Mu
 101    1.92307692E+05  # Bmu
 102    4.77438193E+01  # vd
 103    2.38719096E+02  # vu
Block MSOFT Q=  1.99755184E+03  # (SUSY Scale)
  21    4.18398366E+05  # mHd2
  22   -3.94298526E+05  # mHu2
   1   -1.10000000E+03  # M1
   2    2.00000000E+03  # M2
   3    3.20000000E+03  # M3
Block PHASES Q=  1.99755184E+03  # (SUSY Scale)
   1    1.00000000E+00  # pG
Block Yd Q=  1.99755184E+03  # (SUSY Scale)
  1  1     6.68962045E-05   # Real(Yd(1,1),dp)
  1  2     0.00000000E+00   # Real(Yd(1,2),dp)
  1  3     0.00000000E+00   # Real(Yd(1,3),dp)
  2  1     0.00000000E+00   # Real(Yd(2,1),dp)
  2  2     1.27102741E-03   # Real(Yd(2,2),dp)
  2  3     0.00000000E+00   # Real(Yd(2,3),dp)
  3  1     0.00000000E+00   # Real(Yd(3,1),dp)
  3  2     0.00000000E+00   # Real(Yd(3,2),dp)
  3  3     6.62251639E-02   # Real(Yd(3,3),dp)
Block Ye Q=  1.99755184E+03  # (SUSY Scale)
  1  1     1.43658091E-05   # Real(Ye(1,1),dp)
  1  2    -1.90739312E-14   # Real(Ye(1,2),dp)
  1  3     1.91613542E-14   # Real(Ye(1,3),dp)
  2  1     1.41671767E-11   # Real(Ye(2,1),dp)
  2  2     2.97039380E-03   # Real(Ye(2,2),dp)
  2  3     1.48048654E-11   # Real(Ye(2,3),dp)
  3  1     2.71294078E-10   # Real(Ye(3,1),dp)
  3  2    -2.81838107E-10   # Real(Ye(3,2),dp)
  3  3     4.99491548E-02   # Real(Ye(3,3),dp)
Block Yu Q=  1.99755184E+03  # (SUSY Scale)
  1  1     7.03140453E-06   # Real(Yu(1,1),dp)
  1  2     0.00000000E+00   # Real(Yu(1,2),dp)
  1  3     0.00000000E+00   # Real(Yu(1,3),dp)
  2  1     0.00000000E+00   # Real(Yu(2,1),dp)
  2  2     3.57195373E-03   # Real(Yu(2,2),dp)
  2  3     0.00000000E+00   # Real(Yu(2,3),dp)
  3  1     0.00000000E+00   # Real(Yu(3,1),dp)
  3  2     0.00000000E+00   # Real(Yu(3,2),dp)
  3  3     8.54006112E-01   # Real(Yu(3,3),dp)
Block RVSNVEV Q=  1.99755184E+03  # (SUSY Scale)
   1   -1.13731370E-02  # vL(1)
   2    1.30759408E-02  # vL(2)
   3   -1.10362456E-02  # vL(3)
Block RVKAPPA Q=  1.99755184E+03  # (SUSY Scale)
   1    1.64566837E-01  # Real(REps(1) ,dp)
   2   -1.71023174E-01  # Real(REps(2) ,dp)
   3    1.71905086E-01  # Real(REps(3) ,dp)
Block Td Q=  1.99755184E+03  # (SUSY Scale)
  1  1     0.00000000E+00   # Real(Td(1,1),dp)
  1  2     0.00000000E+00   # Real(Td(1,2),dp)
  1  3     0.00000000E+00   # Real(Td(1,3),dp)
  2  1     0.00000000E+00   # Real(Td(2,1),dp)
  2  2     0.00000000E+00   # Real(Td(2,2),dp)
  2  3     0.00000000E+00   # Real(Td(2,3),dp)
  3  1     0.00000000E+00   # Real(Td(3,1),dp)
  3  2     0.00000000E+00   # Real(Td(3,2),dp)
  3  3     0.00000000E+00   # Real(Td(3,3),dp)
Block Te Q=  1.99755184E+03  # (SUSY Scale)
  1  1     0.00000000E+00   # Real(Te(1,1),dp)
  1  2     0.00000000E+00   # Real(Te(1,2),dp)
  1  3     0.00000000E+00   # Real(Te(1,3),dp)
  2  1     0.00000000E+00   # Real(Te(2,1),dp)
  2  2     0.00000000E+00   # Real(Te(2,2),dp)
  2  3     0.00000000E+00   # Real(Te(2,3),dp)
  3  1     0.00000000E+00   # Real(Te(3,1),dp)
  3  2     0.00000000E+00   # Real(Te(3,2),dp)
  3  3     0.00000000E+00   # Real(Te(3,3),dp)
Block Tu Q=  1.99755184E+03  # (SUSY Scale)
  1  1     0.00000000E+00   # Real(Tu(1,1),dp)
  1  2     0.00000000E+00   # Real(Tu(1,2),dp)
  1  3     0.00000000E+00   # Real(Tu(1,3),dp)
  2  1     0.00000000E+00   # Real(Tu(2,1),dp)
  2  2     0.00000000E+00   # Real(Tu(2,2),dp)
  2  3     0.00000000E+00   # Real(Tu(2,3),dp)
  3  1     0.00000000E+00   # Real(Tu(3,1),dp)
  3  2     0.00000000E+00   # Real(Tu(3,2),dp)
  3  3    -2.70000000E+03   # Real(Tu(3,3),dp)
Block RVD Q=  1.99755184E+03  # (SUSY Scale)
   1    2.15773518E+02  # Real(Beps(1) ,dp)
   2   -2.45354480E+02  # Real(Beps(2) ,dp)
   3    2.11207897E+02  # Real(Beps(3) ,dp)
Block MSQ2 Q=  1.99755184E+03  # (SUSY Scale)
  1  1     4.00000000E+06   # Real(mq2(1,1),dp)
  1  2     0.00000000E+00   # Real(mq2(1,2),dp)
  1  3     0.00000000E+00   # Real(mq2(1,3),dp)
  2  1     0.00000000E+00   # Real(mq2(2,1),dp)
  2  2     4.00000000E+06   # Real(mq2(2,2),dp)
  2  3     0.00000000E+00   # Real(mq2(2,3),dp)
  3  1     0.00000000E+00   # Real(mq2(3,1),dp)
  3  2     0.00000000E+00   # Real(mq2(3,2),dp)
  3  3     4.00000000E+06   # Real(mq2(3,3),dp)
Block MSL2 Q=  1.99755184E+03  # (SUSY Scale)
  1  1     4.00000000E+06   # Real(ml2(1,1),dp)
  1  2     0.00000000E+00   # Real(ml2(1,2),dp)
  1  3     0.00000000E+00   # Real(ml2(1,3),dp)
  2  1     0.00000000E+00   # Real(ml2(2,1),dp)
  2  2     4.00000000E+06   # Real(ml2(2,2),dp)
  2  3     0.00000000E+00   # Real(ml2(2,3),dp)
  3  1     0.00000000E+00   # Real(ml2(3,1),dp)
  3  2     0.00000000E+00   # Real(ml2(3,2),dp)
  3  3     4.00000000E+06   # Real(ml2(3,3),dp)
Block MSD2 Q=  1.99755184E+03  # (SUSY Scale)
  1  1     4.00000000E+06   # Real(md2(1,1),dp)
  1  2     0.00000000E+00   # Real(md2(1,2),dp)
  1  3     0.00000000E+00   # Real(md2(1,3),dp)
  2  1     0.00000000E+00   # Real(md2(2,1),dp)
  2  2     4.00000000E+06   # Real(md2(2,2),dp)
  2  3     0.00000000E+00   # Real(md2(2,3),dp)
  3  1     0.00000000E+00   # Real(md2(3,1),dp)
  3  2     0.00000000E+00   # Real(md2(3,2),dp)
  3  3     4.00000000E+06   # Real(md2(3,3),dp)
Block MSU2 Q=  1.99755184E+03  # (SUSY Scale)
  1  1     4.00000000E+06   # Real(mu2(1,1),dp)
  1  2     0.00000000E+00   # Real(mu2(1,2),dp)
  1  3     0.00000000E+00   # Real(mu2(1,3),dp)
  2  1     0.00000000E+00   # Real(mu2(2,1),dp)
  2  2     4.00000000E+06   # Real(mu2(2,2),dp)
  2  3     0.00000000E+00   # Real(mu2(2,3),dp)
  3  1     0.00000000E+00   # Real(mu2(3,1),dp)
  3  2     0.00000000E+00   # Real(mu2(3,2),dp)
  3  3     4.00000000E+06   # Real(mu2(3,3),dp)
Block MSE2 Q=  1.99755184E+03  # (SUSY Scale)
  1  1     4.00000000E+06   # Real(me2(1,1),dp)
  1  2     0.00000000E+00   # Real(me2(1,2),dp)
  1  3     0.00000000E+00   # Real(me2(1,3),dp)
  2  1     0.00000000E+00   # Real(me2(2,1),dp)
  2  2     4.00000000E+06   # Real(me2(2,2),dp)
  2  3     0.00000000E+00   # Real(me2(2,3),dp)
  3  1     0.00000000E+00   # Real(me2(3,1),dp)
  3  2     0.00000000E+00   # Real(me2(3,2),dp)
  3  3     4.00000000E+06   # Real(me2(3,3),dp)
Block RVM2LH1 Q=  1.99755184E+03  # (SUSY Scale)
   1    0.00000000E+00  # mlHd2(1) 
   2    0.00000000E+00  # mlHd2(2) 
   3    0.00000000E+00  # mlHd2(3) 
Block MASS  # Mass spectrum
#   PDG code      mass          particle
   1000001     2.04853731E+03  # Sd_1
   1000003     2.07174829E+03  # Sd_2
   1000005     2.07179848E+03  # Sd_3
   2000001     2.07179864E+03  # Sd_4
   2000003     2.09021115E+03  # Sd_5
   2000005     2.09021136E+03  # Sd_6
   1000002     1.90166544E+03  # Su_1
   1000004     2.07217053E+03  # Su_2
   1000006     2.07217100E+03  # Su_3
   2000002     2.08877327E+03  # Su_4
   2000004     2.08877353E+03  # Su_5
   2000006     2.14294677E+03  # Su_6
        25     1.22497162E+02  # hh_1
        35     9.94747245E+02  # hh_2
   1000012     2.01409443E+03  # hh_3
   1000014     2.01415064E+03  # hh_4
   1000016     2.01415084E+03  # hh_5
        36     9.94020211E+02  # Ah_2
   1000017     2.01409458E+03  # Ah_3
   1000018     2.01415064E+03  # Ah_4
   1000019     2.01415084E+03  # Ah_5
        37     9.96930944E+02  # Hpm_2
   1000011     2.00362466E+03  # Hpm_3
   2000011     2.00392005E+03  # Hpm_4
   1000013     2.00392111E+03  # Hpm_5
   2000013     2.01598022E+03  # Hpm_6
   1000015     2.01598069E+03  # Hpm_7
   2000015     2.01610833E+03  # Hpm_8
        23     9.11887000E+01  # VZ
        24     8.03161564E+01  # VWm
         1     5.00000000E-03  # Fd_1
         3     9.50000000E-02  # Fd_2
         5     4.18000000E+00  # Fd_3
         2     2.50000000E-03  # Fu_1
         4     1.27000000E+00  # Fu_2
         6     1.73500000E+02  # Fu_3
   1000021     3.13321798E+03  # Glu
        12     2.13718185E-12  # Chi_1
        14     1.40989653E-11  # Chi_2
        16     5.23974708E-11  # Chi_3
   1000022     7.08109470E+02  # Chi_4
   1000023     7.10176656E+02  # Chi_5
   1000025     1.09427793E+03  # Chi_6
   1000035     2.00927790E+03  # Chi_7
        11     5.10998930E-04  # Cha_1
        13     1.05658372E-01  # Cha_2
        15     1.77669000E+00  # Cha_3
   1000024     7.08680718E+02  # Cha_4
   1000037     2.00949591E+03  # Cha_5
Block DSQMIX Q=  1.99755184E+03  # ()
  1  1     0.00000000E+00   # Real(ZD(1,1),dp)
  1  2     0.00000000E+00   # Real(ZD(1,2),dp)
  1  3     9.96586000E-01   # Real(ZD(1,3),dp)
  1  4     0.00000000E+00   # Real(ZD(1,4),dp)
  1  5     0.00000000E+00   # Real(ZD(1,5),dp)
  1  6     8.25611558E-02   # Real(ZD(1,6),dp)
  2  1     0.00000000E+00   # Real(ZD(2,1),dp)
  2  2     0.00000000E+00   # Real(ZD(2,2),dp)
  2  3    -8.25611558E-02   # Real(ZD(2,3),dp)
  2  4     0.00000000E+00   # Real(ZD(2,4),dp)
  2  5     0.00000000E+00   # Real(ZD(2,5),dp)
  2  6     9.96586000E-01   # Real(ZD(2,6),dp)
  3  1     0.00000000E+00   # Real(ZD(3,1),dp)
  3  2     2.29697883E-03   # Real(ZD(3,2),dp)
  3  3     0.00000000E+00   # Real(ZD(3,3),dp)
  3  4     0.00000000E+00   # Real(ZD(3,4),dp)
  3  5     9.99997362E-01   # Real(ZD(3,5),dp)
  3  6     0.00000000E+00   # Real(ZD(3,6),dp)
  4  1    -1.20893105E-04   # Real(ZD(4,1),dp)
  4  2    -0.00000000E+00   # Real(ZD(4,2),dp)
  4  3    -0.00000000E+00   # Real(ZD(4,3),dp)
  4  4    -9.99999993E-01   # Real(ZD(4,4),dp)
  4  5    -0.00000000E+00   # Real(ZD(4,5),dp)
  4  6    -0.00000000E+00   # Real(ZD(4,6),dp)
  5  1     0.00000000E+00   # Real(ZD(5,1),dp)
  5  2     9.99997362E-01   # Real(ZD(5,2),dp)
  5  3     0.00000000E+00   # Real(ZD(5,3),dp)
  5  4     0.00000000E+00   # Real(ZD(5,4),dp)
  5  5    -2.29697883E-03   # Real(ZD(5,5),dp)
  5  6     0.00000000E+00   # Real(ZD(5,6),dp)
  6  1    -9.99999993E-01   # Real(ZD(6,1),dp)
  6  2     0.00000000E+00   # Real(ZD(6,2),dp)
  6  3     0.00000000E+00   # Real(ZD(6,3),dp)
  6  4     1.20893105E-04   # Real(ZD(6,4),dp)
  6  5     0.00000000E+00   # Real(ZD(6,5),dp)
  6  6     0.00000000E+00   # Real(ZD(6,6),dp)
Block USQMIX Q=  1.99755184E+03  # ()
  1  1    -0.00000000E+00   # Real(ZU(1,1),dp)
  1  2    -0.00000000E+00   # Real(ZU(1,2),dp)
  1  3    -6.32809965E-01   # Real(ZU(1,3),dp)
  1  4    -0.00000000E+00   # Real(ZU(1,4),dp)
  1  5    -0.00000000E+00   # Real(ZU(1,5),dp)
  1  6    -7.74307141E-01   # Real(ZU(1,6),dp)
  2  1     0.00000000E+00   # Real(ZU(2,1),dp)
  2  2     2.27018984E-03   # Real(ZU(2,2),dp)
  2  3     0.00000000E+00   # Real(ZU(2,3),dp)
  2  4     0.00000000E+00   # Real(ZU(2,4),dp)
  2  5     9.99997423E-01   # Real(ZU(2,5),dp)
  2  6     0.00000000E+00   # Real(ZU(2,6),dp)
  3  1    -4.46898251E-06   # Real(ZU(3,1),dp)
  3  2    -0.00000000E+00   # Real(ZU(3,2),dp)
  3  3    -0.00000000E+00   # Real(ZU(3,3),dp)
  3  4    -1.00000000E+00   # Real(ZU(3,4),dp)
  3  5    -0.00000000E+00   # Real(ZU(3,5),dp)
  3  6    -0.00000000E+00   # Real(ZU(3,6),dp)
  4  1     0.00000000E+00   # Real(ZU(4,1),dp)
  4  2     9.99997423E-01   # Real(ZU(4,2),dp)
  4  3     0.00000000E+00   # Real(ZU(4,3),dp)
  4  4     0.00000000E+00   # Real(ZU(4,4),dp)
  4  5    -2.27018984E-03   # Real(ZU(4,5),dp)
  4  6     0.00000000E+00   # Real(ZU(4,6),dp)
  5  1    -1.00000000E+00   # Real(ZU(5,1),dp)
  5  2     0.00000000E+00   # Real(ZU(5,2),dp)
  5  3     0.00000000E+00   # Real(ZU(5,3),dp)
  5  4     4.46898251E-06   # Real(ZU(5,4),dp)
  5  5     0.00000000E+00   # Real(ZU(5,5),dp)
  5  6     0.00000000E+00   # Real(ZU(5,6),dp)
  6  1     0.00000000E+00   # Real(ZU(6,1),dp)
  6  2     0.00000000E+00   # Real(ZU(6,2),dp)
  6  3    -7.74307141E-01   # Real(ZU(6,3),dp)
  6  4     0.00000000E+00   # Real(ZU(6,4),dp)
  6  5     0.00000000E+00   # Real(ZU(6,5),dp)
  6  6     6.32809965E-01   # Real(ZU(6,6),dp)
Block SCALARMIX Q=  1.99755184E+03  # ()
  1  1    -2.00550340E-01   # ZH(1,1)
  1  2    -9.79683395E-01   # ZH(1,2)
  1  3     4.67929620E-05   # ZH(1,3)
  1  4    -5.38143448E-05   # ZH(1,4)
  1  5     4.53965199E-05   # ZH(1,5)
  2  1     9.79683396E-01   # ZH(2,1)
  2  2    -2.00550332E-01   # ZH(2,2)
  2  3     5.14132036E-05   # ZH(2,3)
  2  4    -5.48289110E-05   # ZH(2,4)
  2  5     5.27641092E-05   # ZH(2,5)
  3  1     4.25226582E-05   # ZH(3,1)
  3  2    -5.49628473E-05   # ZH(3,2)
  3  3     7.50553107E-04   # ZH(3,3)
  3  4    -8.01209855E-04   # ZH(3,4)
  3  5    -9.99999395E-01   # ZH(3,5)
  4  1    -3.27426592E-05   # ZH(4,1)
  4  2     4.96441382E-05   # ZH(4,2)
  4  3    -2.22716701E-01   # ZH(4,3)
  4  4    -9.74883014E-01   # ZH(4,4)
  4  5     6.13921416E-04   # ZH(4,5)
  5  1     4.95532019E-05   # ZH(5,1)
  5  2    -6.89837241E-05   # ZH(5,2)
  5  3    -9.74882917E-01   # ZH(5,3)
  5  4     2.22716101E-01   # ZH(5,4)
  5  5    -9.10138389E-04   # ZH(5,5)
Block PSEUDOSCALARMIX Q=  1.99755184E+03  # ()
  1  1     1.94491151E-01   # ZA(1,1)
  1  2    -9.80904269E-01   # ZA(1,2)
  1  3    -4.66872236E-05   # ZA(1,3)
  1  4     5.36734481E-05   # ZA(1,4)
  1  5    -4.53068593E-05   # ZA(1,5)
  2  1    -9.80904270E-01   # ZA(2,1)
  2  2    -1.94491143E-01   # ZA(2,2)
  2  3    -5.09804457E-05   # ZA(2,3)
  2  4     5.43317103E-05   # ZA(2,4)
  2  5    -5.23439290E-05   # ZA(2,5)
  3  1     4.24662948E-05   # ZA(3,1)
  3  2     5.45278817E-05   # ZA(3,2)
  3  3     7.64267642E-04   # ZA(3,3)
  3  4    -8.16714518E-04   # ZA(3,4)
  3  5    -9.99999372E-01   # ZA(3,5)
  4  1     3.30733309E-05   # ZA(4,1)
  4  2     4.97837667E-05   # ZA(4,2)
  4  3     2.15145731E-01   # ZA(4,3)
  4  4     9.76581748E-01   # ZA(4,4)
  4  5    -6.33155849E-04   # ZA(4,5)
  5  1     4.92275545E-05   # ZA(5,1)
  5  2     6.80571673E-05   # ZA(5,2)
  5  3    -9.76581653E-01   # ZA(5,3)
  5  4     2.15145108E-01   # ZA(5,4)
  5  5    -9.22076668E-04   # ZA(5,5)
Block CHARGEMIX Q=  1.99755184E+03  # ()
  1  1    -1.96016288E-01   # ZP(1,1)
  1  2     9.80600636E-01   # ZP(1,2)
  1  3     4.67151277E-05   # ZP(1,3)
  1  4    -5.37090489E-05   # ZP(1,4)
  1  5     4.53315842E-05   # ZP(1,5)
  1  6     8.47298853E-15   # ZP(1,6)
  1  7    -1.78018809E-12   # ZP(1,7)
  1  8     3.14011994E-11   # ZP(1,8)
  2  1    -9.80600637E-01   # ZP(2,1)
  2  2    -1.96016280E-01   # ZP(2,2)
  2  3    -5.11080834E-05   # ZP(2,3)
  2  4     5.44786817E-05   # ZP(2,4)
  2  5    -5.24684662E-05   # ZP(2,5)
  2  6    -1.58339440E-10   # ZP(2,6)
  2  7     3.40677531E-08   # ZP(2,7)
  2  8    -5.74607165E-07   # ZP(2,8)
  3  1    -1.13025806E-05   # ZP(3,1)
  3  2    -1.39426390E-05   # ZP(3,2)
  3  3    -5.03743436E-07   # ZP(3,3)
  3  4     5.38286123E-07   # ZP(3,4)
  3  5     2.52730916E-01   # ZP(3,5)
  3  6    -5.18867168E-10   # ZP(3,6)
  3  7     1.15038351E-07   # ZP(3,7)
  3  8     9.67536606E-01   # ZP(3,8)
  4  1    -7.50204122E-07   # ZP(4,1)
  4  2    -1.06525241E-06   # ZP(4,2)
  4  3    -3.74654104E-08   # ZP(4,3)
  4  4    -1.67110582E-02   # ZP(4,4)
  4  5    -2.23963658E-09   # ZP(4,5)
  4  6    -1.02094307E-08   # ZP(4,6)
  4  7    -9.99860361E-01   # ZP(4,7)
  4  8     1.28739618E-07   # ZP(4,8)
  5  1     3.46705858E-09   # ZP(5,1)
  5  2     4.54492382E-09   # ZP(5,2)
  5  3    -8.08549180E-05   # ZP(5,3)
  5  4    -1.01946956E-11   # ZP(5,4)
  5  5     1.08959672E-11   # ZP(5,5)
  5  6    -9.99999997E-01   # ZP(5,6)
  5  7     1.02140491E-08   # ZP(5,7)
  5  8    -5.81114616E-10   # ZP(5,8)
  6  1    -4.06045383E-05   # ZP(6,1)
  6  2    -5.53027804E-05   # ZP(6,2)
  6  3     9.99966199E-01   # ZP(6,3)
  6  4     8.22006592E-03   # ZP(6,4)
  6  5    -2.79273402E-05   # ZP(6,5)
  6  6    -8.08521871E-05   # ZP(6,6)
  6  7    -1.37422562E-04   # ZP(6,7)
  6  8     7.80971971E-06   # ZP(6,8)
  7  1    -4.32214360E-05   # ZP(7,1)
  7  2    -6.37920435E-05   # ZP(7,2)
  7  3     8.22120832E-03   # ZP(7,3)
  7  4    -9.99826567E-01   # ZP(7,4)
  7  5    -3.03476282E-05   # ZP(7,5)
  7  6    -6.64544697E-07   # ZP(7,6)
  7  7     1.67104931E-02   # ZP(7,7)
  7  8     8.48424513E-06   # ZP(7,8)
  8  1     4.10432190E-05   # ZP(8,1)
  8  2     5.29350499E-05   # ZP(8,2)
  8  3    -2.92478885E-05   # ZP(8,3)
  8  4     3.12583380E-05   # ZP(8,4)
  8  5    -9.67536603E-01   # ZP(8,5)
  8  6     2.20780534E-09   # ZP(8,6)
  8  7    -4.87810694E-07   # ZP(8,7)
  8  8     2.52730917E-01   # ZP(8,8)
Block UVMIX Q=  1.99755184E+03  # ()
  1  1     0.00000000E+00   # Real(UV(1,1),dp)
  1  2     0.00000000E+00   # Real(UV(1,2),dp)
  1  3    -0.00000000E+00   # Real(UV(1,3),dp)
  1  4     0.00000000E+00   # Real(UV(1,4),dp)
  1  5     0.00000000E+00   # Real(UV(1,5),dp)
  1  6    -0.00000000E+00   # Real(UV(1,6),dp)
  1  7     0.00000000E+00   # Real(UV(1,7),dp)
  2  1    -5.65628419E-01   # Real(UV(2,1),dp)
  2  2     3.53219552E-01   # Real(UV(2,2),dp)
  2  3    -7.45184727E-01   # Real(UV(2,3),dp)
  2  4    -1.06366146E-08   # Real(UV(2,4),dp)
  2  5    -1.66567272E-08   # Real(UV(2,5),dp)
  2  6    -4.02167719E-04   # Real(UV(2,6),dp)
  2  7    -9.64124100E-11   # Real(UV(2,7),dp)
  3  1     0.00000000E+00   # Real(UV(3,1),dp)
  3  2    -0.00000000E+00   # Real(UV(3,2),dp)
  3  3    -0.00000000E+00   # Real(UV(3,3),dp)
  3  4     0.00000000E+00   # Real(UV(3,4),dp)
  3  5     0.00000000E+00   # Real(UV(3,5),dp)
  3  6     0.00000000E+00   # Real(UV(3,6),dp)
  3  7     0.00000000E+00   # Real(UV(3,7),dp)
  4  1    -1.66166684E-04   # Real(UV(4,1),dp)
  4  2     1.72627841E-04   # Real(UV(4,2),dp)
  4  3    -1.73613392E-04   # Real(UV(4,3),dp)
  4  4    -2.04073102E-02   # Real(UV(4,4),dp)
  4  5    -4.99118583E-02   # Real(UV(4,5),dp)
  4  6     7.07016696E-01   # Real(UV(4,6),dp)
  4  7    -7.05138038E-01   # Real(UV(4,7),dp)
  5  1    -0.00000000E+00   # Real(UV(5,1),dp)
  5  2     0.00000000E+00   # Real(UV(5,2),dp)
  5  3    -0.00000000E+00   # Real(UV(5,3),dp)
  5  4     0.00000000E+00   # Real(UV(5,4),dp)
  5  5     0.00000000E+00   # Real(UV(5,5),dp)
  5  6     0.00000000E+00   # Real(UV(5,6),dp)
  5  7     0.00000000E+00   # Real(UV(5,7),dp)
  6  1     0.00000000E+00   # Real(UV(6,1),dp)
  6  2    -0.00000000E+00   # Real(UV(6,2),dp)
  6  3     0.00000000E+00   # Real(UV(6,3),dp)
  6  4     0.00000000E+00   # Real(UV(6,4),dp)
  6  5    -0.00000000E+00   # Real(UV(6,5),dp)
  6  6    -0.00000000E+00   # Real(UV(6,6),dp)
  6  7    -0.00000000E+00   # Real(UV(6,7),dp)
  7  1     5.64519046E-06   # Real(UV(7,1),dp)
  7  2    -6.06543579E-06   # Real(UV(7,2),dp)
  7  3     5.76344275E-06   # Real(UV(7,3),dp)
  7  4     7.14718103E-04   # Real(UV(7,4),dp)
  7  5    -9.98622796E-01   # Real(UV(7,5),dp)
  7  6    -2.39047493E-02   # Real(UV(7,6),dp)
  7  7     4.66964941E-02   # Real(UV(7,7),dp)
Block IMUVMIX Q=  1.99755184E+03  # ()
  1  1     8.22031780E-01   # Aimag(UV(1,1))
  1  2     3.13587270E-01   # Aimag(UV(1,2))
  1  3    -4.75317553E-01   # Aimag(UV(1,3))
  1  4     1.17835583E-09   # Aimag(UV(1,4))
  1  5     1.08242145E-09   # Aimag(UV(1,5))
  1  6    -8.62893734E-08   # Aimag(UV(1,6))
  1  7     7.50307387E-12   # Aimag(UV(1,7))
  2  1     0.00000000E+00   # Aimag(UV(2,1))
  2  2     0.00000000E+00   # Aimag(UV(2,2))
  2  3     0.00000000E+00   # Aimag(UV(2,3))
  2  4     0.00000000E+00   # Aimag(UV(2,4))
  2  5     0.00000000E+00   # Aimag(UV(2,5))
  2  6     0.00000000E+00   # Aimag(UV(2,6))
  2  7     0.00000000E+00   # Aimag(UV(2,7))
  3  1     6.57889690E-02   # Aimag(UV(3,1))
  3  2    -8.81418693E-01   # Aimag(UV(3,2))
  3  3    -4.67731638E-01   # Aimag(UV(3,3))
  3  4     2.58955568E-07   # Aimag(UV(3,4))
  3  5     2.53218592E-07   # Aimag(UV(3,5))
  3  6     1.15844644E-04   # Aimag(UV(3,6))
  3  7     1.85700652E-09   # Aimag(UV(3,7))
  4  1     0.00000000E+00   # Aimag(UV(4,1))
  4  2     0.00000000E+00   # Aimag(UV(4,2))
  4  3     0.00000000E+00   # Aimag(UV(4,3))
  4  4     0.00000000E+00   # Aimag(UV(4,4))
  4  5     0.00000000E+00   # Aimag(UV(4,5))
  4  6     0.00000000E+00   # Aimag(UV(4,6))
  4  7     0.00000000E+00   # Aimag(UV(4,7))
  5  1    -1.65965770E-04   # Aimag(UV(5,1))
  5  2     1.72451715E-04   # Aimag(UV(5,2))
  5  3    -1.73381584E-04   # Aimag(UV(5,3))
  5  4     6.32116810E-02   # Aimag(UV(5,4))
  5  5     1.61108112E-02   # Aimag(UV(5,5))
  5  6     7.06144625E-01   # Aimag(UV(5,6))
  5  7     7.05056314E-01   # Aimag(UV(5,7))
  6  1     7.08755895E-06   # Aimag(UV(6,1))
  6  2    -7.15793233E-06   # Aimag(UV(6,2))
  6  3     7.54305630E-06   # Aimag(UV(6,3))
  6  4     9.97791218E-01   # Aimag(UV(6,4))
  6  5    -1.32615363E-03   # Aimag(UV(6,5))
  6  6    -3.02580280E-02   # Aimag(UV(6,6))
  6  7    -5.91217273E-02   # Aimag(UV(6,7))
  7  1     0.00000000E+00   # Aimag(UV(7,1))
  7  2     0.00000000E+00   # Aimag(UV(7,2))
  7  3     0.00000000E+00   # Aimag(UV(7,3))
  7  4     0.00000000E+00   # Aimag(UV(7,4))
  7  5     0.00000000E+00   # Aimag(UV(7,5))
  7  6     0.00000000E+00   # Aimag(UV(7,6))
  7  7     0.00000000E+00   # Aimag(UV(7,7))
Block UELMIX Q=  1.99755184E+03  # ()
  1  1    -9.99999972E-01   # Real(ZEL(1,1),dp)
  1  2    -5.93834421E-08   # Real(ZEL(1,2),dp)
  1  3     5.94690161E-08   # Real(ZEL(1,3),dp)
  1  4    -3.81611556E-08   # Real(ZEL(1,4),dp)
  1  5    -2.35024370E-04   # Real(ZEL(1,5),dp)
  2  1    -2.00207974E-09   # Real(ZEL(2,1),dp)
  2  2     9.99999970E-01   # Real(ZEL(2,2),dp)
  2  3     6.20044145E-08   # Real(ZEL(2,3),dp)
  2  4    -3.23719416E-07   # Real(ZEL(2,4),dp)
  2  5    -2.44150615E-04   # Real(ZEL(2,5),dp)
  3  1     1.75518299E-09   # Real(ZEL(3,1),dp)
  3  2    -2.04953546E-09   # Real(ZEL(3,2),dp)
  3  3     9.99999970E-01   # Real(ZEL(3,3),dp)
  3  4    -1.50799875E-07   # Real(ZEL(3,4),dp)
  3  5     2.45565330E-04   # Real(ZEL(3,5),dp)
  4  1     2.34888743E-04   # Real(ZEL(4,1),dp)
  4  2    -2.44000102E-04   # Real(ZEL(4,2),dp)
  4  3     2.45430036E-04   # Real(ZEL(4,3),dp)
  4  4     3.38079056E-02   # Real(ZEL(4,4),dp)
  4  5    -9.99428262E-01   # Real(ZEL(4,5),dp)
  5  1    -7.98382156E-06   # Real(ZEL(5,1),dp)
  5  2     8.57775531E-06   # Real(ZEL(5,2),dp)
  5  3    -8.15133531E-06   # Real(ZEL(5,3),dp)
  5  4     9.99428349E-01   # Real(ZEL(5,4),dp)
  5  5     3.38079026E-02   # Real(ZEL(5,5),dp)
Block UERMIX Q=  1.99755184E+03  # ()
  1  1    -1.00000000E+00   # Real(ZER(1,1),dp)
  1  2    -2.96109138E-10   # Real(ZER(1,2),dp)
  1  3     1.76351240E-11   # Real(ZER(1,3),dp)
  1  4    -8.63227131E-14   # Real(ZER(1,4),dp)
  1  5     1.53205738E-12   # Real(ZER(1,5),dp)
  2  1    -2.96109137E-10   # Real(ZER(2,1),dp)
  2  2     1.00000000E+00   # Real(ZER(2,2),dp)
  2  3     3.81139021E-09   # Real(ZER(2,3),dp)
  2  4    -2.35744994E-10   # Real(ZER(2,4),dp)
  2  5     4.07768629E-09   # Real(ZER(2,5),dp)
  3  1     1.76351252E-11   # Real(ZER(3,1),dp)
  3  2    -3.81139027E-09   # Real(ZER(3,2),dp)
  3  3     1.00000000E+00   # Real(ZER(3,3),dp)
  3  4    -2.13936579E-09   # Real(ZER(3,4),dp)
  3  5     3.67676496E-08   # Real(ZER(3,5),dp)
  4  1    -1.53441364E-12   # Real(ZER(4,1),dp)
  4  2     4.08435187E-09   # Real(ZER(4,2),dp)
  4  3     3.68286583E-08   # Real(ZER(4,3),dp)
  4  4     6.60750936E-02   # Real(ZER(4,4),dp)
  4  5    -9.97814653E-01   # Real(ZER(4,5),dp)
  5  1     1.50967714E-14   # Real(ZER(5,1),dp)
  5  2    -3.42036930E-11   # Real(ZER(5,2),dp)
  5  3    -2.94735349E-10   # Real(ZER(5,3),dp)
  5  4     9.97814653E-01   # Real(ZER(5,4),dp)
  5  5     6.60750936E-02   # Real(ZER(5,5),dp)
Block UDLMIX Q=  1.99755184E+03  # ()
  1  1     1.00000000E+00   # Real(ZDL(1,1),dp)
  1  2     0.00000000E+00   # Real(ZDL(1,2),dp)
  1  3     0.00000000E+00   # Real(ZDL(1,3),dp)
  2  1     0.00000000E+00   # Real(ZDL(2,1),dp)
  2  2     1.00000000E+00   # Real(ZDL(2,2),dp)
  2  3     0.00000000E+00   # Real(ZDL(2,3),dp)
  3  1     0.00000000E+00   # Real(ZDL(3,1),dp)
  3  2     0.00000000E+00   # Real(ZDL(3,2),dp)
  3  3     1.00000000E+00   # Real(ZDL(3,3),dp)
Block UDRMIX Q=  1.99755184E+03  # ()
  1  1     1.00000000E+00   # Real(ZDR(1,1),dp)
  1  2     0.00000000E+00   # Real(ZDR(1,2),dp)
  1  3     0.00000000E+00   # Real(ZDR(1,3),dp)
  2  1     0.00000000E+00   # Real(ZDR(2,1),dp)
  2  2     1.00000000E+00   # Real(ZDR(2,2),dp)
  2  3     0.00000000E+00   # Real(ZDR(2,3),dp)
  3  1     0.00000000E+00   # Real(ZDR(3,1),dp)
  3  2     0.00000000E+00   # Real(ZDR(3,2),dp)
  3  3     1.00000000E+00   # Real(ZDR(3,3),dp)
Block UULMIX Q=  1.99755184E+03  # ()
  1  1     1.00000000E+00   # Real(ZUL(1,1),dp)
  1  2     0.00000000E+00   # Real(ZUL(1,2),dp)
  1  3     0.00000000E+00   # Real(ZUL(1,3),dp)
  2  1     0.00000000E+00   # Real(ZUL(2,1),dp)
  2  2     1.00000000E+00   # Real(ZUL(2,2),dp)
  2  3     0.00000000E+00   # Real(ZUL(2,3),dp)
  3  1     0.00000000E+00   # Real(ZUL(3,1),dp)
  3  2     0.00000000E+00   # Real(ZUL(3,2),dp)
  3  3     1.00000000E+00   # Real(ZUL(3,3),dp)
Block UURMIX Q=  1.99755184E+03  # ()
  1  1     1.00000000E+00   # Real(ZUR(1,1),dp)
  1  2     0.00000000E+00   # Real(ZUR(1,2),dp)
  1  3     0.00000000E+00   # Real(ZUR(1,3),dp)
  2  1     0.00000000E+00   # Real(ZUR(2,1),dp)
  2  2     1.00000000E+00   # Real(ZUR(2,2),dp)
  2  3     0.00000000E+00   # Real(ZUR(2,3),dp)
  3  1     0.00000000E+00   # Real(ZUR(3,1),dp)
  3  2     0.00000000E+00   # Real(ZUR(3,2),dp)
  3  3     1.00000000E+00   # Real(ZUR(3,3),dp)
Block SPheno # SPheno internal parameters 
         1    -1.00000000E+00  # ErrorLevel
         2     0.00000000E+00  # SPA_conventions
        11     1.00000000E+00  # Branching ratios
        13     1.00000000E+00  # 3 Body decays
        31     1.99755184E+03  # GUT scale
        33     1.99755184E+03  # Renormalization scale
        34     1.00000000E-04  # Precision
        35     4.00000000E+01  # Iterations
        38     2.00000000E+00  # RGE level
        40     7.29735257E-03  # Alpha
        41     2.49520000E+00  # Gamma_Z
        42     2.06000000E+00  # Gamma_W
        50     1.00000000E+00  # Rotate negative fermion masses
        51     0.00000000E+00  # Switch to SCKM matrix
        52     0.00000000E+00  # Ignore negative masses
        53     0.00000000E+00  # Ignore negative masses at MZ
        55     1.00000000E+00  # Calculate one loop masses
        56     1.00000000E+00  # Calculate two-loop Higgs masses
        57     0.00000000E+00  # Calculate low energy
        60     1.00000000E+00  # Include kinetic mixing
        65     1.00000000E+00  # Solution of tadpole equation
         8     3.00000000E+00  # Two-Loop Method: diagrammatic 
         9     1.00000000E+00  # Gauge-less limit
       400     1.00000000E-01  # Step-size for purely-numerical methode for 2-loop calculation
       401     1.00000000E-03  # Step-size for semi-analytical methode for 2-loop calculation
       410     0.00000000E+00  # indicative error in numerical derivation
Block HiggsLHC7 # Higgs production cross section at LHC7 [pb] 
  1        25        1.59542954E+01 # Gluon fusion 
  2        25        1.23809354E+00 # Vector boson fusion 
  3        25        5.83923631E-01 # W-H production 
  4        25        3.37529922E-01 # Z-H production 
  5        25        9.14015698E-02 # t-t-H production 
  1        35        9.79821115E-02 # Gluon fusion 
  2        35        1.46383548E-06 # Vector boson fusion 
Block HiggsLHC8 # Higgs production cross section at LHC8 [pb] 
  1        25        2.01914823E+01 # Gluon fusion 
  2        25        1.59460453E+00 # Vector boson fusion 
  3        25        7.42908271E-01 # W-H production 
  4        25        4.21256123E-01 # Z-H production 
  5        25        1.38169037E-01 # t-t-H production 
  1        35        1.45208597E-01 # Gluon fusion 
  2        35        1.65216384E-06 # Vector boson fusion 
Block EFFHIGGSCOUPLINGS # values of loop-induced couplings 
        25           22           22     0.18455225E-04 # H-Photon-Photon 
        25           21           21     0.58955663E-04 # H-Gluon-Gluon 
        25           22           23     0.00000000E+00 # H-Photon-Z (not yet calculated by SPheno) 
        35           22           22     0.68126359E-04 # H-Photon-Photon 
        35           21           21     0.80289585E-05 # H-Gluon-Gluon 
        35           22           23     0.00000000E+00 # H-Photon-Z (not yet calculated by SPheno) 
   1000012           22           22     0.39526121E-08 # H-Photon-Photon 
   1000012           21           21     0.86594906E-09 # H-Gluon-Gluon 
   1000012           22           23     0.00000000E+00 # H-Photon-Z (not yet calculated by SPheno) 
   1000014           22           22     0.31030635E-08 # H-Photon-Photon 
   1000014           21           21     0.78348721E-09 # H-Gluon-Gluon 
   1000014           22           23     0.00000000E+00 # H-Photon-Z (not yet calculated by SPheno) 
   1000016           22           22     0.46461307E-08 # H-Photon-Photon 
   1000016           21           21     0.10877263E-08 # H-Gluon-Gluon 
   1000016           22           23     0.00000000E+00 # H-Photon-Z (not yet calculated by SPheno) 
        36           22           22     0.12823347E-05 # A-Photon-Photon 
        36           21           21     0.11206547E-04 # A-Gluon-Gluon 
        36           22           23     0.00000000E+00 # A-Photon-Z (not yet calculated by SPheno) 
   1000017           22           22     0.16787812E-09 # A-Photon-Photon 
   1000017           21           21     0.11736453E-08 # A-Gluon-Gluon 
   1000017           22           23     0.00000000E+00 # A-Photon-Z (not yet calculated by SPheno) 
   1000018           22           22     0.14773684E-09 # A-Photon-Photon 
   1000018           21           21     0.10709126E-08 # A-Gluon-Gluon 
   1000018           22           23     0.00000000E+00 # A-Photon-Z (not yet calculated by SPheno) 
   1000019           22           22     0.20509734E-09 # A-Photon-Photon 
   1000019           21           21     0.14644346E-08 # A-Gluon-Gluon 
   1000019           22           23     0.00000000E+00 # A-Photon-Z (not yet calculated by SPheno) 
Block SPhenoLowEnergy # low energy observables 
      20    0.00000000E+00  # (g-2)_e
      21    0.00000000E+00  # (g-2)_mu
      22    0.00000000E+00  # (g-2)_tau
      23    0.00000000E+00  # EDM(e)
      24    0.00000000E+00  # EDM(mu)
      25    0.00000000E+00  # EDM(tau)
      39    0.00000000E+00  # delta(rho)
Block FlavorKitQFV # quark flavor violating observables 
     200    0.00000000E+00  # BR(B->X_s gamma)
     201    0.00000000E+00  # BR(B->X_s gamma)/BR(B->X_s gamma)_SM
     300    0.00000000E+00  # BR(D->mu nu)
     301    0.00000000E+00  # BR(D->mu nu)/BR(D->mu nu)_SM
     400    0.00000000E+00  # BR(Ds->mu nu)
     401    0.00000000E+00  # BR(Ds->mu nu)/BR(Ds->mu nu)_SM
     402    0.00000000E+00  # BR(Ds->tau nu)
     403    0.00000000E+00  # BR(Ds->tau nu)/BR(Ds->tau nu)_SM
     500    0.00000000E+00  # BR(B->mu nu)
     501    0.00000000E+00  # BR(B->mu nu)/BR(B->mu nu)_SM
     502    0.00000000E+00  # BR(B->tau nu)
     503    0.00000000E+00  # BR(B->tau nu)/BR(B->tau nu)_SM
     600    0.00000000E+00  # BR(K->mu nu)
     601    0.00000000E+00  # BR(K->mu nu)/BR(K->mu nu)_SM
     602    0.00000000E+00  # R_K = BR(K->e nu)/(K->mu nu)
     603    0.00000000E+00  # R_K^SM = BR(K->e nu)_SM/(K->mu nu)_SM
    1900    0.00000000E+00  # Delta(M_Bs)
    1901    0.00000000E+00  # Delta(M_Bs)/Delta(M_Bs)_SM
    1902    0.00000000E+00  # Delta(M_Bd)
    1903    0.00000000E+00  # Delta(M_Bd)/Delta(M_Bd)_SM
    4000    0.00000000E+00  # BR(B^0_d->e e)
    4001    0.00000000E+00  # BR(B^0_d->e e)/BR(B^0_d->e e)_SM
    4002    0.00000000E+00  # BR(B^0_s->e e)
    4003    0.00000000E+00  # BR(B^0_s->e e)/BR(B^0_s->e e)_SM
    4004    0.00000000E+00  # BR(B^0_d->mu mu)
    4005    0.00000000E+00  # BR(B^0_d->mu mu)/BR(B^0_d->mu mu)_SM
    4006    0.00000000E+00  # BR(B^0_s->mu mu)
    4007    0.00000000E+00  # BR(B^0_s->mu mu)/BR(B^0_s->mu mu)_SM
    4008    0.00000000E+00  # BR(B^0_d->tau tau)
    4009    0.00000000E+00  # BR(B^0_d->tau tau)/BR(B^0_d->tau tau)_SM
    4010    0.00000000E+00  # BR(B^0_s->tau tau)
    4011    0.00000000E+00  # BR(B^0_s->tau tau)/BR(B^0_s->tau tau)_SM
    5000    0.00000000E+00  # BR(B-> s e e)
    5001    0.00000000E+00  # BR(B-> s e e)/BR(B-> s e e)_SM
    5002    0.00000000E+00  # BR(B-> s mu mu)
    5003    0.00000000E+00  # BR(B-> s mu mu)/BR(B-> s mu mu)_SM
    6000    0.00000000E+00  # BR(B -> K mu mu)
    6001    0.00000000E+00  # BR(B -> K mu mu)/BR(B -> K mu mu)_SM
    7000    0.00000000E+00  # BR(B->s nu nu)
    7001    0.00000000E+00  # BR(B->s nu nu)/BR(B->s nu nu)_SM
    7002    0.00000000E+00  # BR(B->D nu nu)
    7003    0.00000000E+00  # BR(B->D nu nu)/BR(B->D nu nu)_SM
    8000    0.00000000E+00  # BR(K^+ -> pi^+ nu nu)
    8001    0.00000000E+00  # BR(K^+ -> pi^+ nu nu)/BR(K^+ -> pi^+ nu nu)_SM
    8002    0.00000000E+00  # BR(K_L -> pi^0 nu nu)
    8003    0.00000000E+00  # BR(K_L -> pi^0 nu nu)/BR(K_L -> pi^0 nu nu)_SM
    9100    0.00000000E+00  # Delta(M_K)
    9102    0.00000000E+00  # Delta(M_K)/Delta(M_K)_SM
    9103    0.00000000E+00  # epsilon_K
    9104    0.00000000E+00  # epsilon_K/epsilon_K^SM
Block FlavorKitLFV # lepton flavor violating observables 
     701    0.00000000E+00  # BR(mu->e gamma)
     702    0.00000000E+00  # BR(tau->e gamma)
     703    0.00000000E+00  # BR(tau->mu gamma)
     800    0.00000000E+00  # CR(mu-e, Al)
     801    0.00000000E+00  # CR(mu-e, Ti)
     802    0.00000000E+00  # CR(mu-e, Sr)
     803    0.00000000E+00  # CR(mu-e, Sb)
     804    0.00000000E+00  # CR(mu-e, Au)
     805    0.00000000E+00  # CR(mu-e, Pb)
     901    0.00000000E+00  # BR(mu->3e)
     902    0.00000000E+00  # BR(tau->3e)
     903    0.00000000E+00  # BR(tau->3mu)
     904    0.00000000E+00  # BR(tau- -> e- mu+ mu-)
     905    0.00000000E+00  # BR(tau- -> mu- e+ e-)
     906    0.00000000E+00  # BR(tau- -> e+ mu- mu-)
     907    0.00000000E+00  # BR(tau- -> mu+ e- e-)
    1001    0.00000000E+00  # BR(Z->e mu)
    1002    0.00000000E+00  # BR(Z->e tau)
    1003    0.00000000E+00  # BR(Z->mu tau)
    1101    0.00000000E+00  # BR(h->e mu)
    1102    0.00000000E+00  # BR(h->e tau)
    1103    0.00000000E+00  # BR(h->mu tau)
    2001    0.00000000E+00  # BR(tau->e pi)
    2002    0.00000000E+00  # BR(tau->e eta)
    2003    0.00000000E+00  # BR(tau->e eta')
    2004    0.00000000E+00  # BR(tau->mu pi)
    2005    0.00000000E+00  # BR(tau->mu eta)
    2006    0.00000000E+00  # BR(tau->mu eta')
Block FWCOEF Q=  1.60000000E+02  # Wilson coefficients at scale Q 
      030 4422   00   0     0.00000000E+00    # coeffC7sm
      030 4422   00   2     0.00000000E+00    # coeffC7
      030 4322   00   2     0.00000000E+00    # coeffC7p
      030 6421   00   0     0.00000000E+00    # coeffC8sm
      030 6421   00   2     0.00000000E+00    # coeffC8
      030 6321   00   2     0.00000000E+00    # coeffC8p
  0305111 4133   00   0     0.00000000E+00    # coeffC9eeSM
  0305111 4133   00   2     0.00000000E+00    # coeffC9ee
  0305111 4233   00   2     0.00000000E+00    # coeffC9Pee
  0305111 4137   00   0     0.00000000E+00    # coeffC10eeSM
  0305111 4137   00   2     0.00000000E+00    # coeffC10ee
  0305111 4237   00   2     0.00000000E+00    # coeffC10Pee
  0305131 4133   00   0     0.00000000E+00    # coeffC9mumuSM
  0305131 4133   00   2     0.00000000E+00    # coeffC9mumu
  0305131 4233   00   2     0.00000000E+00    # coeffC9Pmumu
  0305131 4137   00   0     0.00000000E+00    # coeffC10mumuSM
  0305131 4137   00   2     0.00000000E+00    # coeffC10mumu
  0305131 4237   00   2     0.00000000E+00    # coeffC10Pmumu
  0305121 4137   00   0     0.00000000E+00    # coeffC11nu1nu1SM
  0305121 4137   00   2     0.00000000E+00    # coeffC11nu1nu1
  0305121 4237   00   2     0.00000000E+00    # coeffC11Pnu1nu1
  0305141 4137   00   0     0.00000000E+00    # coeffC11nu2nu2SM
  0305141 4137   00   2     0.00000000E+00    # coeffC11nu2nu2
  0305141 4237   00   2     0.00000000E+00    # coeffC11Pnu2nu2
  0305161 4137   00   0     0.00000000E+00    # coeffC11nu3nu3SM
  0305161 4137   00   2     0.00000000E+00    # coeffC11nu3nu3
  0305161 4237   00   2     0.00000000E+00    # coeffC11Pnu3nu3
Block IMFWCOEF Q=  1.60000000E+02  # Im(Wilson coefficients) at scale Q 
      030 4422   00   0     0.00000000E+00    # coeffC7sm
      030 4422   00   2     0.00000000E+00    # coeffC7
      030 4322   00   2     0.00000000E+00    # coeffC7p
      030 6421   00   0     0.00000000E+00    # coeffC8sm
      030 6421   00   2     0.00000000E+00    # coeffC8
      030 6321   00   2     0.00000000E+00    # coeffC8p
  0305111 4133   00   0     0.00000000E+00    # coeffC9eeSM
  0305111 4133   00   2     0.00000000E+00    # coeffC9ee
  0305111 4233   00   2     0.00000000E+00    # coeffC9Pee
  0305111 4137   00   0     0.00000000E+00    # coeffC10eeSM
  0305111 4137   00   2     0.00000000E+00    # coeffC10ee
  0305111 4237   00   2     0.00000000E+00    # coeffC10Pee
  0305131 4133   00   0     0.00000000E+00    # coeffC9mumuSM
  0305131 4133   00   2     0.00000000E+00    # coeffC9mumu
  0305131 4233   00   2     0.00000000E+00    # coeffC9Pmumu
  0305131 4137   00   0     0.00000000E+00    # coeffC10mumuSM
  0305131 4137   00   2     0.00000000E+00    # coeffC10mumu
  0305131 4237   00   2     0.00000000E+00    # coeffC10Pmumu
  0305121 4137   00   0     0.00000000E+00    # coeffC11nu1nu1SM
  0305121 4137   00   2     0.00000000E+00    # coeffC11nu1nu1
  0305121 4237   00   2     0.00000000E+00    # coeffC11Pnu1nu1
  0305141 4137   00   0     0.00000000E+00    # coeffC11nu2nu2SM
  0305141 4137   00   2     0.00000000E+00    # coeffC11nu2nu2
  0305141 4237   00   2     0.00000000E+00    # coeffC11Pnu2nu2
  0305161 4137   00   0     0.00000000E+00    # coeffC11nu3nu3SM
  0305161 4137   00   2     0.00000000E+00    # coeffC11nu3nu3
  0305161 4237   00   2     0.00000000E+00    # coeffC11Pnu3nu3
DECAY   1000001     2.59257079E+01   # Sd_1
#    BR                NDA      ID1      ID2
     8.59690712E-01    2            6   -1000024   # BR(Sd_1 -> Fu_3 Cha_4 )
     3.34881336E-03    2            5    1000022   # BR(Sd_1 -> Fd_3 Chi_4 )
     2.75084381E-03    2            5    1000023   # BR(Sd_1 -> Fd_3 Chi_5 )
     6.02007549E-03    2            5    1000025   # BR(Sd_1 -> Fd_3 Chi_6 )
     4.52245420E-04    2            5    1000035   # BR(Sd_1 -> Fd_3 Chi_7 )
     1.27737309E-01    2      1000002        -24   # BR(Sd_1 -> Su_1 VWm )
DECAY   1000003     1.11020218E+00   # Sd_2
#    BR                NDA      ID1      ID2
     2.74698959E-01    2            6   -1000024   # BR(Sd_2 -> Fu_3 Cha_4 )
     6.01089167E-02    2            5    1000022   # BR(Sd_2 -> Fd_3 Chi_4 )
     6.46297658E-02    2            5    1000023   # BR(Sd_2 -> Fd_3 Chi_5 )
     5.63858201E-01    2            5    1000025   # BR(Sd_2 -> Fd_3 Chi_6 )
     1.95863820E-04    2            5    1000035   # BR(Sd_2 -> Fd_3 Chi_7 )
     3.65082375E-02    2      1000002        -24   # BR(Sd_2 -> Su_1 VWm )
DECAY   1000005     6.31806321E-01   # Sd_3
#    BR                NDA      ID1      ID2
     6.68195816E-04    2            3    1000022   # BR(Sd_3 -> Fd_2 Chi_4 )
     6.01443181E-03    2            3    1000023   # BR(Sd_3 -> Fd_2 Chi_5 )
     9.93228159E-01    2            3    1000025   # BR(Sd_3 -> Fd_2 Chi_6 )
DECAY   2000001     6.31698346E-01   # Sd_4
#    BR                NDA      ID1      ID2
     6.23593024E-04    2            1    1000022   # BR(Sd_4 -> Fd_1 Chi_4 )
     5.97275210E-03    2            1    1000023   # BR(Sd_4 -> Fd_1 Chi_5 )
     9.93403404E-01    2            1    1000025   # BR(Sd_4 -> Fd_1 Chi_6 )
DECAY   2000003     3.37011995E-01   # Sd_5
#    BR                NDA      ID1      ID2
     4.49435487E-02    2            4   -1000024   # BR(Sd_5 -> Fu_2 Cha_4 )
     2.86521642E-01    2            4   -1000037   # BR(Sd_5 -> Fu_2 Cha_5 )
     4.15756907E-02    2            3    1000022   # BR(Sd_5 -> Fd_2 Chi_4 )
     3.98177421E-04    2            3    1000023   # BR(Sd_5 -> Fd_2 Chi_5 )
     4.82720391E-01    2            3    1000025   # BR(Sd_5 -> Fd_2 Chi_6 )
     1.43840550E-01    2            3    1000035   # BR(Sd_5 -> Fd_2 Chi_7 )
DECAY   2000005     3.36565233E-01   # Sd_6
#    BR                NDA      ID1      ID2
     4.37927474E-02    2            2   -1000024   # BR(Sd_6 -> Fu_1 Cha_4 )
     2.86938492E-01    2            2   -1000037   # BR(Sd_6 -> Fu_1 Cha_5 )
     4.15601168E-02    2            1    1000022   # BR(Sd_6 -> Fd_1 Chi_4 )
     3.24579722E-04    2            1    1000023   # BR(Sd_6 -> Fd_1 Chi_5 )
     4.83351067E-01    2            1    1000025   # BR(Sd_6 -> Fd_1 Chi_6 )
     1.44032997E-01    2            1    1000035   # BR(Sd_6 -> Fd_1 Chi_7 )
DECAY   1000002     3.46661759E+01   # Su_1
#    BR                NDA      ID1      ID2
     2.72494387E-01    2            6    1000022   # BR(Su_1 -> Fu_3 Chi_4 )
     3.04336057E-01    2            6    1000023   # BR(Su_1 -> Fu_3 Chi_5 )
     4.09100454E-02    2            6    1000025   # BR(Su_1 -> Fu_3 Chi_6 )
     3.82259511E-01    2      1000024          5   # BR(Su_1 -> Cha_4^* Fd_3 )
DECAY   1000004     2.52877549E+00   # Su_2
#    BR                NDA      ID1      ID2
     7.06583561E-04    2            4    1000022   # BR(Su_2 -> Fu_2 Chi_4 )
     6.04812541E-03    2            4    1000023   # BR(Su_2 -> Fu_2 Chi_5 )
     9.93075023E-01    2            4    1000025   # BR(Su_2 -> Fu_2 Chi_6 )
     1.70137515E-04    2      1000024          3   # BR(Su_2 -> Cha_4^* Fd_2 )
DECAY   1000006     2.52794611E+00   # Su_3
#    BR                NDA      ID1      ID2
     6.23356095E-04    2            2    1000022   # BR(Su_3 -> Fu_1 Chi_4 )
     5.97155466E-03    2            2    1000023   # BR(Su_3 -> Fu_1 Chi_5 )
     9.93405085E-01    2            2    1000025   # BR(Su_3 -> Fu_1 Chi_6 )
DECAY   2000002     3.78390639E-01   # Su_4
#    BR                NDA      ID1      ID2
     5.09815864E-02    2            4    1000022   # BR(Su_4 -> Fu_2 Chi_4 )
     1.43522452E-02    2            4    1000023   # BR(Su_4 -> Fu_2 Chi_5 )
     4.17394572E-01    2            4    1000025   # BR(Su_4 -> Fu_2 Chi_6 )
     1.23685688E-01    2            4    1000035   # BR(Su_4 -> Fu_2 Chi_7 )
     1.47813462E-01    2      1000024          3   # BR(Su_4 -> Cha_4^* Fd_2 )
     2.45772446E-01    2      1000037          3   # BR(Su_4 -> Cha_5^* Fd_2 )
DECAY   2000004     3.77949398E-01   # Su_5
#    BR                NDA      ID1      ID2
     5.05168917E-02    2            2    1000022   # BR(Su_5 -> Fu_1 Chi_4 )
     1.38119678E-02    2            2    1000023   # BR(Su_5 -> Fu_1 Chi_5 )
     4.17856604E-01    2            2    1000025   # BR(Su_5 -> Fu_1 Chi_6 )
     1.23846261E-01    2            2    1000035   # BR(Su_5 -> Fu_1 Chi_7 )
     1.47906337E-01    2      1000024          1   # BR(Su_5 -> Cha_4^* Fd_1 )
     2.46061939E-01    2      1000037          1   # BR(Su_5 -> Cha_5^* Fd_1 )
DECAY   2000006     4.03121696E+01   # Su_6
#    BR                NDA      ID1      ID2
     3.08275285E-01    2            6    1000022   # BR(Su_6 -> Fu_3 Chi_4 )
     2.85594724E-01    2            6    1000023   # BR(Su_6 -> Fu_3 Chi_5 )
     2.53691546E-02    2            6    1000025   # BR(Su_6 -> Fu_3 Chi_6 )
     2.18055895E-01    2      1000024          5   # BR(Su_6 -> Cha_4^* Fd_3 )
     4.27689022E-03    2      1000037          5   # BR(Su_6 -> Cha_5^* Fd_3 )
     6.55355261E-03    2      1000002         25   # BR(Su_6 -> Su_1 hh_1 )
     8.43652063E-03    2      1000001         24   # BR(Su_6 -> Sd_1 VWm^* )
     1.43437977E-01    2      1000002         23   # BR(Su_6 -> Su_1 VZ )
DECAY        25     2.53922293E-03   # hh_1
#    BR                NDA      ID1      ID2
     1.22626999E-03    2           22         22   # BR(hh_1 -> VP VP )
     1.31077580E-01    2           21         21   # BR(hh_1 -> VG VG )
     2.16907565E-02    2           23         23   # BR(hh_1 -> VZ VZ )
     2.09710411E-01    2           24        -24   # BR(hh_1 -> VWm^* VWm_virt )
     3.40587181E-04    2          -13         13   # BR(hh_1 -> Cha_2^* Cha_2 )
     9.61856015E-02    2          -15         15   # BR(hh_1 -> Cha_3^* Cha_3 )
     1.87081853E-04    2           -3          3   # BR(hh_1 -> Fd_2^* Fd_2 )
     5.04345618E-01    2           -5          5   # BR(hh_1 -> Fd_3^* Fd_3 )
     3.52354313E-02    2           -4          4   # BR(hh_1 -> Fu_2^* Fu_2 )
DECAY        35     1.77765643E+00   # hh_2
#    BR                NDA      ID1      ID2
     1.27817675E-02    2           22         22   # BR(hh_2 -> VP VP )
     1.82067385E-03    2           21         21   # BR(hh_2 -> VG VG )
     2.66571978E-02    2          -15         15   # BR(hh_2 -> Cha_3^* Cha_3 )
     1.40568458E-01    2           -5          5   # BR(hh_2 -> Fd_3^* Fd_3 )
     8.06419910E-01    2           -6          6   # BR(hh_2 -> Fu_3^* Fu_3 )
     6.78777375E-03    2           25         25   # BR(hh_2 -> hh_1 hh_1 )
     3.15102515E-03    2          -24         24   # BR(hh_2 -> VWm VWm^* )
     1.64984802E-03    2           23         23   # BR(hh_2 -> VZ VZ )
DECAY   1000012     1.45922171E+00   # hh_3
#    BR                NDA      ID1      ID2
     4.43455456E-02    2          -15   -1000024   # BR(hh_3 -> Cha_3^* Cha_4 )
     1.06518642E-04    2          -15   -1000037   # BR(hh_3 -> Cha_3^* Cha_5 )
     4.43455456E-02    2      1000024         15   # BR(hh_3 -> Cha_4^* Cha_3 )
     1.06518642E-04    2      1000037         15   # BR(hh_3 -> Cha_5^* Cha_3 )
     1.41482337E-03    2           12    1000022   # BR(hh_3 -> Chi_1 Chi_4 )
     3.86738498E-04    2           12    1000023   # BR(hh_3 -> Chi_1 Chi_5 )
     2.04327309E-01    2           12    1000025   # BR(hh_3 -> Chi_1 Chi_6 )
     3.46552646E-03    2           14    1000022   # BR(hh_3 -> Chi_2 Chi_4 )
     9.47293156E-04    2           14    1000023   # BR(hh_3 -> Chi_2 Chi_5 )
     5.00487700E-01    2           14    1000025   # BR(hh_3 -> Chi_2 Chi_6 )
     1.37234072E-03    2           16    1000022   # BR(hh_3 -> Chi_3 Chi_4 )
     3.75125967E-04    2           16    1000023   # BR(hh_3 -> Chi_3 Chi_5 )
     1.98192009E-01    2           16    1000025   # BR(hh_3 -> Chi_3 Chi_6 )
DECAY   1000014     1.38304661E+00   # hh_4
#    BR                NDA      ID1      ID2
     9.47740038E-04    2          -11   -1000024   # BR(hh_4 -> Cha_1^* Cha_4 )
     1.82518965E-02    2          -13   -1000024   # BR(hh_4 -> Cha_2^* Cha_4 )
     1.18394673E-04    2          -13   -1000037   # BR(hh_4 -> Cha_2^* Cha_5 )
     9.47740038E-04    2      1000024         11   # BR(hh_4 -> Cha_4^* Cha_1 )
     1.82518965E-02    2      1000024         13   # BR(hh_4 -> Cha_4^* Cha_2 )
     1.18394673E-04    2      1000037         13   # BR(hh_4 -> Cha_5^* Cha_2 )
     1.57810314E-03    2           12    1000022   # BR(hh_4 -> Chi_1 Chi_4 )
     4.31370666E-04    2           12    1000023   # BR(hh_4 -> Chi_1 Chi_5 )
     2.27915069E-01    2           12    1000025   # BR(hh_4 -> Chi_1 Chi_6 )
     3.15926006E-04    2           14    1000022   # BR(hh_4 -> Chi_2 Chi_4 )
     4.56271176E-02    2           14    1000025   # BR(hh_4 -> Chi_2 Chi_6 )
     4.70333376E-03    2           16    1000022   # BR(hh_4 -> Chi_3 Chi_4 )
     1.28564488E-03    2           16    1000023   # BR(hh_4 -> Chi_3 Chi_5 )
     6.79271597E-01    2           16    1000025   # BR(hh_4 -> Chi_3 Chi_6 )
DECAY   1000016     1.38280333E+00   # hh_5
#    BR                NDA      ID1      ID2
     1.81620458E-02    2          -11   -1000024   # BR(hh_5 -> Cha_1^* Cha_4 )
     1.18455297E-04    2          -11   -1000037   # BR(hh_5 -> Cha_1^* Cha_5 )
     9.52758105E-04    2          -13   -1000024   # BR(hh_5 -> Cha_2^* Cha_4 )
     1.81620458E-02    2      1000024         11   # BR(hh_5 -> Cha_4^* Cha_1 )
     9.52758105E-04    2      1000024         13   # BR(hh_5 -> Cha_4^* Cha_2 )
     1.18455297E-04    2      1000037         11   # BR(hh_5 -> Cha_5^* Cha_1 )
     3.52706724E-03    2           12    1000022   # BR(hh_5 -> Chi_1 Chi_4 )
     9.64115278E-04    2           12    1000023   # BR(hh_5 -> Chi_1 Chi_5 )
     5.09391206E-01    2           12    1000025   # BR(hh_5 -> Chi_1 Chi_6 )
     2.62533843E-03    2           14    1000022   # BR(hh_5 -> Chi_2 Chi_4 )
     7.17629895E-04    2           14    1000023   # BR(hh_5 -> Chi_2 Chi_5 )
     3.79160424E-01    2           14    1000025   # BR(hh_5 -> Chi_2 Chi_6 )
     4.46118520E-04    2           16    1000022   # BR(hh_5 -> Chi_3 Chi_4 )
     1.21945417E-04    2           16    1000023   # BR(hh_5 -> Chi_3 Chi_5 )
     6.44299739E-02    2           16    1000025   # BR(hh_5 -> Chi_3 Chi_6 )
DECAY        36     1.84742682E+00   # Ah_2
#    BR                NDA      ID1      ID2
     2.36140036E-03    2           21         21   # BR(Ah_2 -> VG VG )
     2.56959596E-02    2          -15         15   # BR(Ah_2 -> Cha_3^* Cha_3 )
     1.35507503E-01    2           -5          5   # BR(Ah_2 -> Fd_3^* Fd_3 )
     8.30199286E-01    2           -6          6   # BR(Ah_2 -> Fu_3^* Fu_3 )
     6.07507198E-03    2           25         23   # BR(Ah_2 -> hh_1 VZ )
DECAY   1000017     1.45922201E+00   # Ah_3
#    BR                NDA      ID1      ID2
     4.43455393E-02    2          -15   -1000024   # BR(Ah_3 -> Cha_3^* Cha_4 )
     1.06526035E-04    2          -15   -1000037   # BR(Ah_3 -> Cha_3^* Cha_5 )
     4.43455393E-02    2      1000024         15   # BR(Ah_3 -> Cha_4^* Cha_3 )
     1.06526035E-04    2      1000037         15   # BR(Ah_3 -> Cha_5^* Cha_3 )
     1.41486131E-03    2           12    1000022   # BR(Ah_3 -> Chi_1 Chi_4 )
     3.86748869E-04    2           12    1000023   # BR(Ah_3 -> Chi_1 Chi_5 )
     2.04332805E-01    2           12    1000025   # BR(Ah_3 -> Chi_1 Chi_6 )
     3.46540276E-03    2           14    1000022   # BR(Ah_3 -> Chi_2 Chi_4 )
     9.47259343E-04    2           14    1000023   # BR(Ah_3 -> Chi_2 Chi_5 )
     5.00469876E-01    2           14    1000025   # BR(Ah_3 -> Chi_2 Chi_6 )
     1.37242587E-03    2           16    1000022   # BR(Ah_3 -> Chi_3 Chi_4 )
     3.75149245E-04    2           16    1000023   # BR(Ah_3 -> Chi_3 Chi_5 )
     1.98204323E-01    2           16    1000025   # BR(Ah_3 -> Chi_3 Chi_6 )
DECAY   1000018     1.38304752E+00   # Ah_4
#    BR                NDA      ID1      ID2
     8.84400234E-04    2          -11   -1000024   # BR(Ah_4 -> Cha_1^* Cha_4 )
     1.83155477E-02    2          -13   -1000024   # BR(Ah_4 -> Cha_2^* Cha_4 )
     1.18807585E-04    2          -13   -1000037   # BR(Ah_4 -> Cha_2^* Cha_5 )
     8.84400234E-04    2      1000024         11   # BR(Ah_4 -> Cha_4^* Cha_1 )
     1.83155477E-02    2      1000024         13   # BR(Ah_4 -> Cha_4^* Cha_2 )
     1.18807585E-04    2      1000037         13   # BR(Ah_4 -> Cha_5^* Cha_2 )
     1.54164908E-03    2           12    1000022   # BR(Ah_4 -> Chi_1 Chi_4 )
     4.21406038E-04    2           12    1000023   # BR(Ah_4 -> Chi_1 Chi_5 )
     2.22650249E-01    2           12    1000025   # BR(Ah_4 -> Chi_1 Chi_6 )
     3.30222785E-04    2           14    1000022   # BR(Ah_4 -> Chi_2 Chi_4 )
     4.76919075E-02    2           14    1000025   # BR(Ah_4 -> Chi_2 Chi_6 )
     4.72548671E-03    2           16    1000022   # BR(Ah_4 -> Chi_3 Chi_4 )
     1.29170034E-03    2           16    1000023   # BR(Ah_4 -> Chi_3 Chi_5 )
     6.82471001E-01    2           16    1000025   # BR(Ah_4 -> Chi_3 Chi_6 )
DECAY   1000019     1.38280244E+00   # Ah_5
#    BR                NDA      ID1      ID2
     1.82254076E-02    2          -11   -1000024   # BR(Ah_5 -> Cha_1^* Cha_4 )
     1.18868598E-04    2          -11   -1000037   # BR(Ah_5 -> Cha_1^* Cha_5 )
     8.89083708E-04    2          -13   -1000024   # BR(Ah_5 -> Cha_2^* Cha_4 )
     1.82254076E-02    2      1000024         11   # BR(Ah_5 -> Cha_4^* Cha_1 )
     8.89083708E-04    2      1000024         13   # BR(Ah_5 -> Cha_4^* Cha_2 )
     1.18868598E-04    2      1000037         11   # BR(Ah_5 -> Cha_5^* Cha_1 )
     3.56348881E-03    2           12    1000022   # BR(Ah_5 -> Chi_1 Chi_4 )
     9.74071029E-04    2           12    1000023   # BR(Ah_5 -> Chi_1 Chi_5 )
     5.14651336E-01    2           12    1000025   # BR(Ah_5 -> Chi_1 Chi_6 )
     2.61117079E-03    2           14    1000022   # BR(Ah_5 -> Chi_2 Chi_4 )
     7.13757205E-04    2           14    1000023   # BR(Ah_5 -> Chi_2 Chi_5 )
     3.77114284E-01    2           14    1000025   # BR(Ah_5 -> Chi_2 Chi_6 )
     4.23868844E-04    2           16    1000022   # BR(Ah_5 -> Chi_3 Chi_4 )
     1.15863521E-04    2           16    1000023   # BR(Ah_5 -> Chi_3 Chi_5 )
     6.12165989E-02    2           16    1000025   # BR(Ah_5 -> Chi_3 Chi_6 )
DECAY        37     1.85599556E+00   # Hpm_2
#    BR                NDA      ID1      ID2
     5.79193741E-03    2           12        -15   # BR(Hpm_2^* -> Chi_1 Cha_3^* )
     1.42358706E-02    2           14        -15   # BR(Hpm_2^* -> Chi_2 Cha_3^* )
     5.60853785E-03    2           16        -15   # BR(Hpm_2^* -> Chi_3 Cha_3^* )
     9.70865784E-01    2            6         -5   # BR(Hpm_2^* -> Fu_3 Fd_3^* )
     3.34145386E-03    2           25         24   # BR(Hpm_2^* -> hh_1 VWm^* )
DECAY   1000011     5.13330529E+00   # Hpm_3
#    BR                NDA      ID1      ID2
     3.86904135E-03    2           12   -1000024   # BR(Hpm_3 -> Chi_1 Cha_4 )
     9.50962235E-03    2           14   -1000024   # BR(Hpm_3 -> Chi_2 Cha_4 )
     3.74653090E-03    2           16   -1000024   # BR(Hpm_3 -> Chi_3 Cha_4 )
     1.00904743E-02    2      1000022         15   # BR(Hpm_3 -> Chi_4 Cha_3 )
     1.44062299E-02    2      1000023         15   # BR(Hpm_3 -> Chi_5 Cha_3 )
     9.58378093E-01    2      1000025         15   # BR(Hpm_3 -> Chi_6 Cha_3 )
DECAY   2000011     5.21056731E+00   # Hpm_4
#    BR                NDA      ID1      ID2
     6.80061509E-04    2      1000022         13   # BR(Hpm_4 -> Chi_4 Cha_2 )
     6.21679907E-03    2      1000023         13   # BR(Hpm_4 -> Chi_5 Cha_2 )
     9.93038433E-01    2      1000025         13   # BR(Hpm_4 -> Chi_6 Cha_2 )
DECAY   1000013     5.21101907E+00   # Hpm_5
#    BR                NDA      ID1      ID2
     6.45991609E-04    2      1000022         11   # BR(Hpm_5 -> Chi_4 Cha_1 )
     6.18763369E-03    2      1000023         11   # BR(Hpm_5 -> Chi_5 Cha_1 )
     9.93166373E-01    2      1000025         11   # BR(Hpm_5 -> Chi_6 Cha_1 )
DECAY   2000013     1.36441704E+00   # Hpm_6
#    BR                NDA      ID1      ID2
     6.94678720E-03    2           12   -1000024   # BR(Hpm_6 -> Chi_1 Cha_4 )
     3.33770066E-04    2           12   -1000037   # BR(Hpm_6 -> Chi_1 Cha_5 )
     3.23504502E-03    2           14   -1000024   # BR(Hpm_6 -> Chi_2 Cha_4 )
     1.55416317E-04    2           14   -1000037   # BR(Hpm_6 -> Chi_2 Cha_5 )
     1.73541608E-02    2      1000022         11   # BR(Hpm_6 -> Chi_4 Cha_1 )
     1.24687819E-02    2      1000023         11   # BR(Hpm_6 -> Chi_5 Cha_1 )
     9.59140633E-01    2      1000025         11   # BR(Hpm_6 -> Chi_6 Cha_1 )
     2.61525993E-04    2      1000035         11   # BR(Hpm_6 -> Chi_7 Cha_1 )
DECAY   1000015     1.36568777E+00   # Hpm_7
#    BR                NDA      ID1      ID2
     9.56018278E-04    2           12   -1000024   # BR(Hpm_7 -> Chi_1 Cha_4 )
     1.30075130E-03    2           14   -1000024   # BR(Hpm_7 -> Chi_2 Cha_4 )
     7.90020785E-03    2           16   -1000024   # BR(Hpm_7 -> Chi_3 Cha_4 )
     3.81405743E-04    2           16   -1000037   # BR(Hpm_7 -> Chi_3 Cha_5 )
     1.74060114E-02    2      1000022         13   # BR(Hpm_7 -> Chi_4 Cha_2 )
     1.25451821E-02    2      1000023         13   # BR(Hpm_7 -> Chi_5 Cha_2 )
     9.59073169E-01    2      1000025         13   # BR(Hpm_7 -> Chi_6 Cha_2 )
     2.61216276E-04    2      1000035         13   # BR(Hpm_7 -> Chi_7 Cha_2 )
DECAY   2000015     1.67300783E+00   # Hpm_8
#    BR                NDA      ID1      ID2
     2.63903072E-04    2           12   -1000024   # BR(Hpm_8 -> Chi_1 Cha_4 )
     6.48873113E-04    2           14   -1000024   # BR(Hpm_8 -> Chi_2 Cha_4 )
     2.16692593E-04    2           14   -1000037   # BR(Hpm_8 -> Chi_2 Cha_5 )
     2.55501859E-04    2           16   -1000024   # BR(Hpm_8 -> Chi_3 Cha_4 )
     3.08625929E-02    2      1000022         15   # BR(Hpm_8 -> Chi_4 Cha_3 )
     3.07669211E-02    2      1000023         15   # BR(Hpm_8 -> Chi_5 Cha_3 )
     9.36611052E-01    2      1000025         15   # BR(Hpm_8 -> Chi_6 Cha_3 )
     2.00774737E-04    2      1000035         15   # BR(Hpm_8 -> Chi_7 Cha_3 )
DECAY   1000021     2.47545742E+02   # Glu
#    BR                NDA      ID1      ID2
     4.15549563E-02    2            1   -2000001   # BR(Glu -> Fd_1 Sd_4^* )
     4.15549563E-02    2           -1    2000001   # BR(Glu -> Fd_1^* Sd_4 )
     4.04101232E-02    2            1   -2000005   # BR(Glu -> Fd_1 Sd_6^* )
     4.04101232E-02    2           -1    2000005   # BR(Glu -> Fd_1^* Sd_6 )
     4.15549460E-02    2            3   -1000005   # BR(Glu -> Fd_2 Sd_3^* )
     4.15549460E-02    2           -3    1000005   # BR(Glu -> Fd_2^* Sd_3 )
     4.04101563E-02    2            3   -2000003   # BR(Glu -> Fd_2 Sd_5^* )
     4.04101563E-02    2           -3    2000003   # BR(Glu -> Fd_2^* Sd_5 )
     4.29760995E-02    2            5   -1000001   # BR(Glu -> Fd_3 Sd_1^* )
     4.29760995E-02    2           -5    1000001   # BR(Glu -> Fd_3^* Sd_1 )
     4.15903133E-02    2            5   -1000003   # BR(Glu -> Fd_3 Sd_2^* )
     4.15903133E-02    2           -5    1000003   # BR(Glu -> Fd_3^* Sd_2 )
     4.15317469E-02    2            2   -1000006   # BR(Glu -> Fu_1 Su_3^* )
     4.15317469E-02    2           -2    1000006   # BR(Glu -> Fu_1^* Su_3 )
     4.04993088E-02    2            2   -2000004   # BR(Glu -> Fu_1 Su_5^* )
     4.04993088E-02    2           -2    2000004   # BR(Glu -> Fu_1^* Su_5 )
     4.15314856E-02    2            4   -1000004   # BR(Glu -> Fu_2 Su_2^* )
     4.15314856E-02    2           -4    1000004   # BR(Glu -> Fu_2^* Su_2 )
     4.04995741E-02    2            4   -2000002   # BR(Glu -> Fu_2 Su_4^* )
     4.04995741E-02    2           -4    2000002   # BR(Glu -> Fu_2^* Su_4 )
     4.31456567E-02    2            6   -1000002   # BR(Glu -> Fu_3 Su_1^* )
     4.31456567E-02    2           -6    1000002   # BR(Glu -> Fu_3^* Su_1 )
     4.42401151E-02    2            6   -2000006   # BR(Glu -> Fu_3 Su_6^* )
     4.42401151E-02    2           -6    2000006   # BR(Glu -> Fu_3^* Su_6 )
DECAY         6     1.43634221E+00   # Fu_3
#    BR                NDA      ID1      ID2
     1.00000000E+00    2            5         24   # BR(Fu_3 -> Fd_3 VWm^* )
DECAY        13     1.08297923E-18   # Cha_2
#    BR                NDA      ID1      ID2
#    BR                NDA      ID1      ID2       ID3
     2.00844363E-02    3           11         12         12   # BR(Cha_2 -> Cha_1 Chi_1 Chi_1 )
     3.43487728E-02    3           11         12         14   # BR(Cha_2 -> Cha_1 Chi_1 Chi_2 )
     1.30859311E-01    3           11         12         16   # BR(Cha_2 -> Cha_1 Chi_1 Chi_3 )
     1.20647274E-02    3           11         14         14   # BR(Cha_2 -> Cha_1 Chi_2 Chi_2 )
     6.15884856E-02    3           11         14         16   # BR(Cha_2 -> Cha_1 Chi_2 Chi_3 )
     1.01633339E-03    3           11         16         16   # BR(Cha_2 -> Cha_1 Chi_3 Chi_3 )
     7.27730737E-02    3           12         -2          1   # BR(Cha_2 -> Chi_1 Fu_1^* Fd_1 )
     9.23301536E-02    3           14         -2          1   # BR(Cha_2 -> Chi_2 Fu_1^* Fd_1 )
     5.74934706E-01    3           16         -2          1   # BR(Cha_2 -> Chi_3 Fu_1^* Fd_1 )
DECAY        15     1.83888204E-12   # Cha_3
#    BR                NDA      ID1      ID2
#    BR                NDA      ID1      ID2       ID3
     3.04644683E-02    3           11         12         12   # BR(Cha_3 -> Cha_1 Chi_1 Chi_1 )
     8.93017090E-02    3           11         12         14   # BR(Cha_3 -> Cha_1 Chi_1 Chi_2 )
     2.96949418E-02    3           11         12         16   # BR(Cha_3 -> Cha_1 Chi_1 Chi_3 )
     3.54518685E-02    3           11         14         14   # BR(Cha_3 -> Cha_1 Chi_2 Chi_2 )
     1.44466479E-02    3           11         14         16   # BR(Cha_3 -> Cha_1 Chi_2 Chi_3 )
     1.88950598E-04    3           11         16         16   # BR(Cha_3 -> Cha_1 Chi_3 Chi_3 )
     4.31546678E-03    3           13         12         12   # BR(Cha_3 -> Cha_2 Chi_1 Chi_1 )
     1.60841282E-02    3           13         12         14   # BR(Cha_3 -> Cha_2 Chi_1 Chi_2 )
     3.82766596E-02    3           13         12         16   # BR(Cha_3 -> Cha_2 Chi_1 Chi_3 )
     1.34573925E-02    3           13         14         14   # BR(Cha_3 -> Cha_2 Chi_2 Chi_2 )
     8.91033101E-02    3           13         14         16   # BR(Cha_3 -> Cha_2 Chi_2 Chi_3 )
     3.30142412E-02    3           13         16         16   # BR(Cha_3 -> Cha_2 Chi_3 Chi_3 )
     1.35242595E-01    3           12         -2          1   # BR(Cha_3 -> Chi_1 Fu_1^* Fd_1 )
     1.71425673E-03    3           12         -4          3   # BR(Cha_3 -> Chi_1 Fu_2^* Fd_2 )
     3.32409785E-01    3           14         -2          1   # BR(Cha_3 -> Chi_2 Fu_1^* Fd_1 )
     4.21343370E-03    3           14         -4          3   # BR(Cha_3 -> Chi_2 Fu_2^* Fd_2 )
     1.30960170E-01    3           16         -2          1   # BR(Cha_3 -> Chi_3 Fu_1^* Fd_1 )
     1.65997519E-03    3           16         -4          3   # BR(Cha_3 -> Chi_3 Fu_2^* Fd_2 )
DECAY   1000024     3.03112630E-12   # Cha_4
#    BR                NDA      ID1      ID2
     1.02001418E-04    2          -11         25   # BR(Cha_4^* -> Cha_1^* hh_1 )
     1.57681544E-01    2          -13         25   # BR(Cha_4^* -> Cha_2^* hh_1 )
     1.22653237E-01    2          -15         25   # BR(Cha_4^* -> Cha_3^* hh_1 )
     2.03065501E-03    2          -13         23   # BR(Cha_4^* -> Cha_2^* VZ )
     3.15499138E-02    2          -15         23   # BR(Cha_4^* -> Cha_3^* VZ )
     4.80939365E-01    2           14         24   # BR(Cha_4^* -> Chi_2 VWm^* )
     1.26661163E-01    2           16         24   # BR(Cha_4^* -> Chi_3 VWm^* )
#    BR                NDA      ID1      ID2       ID3
     1.78208238E-04    3          -11         15        -15   # BR(Cha_4^* -> Cha_1^* Cha_3 Cha_3^* )
     1.94996495E-04    3          -13         15        -15   # BR(Cha_4^* -> Cha_2^* Cha_3 Cha_3^* )
     4.81639797E-04    3          -15         15        -15   # BR(Cha_4^* -> Cha_3^* Cha_3 Cha_3^* )
     1.80394819E-03    3          -11         12    1000022   # BR(Cha_4^* -> Cha_1^* Chi_1 Chi_4 )
     8.54101105E-04    3          -11         14    1000022   # BR(Cha_4^* -> Cha_1^* Chi_2 Chi_4 )
     2.22534498E-04    3          -13         12    1000022   # BR(Cha_4^* -> Cha_2^* Chi_1 Chi_4 )
     2.82338554E-04    3          -13         14    1000022   # BR(Cha_4^* -> Cha_2^* Chi_2 Chi_4 )
     1.75810640E-03    3          -13         16    1000022   # BR(Cha_4^* -> Cha_2^* Chi_3 Chi_4 )
     6.38847467E-03    3          -11          5         -5   # BR(Cha_4^* -> Cha_1^* Fd_3 Fd_3^* )
     6.91053286E-03    3          -13          5         -5   # BR(Cha_4^* -> Cha_2^* Fd_3 Fd_3^* )
     8.41288018E-03    3          -15          5         -5   # BR(Cha_4^* -> Cha_3^* Fd_3 Fd_3^* )
     2.75851649E-03    3          -11          6         -6   # BR(Cha_4^* -> Cha_1^* Fu_3 Fu_3^* )
     3.21602824E-03    3          -13          6         -6   # BR(Cha_4^* -> Cha_2^* Fu_3 Fu_3^* )
     8.43287458E-03    3          -15          6         -6   # BR(Cha_4^* -> Cha_3^* Fu_3 Fu_3^* )
     2.66641499E-02    3           14          6         -5   # BR(Cha_4^* -> Chi_2 Fu_3 Fd_3^* )
     1.51787658E-03    3           16          6         -5   # BR(Cha_4^* -> Chi_3 Fu_3 Fd_3^* )
     8.00498245E-03    3      1000022          2         -1   # BR(Cha_4^* -> Chi_4 Fu_1 Fd_1^* )
DECAY   1000037     2.44947789E+01   # Cha_5
#    BR                NDA      ID1      ID2
     5.29327421E-02    2      1000024         36   # BR(Cha_5^* -> Cha_4^* Ah_2 )
     1.99507338E-01    2      1000024         25   # BR(Cha_5^* -> Cha_4^* hh_1 )
     5.18722940E-02    2      1000024         35   # BR(Cha_5^* -> Cha_4^* hh_2 )
     1.89944191E-01    2      1000024         23   # BR(Cha_5^* -> Cha_4^* VZ )
     5.27636555E-02    2      1000022         37   # BR(Cha_5^* -> Chi_4 Hpm_2^* )
     5.19980525E-02    2      1000023         37   # BR(Cha_5^* -> Chi_5 Hpm_2^* )
     1.94251013E-01    2      1000022         24   # BR(Cha_5^* -> Chi_4 VWm^* )
     1.85719154E-01    2      1000023         24   # BR(Cha_5^* -> Chi_5 VWm^* )
     4.36652439E-04    2      1000025         24   # BR(Cha_5^* -> Chi_6 VWm^* )
     3.43732580E-03    2           -5    1000002   # BR(Cha_5^* -> Fd_3^* Su_1 )
#    BR                NDA      ID1      ID2       ID3
     1.28360946E-04    3      1000024          5         -5   # BR(Cha_5^* -> Cha_4^* Fd_3 Fd_3^* )
     6.69415840E-03    3      1000024          6         -6   # BR(Cha_5^* -> Cha_4^* Fu_3 Fu_3^* )
     5.12707810E-03    3      1000022          6         -5   # BR(Cha_5^* -> Chi_4 Fu_3 Fd_3^* )
     5.03145507E-03    3      1000023          6         -5   # BR(Cha_5^* -> Chi_5 Fu_3 Fd_3^* )
DECAY   1000022     2.30003525E-12   # Chi_4
#    BR                NDA      ID1      ID2
     1.12436030E-01    2           11         24   # BR(Chi_4 -> Cha_1 VWm^* )
     1.12436030E-01    2          -11        -24   # BR(Chi_4 -> Cha_1^* VWm )
     1.63284395E-01    2           13         24   # BR(Chi_4 -> Cha_2 VWm^* )
     1.63284395E-01    2          -13        -24   # BR(Chi_4 -> Cha_2^* VWm )
     1.45534717E-01    2           15         24   # BR(Chi_4 -> Cha_3 VWm^* )
     1.45534717E-01    2          -15        -24   # BR(Chi_4 -> Cha_3^* VWm )
     1.07177798E-03    2           14         25   # BR(Chi_4 -> Chi_2 hh_1 )
     5.93955228E-02    2           16         25   # BR(Chi_4 -> Chi_3 hh_1 )
     2.09312663E-02    2           16         23   # BR(Chi_4 -> Chi_3 VZ )
#    BR                NDA      ID1      ID2       ID3
     1.30064963E-04    3           12        -15         15   # BR(Chi_4 -> Chi_1 Cha_3^* Cha_3 )
     4.10224695E-04    3           14        -15         15   # BR(Chi_4 -> Chi_2 Cha_3^* Cha_3 )
     1.03173692E-04    3           16        -15         15   # BR(Chi_4 -> Chi_3 Cha_3^* Cha_3 )
     2.23433499E-03    3           14         -5          5   # BR(Chi_4 -> Chi_2 Fd_3^* Fd_3 )
     1.00024612E-04    3           16         -5          5   # BR(Chi_4 -> Chi_3 Fd_3^* Fd_3 )
     1.00302551E-04    3           12         -6          6   # BR(Chi_4 -> Chi_1 Fu_3^* Fu_3 )
     2.23567905E-03    3           14         -6          6   # BR(Chi_4 -> Chi_2 Fu_3^* Fu_3 )
     8.93860623E-04    3           16         -6          6   # BR(Chi_4 -> Chi_3 Fu_3^* Fu_3 )
     8.01465027E-03    3           11         -5          6   # BR(Chi_4 -> Cha_1 Fd_3^* Fu_3 )
     8.01465027E-03    3          -11          5         -6   # BR(Chi_4 -> Cha_1^* Fd_3 Fu_3^* )
     9.30978730E-03    3           13         -5          6   # BR(Chi_4 -> Cha_2 Fd_3^* Fu_3 )
     9.30978730E-03    3          -13          5         -6   # BR(Chi_4 -> Cha_2^* Fd_3 Fu_3^* )
     1.73507635E-02    3           15         -5          6   # BR(Chi_4 -> Cha_3 Fd_3^* Fu_3 )
     1.73507635E-02    3          -15          5         -6   # BR(Chi_4 -> Cha_3^* Fd_3 Fu_3^* )
DECAY   1000023     2.99849422E-11   # Chi_5
#    BR                NDA      ID1      ID2
     7.53704018E-03    2           11         24   # BR(Chi_5 -> Cha_1 VWm^* )
     7.53704018E-03    2          -11        -24   # BR(Chi_5 -> Cha_1^* VWm )
     8.67105797E-03    2           13         24   # BR(Chi_5 -> Cha_2 VWm^* )
     8.67105797E-03    2          -13        -24   # BR(Chi_5 -> Cha_2^* VWm )
     1.15523750E-02    2           15         24   # BR(Chi_5 -> Cha_3 VWm^* )
     1.15523750E-02    2          -15        -24   # BR(Chi_5 -> Cha_3^* VWm )
     1.79784584E-04    2           16         25   # BR(Chi_5 -> Chi_3 hh_1 )
     2.04233960E-03    2           16         23   # BR(Chi_5 -> Chi_3 VZ )
#    BR                NDA      ID1      ID2       ID3
     2.21911727E-02    3           12        -11   -1000024   # BR(Chi_5 -> Chi_1 Cha_1^* Cha_4 )
     3.15069226E-03    3           12        -13   -1000024   # BR(Chi_5 -> Chi_1 Cha_2^* Cha_4 )
     2.21911727E-02    3           12    1000024         11   # BR(Chi_5 -> Chi_1 Cha_4^* Cha_1 )
     3.15075441E-03    3           12    1000024         13   # BR(Chi_5 -> Chi_1 Cha_4^* Cha_2 )
     1.05066793E-02    3           14        -11   -1000024   # BR(Chi_5 -> Chi_2 Cha_1^* Cha_4 )
     3.99741112E-03    3           14        -13   -1000024   # BR(Chi_5 -> Chi_2 Cha_2^* Cha_4 )
     1.05066793E-02    3           14    1000024         11   # BR(Chi_5 -> Chi_2 Cha_4^* Cha_1 )
     3.99749006E-03    3           14    1000024         13   # BR(Chi_5 -> Chi_2 Cha_4^* Cha_2 )
     1.42137668E-04    3           16        -11   -1000024   # BR(Chi_5 -> Chi_3 Cha_1^* Cha_4 )
     2.48916559E-02    3           16        -13   -1000024   # BR(Chi_5 -> Chi_3 Cha_2^* Cha_4 )
     1.42137668E-04    3           16    1000024         11   # BR(Chi_5 -> Chi_3 Cha_4^* Cha_1 )
     2.48921472E-02    3           16    1000024         13   # BR(Chi_5 -> Chi_3 Cha_4^* Cha_2 )
     4.37187607E-02    3      1000022        -11         11   # BR(Chi_5 -> Chi_4 Cha_1^* Cha_1 )
     4.31363553E-02    3      1000022        -13         13   # BR(Chi_5 -> Chi_4 Cha_2^* Cha_2 )
     1.90288435E-01    3      1000022         -1          1   # BR(Chi_5 -> Chi_4 Fd_1^* Fd_1 )
     1.87058969E-01    3      1000022         -3          3   # BR(Chi_5 -> Chi_4 Fd_2^* Fd_2 )
     1.01637118E-04    3           14         -6          6   # BR(Chi_5 -> Chi_2 Fu_3^* Fu_3 )
     1.46598980E-01    3      1000022         -2          2   # BR(Chi_5 -> Chi_4 Fu_1^* Fu_1 )
     4.59403168E-04    3           11         -5          6   # BR(Chi_5 -> Cha_1 Fd_3^* Fu_3 )
     4.59403168E-04    3          -11          5         -6   # BR(Chi_5 -> Cha_1^* Fd_3 Fu_3^* )
     5.35810608E-04    3           13         -5          6   # BR(Chi_5 -> Cha_2 Fd_3^* Fu_3 )
     5.35810608E-04    3          -13          5         -6   # BR(Chi_5 -> Cha_2^* Fd_3 Fu_3^* )
     7.39236372E-04    3           15         -5          6   # BR(Chi_5 -> Cha_3 Fd_3^* Fu_3 )
     7.39236372E-04    3          -15          5         -6   # BR(Chi_5 -> Cha_3^* Fd_3 Fu_3^* )
     9.85130939E-02    3     -1000024         -1          2   # BR(Chi_5 -> Cha_4 Fd_1^* Fu_1 )
     9.85130939E-02    3      1000024          1         -2   # BR(Chi_5 -> Cha_4^* Fd_1 Fu_1^* )
     4.65838303E-04    3     -1000024         -3          4   # BR(Chi_5 -> Cha_4 Fd_2^* Fu_2 )
     4.65838303E-04    3      1000024          3         -4   # BR(Chi_5 -> Cha_4^* Fd_2 Fu_2^* )
DECAY   1000025     1.36372408E+00   # Chi_6
#    BR                NDA      ID1      ID2
     2.45921400E-01    2     -1000024         24   # BR(Chi_6 -> Cha_4 VWm^* )
     2.45921400E-01    2      1000024        -24   # BR(Chi_6 -> Cha_4^* VWm )
     2.27520050E-02    2      1000022         25   # BR(Chi_6 -> Chi_4 hh_1 )
     2.34463803E-01    2      1000023         25   # BR(Chi_6 -> Chi_5 hh_1 )
     2.22409528E-01    2      1000022         23   # BR(Chi_6 -> Chi_4 VZ )
     2.66335609E-02    2      1000023         23   # BR(Chi_6 -> Chi_5 VZ )
#    BR                NDA      ID1      ID2       ID3
     9.14559658E-04    3     -1000024         -5          6   # BR(Chi_6 -> Cha_4 Fd_3^* Fu_3 )
     9.14559658E-04    3      1000024          5         -6   # BR(Chi_6 -> Cha_4^* Fd_3 Fu_3^* )
DECAY   1000035     2.40497108E+01   # Chi_7
#    BR                NDA      ID1      ID2
     1.06197152E-02    2      1000022         36   # BR(Chi_7 -> Chi_4 Ah_2 )
     4.30727705E-02    2      1000023         36   # BR(Chi_7 -> Chi_5 Ah_2 )
     5.33225183E-02    2     -1000024         37   # BR(Chi_7 -> Cha_4 Hpm_2^* )
     5.33225183E-02    2      1000024        -37   # BR(Chi_7 -> Cha_4^* Hpm_2 )
     1.83267532E-01    2     -1000024         24   # BR(Chi_7 -> Cha_4 VWm^* )
     1.83267532E-01    2      1000024        -24   # BR(Chi_7 -> Cha_4^* VWm )
     1.84395091E-01    2      1000022         25   # BR(Chi_7 -> Chi_4 hh_1 )
     4.24185678E-02    2      1000022         35   # BR(Chi_7 -> Chi_4 hh_2 )
     1.83417406E-02    2      1000023         25   # BR(Chi_7 -> Chi_5 hh_1 )
     1.05626135E-02    2      1000023         35   # BR(Chi_7 -> Chi_5 hh_2 )
     1.88206342E-02    2      1000022         23   # BR(Chi_7 -> Chi_4 VZ )
     1.79257927E-01    2      1000023         23   # BR(Chi_7 -> Chi_5 VZ )
     4.52005300E-04    2      1000025         23   # BR(Chi_7 -> Chi_6 VZ )
#    BR                NDA      ID1      ID2       ID3
     2.02846319E-03    3      1000022         -6          6   # BR(Chi_7 -> Chi_4 Fu_3^* Fu_3 )
     5.12139696E-03    3      1000023         -6          6   # BR(Chi_7 -> Chi_5 Fu_3^* Fu_3 )
     5.72010279E-03    3     -1000024         -5          6   # BR(Chi_7 -> Cha_4 Fd_3^* Fu_3 )
     5.72010279E-03    3      1000024          5         -6   # BR(Chi_7 -> Cha_4^* Fd_3 Fu_3^* )
