#
#                              ======================
#                              | THE SUSYHIT OUTPUT |
#                              ======================
#
#
#              ------------------------------------------------------
#              |     This is the output of the SUSY-HIT package     |
#              |  created by A.Djouadi, M.Muehlleitner and M.Spira. |
#              |  In case of problems with SUSY-HIT email to        |
#              |           margarete.muehlleitner@cern.ch           |
#              |           michael.spira@psi.ch                     |
#              |           abdelhak.djouadi@cern.ch                 |
#              ------------------------------------------------------
#
#              ------------------------------------------------------
#              |  SUSY Les Houches Accord - MSSM Spectrum + Decays  |
#              |              based on the decay programs           |
#              |                                                    |
#              |                     SDECAY 1.3b                    |
#              |                                                    |
#              |  Authors: M.Muhlleitner, A.Djouadi and Y.Mambrini  |
#              |  Ref.:    Comput.Phys.Commun.168(2005)46           |
#              |           [hep-ph/0311167]                         |
#              |                                                    |
#              |                     HDECAY 3.4                     |
#              |                                                    |
#              |  By: A.Djouadi,J.Kalinowski,M.Muhlleitner,M.Spira  |
#              |  Ref.:    Comput.Phys.Commun.108(1998)56           |
#              |           [hep-ph/9704448]                         |
#              |                                                    |
#              |                                                    |
#              |  If not stated otherwise all DRbar couplings and   |
#              |  soft SUSY breaking masses are given at the scale  |
#              |  Q=  0.50007704E+04
#              |                                                    |
#              ------------------------------------------------------
#
#
BLOCK DCINFO  # Decay Program information
     1   SDECAY/HDECAY # decay calculator
     2   1.3b  /3.4    # version number
#
BLOCK SPINFO  # Spectrum calculator information
     1    SOFTSUSY    # spectrum calculator                
     2    3.4.0       # version number                     
#
BLOCK MODSEL  # Model selection
     1     0   #  nonUniversal                                     
#
BLOCK SMINPUTS  # Standard Model inputs
         1     1.25778332E+02   # alpha_em^-1(M_Z)^MSbar
         2     1.16570000E-05   # G_F [GeV^-2]
         3     1.17200002E-01   # alpha_S(M_Z)^MSbar
         4     9.11876000E+01   # M_Z pole mass
         5     4.25000000E+00   # mb(mb)^MSbar
         6     1.72500000E+02   # mt pole mass
         7     1.77682000E+00   # mtau pole mass
#
BLOCK MINPAR  # Input parameters - minimal models
         3     1.00000000E+01   # tanb                
#
BLOCK EXTPAR  # Input parameters - non-minimal models
         0    -1.00000000E+00   # Set                 
         1     6.00000000E+01   # M_1(MX)             
         2     3.00000000E+03   # M_2(MX)             
         3     1.39219200E+03   # M_3(MX)             
        11     5.00000000E+03   # At(MX)              
        12     5.00000000E+03   # Ab(MX)              
        13     0.00000000E+00   # Atau(MX)            
        23    -1.58736000E+02   # mu(MX)              
        26     3.00000000E+03   # mA(pole)            
        31     5.00000000E+03   # meL(MX)             
        32     5.00000000E+03   # mmuL(MX)            
        33     5.00000000E+03   # mtauL(MX)           
        34     5.00000000E+03   # meR(MX)             
        35     5.00000000E+03   # mmuR(MX)            
        36     5.00000000E+03   # mtauR(MX)           
        41     5.00000000E+03   # mqL1(MX)            
        42     5.00000000E+03   # mqL2(MX)            
        43     5.00000000E+03   # mqL3(MX)            
        44     5.00000000E+03   # muR(MX)             
        45     5.00000000E+03   # mcR(MX)             
        46     5.00000000E+03   # mtR(MX)             
        47     5.00000000E+03   # mdR(MX)             
        48     5.00000000E+03   # msR(MX)             
        49     5.00000000E+03   # mbR(MX)             
#
BLOCK MASS  # Mass Spectrum
# PDG code           mass       particle
        24     8.00900366E+01   # W+
        25     1.24675761E+02   # h
        35     3.00009153E+03   # H
        36     2.99999979E+03   # A
        37     3.00148492E+03   # H+
         5     4.87878001E+00   # b-quark pole mass calculated from mb(mb)_Msbar
   1000001     5.06858980E+03   # ~d_L
   2000001     5.05066637E+03   # ~d_R
   1000002     5.06811262E+03   # ~u_L
   2000002     5.05035440E+03   # ~u_R
   1000003     5.06858980E+03   # ~s_L
   2000003     5.05066637E+03   # ~s_R
   1000004     5.06811262E+03   # ~c_L
   2000004     5.05035440E+03   # ~c_R
   1000005     5.01477607E+03   # ~b_1
   2000005     5.04874522E+03   # ~b_2
   1000006     4.90564089E+03   # ~t_1
   2000006     5.05849509E+03   # ~t_2
   1000011     5.01917562E+03   # ~e_L
   2000011     5.00596270E+03   # ~e_R
   1000012     5.01822226E+03   # ~nu_eL
   1000013     5.01917562E+03   # ~mu_L
   2000013     5.00596270E+03   # ~mu_R
   1000014     5.01822226E+03   # ~nu_muL
   1000015     5.00483757E+03   # ~tau_1
   2000015     5.01863679E+03   # ~tau_2
   1000016     5.01766691E+03   # ~nu_tauL
   1000021     1.70000023E+03   # ~g
   1000022     5.78422353E+01   # ~chi_10
   1000023    -1.75655622E+02   # ~chi_20
   1000025     1.75674215E+02   # ~chi_30
   1000035     3.07435329E+03   # ~chi_40
   1000024     1.70000562E+02   # ~chi_1+
   1000037     3.07452154E+03   # ~chi_2+
#
BLOCK NMIX  # Neutralino Mixing Matrix
  1  1     9.59060374E-01   # N_11
  1  2    -9.56444890E-04   # N_12
  1  3    -2.74948925E-01   # N_13
  1  4    -6.78628934E-02   # N_14
  2  1    -1.47315198E-01   # N_21
  2  2     1.87619373E-02   # N_22
  2  3    -6.89009196E-01   # N_23
  2  4     7.09374760E-01   # N_24
  3  1     2.41870336E-01   # N_31
  3  2     1.69308881E-02   # N_32
  3  3     6.70572664E-01   # N_33
  3  4     7.01102267E-01   # N_34
  4  1    -4.14005093E-04   # N_41
  4  2     9.99680159E-01   # N_42
  4  3     1.31120251E-03   # N_43
  4  4    -2.52525127E-02   # N_44
#
BLOCK UMIX  # Chargino Mixing Matrix U
  1  1    -1.84849157E-03   # U_11
  1  2     9.99998292E-01   # U_12
  2  1    -9.99998292E-01   # U_21
  2  2    -1.84849157E-03   # U_22
#
BLOCK VMIX  # Chargino Mixing Matrix V
  1  1     3.57312390E-02   # V_11
  1  2    -9.99361435E-01   # V_12
  2  1    -9.99361435E-01   # V_21
  2  2    -3.57312390E-02   # V_22
#
BLOCK STOPMIX  # Stop Mixing Matrix
  1  1    -5.03346289E-01   # cos(theta_t)
  1  2     8.64084784E-01   # sin(theta_t)
  2  1    -8.64084784E-01   # -sin(theta_t)
  2  2    -5.03346289E-01   # cos(theta_t)
#
BLOCK SBOTMIX  # Sbottom Mixing Matrix
  1  1     9.99442552E-01   # cos(theta_b)
  1  2    -3.33854048E-02   # sin(theta_b)
  2  1     3.33854048E-02   # -sin(theta_b)
  2  2     9.99442552E-01   # cos(theta_b)
#
BLOCK STAUMIX  # Stau Mixing Matrix
  1  1    -1.87270501E-02   # cos(theta_tau)
  1  2     9.99824633E-01   # sin(theta_tau)
  2  1    -9.99824633E-01   # -sin(theta_tau)
  2  2    -1.87270501E-02   # cos(theta_tau)
#
BLOCK ALPHA  # Higgs mixing
          -1.05485356E-01   # Mixing angle in the neutral Higgs boson sector
#
BLOCK HMIX Q=  5.00077038E+03  # DRbar Higgs Parameters
         1    -1.61608146E+02   # mu(Q)MSSM           
         2     9.46960901E+00   # tan                 
         3     2.41664299E+02   # higgs               
         4     8.80118583E+06   # mA^2(Q)MSSM         
#
BLOCK GAUGE Q=  5.00077038E+03  # The gauge couplings
     1     3.71199942E-01   # gprime(Q) DRbar
     2     6.34562102E-01   # g(Q) DRbar
     3     1.00088719E+00   # g3(Q) DRbar
#
BLOCK AU Q=  5.00077038E+03  # The trilinear couplings
  1  1     5.00000001E+03   # A_u(Q) DRbar
  2  2     5.00000001E+03   # A_c(Q) DRbar
  3  3     5.00000001E+03   # A_t(Q) DRbar
#
BLOCK AD Q=  5.00077038E+03  # The trilinear couplings
  1  1     5.00000000E+03   # A_d(Q) DRbar
  2  2     5.00000000E+03   # A_s(Q) DRbar
  3  3     5.00000001E+03   # A_b(Q) DRbar
#
BLOCK AE Q=  5.00077038E+03  # The trilinear couplings
  1  1     0.00000000E+00   # A_e(Q) DRbar
  2  2     1.25850302E-07   # A_mu(Q) DRbar
  3  3     1.25292379E-07   # A_tau(Q) DRbar
#
BLOCK Yu Q=  5.00077038E+03  # The Yukawa couplings
  1  1     0.00000000E+00   # y_u(Q) DRbar
  2  2     0.00000000E+00   # y_c(Q) DRbar
  3  3     8.19407789E-01   # y_t(Q) DRbar
#
BLOCK Yd Q=  5.00077038E+03  # The Yukawa couplings
  1  1     0.00000000E+00   # y_d(Q) DRbar
  2  2     0.00000000E+00   # y_s(Q) DRbar
  3  3     1.29551667E-01   # y_b(Q) DRbar
#
BLOCK Ye Q=  5.00077038E+03  # The Yukawa couplings
  1  1     0.00000000E+00   # y_e(Q) DRbar
  2  2     0.00000000E+00   # y_mu(Q) DRbar
  3  3     9.73799923E-02   # y_tau(Q) DRbar
#
BLOCK MSOFT Q=  5.00077038E+03  # The soft SUSY breaking masses at the scale Q
         1     6.00000000E+01   # M_1(Q)              
         2     3.00000000E+03   # M_2(Q)              
         3     1.39219200E+03   # M_3(Q)              
        21     8.70871899E+06   # mH1^2(Q)            
        22     5.52511727E+05   # mH2^2(Q)            
        31     5.00000000E+03   # meL(Q)              
        32     5.00000000E+03   # mmuL(Q)             
        33     5.00000000E+03   # mtauL(Q)            
        34     5.00000000E+03   # meR(Q)              
        35     5.00000000E+03   # mmuR(Q)             
        36     5.00000000E+03   # mtauR(Q)            
        41     5.00000000E+03   # mqL1(Q)             
        42     5.00000000E+03   # mqL2(Q)             
        43     5.00000000E+03   # mqL3(Q)             
        44     5.00000000E+03   # muR(Q)              
        45     5.00000000E+03   # mcR(Q)              
        46     4.99999999E+03   # mtR(Q)              
        47     5.00000000E+03   # mdR(Q)              
        48     5.00000000E+03   # msR(Q)              
        49     5.00000000E+03   # mbR(Q)              
#
#
#
#                             =================
#                             |The decay table|
#                             =================
#
# - The QCD corrections to the decays gluino -> squark  + quark
#                                     squark -> gaugino + quark_prime
#                                     squark -> squark_prime + Higgs
#                                     squark -> gluino  + quark
#   are included.
#
# - The multi-body decays for the inos, stops and sbottoms are included.
#
# - The loop induced decays for the gluino, neutralinos and stops
#   are included.
#
# - The SUSY decays of the top quark are included.
#
#
#         PDG            Width
DECAY         6     1.41130736E+00   # top decays
#          BR         NDA      ID1       ID2
     1.00000000E+00    2           5        24   # BR(t ->  b    W+)
#
#         PDG            Width
DECAY   1000021     1.05655318E-03   # gluino decays
#          BR         NDA      ID1       ID2
     7.30952509E-05    2     1000022        21   # BR(~g -> ~chi_10 g)
     8.53818856E-03    2     1000023        21   # BR(~g -> ~chi_20 g)
     8.68670700E-03    2     1000025        21   # BR(~g -> ~chi_30 g)
#           BR         NDA      ID1       ID2       ID3
     8.85442265E-03    3     1000022         1        -1   # BR(~g -> ~chi_10 d  db)
     2.02301758E-04    3     1000023         1        -1   # BR(~g -> ~chi_20 d  db)
     5.10621340E-04    3     1000025         1        -1   # BR(~g -> ~chi_30 d  db)
     3.00970698E-02    3     1000022         2        -2   # BR(~g -> ~chi_10 u  ub)
     4.87365876E-04    3     1000023         2        -2   # BR(~g -> ~chi_20 u  ub)
     2.06626803E-03    3     1000025         2        -2   # BR(~g -> ~chi_30 u  ub)
     8.85442265E-03    3     1000022         3        -3   # BR(~g -> ~chi_10 s  sb)
     2.02301758E-04    3     1000023         3        -3   # BR(~g -> ~chi_20 s  sb)
     5.10621340E-04    3     1000025         3        -3   # BR(~g -> ~chi_30 s  sb)
     3.00970698E-02    3     1000022         4        -4   # BR(~g -> ~chi_10 c  cb)
     4.87365876E-04    3     1000023         4        -4   # BR(~g -> ~chi_20 c  cb)
     2.06626803E-03    3     1000025         4        -4   # BR(~g -> ~chi_30 c  cb)
     9.94364047E-03    3     1000022         5        -5   # BR(~g -> ~chi_10 b  bb)
     5.52400242E-03    3     1000023         5        -5   # BR(~g -> ~chi_20 b  bb)
     5.53636433E-03    3     1000025         5        -5   # BR(~g -> ~chi_30 b  bb)
     2.58461753E-02    3     1000022         6        -6   # BR(~g -> ~chi_10 t  tb)
     1.93878675E-01    3     1000023         6        -6   # BR(~g -> ~chi_20 t  tb)
     2.12527022E-01    3     1000025         6        -6   # BR(~g -> ~chi_30 t  tb)
     5.52828760E-05    3     1000024         1        -2   # BR(~g -> ~chi_1+ d  ub)
     5.52828760E-05    3    -1000024         2        -1   # BR(~g -> ~chi_1- u  db)
     5.52828760E-05    3     1000024         3        -4   # BR(~g -> ~chi_1+ s  cb)
     5.52828760E-05    3    -1000024         4        -3   # BR(~g -> ~chi_1- c  sb)
     2.22394450E-01    3     1000024         5        -6   # BR(~g -> ~chi_1+ b  tb)
     2.22394450E-01    3    -1000024         6        -5   # BR(~g -> ~chi_1- t  bb)
#
#         PDG            Width
DECAY   1000006     3.76633291E+02   # stop1 decays
#          BR         NDA      ID1       ID2
     1.94050466E-02    2     1000022         6   # BR(~t_1 -> ~chi_10 t )
     8.22014993E-02    2     1000023         6   # BR(~t_1 -> ~chi_20 t )
     9.44968619E-02    2     1000025         6   # BR(~t_1 -> ~chi_30 t )
     5.41677221E-03    2     1000035         6   # BR(~t_1 -> ~chi_40 t )
     1.28643350E-01    2     1000024         5   # BR(~t_1 -> ~chi_1+ b )
     1.07992869E-02    2     1000037         5   # BR(~t_1 -> ~chi_2+ b )
     6.59037183E-01    2     1000021         6   # BR(~t_1 -> ~g      t )
#
#         PDG            Width
DECAY   2000006     3.78779276E+02   # stop2 decays
#          BR         NDA      ID1       ID2
     1.25069765E-02    2     1000022         6   # BR(~t_2 -> ~chi_10 t )
     9.67759045E-02    2     1000023         6   # BR(~t_2 -> ~chi_20 t )
     8.13697133E-02    2     1000025         6   # BR(~t_2 -> ~chi_30 t )
     1.48231092E-02    2     1000035         6   # BR(~t_2 -> ~chi_40 t )
     5.19888143E-02    2     1000024         5   # BR(~t_2 -> ~chi_1+ b )
     2.95191808E-02    2     1000037         5   # BR(~t_2 -> ~chi_2+ b )
     7.09818911E-01    2     1000021         6   # BR(~t_2 -> ~g      t )
     7.41387516E-04    2     1000006        25   # BR(~t_2 -> ~t_1    h )
     2.45600274E-03    2     1000006        23   # BR(~t_2 -> ~t_1    Z )
#
#         PDG            Width
DECAY   1000005     3.54513989E+02   # sbottom1 decays
#          BR         NDA      ID1       ID2
     2.46324211E-03    2     1000022         5   # BR(~b_1 -> ~chi_10 b )
     2.30539197E-03    2     1000023         5   # BR(~b_1 -> ~chi_20 b )
     2.10179805E-03    2     1000025         5   # BR(~b_1 -> ~chi_30 b )
     2.14640483E-02    2     1000035         5   # BR(~b_1 -> ~chi_40 b )
     1.89472290E-01    2    -1000024         6   # BR(~b_1 -> ~chi_1- t )
     4.30890315E-02    2    -1000037         6   # BR(~b_1 -> ~chi_2- t )
     7.37537613E-01    2     1000021         5   # BR(~b_1 -> ~g      b )
     1.56658476E-03    2     1000006       -24   # BR(~b_1 -> ~t_1    W-)
#
#         PDG            Width
DECAY   2000005     2.70345091E+02   # sbottom2 decays
#          BR         NDA      ID1       ID2
     1.04052725E-02    2     1000022         5   # BR(~b_2 -> ~chi_10 b )
     3.31341924E-03    2     1000023         5   # BR(~b_2 -> ~chi_20 b )
     3.57580422E-03    2     1000025         5   # BR(~b_2 -> ~chi_30 b )
     2.76404729E-05    2     1000035         5   # BR(~b_2 -> ~chi_40 b )
     6.51267682E-03    2    -1000024         6   # BR(~b_2 -> ~chi_1- t )
     5.55090367E-05    2    -1000037         6   # BR(~b_2 -> ~chi_2- t )
     9.76100395E-01    2     1000021         5   # BR(~b_2 -> ~g      b )
     9.28312129E-06    2     1000006       -24   # BR(~b_2 -> ~t_1    W-)
#
#         PDG            Width
DECAY   1000002     2.89786574E+02   # sup_L decays
#          BR         NDA      ID1       ID2
     2.35097860E-03    2     1000022         2   # BR(~u_L -> ~chi_10 u)
     6.72876597E-06    2     1000023         2   # BR(~u_L -> ~chi_20 u)
     2.78466706E-04    2     1000025         2   # BR(~u_L -> ~chi_30 u)
     2.72237012E-02    2     1000035         2   # BR(~u_L -> ~chi_40 u)
     1.73116143E-04    2     1000024         1   # BR(~u_L -> ~chi_1+ d)
     5.44145870E-02    2     1000037         1   # BR(~u_L -> ~chi_2+ d)
     9.15552422E-01    2     1000021         2   # BR(~u_L -> ~g      u)
#
#         PDG            Width
DECAY   2000002     2.75842105E+02   # sup_R decays
#          BR         NDA      ID1       ID2
     3.97834720E-02    2     1000022         2   # BR(~u_R -> ~chi_10 u)
     9.36837166E-04    2     1000023         2   # BR(~u_R -> ~chi_20 u)
     2.52542230E-03    2     1000025         2   # BR(~u_R -> ~chi_30 u)
     2.94984193E-09    2     1000035         2   # BR(~u_R -> ~chi_40 u)
     9.56754266E-01    2     1000021         2   # BR(~u_R -> ~g      u)
#
#         PDG            Width
DECAY   1000001     2.89797988E+02   # sdown_L decays
#          BR         NDA      ID1       ID2
     2.39970384E-03    2     1000022         1   # BR(~d_L -> ~chi_10 d)
     1.52869965E-04    2     1000023         1   # BR(~d_L -> ~chi_20 d)
     6.19570762E-05    2     1000025         1   # BR(~d_L -> ~chi_30 d)
     2.72399190E-02    2     1000035         1   # BR(~d_L -> ~chi_40 d)
     4.63340900E-07    2    -1000024         2   # BR(~d_L -> ~chi_1- u)
     5.44988148E-02    2    -1000037         2   # BR(~d_L -> ~chi_2- u)
     9.15646272E-01    2     1000021         1   # BR(~d_L -> ~g      d)
#
#         PDG            Width
DECAY   2000001     2.66920180E+02   # sdown_R decays
#          BR         NDA      ID1       ID2
     1.02789534E-02    2     1000022         1   # BR(~d_R -> ~chi_10 d)
     2.42052977E-04    2     1000023         1   # BR(~d_R -> ~chi_20 d)
     6.52499718E-04    2     1000025         1   # BR(~d_R -> ~chi_30 d)
     7.62267622E-10    2     1000035         1   # BR(~d_R -> ~chi_40 d)
     9.88826493E-01    2     1000021         1   # BR(~d_R -> ~g      d)
#
#         PDG            Width
DECAY   1000004     2.89786574E+02   # scharm_L decays
#          BR         NDA      ID1       ID2
     2.35097860E-03    2     1000022         4   # BR(~c_L -> ~chi_10 c)
     6.72876597E-06    2     1000023         4   # BR(~c_L -> ~chi_20 c)
     2.78466706E-04    2     1000025         4   # BR(~c_L -> ~chi_30 c)
     2.72237012E-02    2     1000035         4   # BR(~c_L -> ~chi_40 c)
     1.73116143E-04    2     1000024         3   # BR(~c_L -> ~chi_1+ s)
     5.44145870E-02    2     1000037         3   # BR(~c_L -> ~chi_2+ s)
     9.15552422E-01    2     1000021         4   # BR(~c_L -> ~g      c)
#
#         PDG            Width
DECAY   2000004     2.75842105E+02   # scharm_R decays
#          BR         NDA      ID1       ID2
     3.97834720E-02    2     1000022         4   # BR(~c_R -> ~chi_10 c)
     9.36837166E-04    2     1000023         4   # BR(~c_R -> ~chi_20 c)
     2.52542230E-03    2     1000025         4   # BR(~c_R -> ~chi_30 c)
     2.94984193E-09    2     1000035         4   # BR(~c_R -> ~chi_40 c)
     9.56754266E-01    2     1000021         4   # BR(~c_R -> ~g      c)
#
#         PDG            Width
DECAY   1000003     2.89797988E+02   # sstrange_L decays
#          BR         NDA      ID1       ID2
     2.39970384E-03    2     1000022         3   # BR(~s_L -> ~chi_10 s)
     1.52869965E-04    2     1000023         3   # BR(~s_L -> ~chi_20 s)
     6.19570762E-05    2     1000025         3   # BR(~s_L -> ~chi_30 s)
     2.72399190E-02    2     1000035         3   # BR(~s_L -> ~chi_40 s)
     4.63340900E-07    2    -1000024         4   # BR(~s_L -> ~chi_1- c)
     5.44988148E-02    2    -1000037         4   # BR(~s_L -> ~chi_2- c)
     9.15646272E-01    2     1000021         3   # BR(~s_L -> ~g      s)
#
#         PDG            Width
DECAY   2000003     2.66920180E+02   # sstrange_R decays
#          BR         NDA      ID1       ID2
     1.02789534E-02    2     1000022         3   # BR(~s_R -> ~chi_10 s)
     2.42052977E-04    2     1000023         3   # BR(~s_R -> ~chi_20 s)
     6.52499718E-04    2     1000025         3   # BR(~s_R -> ~chi_30 s)
     7.62267622E-10    2     1000035         3   # BR(~s_R -> ~chi_40 s)
     9.88826493E-01    2     1000021         3   # BR(~s_R -> ~g      s)
#
#         PDG            Width
DECAY   1000011     3.04335381E+01   # selectron_L decays
#          BR         NDA      ID1       ID2
     2.07152591E-01    2     1000022        11   # BR(~e_L -> ~chi_10 e-)
     2.99469134E-03    2     1000023        11   # BR(~e_L -> ~chi_20 e-)
     1.65375739E-02    2     1000025        11   # BR(~e_L -> ~chi_30 e-)
     2.57600201E-01    2     1000035        11   # BR(~e_L -> ~chi_40 e-)
     4.50397834E-06    2    -1000024        12   # BR(~e_L -> ~chi_1- nu_e)
     5.15710439E-01    2    -1000037        12   # BR(~e_L -> ~chi_2- nu_e)
#
#         PDG            Width
DECAY   2000011     2.74328588E+01   # selectron_R decays
#          BR         NDA      ID1       ID2
     9.19958850E-01    2     1000022        11   # BR(~e_R -> ~chi_10 e-)
     2.16579563E-02    2     1000023        11   # BR(~e_R -> ~chi_20 e-)
     5.83831272E-02    2     1000025        11   # BR(~e_R -> ~chi_30 e-)
     6.65194615E-08    2     1000035        11   # BR(~e_R -> ~chi_40 e-)
#
#         PDG            Width
DECAY   1000013     3.04335381E+01   # smuon_L decays
#          BR         NDA      ID1       ID2
     2.07152591E-01    2     1000022        13   # BR(~mu_L -> ~chi_10 mu-)
     2.99469134E-03    2     1000023        13   # BR(~mu_L -> ~chi_20 mu-)
     1.65375739E-02    2     1000025        13   # BR(~mu_L -> ~chi_30 mu-)
     2.57600201E-01    2     1000035        13   # BR(~mu_L -> ~chi_40 mu-)
     4.50397834E-06    2    -1000024        14   # BR(~mu_L -> ~chi_1- nu_mu)
     5.15710439E-01    2    -1000037        14   # BR(~mu_L -> ~chi_2- nu_mu)
#
#         PDG            Width
DECAY   2000013     2.74328588E+01   # smuon_R decays
#          BR         NDA      ID1       ID2
     9.19958850E-01    2     1000022        13   # BR(~mu_R -> ~chi_10 mu-)
     2.16579563E-02    2     1000023        13   # BR(~mu_R -> ~chi_20 mu-)
     5.83831272E-02    2     1000025        13   # BR(~mu_R -> ~chi_30 mu-)
     6.65194615E-08    2     1000035        13   # BR(~mu_R -> ~chi_40 mu-)
#
#         PDG            Width
DECAY   1000015     2.93110171E+01   # stau_1 decays
#          BR         NDA      ID1       ID2
     8.63884020E-01    2     1000022        15   # BR(~tau_1 -> ~chi_10  tau-)
     3.51144137E-02    2     1000023        15   # BR(~tau_1 -> ~chi_20  tau-)
     6.86014746E-02    2     1000025        15   # BR(~tau_1 -> ~chi_30  tau-)
     9.58019161E-05    2     1000035        15   # BR(~tau_1 -> ~chi_40  tau-)
     3.21126520E-02    2    -1000024        16   # BR(~tau_1 -> ~chi_1-  nu_tau)
     1.91637989E-04    2    -1000037        16   # BR(~tau_1 -> ~chi_2-  nu_tau)
#
#         PDG            Width
DECAY   2000015     3.13684751E+01   # stau_2 decays
#          BR         NDA      ID1       ID2
     2.02645562E-01    2     1000022        15   # BR(~tau_2 -> ~chi_10  tau-)
     1.75798637E-02    2     1000023        15   # BR(~tau_2 -> ~chi_20  tau-)
     3.00290009E-02    2     1000025        15   # BR(~tau_2 -> ~chi_30  tau-)
     2.49740832E-01    2     1000035        15   # BR(~tau_2 -> ~chi_40  tau-)
     2.85120785E-05    2    -1000024        16   # BR(~tau_2 -> ~chi_1-  nu_tau)
     4.99976229E-01    2    -1000037        16   # BR(~tau_2 -> ~chi_2-  nu_tau)
#
#         PDG            Width
DECAY   1000012     3.04363888E+01   # snu_eL decays
#          BR         NDA      ID1       ID2
     2.08510888E-01    2     1000022        12   # BR(~nu_eL -> ~chi_10 nu_e)
     7.25432668E-03    2     1000023        12   # BR(~nu_eL -> ~chi_20 nu_e)
     1.02204445E-02    2     1000025        12   # BR(~nu_eL -> ~chi_30 nu_e)
     2.57659199E-01    2     1000035        12   # BR(~nu_eL -> ~chi_40 nu_e)
     1.68241813E-03    2     1000024        11   # BR(~nu_eL -> ~chi_1+ e-)
     5.14672724E-01    2     1000037        11   # BR(~nu_eL -> ~chi_2+ e-)
#
#         PDG            Width
DECAY   1000014     3.04363888E+01   # snu_muL decays
#          BR         NDA      ID1       ID2
     2.08510888E-01    2     1000022        14   # BR(~nu_muL -> ~chi_10 nu_mu)
     7.25432668E-03    2     1000023        14   # BR(~nu_muL -> ~chi_20 nu_mu)
     1.02204445E-02    2     1000025        14   # BR(~nu_muL -> ~chi_30 nu_mu)
     2.57659199E-01    2     1000035        14   # BR(~nu_muL -> ~chi_40 nu_mu)
     1.68241813E-03    2     1000024        13   # BR(~nu_muL -> ~chi_1+ mu-)
     5.14672724E-01    2     1000037        13   # BR(~nu_muL -> ~chi_2+ mu-)
#
#         PDG            Width
DECAY   1000016     3.13712103E+01   # snu_tauL decays
#          BR         NDA      ID1       ID2
     2.02275133E-01    2     1000022        16   # BR(~nu_tauL -> ~chi_10 nu_tau)
     7.03737441E-03    2     1000023        16   # BR(~nu_tauL -> ~chi_20 nu_tau)
     9.91478570E-03    2     1000025        16   # BR(~nu_tauL -> ~chi_30 nu_tau)
     2.49887137E-01    2     1000035        16   # BR(~nu_tauL -> ~chi_40 nu_tau)
     3.17376010E-02    2     1000024        15   # BR(~nu_tauL -> ~chi_1+ tau-)
     4.99147969E-01    2     1000037        15   # BR(~nu_tauL -> ~chi_2+ tau-)
#
#         PDG            Width
DECAY   1000024     5.13424822E-02   # chargino1+ decays
#          BR         NDA      ID1       ID2
     1.00000000E+00    2     1000022        24   # BR(~chi_1+ -> ~chi_10  W+)
#
#         PDG            Width
DECAY   1000037     2.34369577E+01   # chargino2+ decays
#          BR         NDA      ID1       ID2
     2.53915089E-01    2     1000024        23   # BR(~chi_2+ -> ~chi_1+  Z )
     1.78468883E-03    2     1000022        24   # BR(~chi_2+ -> ~chi_10  W+)
     2.45148250E-01    2     1000023        24   # BR(~chi_2+ -> ~chi_20  W+)
     2.43630404E-01    2     1000025        24   # BR(~chi_2+ -> ~chi_30  W+)
     2.55466251E-01    2     1000024        25   # BR(~chi_2+ -> ~chi_1+  h )
     5.53173275E-05    2     1000022        37   # BR(~chi_2+ -> ~chi_10  H+)
#
#         PDG            Width
DECAY   1000022     0.00000000E+00   # neutralino1 decays
#
#         PDG            Width
DECAY   1000023     2.13754007E-02   # neutralino2 decays
#          BR         NDA      ID1       ID2
     1.00000000E+00    2     1000022        23   # BR(~chi_20 -> ~chi_10   Z )
#
#         PDG            Width
DECAY   1000025     2.52435442E-02   # neutralino3 decays
#          BR         NDA      ID1       ID2
     1.00000000E+00    2     1000022        23   # BR(~chi_30 -> ~chi_10   Z )
#
#         PDG            Width
DECAY   1000035     2.34477894E+01   # neutralino4 decays
#          BR         NDA      ID1       ID2
     1.72191514E-03    2     1000022        23   # BR(~chi_40 -> ~chi_10   Z )
     1.14746449E-01    2     1000023        23   # BR(~chi_40 -> ~chi_20   Z )
     1.37044400E-01    2     1000025        23   # BR(~chi_40 -> ~chi_30   Z )
     2.45647768E-01    2     1000024       -24   # BR(~chi_40 -> ~chi_1+   W-)
     2.45647768E-01    2    -1000024        24   # BR(~chi_40 -> ~chi_1-   W+)
     1.60938987E-04    2     1000022        25   # BR(~chi_40 -> ~chi_10   h )
     5.27303285E-05    2     1000022        35   # BR(~chi_40 -> ~chi_10   H )
     5.97395334E-06    2     1000022        36   # BR(~chi_40 -> ~chi_10   A )
     1.39355922E-01    2     1000023        25   # BR(~chi_40 -> ~chi_20   h )
     1.15616136E-01    2     1000025        25   # BR(~chi_40 -> ~chi_30   h )
#
#         PDG            Width
DECAY        25     4.09288606E-03   # h decays
#          BR         NDA      ID1       ID2
     6.08786244E-01    2           5        -5   # BR(h -> b       bb     )
     6.33322614E-02    2         -15        15   # BR(h -> tau+    tau-   )
     2.24219659E-04    2         -13        13   # BR(h -> mu+     mu-    )
     4.75403888E-04    2           3        -3   # BR(h -> s       sb     )
     2.05967087E-02    2           4        -4   # BR(h -> c       cb     )
     6.65145603E-02    2          21        21   # BR(h -> g       g      )
     2.28081337E-03    2          22        22   # BR(h -> gam     gam    )
     1.46472827E-03    2          22        23   # BR(h -> Z       gam    )
     2.06391057E-01    2          24       -24   # BR(h -> W+      W-     )
     2.45354618E-02    2          23        23   # BR(h -> Z       Z      )
     5.39854142E-03    2     1000022   1000022   # BR(h -> ~chi_10 ~chi_10)
#
#         PDG            Width
DECAY        35     8.82603131E+00   # H decays
#          BR         NDA      ID1       ID2
     3.58837738E-01    2           5        -5   # BR(H -> b       bb     )
     6.31183782E-02    2         -15        15   # BR(H -> tau+    tau-   )
     2.23191599E-04    2         -13        13   # BR(H -> mu+     mu-    )
     2.73598565E-04    2           3        -3   # BR(H -> s       sb     )
     1.53083337E-06    2           4        -4   # BR(H -> c       cb     )
     1.52942389E-01    2           6        -6   # BR(H -> t       tb     )
     5.08942662E-05    2          21        21   # BR(H -> g       g      )
     1.51863004E-07    2          22        22   # BR(H -> gam     gam    )
     9.01810115E-08    2          23        22   # BR(H -> Z       gam    )
     7.51779657E-05    2          24       -24   # BR(H -> W+      W-     )
     3.75413843E-05    2          23        23   # BR(H -> Z       Z      )
     2.66752026E-04    2          25        25   # BR(H -> h       h      )
     1.59412432E-23    2          36        36   # BR(H -> A       A      )
     8.56908856E-19    2          23        36   # BR(H -> Z       A      )
     3.50334058E-03    2     1000024  -1000024   # BR(H -> ~chi_1+ ~chi_1-)
     6.14570124E-02    2     1000022   1000022   # BR(H -> ~chi_10 ~chi_10)
     1.02246690E-02    2     1000023   1000023   # BR(H -> ~chi_20 ~chi_20)
     2.02322653E-02    2     1000025   1000025   # BR(H -> ~chi_30 ~chi_30)
     1.20910078E-01    2     1000022   1000023   # BR(H -> ~chi_10 ~chi_20)
     1.78664408E-01    2     1000022   1000025   # BR(H -> ~chi_10 ~chi_30)
     2.91807922E-02    2     1000023   1000025   # BR(H -> ~chi_20 ~chi_30)
#
#         PDG            Width
DECAY        36     8.83099554E+00   # A decays
#          BR         NDA      ID1       ID2
     3.58759018E-01    2           5        -5   # BR(A -> b       bb     )
     6.30847161E-02    2         -15        15   # BR(A -> tau+    tau-   )
     2.23072255E-04    2         -13        13   # BR(A -> mu+     mu-    )
     2.73652242E-04    2           3        -3   # BR(A -> s       sb     )
     1.53597925E-06    2           4        -4   # BR(A -> c       cb     )
     1.53371823E-01    2           6        -6   # BR(A -> t       tb     )
     1.51772526E-04    2          21        21   # BR(A -> g       g      )
     5.21228205E-07    2          22        22   # BR(A -> gam     gam    )
     1.83588017E-07    2          23        22   # BR(A -> Z       gam    )
     7.48515556E-05    2          23        25   # BR(A -> Z       h      )
     3.62544156E-03    2     1000024  -1000024   # BR(A -> ~chi_1+ ~chi_1-)
     5.54164369E-02    2     1000022   1000022   # BR(A -> ~chi_10 ~chi_10)
     1.60439419E-02    2     1000023   1000023   # BR(A -> ~chi_20 ~chi_20)
     1.31521941E-02    2     1000025   1000025   # BR(A -> ~chi_30 ~chi_30)
     1.94789559E-01    2     1000022   1000023   # BR(A -> ~chi_10 ~chi_20)
     1.11243243E-01    2     1000022   1000025   # BR(A -> ~chi_10 ~chi_30)
     2.97880368E-02    2     1000023   1000025   # BR(A -> ~chi_20 ~chi_30)
#
#         PDG            Width
DECAY        37     8.76197515E+00   # H+ decays
#          BR         NDA      ID1       ID2
     5.73870063E-04    2           4        -5   # BR(H+ -> c       bb     )
     6.36131267E-02    2         -15        16   # BR(H+ -> tau+    nu_tau )
     2.24940754E-04    2         -13        14   # BR(H+ -> mu+     nu_mu  )
     3.67274896E-06    2           2        -5   # BR(H+ -> u       bb     )
     1.31987064E-05    2           2        -3   # BR(H+ -> u       sb     )
     2.72950206E-04    2           4        -3   # BR(H+ -> c       sb     )
     5.10061676E-01    2           6        -5   # BR(H+ -> t       bb     )
     7.56020000E-05    2          24        25   # BR(H+ -> W+      h      )
     1.08350150E-12    2          24        36   # BR(H+ -> W+      A      )
     3.87416326E-01    2     1000024   1000022   # BR(H+ -> ~chi_1+ ~chi_10)
     5.78408797E-03    2     1000024   1000023   # BR(H+ -> ~chi_1+ ~chi_20)
     3.19605491E-02    2     1000024   1000025   # BR(H+ -> ~chi_1+ ~chi_30)
