#
#                              ======================
#                              | THE SUSYHIT OUTPUT |
#                              ======================
#
#
#              ------------------------------------------------------
#              |     This is the output of the SUSY-HIT package     |
#              |  created by A.Djouadi, M.Muehlleitner and M.Spira. |
#              |  In case of problems with SUSY-HIT email to        |
#              |           margarete.muehlleitner@cern.ch           |
#              |           michael.spira@psi.ch                     |
#              |           abdelhak.djouadi@cern.ch                 |
#              ------------------------------------------------------
#
#              ------------------------------------------------------
#              |  SUSY Les Houches Accord - MSSM Spectrum + Decays  |
#              |              based on the decay programs           |
#              |                                                    |
#              |                     SDECAY 1.3b                    |
#              |                                                    |
#              |  Authors: M.Muhlleitner, A.Djouadi and Y.Mambrini  |
#              |  Ref.:    Comput.Phys.Commun.168(2005)46           |
#              |           [hep-ph/0311167]                         |
#              |                                                    |
#              |                     HDECAY 3.4                     |
#              |                                                    |
#              |  By: A.Djouadi,J.Kalinowski,M.Muhlleitner,M.Spira  |
#              |  Ref.:    Comput.Phys.Commun.108(1998)56           |
#              |           [hep-ph/9704448]                         |
#              |                                                    |
#              |                                                    |
#              |  If not stated otherwise all DRbar couplings and   |
#              |  soft SUSY breaking masses are given at the scale  |
#              |  Q=  0.50007561E+04
#              |                                                    |
#              ------------------------------------------------------
#
#
BLOCK DCINFO  # Decay Program information
     1   SDECAY/HDECAY # decay calculator
     2   1.3b  /3.4    # version number
#
BLOCK SPINFO  # Spectrum calculator information
     1    SOFTSUSY    # spectrum calculator                
     2    3.4.0       # version number                     
#
BLOCK MODSEL  # Model selection
     1     0   #  nonUniversal                                     
#
BLOCK SMINPUTS  # Standard Model inputs
         1     1.25778332E+02   # alpha_em^-1(M_Z)^MSbar
         2     1.16570000E-05   # G_F [GeV^-2]
         3     1.17200002E-01   # alpha_S(M_Z)^MSbar
         4     9.11876000E+01   # M_Z pole mass
         5     4.25000000E+00   # mb(mb)^MSbar
         6     1.72500000E+02   # mt pole mass
         7     1.77682000E+00   # mtau pole mass
#
BLOCK MINPAR  # Input parameters - minimal models
         3     1.00000000E+01   # tanb                
#
BLOCK EXTPAR  # Input parameters - non-minimal models
         0    -1.00000000E+00   # Set                 
         1     6.00000000E+01   # M_1(MX)             
         2     3.00000000E+03   # M_2(MX)             
         3     1.66796800E+03   # M_3(MX)             
        11     5.00000000E+03   # At(MX)              
        12     5.00000000E+03   # Ab(MX)              
        13     0.00000000E+00   # Atau(MX)            
        23    -5.71358000E+02   # mu(MX)              
        26     3.00000000E+03   # mA(pole)            
        31     5.00000000E+03   # meL(MX)             
        32     5.00000000E+03   # mmuL(MX)            
        33     5.00000000E+03   # mtauL(MX)           
        34     5.00000000E+03   # meR(MX)             
        35     5.00000000E+03   # mmuR(MX)            
        36     5.00000000E+03   # mtauR(MX)           
        41     5.00000000E+03   # mqL1(MX)            
        42     5.00000000E+03   # mqL2(MX)            
        43     5.00000000E+03   # mqL3(MX)            
        44     5.00000000E+03   # muR(MX)             
        45     5.00000000E+03   # mcR(MX)             
        46     5.00000000E+03   # mtR(MX)             
        47     5.00000000E+03   # mdR(MX)             
        48     5.00000000E+03   # msR(MX)             
        49     5.00000000E+03   # mbR(MX)             
#
BLOCK MASS  # Mass Spectrum
# PDG code           mass       particle
        24     8.00934903E+01   # W+
        25     1.24754102E+02   # h
        35     3.00008460E+03   # H
        36     2.99999919E+03   # A
        37     3.00140440E+03   # H+
         5     4.87878001E+00   # b-quark pole mass calculated from mb(mb)_Msbar
   1000001     5.07194836E+03   # ~d_L
   2000001     5.05411610E+03   # ~d_R
   1000002     5.07147413E+03   # ~u_L
   2000002     5.05381898E+03   # ~u_R
   1000003     5.07194836E+03   # ~s_L
   2000003     5.05411610E+03   # ~s_R
   1000004     5.07147413E+03   # ~c_L
   2000004     5.05381898E+03   # ~c_R
   1000005     5.01776062E+03   # ~b_1
   2000005     5.05240344E+03   # ~b_2
   1000006     4.90877611E+03   # ~t_1
   2000006     5.06188679E+03   # ~t_2
   1000011     5.01909864E+03   # ~e_L
   2000011     5.00593943E+03   # ~e_R
   1000012     5.01814887E+03   # ~nu_eL
   1000013     5.01909864E+03   # ~mu_L
   2000013     5.00593943E+03   # ~mu_R
   1000014     5.01814887E+03   # ~nu_muL
   1000015     5.00474870E+03   # ~tau_1
   2000015     5.01864973E+03   # ~tau_2
   1000016     5.01759825E+03   # ~nu_tauL
   1000021     2.00000028E+03   # ~g
   1000022     6.02509970E+01   # ~chi_10
   1000023     6.00198679E+02   # ~chi_20
   1000025    -6.02416763E+02   # ~chi_30
   1000035     3.07418378E+03   # ~chi_40
   1000024     6.00000146E+02   # ~chi_1+
   1000037     3.07435141E+03   # ~chi_2+
#
BLOCK NMIX  # Neutralino Mixing Matrix
  1  1     9.97249168E-01   # N_11
  1  2     2.27052786E-04   # N_12
  1  3    -7.41214346E-02   # N_13
  1  4     2.42285118E-04   # N_14
  2  1     5.22677715E-02   # N_21
  2  2     1.97531046E-02   # N_22
  2  3     7.05593861E-01   # N_23
  2  4     7.06410078E-01   # N_24
  3  1    -5.25549793E-02   # N_31
  3  2     1.65487847E-02   # N_32
  3  3    -7.04725629E-01   # N_33
  3  4     7.07337190E-01   # N_34
  4  1    -3.89287206E-04   # N_41
  4  2     9.99667895E-01   # N_42
  4  3    -2.25923746E-03   # N_43
  4  4    -2.56679424E-02   # N_44
#
BLOCK UMIX  # Chargino Mixing Matrix U
  1  1     3.20216603E-03   # U_11
  1  2     9.99994873E-01   # U_12
  2  1    -9.99994873E-01   # U_21
  2  2     3.20216603E-03   # U_22
#
BLOCK VMIX  # Chargino Mixing Matrix V
  1  1     3.63238594E-02   # V_11
  1  2    -9.99340071E-01   # V_12
  2  1    -9.99340071E-01   # V_21
  2  2    -3.63238594E-02   # V_22
#
BLOCK STOPMIX  # Stop Mixing Matrix
  1  1    -5.04383248E-01   # cos(theta_t)
  1  2     8.63479901E-01   # sin(theta_t)
  2  1    -8.63479901E-01   # -sin(theta_t)
  2  2    -5.04383248E-01   # cos(theta_t)
#
BLOCK SBOTMIX  # Sbottom Mixing Matrix
  1  1     9.98485864E-01   # cos(theta_b)
  1  2    -5.50089028E-02   # sin(theta_b)
  2  1     5.50089028E-02   # -sin(theta_b)
  2  2     9.98485864E-01   # cos(theta_b)
#
BLOCK STAUMIX  # Stau Mixing Matrix
  1  1    -6.84564254E-02   # cos(theta_tau)
  1  2     9.97654107E-01   # sin(theta_tau)
  2  1    -9.97654107E-01   # -sin(theta_tau)
  2  2    -6.84564254E-02   # cos(theta_tau)
#
BLOCK ALPHA  # Higgs mixing
          -1.05482467E-01   # Mixing angle in the neutral Higgs boson sector
#
BLOCK HMIX Q=  5.00075611E+03  # DRbar Higgs Parameters
         1    -5.81801576E+02   # mu(Q)MSSM           
         2     9.46941756E+00   # tan                 
         3     2.41772364E+02   # higgs               
         4     8.64281979E+06   # mA^2(Q)MSSM         
#
BLOCK GAUGE Q=  5.00075611E+03  # The gauge couplings
     1     3.70914628E-01   # gprime(Q) DRbar
     2     6.33127064E-01   # g(Q) DRbar
     3     9.98505886E-01   # g3(Q) DRbar
#
BLOCK AU Q=  5.00075611E+03  # The trilinear couplings
  1  1     5.00000001E+03   # A_u(Q) DRbar
  2  2     5.00000001E+03   # A_c(Q) DRbar
  3  3     5.00000002E+03   # A_t(Q) DRbar
#
BLOCK AD Q=  5.00075611E+03  # The trilinear couplings
  1  1     5.00000001E+03   # A_d(Q) DRbar
  2  2     5.00000001E+03   # A_s(Q) DRbar
  3  3     5.00000001E+03   # A_b(Q) DRbar
#
BLOCK AE Q=  5.00075611E+03  # The trilinear couplings
  1  1     0.00000000E+00   # A_e(Q) DRbar
  2  2     1.72893782E-07   # A_mu(Q) DRbar
  3  3     1.72527195E-07   # A_tau(Q) DRbar
#
BLOCK Yu Q=  5.00075611E+03  # The Yukawa couplings
  1  1     0.00000000E+00   # y_u(Q) DRbar
  2  2     0.00000000E+00   # y_c(Q) DRbar
  3  3     8.20128082E-01   # y_t(Q) DRbar
#
BLOCK Yd Q=  5.00075611E+03  # The Yukawa couplings
  1  1     0.00000000E+00   # y_d(Q) DRbar
  2  2     0.00000000E+00   # y_s(Q) DRbar
  3  3     1.30163834E-01   # y_b(Q) DRbar
#
BLOCK Ye Q=  5.00075611E+03  # The Yukawa couplings
  1  1     0.00000000E+00   # y_e(Q) DRbar
  2  2     0.00000000E+00   # y_mu(Q) DRbar
  3  3     9.70778786E-02   # y_tau(Q) DRbar
#
BLOCK MSOFT Q=  5.00075611E+03  # The soft SUSY breaking masses at the scale Q
         1     6.00000000E+01   # M_1(Q)              
         2     3.00000000E+03   # M_2(Q)              
         3     1.66796800E+03   # M_3(Q)              
        21     8.38101791E+06   # mH1^2(Q)            
        22     2.35557440E+05   # mH2^2(Q)            
        31     5.00000000E+03   # meL(Q)              
        32     5.00000000E+03   # mmuL(Q)             
        33     5.00000000E+03   # mtauL(Q)            
        34     5.00000000E+03   # meR(Q)              
        35     5.00000000E+03   # mmuR(Q)             
        36     5.00000000E+03   # mtauR(Q)            
        41     5.00000000E+03   # mqL1(Q)             
        42     5.00000000E+03   # mqL2(Q)             
        43     5.00000000E+03   # mqL3(Q)             
        44     5.00000000E+03   # muR(Q)              
        45     5.00000000E+03   # mcR(Q)              
        46     4.99999999E+03   # mtR(Q)              
        47     5.00000000E+03   # mdR(Q)              
        48     5.00000000E+03   # msR(Q)              
        49     5.00000000E+03   # mbR(Q)              
#
#
#
#                             =================
#                             |The decay table|
#                             =================
#
# - The QCD corrections to the decays gluino -> squark  + quark
#                                     squark -> gaugino + quark_prime
#                                     squark -> squark_prime + Higgs
#                                     squark -> gluino  + quark
#   are included.
#
# - The multi-body decays for the inos, stops and sbottoms are included.
#
# - The loop induced decays for the gluino, neutralinos and stops
#   are included.
#
# - The SUSY decays of the top quark are included.
#
#
#         PDG            Width
DECAY         6     1.40478009E+00   # top decays
#          BR         NDA      ID1       ID2
     1.00000000E+00    2           5        24   # BR(t ->  b    W+)
#
#         PDG            Width
DECAY   1000021     1.54834833E-03   # gluino decays
#          BR         NDA      ID1       ID2
     9.71738143E-07    2     1000022        21   # BR(~g -> ~chi_10 g)
     7.88660492E-03    2     1000023        21   # BR(~g -> ~chi_20 g)
     7.69010339E-03    2     1000025        21   # BR(~g -> ~chi_30 g)
#           BR         NDA      ID1       ID2       ID3
     1.50414991E-02    3     1000022         1        -1   # BR(~g -> ~chi_10 d  db)
     2.78581448E-05    3     1000023         1        -1   # BR(~g -> ~chi_20 d  db)
     2.91441600E-05    3     1000025         1        -1   # BR(~g -> ~chi_30 d  db)
     5.12932227E-02    3     1000022         2        -2   # BR(~g -> ~chi_10 u  ub)
     1.40354434E-04    3     1000023         2        -2   # BR(~g -> ~chi_20 u  ub)
     4.45114793E-05    3     1000025         2        -2   # BR(~g -> ~chi_30 u  ub)
     1.50414991E-02    3     1000022         3        -3   # BR(~g -> ~chi_10 s  sb)
     2.78581448E-05    3     1000023         3        -3   # BR(~g -> ~chi_20 s  sb)
     2.91441600E-05    3     1000025         3        -3   # BR(~g -> ~chi_30 s  sb)
     5.12932227E-02    3     1000022         4        -4   # BR(~g -> ~chi_10 c  cb)
     1.40354434E-04    3     1000023         4        -4   # BR(~g -> ~chi_20 c  cb)
     4.45114793E-05    3     1000025         4        -4   # BR(~g -> ~chi_30 c  cb)
     1.53385391E-02    3     1000022         5        -5   # BR(~g -> ~chi_10 b  bb)
     5.21624332E-03    3     1000023         5        -5   # BR(~g -> ~chi_20 b  bb)
     5.17359322E-03    3     1000025         5        -5   # BR(~g -> ~chi_30 b  bb)
     4.96678782E-02    3     1000022         6        -6   # BR(~g -> ~chi_10 t  tb)
     1.93472317E-01    3     1000023         6        -6   # BR(~g -> ~chi_20 t  tb)
     1.75308498E-01    3     1000025         6        -6   # BR(~g -> ~chi_30 t  tb)
     5.63812892E-05    3     1000024         1        -2   # BR(~g -> ~chi_1+ d  ub)
     5.63812892E-05    3    -1000024         2        -1   # BR(~g -> ~chi_1- u  db)
     5.63812892E-05    3     1000024         3        -4   # BR(~g -> ~chi_1+ s  cb)
     5.63812892E-05    3    -1000024         4        -3   # BR(~g -> ~chi_1- c  sb)
     2.03433273E-01    3     1000024         5        -6   # BR(~g -> ~chi_1+ b  tb)
     2.03433273E-01    3    -1000024         6        -5   # BR(~g -> ~chi_1- t  bb)
#
#         PDG            Width
DECAY   1000006     3.47651124E+02   # stop1 decays
#          BR         NDA      ID1       ID2
     2.53800071E-02    2     1000022         6   # BR(~t_1 -> ~chi_10 t )
     9.31587130E-02    2     1000023         6   # BR(~t_1 -> ~chi_20 t )
     8.86644859E-02    2     1000025         6   # BR(~t_1 -> ~chi_30 t )
     5.86470625E-03    2     1000035         6   # BR(~t_1 -> ~chi_40 t )
     1.35525888E-01    2     1000024         5   # BR(~t_1 -> ~chi_1+ b )
     1.16903562E-02    2     1000037         5   # BR(~t_1 -> ~chi_2+ b )
     6.39715844E-01    2     1000021         6   # BR(~t_1 -> ~g      t )
#
#         PDG            Width
DECAY   2000006     3.52704311E+02   # stop2 decays
#          BR         NDA      ID1       ID2
     9.85273430E-03    2     1000022         6   # BR(~t_2 -> ~chi_10 t )
     9.24885959E-02    2     1000023         6   # BR(~t_2 -> ~chi_20 t )
     9.74377066E-02    2     1000025         6   # BR(~t_2 -> ~chi_30 t )
     1.58824562E-02    2     1000035         6   # BR(~t_2 -> ~chi_40 t )
     5.44540780E-02    2     1000024         5   # BR(~t_2 -> ~chi_1+ b )
     3.16212140E-02    2     1000037         5   # BR(~t_2 -> ~chi_2+ b )
     6.94784492E-01    2     1000021         6   # BR(~t_2 -> ~g      t )
     8.02307696E-04    2     1000006        25   # BR(~t_2 -> ~t_1    h )
     2.67641574E-03    2     1000006        23   # BR(~t_2 -> ~t_1    Z )
#
#         PDG            Width
DECAY   1000005     3.27798906E+02   # sbottom1 decays
#          BR         NDA      ID1       ID2
     2.36248629E-03    2     1000022         5   # BR(~b_1 -> ~chi_10 b )
     2.50188204E-03    2     1000023         5   # BR(~b_1 -> ~chi_20 b )
     2.48505035E-03    2     1000025         5   # BR(~b_1 -> ~chi_30 b )
     2.31162002E-02    2     1000035         5   # BR(~b_1 -> ~chi_40 b )
     1.99171601E-01    2    -1000024         6   # BR(~b_1 -> ~chi_1- t )
     4.64160930E-02    2    -1000037         6   # BR(~b_1 -> ~chi_2- t )
     7.22253450E-01    2     1000021         5   # BR(~b_1 -> ~g      b )
     1.69323728E-03    2     1000006       -24   # BR(~b_1 -> ~t_1    W-)
#
#         PDG            Width
DECAY   2000005     2.45916671E+02   # sbottom2 decays
#          BR         NDA      ID1       ID2
     1.19371640E-02    2     1000022         5   # BR(~b_2 -> ~chi_10 b )
     3.42177242E-03    2     1000023         5   # BR(~b_2 -> ~chi_20 b )
     3.47516939E-03    2     1000025         5   # BR(~b_2 -> ~chi_30 b )
     8.98348102E-05    2     1000035         5   # BR(~b_2 -> ~chi_40 b )
     7.50769153E-03    2    -1000024         6   # BR(~b_2 -> ~chi_1- t )
     1.80389784E-04    2    -1000037         6   # BR(~b_2 -> ~chi_2- t )
     9.73359537E-01    2     1000021         5   # BR(~b_2 -> ~g      b )
     2.84411810E-05    2     1000006       -24   # BR(~b_2 -> ~t_1    W-)
#
#         PDG            Width
DECAY   1000002     2.65257387E+02   # sup_L decays
#          BR         NDA      ID1       ID2
     2.80563170E-03    2     1000022         2   # BR(~u_L -> ~chi_10 u)
     6.44910865E-05    2     1000023         2   # BR(~u_L -> ~chi_20 u)
     2.83817528E-06    2     1000025         2   # BR(~u_L -> ~chi_30 u)
     2.96783112E-02    2     1000035         2   # BR(~u_L -> ~chi_40 u)
     1.89599249E-04    2     1000024         1   # BR(~u_L -> ~chi_1+ d)
     5.93192584E-02    2     1000037         1   # BR(~u_L -> ~chi_2+ d)
     9.07939870E-01    2     1000021         2   # BR(~u_L -> ~g      u)
#
#         PDG            Width
DECAY   2000002     2.51282533E+02   # sup_R decays
#          BR         NDA      ID1       ID2
     4.71097511E-02    2     1000022         2   # BR(~u_R -> ~chi_10 u)
     1.25955426E-04    2     1000023         2   # BR(~u_R -> ~chi_20 u)
     1.27316908E-04    2     1000025         2   # BR(~u_R -> ~chi_30 u)
     2.86585067E-09    2     1000035         2   # BR(~u_R -> ~chi_40 u)
     9.52636974E-01    2     1000021         2   # BR(~u_R -> ~g      u)
#
#         PDG            Width
DECAY   1000001     2.65271111E+02   # sdown_L decays
#          BR         NDA      ID1       ID2
     2.79269762E-03    2     1000022         1   # BR(~d_L -> ~chi_10 d)
     6.54775959E-06    2     1000023         1   # BR(~d_L -> ~chi_20 d)
     5.16413992E-05    2     1000025         1   # BR(~d_L -> ~chi_30 d)
     2.96949870E-02    2     1000035         1   # BR(~d_L -> ~chi_40 d)
     1.47353733E-06    2    -1000024         2   # BR(~d_L -> ~chi_1- u)
     5.94123214E-02    2    -1000037         2   # BR(~d_L -> ~chi_2- u)
     9.08040331E-01    2     1000021         1   # BR(~d_L -> ~g      d)
#
#         PDG            Width
DECAY   2000001     2.42381111E+02   # sdown_R decays
#          BR         NDA      ID1       ID2
     1.22106896E-02    2     1000022         1   # BR(~d_R -> ~chi_10 d)
     3.26473281E-05    2     1000023         1   # BR(~d_R -> ~chi_20 d)
     3.30002216E-05    2     1000025         1   # BR(~d_R -> ~chi_30 d)
     7.42920254E-10    2     1000035         1   # BR(~d_R -> ~chi_40 d)
     9.87723662E-01    2     1000021         1   # BR(~d_R -> ~g      d)
#
#         PDG            Width
DECAY   1000004     2.65257387E+02   # scharm_L decays
#          BR         NDA      ID1       ID2
     2.80563170E-03    2     1000022         4   # BR(~c_L -> ~chi_10 c)
     6.44910865E-05    2     1000023         4   # BR(~c_L -> ~chi_20 c)
     2.83817528E-06    2     1000025         4   # BR(~c_L -> ~chi_30 c)
     2.96783112E-02    2     1000035         4   # BR(~c_L -> ~chi_40 c)
     1.89599249E-04    2     1000024         3   # BR(~c_L -> ~chi_1+ s)
     5.93192584E-02    2     1000037         3   # BR(~c_L -> ~chi_2+ s)
     9.07939870E-01    2     1000021         4   # BR(~c_L -> ~g      c)
#
#         PDG            Width
DECAY   2000004     2.51282533E+02   # scharm_R decays
#          BR         NDA      ID1       ID2
     4.71097511E-02    2     1000022         4   # BR(~c_R -> ~chi_10 c)
     1.25955426E-04    2     1000023         4   # BR(~c_R -> ~chi_20 c)
     1.27316908E-04    2     1000025         4   # BR(~c_R -> ~chi_30 c)
     2.86585067E-09    2     1000035         4   # BR(~c_R -> ~chi_40 c)
     9.52636974E-01    2     1000021         4   # BR(~c_R -> ~g      c)
#
#         PDG            Width
DECAY   1000003     2.65271111E+02   # sstrange_L decays
#          BR         NDA      ID1       ID2
     2.79269762E-03    2     1000022         3   # BR(~s_L -> ~chi_10 s)
     6.54775959E-06    2     1000023         3   # BR(~s_L -> ~chi_20 s)
     5.16413992E-05    2     1000025         3   # BR(~s_L -> ~chi_30 s)
     2.96949870E-02    2     1000035         3   # BR(~s_L -> ~chi_40 s)
     1.47353733E-06    2    -1000024         4   # BR(~s_L -> ~chi_1- c)
     5.94123214E-02    2    -1000037         4   # BR(~s_L -> ~chi_2- c)
     9.08040331E-01    2     1000021         3   # BR(~s_L -> ~g      s)
#
#         PDG            Width
DECAY   2000003     2.42381111E+02   # sstrange_R decays
#          BR         NDA      ID1       ID2
     1.22106896E-02    2     1000022         3   # BR(~s_R -> ~chi_10 s)
     3.26473281E-05    2     1000023         3   # BR(~s_R -> ~chi_20 s)
     3.30002216E-05    2     1000025         3   # BR(~s_R -> ~chi_30 s)
     7.42920254E-10    2     1000035         3   # BR(~s_R -> ~chi_40 s)
     9.87723662E-01    2     1000021         3   # BR(~s_R -> ~g      s)
#
#         PDG            Width
DECAY   1000011     3.03180376E+01   # selectron_L decays
#          BR         NDA      ID1       ID2
     2.25419977E-01    2     1000022        11   # BR(~e_L -> ~chi_10 e-)
     1.62745080E-03    2     1000023        11   # BR(~e_L -> ~chi_20 e-)
     1.30029443E-04    2     1000025        11   # BR(~e_L -> ~chi_30 e-)
     2.57434954E-01    2     1000035        11   # BR(~e_L -> ~chi_40 e-)
     1.31529149E-05    2    -1000024        12   # BR(~e_L -> ~chi_1- nu_e)
     5.15374436E-01    2    -1000037        12   # BR(~e_L -> ~chi_2- nu_e)
#
#         PDG            Width
DECAY   2000011     2.73905080E+01   # selectron_R decays
#          BR         NDA      ID1       ID2
     9.94661016E-01    2     1000022        11   # BR(~e_R -> ~chi_10 e-)
     2.65512293E-03    2     1000023        11   # BR(~e_R -> ~chi_20 e-)
     2.68380274E-03    2     1000025        11   # BR(~e_R -> ~chi_30 e-)
     5.88209203E-08    2     1000035        11   # BR(~e_R -> ~chi_40 e-)
#
#         PDG            Width
DECAY   1000013     3.03180376E+01   # smuon_L decays
#          BR         NDA      ID1       ID2
     2.25419977E-01    2     1000022        13   # BR(~mu_L -> ~chi_10 mu-)
     1.62745080E-03    2     1000023        13   # BR(~mu_L -> ~chi_20 mu-)
     1.30029443E-04    2     1000025        13   # BR(~mu_L -> ~chi_30 mu-)
     2.57434954E-01    2     1000035        13   # BR(~mu_L -> ~chi_40 mu-)
     1.31529149E-05    2    -1000024        14   # BR(~mu_L -> ~chi_1- nu_mu)
     5.15374436E-01    2    -1000037        14   # BR(~mu_L -> ~chi_2- nu_mu)
#
#         PDG            Width
DECAY   2000013     2.73905080E+01   # smuon_R decays
#          BR         NDA      ID1       ID2
     9.94661016E-01    2     1000022        13   # BR(~mu_R -> ~chi_10 mu-)
     2.65512293E-03    2     1000023        13   # BR(~mu_R -> ~chi_20 mu-)
     2.68380274E-03    2     1000025        13   # BR(~mu_R -> ~chi_30 mu-)
     5.88209203E-08    2     1000035        13   # BR(~mu_R -> ~chi_40 mu-)
#
#         PDG            Width
DECAY   1000015     2.92184709E+01   # stau_1 decays
#          BR         NDA      ID1       ID2
     9.29986844E-01    2     1000022        15   # BR(~tau_1 -> ~chi_10  tau-)
     1.78648270E-02    2     1000023        15   # BR(~tau_1 -> ~chi_20  tau-)
     1.73398367E-02    2     1000025        15   # BR(~tau_1 -> ~chi_30  tau-)
     1.22205074E-03    2     1000035        15   # BR(~tau_1 -> ~chi_40  tau-)
     3.11401207E-02    2    -1000024        16   # BR(~tau_1 -> ~chi_1-  nu_tau)
     2.44632077E-03    2    -1000037        16   # BR(~tau_1 -> ~chi_2-  nu_tau)
#
#         PDG            Width
DECAY   2000015     3.12124272E+01   # stau_2 decays
#          BR         NDA      ID1       ID2
     2.21360023E-01    2     1000022        15   # BR(~tau_2 -> ~chi_10  tau-)
     1.63086763E-02    2     1000023        15   # BR(~tau_2 -> ~chi_20  tau-)
     1.52953998E-02    2     1000025        15   # BR(~tau_2 -> ~chi_30  tau-)
     2.48827079E-01    2     1000035        15   # BR(~tau_2 -> ~chi_40  tau-)
     6.64237091E-05    2    -1000024        16   # BR(~tau_2 -> ~chi_1-  nu_tau)
     4.98142398E-01    2    -1000037        16   # BR(~tau_2 -> ~chi_2-  nu_tau)
#
#         PDG            Width
DECAY   1000012     3.03211957E+01   # snu_eL decays
#          BR         NDA      ID1       ID2
     2.25003774E-01    2     1000022        12   # BR(~nu_eL -> ~chi_10 nu_e)
     7.57254241E-05    2     1000023        12   # BR(~nu_eL -> ~chi_20 nu_e)
     1.43644196E-03    2     1000025        12   # BR(~nu_eL -> ~chi_30 nu_e)
     2.57477309E-01    2     1000035        12   # BR(~nu_eL -> ~chi_40 nu_e)
     1.69194444E-03    2     1000024        11   # BR(~nu_eL -> ~chi_1+ e-)
     5.14314805E-01    2     1000037        11   # BR(~nu_eL -> ~chi_2+ e-)
#
#         PDG            Width
DECAY   1000014     3.03211957E+01   # snu_muL decays
#          BR         NDA      ID1       ID2
     2.25003774E-01    2     1000022        14   # BR(~nu_muL -> ~chi_10 nu_mu)
     7.57254241E-05    2     1000023        14   # BR(~nu_muL -> ~chi_20 nu_mu)
     1.43644196E-03    2     1000025        14   # BR(~nu_muL -> ~chi_30 nu_mu)
     2.57477309E-01    2     1000035        14   # BR(~nu_muL -> ~chi_40 nu_mu)
     1.69194444E-03    2     1000024        13   # BR(~nu_muL -> ~chi_1+ mu-)
     5.14314805E-01    2     1000037        13   # BR(~nu_muL -> ~chi_2+ mu-)
#
#         PDG            Width
DECAY   1000016     3.12257296E+01   # snu_tauL decays
#          BR         NDA      ID1       ID2
     2.18461971E-01    2     1000022        16   # BR(~nu_tauL -> ~chi_10 nu_tau)
     7.35233048E-05    2     1000023        16   # BR(~nu_tauL -> ~chi_20 nu_tau)
     1.39466971E-03    2     1000025        16   # BR(~nu_tauL -> ~chi_30 nu_tau)
     2.49925457E-01    2     1000035        16   # BR(~nu_tauL -> ~chi_40 nu_tau)
     3.09150753E-02    2     1000024        15   # BR(~nu_tauL -> ~chi_1+ tau-)
     4.99229303E-01    2     1000037        15   # BR(~nu_tauL -> ~chi_2+ tau-)
#
#         PDG            Width
DECAY   1000024     3.57428365E-01   # chargino1+ decays
#          BR         NDA      ID1       ID2
     1.00000000E+00    2     1000022        24   # BR(~chi_1+ -> ~chi_10  W+)
#
#         PDG            Width
DECAY   1000037     2.18107890E+01   # chargino2+ decays
#          BR         NDA      ID1       ID2
     2.53502011E-01    2     1000024        23   # BR(~chi_2+ -> ~chi_1+  Z )
     1.69246474E-04    2     1000022        24   # BR(~chi_2+ -> ~chi_10  W+)
     2.44756526E-01    2     1000023        24   # BR(~chi_2+ -> ~chi_20  W+)
     2.44328076E-01    2     1000025        24   # BR(~chi_2+ -> ~chi_30  W+)
     2.57240593E-01    2     1000024        25   # BR(~chi_2+ -> ~chi_1+  h )
     3.54786071E-06    2     1000022        37   # BR(~chi_2+ -> ~chi_10  H+)
#
#         PDG            Width
DECAY   1000022     0.00000000E+00   # neutralino1 decays
#
#         PDG            Width
DECAY   1000023     3.66189156E-01   # neutralino2 decays
#          BR         NDA      ID1       ID2
     5.14061772E-01    2     1000022        23   # BR(~chi_20 -> ~chi_10   Z )
     4.85938228E-01    2     1000022        25   # BR(~chi_20 -> ~chi_10   h )
#
#         PDG            Width
DECAY   1000025     3.61817857E-01   # neutralino3 decays
#          BR         NDA      ID1       ID2
     5.03964821E-01    2     1000022        23   # BR(~chi_30 -> ~chi_10   Z )
     4.96035179E-01    2     1000022        25   # BR(~chi_30 -> ~chi_10   h )
#
#         PDG            Width
DECAY   1000035     2.18243654E+01   # neutralino4 decays
#          BR         NDA      ID1       ID2
     1.29181727E-05    2     1000022        23   # BR(~chi_40 -> ~chi_10   Z )
     1.04468737E-01    2     1000023        23   # BR(~chi_40 -> ~chi_20   Z )
     1.48496942E-01    2     1000025        23   # BR(~chi_40 -> ~chi_30   Z )
     2.45091575E-01    2     1000024       -24   # BR(~chi_40 -> ~chi_1+   W-)
     2.45091575E-01    2    -1000024        24   # BR(~chi_40 -> ~chi_1-   W+)
     1.51376718E-04    2     1000022        25   # BR(~chi_40 -> ~chi_10   h )
     3.40190028E-06    2     1000022        35   # BR(~chi_40 -> ~chi_10   H )
     3.79193651E-07    2     1000022        36   # BR(~chi_40 -> ~chi_10   A )
     1.51930069E-01    2     1000023        25   # BR(~chi_40 -> ~chi_20   h )
     1.04753026E-01    2     1000025        25   # BR(~chi_40 -> ~chi_30   h )
#
#         PDG            Width
DECAY        25     4.06710344E-03   # h decays
#          BR         NDA      ID1       ID2
     6.09545483E-01    2           5        -5   # BR(h -> b       bb     )
     6.37678590E-02    2         -15        15   # BR(h -> tau+    tau-   )
     2.25761491E-04    2         -13        13   # BR(h -> mu+     mu-    )
     4.78614985E-04    2           3        -3   # BR(h -> s       sb     )
     2.07377793E-02    2           4        -4   # BR(h -> c       cb     )
     6.70599013E-02    2          21        21   # BR(h -> g       g      )
     2.30467960E-03    2          22        22   # BR(h -> gam     gam    )
     1.48466249E-03    2          22        23   # BR(h -> Z       gam    )
     2.09374356E-01    2          24       -24   # BR(h -> W+      W-     )
     2.49356073E-02    2          23        23   # BR(h -> Z       Z      )
     8.52956175E-05    2     1000022   1000022   # BR(h -> ~chi_10 ~chi_10)
#
#         PDG            Width
DECAY        35     8.57817470E+00   # H decays
#          BR         NDA      ID1       ID2
     3.72870461E-01    2           5        -5   # BR(H -> b       bb     )
     6.49394049E-02    2         -15        15   # BR(H -> tau+    tau-   )
     2.29630894E-04    2         -13        13   # BR(H -> mu+     mu-    )
     2.81492236E-04    2           3        -3   # BR(H -> s       sb     )
     1.57497665E-06    2           4        -4   # BR(H -> c       cb     )
     1.57352645E-01    2           6        -6   # BR(H -> t       tb     )
     5.23242238E-05    2          21        21   # BR(H -> g       g      )
     1.64401670E-07    2          22        22   # BR(H -> gam     gam    )
     9.28681042E-08    2          23        22   # BR(H -> Z       gam    )
     7.45552184E-05    2          24       -24   # BR(H -> W+      W-     )
     3.72304184E-05    2          23        23   # BR(H -> Z       Z      )
     2.71645827E-04    2          25        25   # BR(H -> h       h      )
     3.10971794E-23    2          36        36   # BR(H -> A       A      )
     7.56190078E-19    2          23        36   # BR(H -> Z       A      )
     3.01198875E-03    2     1000024  -1000024   # BR(H -> ~chi_1+ ~chi_1-)
     4.69213294E-03    2     1000022   1000022   # BR(H -> ~chi_10 ~chi_10)
     1.03129425E-04    2     1000023   1000023   # BR(H -> ~chi_20 ~chi_20)
     1.80808899E-03    2     1000025   1000025   # BR(H -> ~chi_30 ~chi_30)
     2.37459141E-01    2     1000022   1000023   # BR(H -> ~chi_10 ~chi_20)
     1.54604477E-01    2     1000022   1000025   # BR(H -> ~chi_10 ~chi_30)
     2.20982121E-03    2     1000023   1000025   # BR(H -> ~chi_20 ~chi_30)
#
#         PDG            Width
DECAY        36     8.58654813E+00   # A decays
#          BR         NDA      ID1       ID2
     3.72633846E-01    2           5        -5   # BR(A -> b       bb     )
     6.48780162E-02    2         -15        15   # BR(A -> tau+    tau-   )
     2.29413498E-04    2         -13        13   # BR(A -> mu+     mu-    )
     2.81431327E-04    2           3        -3   # BR(A -> s       sb     )
     1.57977010E-06    2           4        -4   # BR(A -> c       cb     )
     1.57744462E-01    2           6        -6   # BR(A -> t       tb     )
     1.56096979E-04    2          21        21   # BR(A -> g       g      )
     5.99194291E-07    2          22        22   # BR(A -> gam     gam    )
     1.88973810E-07    2          23        22   # BR(A -> Z       gam    )
     7.42008468E-05    2          23        25   # BR(A -> Z       h      )
     3.45122174E-03    2     1000024  -1000024   # BR(A -> ~chi_1+ ~chi_1-)
     4.70176146E-03    2     1000022   1000022   # BR(A -> ~chi_10 ~chi_10)
     8.01997528E-05    2     1000023   1000023   # BR(A -> ~chi_20 ~chi_20)
     3.29823362E-03    2     1000025   1000025   # BR(A -> ~chi_30 ~chi_30)
     1.57604402E-01    2     1000022   1000023   # BR(A -> ~chi_10 ~chi_20)
     2.33473887E-01    2     1000022   1000025   # BR(A -> ~chi_10 ~chi_30)
     1.39045922E-03    2     1000023   1000025   # BR(A -> ~chi_20 ~chi_30)
#
#         PDG            Width
DECAY        37     8.53458377E+00   # H+ decays
#          BR         NDA      ID1       ID2
     5.98240742E-04    2           4        -5   # BR(H+ -> c       bb     )
     6.53036119E-02    2         -15        16   # BR(H+ -> tau+    nu_tau )
     2.30918436E-04    2         -13        14   # BR(H+ -> mu+     nu_mu  )
     3.82872072E-06    2           2        -5   # BR(H+ -> u       bb     )
     1.35495021E-05    2           2        -3   # BR(H+ -> u       sb     )
     2.80204811E-04    2           4        -3   # BR(H+ -> c       sb     )
     5.29321219E-01    2           6        -5   # BR(H+ -> t       bb     )
     7.48057520E-05    2          24        25   # BR(H+ -> W+      h      )
     8.43608032E-13    2          24        36   # BR(H+ -> W+      A      )
     4.01545360E-01    2     1000024   1000022   # BR(H+ -> ~chi_1+ ~chi_10)
     2.48943846E-03    2     1000024   1000023   # BR(H+ -> ~chi_1+ ~chi_20)
     1.38822598E-04    2     1000024   1000025   # BR(H+ -> ~chi_1+ ~chi_30)
