#
#                              ======================
#                              | THE SUSYHIT OUTPUT |
#                              ======================
#
#
#              ------------------------------------------------------
#              |     This is the output of the SUSY-HIT package     |
#              |  created by A.Djouadi, M.Muehlleitner and M.Spira. |
#              |  In case of problems with SUSY-HIT email to        |
#              |           margarete.muehlleitner@cern.ch           |
#              |           michael.spira@psi.ch                     |
#              |           abdelhak.djouadi@cern.ch                 |
#              ------------------------------------------------------
#
#              ------------------------------------------------------
#              |  SUSY Les Houches Accord - MSSM Spectrum + Decays  |
#              |              based on the decay programs           |
#              |                                                    |
#              |                     SDECAY 1.3b                    |
#              |                                                    |
#              |  Authors: M.Muhlleitner, A.Djouadi and Y.Mambrini  |
#              |  Ref.:    Comput.Phys.Commun.168(2005)46           |
#              |           [hep-ph/0311167]                         |
#              |                                                    |
#              |                     HDECAY 3.4                     |
#              |                                                    |
#              |  By: A.Djouadi,J.Kalinowski,M.Muhlleitner,M.Spira  |
#              |  Ref.:    Comput.Phys.Commun.108(1998)56           |
#              |           [hep-ph/9704448]                         |
#              |                                                    |
#              |                                                    |
#              |  If not stated otherwise all DRbar couplings and   |
#              |  soft SUSY breaking masses are given at the scale  |
#              |  Q=  0.50007648E+04
#              |                                                    |
#              ------------------------------------------------------
#
#
BLOCK DCINFO  # Decay Program information
     1   SDECAY/HDECAY # decay calculator
     2   1.3b  /3.4    # version number
#
BLOCK SPINFO  # Spectrum calculator information
     1    SOFTSUSY    # spectrum calculator                
     2    3.4.0       # version number                     
#
BLOCK MODSEL  # Model selection
     1     0   #  nonUniversal                                     
#
BLOCK SMINPUTS  # Standard Model inputs
         1     1.25778332E+02   # alpha_em^-1(M_Z)^MSbar
         2     1.16570000E-05   # G_F [GeV^-2]
         3     1.17200002E-01   # alpha_S(M_Z)^MSbar
         4     9.11876000E+01   # M_Z pole mass
         5     4.25000000E+00   # mb(mb)^MSbar
         6     1.72500000E+02   # mt pole mass
         7     1.77682000E+00   # mtau pole mass
#
BLOCK MINPAR  # Input parameters - minimal models
         3     1.00000000E+01   # tanb                
#
BLOCK EXTPAR  # Input parameters - non-minimal models
         0    -1.00000000E+00   # Set                 
         1     6.00000000E+01   # M_1(MX)             
         2     3.00000000E+03   # M_2(MX)             
         3     1.76108900E+03   # M_3(MX)             
        11     5.00000000E+03   # At(MX)              
        12     5.00000000E+03   # Ab(MX)              
        13     0.00000000E+00   # Atau(MX)            
        23    -3.78691000E+02   # mu(MX)              
        26     3.00000000E+03   # mA(pole)            
        31     5.00000000E+03   # meL(MX)             
        32     5.00000000E+03   # mmuL(MX)            
        33     5.00000000E+03   # mtauL(MX)           
        34     5.00000000E+03   # meR(MX)             
        35     5.00000000E+03   # mmuR(MX)            
        36     5.00000000E+03   # mtauR(MX)           
        41     5.00000000E+03   # mqL1(MX)            
        42     5.00000000E+03   # mqL2(MX)            
        43     5.00000000E+03   # mqL3(MX)            
        44     5.00000000E+03   # muR(MX)             
        45     5.00000000E+03   # mcR(MX)             
        46     5.00000000E+03   # mtR(MX)             
        47     5.00000000E+03   # mdR(MX)             
        48     5.00000000E+03   # msR(MX)             
        49     5.00000000E+03   # mbR(MX)             
#
BLOCK MASS  # Mass Spectrum
# PDG code           mass       particle
        24     8.00924006E+01   # W+
        25     1.24764041E+02   # h
        35     3.00008729E+03   # H
        36     2.99999960E+03   # A
        37     3.00145180E+03   # H+
         5     4.87878001E+00   # b-quark pole mass calculated from mb(mb)_Msbar
   1000001     5.07334164E+03   # ~d_L
   2000001     5.05549018E+03   # ~d_R
   1000002     5.07286738E+03   # ~u_L
   2000002     5.05518682E+03   # ~u_R
   1000003     5.07334164E+03   # ~s_L
   2000003     5.05549018E+03   # ~s_R
   1000004     5.07286738E+03   # ~c_L
   2000004     5.05518682E+03   # ~c_R
   1000005     5.01923679E+03   # ~b_1
   2000005     5.05366993E+03   # ~b_2
   1000006     4.91045227E+03   # ~t_1
   2000006     5.06284813E+03   # ~t_2
   1000011     5.01912164E+03   # ~e_L
   2000011     5.00594868E+03   # ~e_R
   1000012     5.01817086E+03   # ~nu_eL
   1000013     5.01912164E+03   # ~mu_L
   2000013     5.00594868E+03   # ~mu_R
   1000014     5.01817086E+03   # ~nu_muL
   1000015     5.00479699E+03   # ~tau_1
   2000015     5.01862270E+03   # ~tau_2
   1000016     5.01761813E+03   # ~nu_tauL
   1000021     2.10000055E+03   # ~g
   1000022     6.00913235E+01   # ~chi_10
   1000023     4.01021690E+02   # ~chi_20
   1000025    -4.03141796E+02   # ~chi_30
   1000035     3.07419258E+03   # ~chi_40
   1000024     4.00000318E+02   # ~chi_1+
   1000037     3.07436038E+03   # ~chi_2+
#
BLOCK NMIX  # Neutralino Mixing Matrix
  1  1     9.93745769E-01   # N_11
  1  2     1.92565810E-04   # N_12
  1  3    -1.11539610E-01   # N_13
  1  4    -5.31271867E-03   # N_14
  2  1     8.26709641E-02   # N_21
  2  2     1.83221483E-02   # N_22
  2  3     7.02940036E-01   # N_23
  2  4     7.06190567E-01   # N_24
  3  1    -7.50646692E-02   # N_31
  3  2     1.75064344E-02   # N_32
  3  3    -7.02448509E-01   # N_33
  3  4     7.07548523E-01   # N_34
  4  1    -3.92082333E-04   # N_41
  4  2     9.99678842E-01   # N_42
  4  3    -5.60704168E-04   # N_43
  4  4    -2.53326928E-02   # N_44
#
BLOCK UMIX  # Chargino Mixing Matrix U
  1  1     7.96529779E-04   # U_11
  1  2     9.99999683E-01   # U_12
  2  1    -9.99999683E-01   # U_21
  2  2     7.96529779E-04   # U_22
#
BLOCK VMIX  # Chargino Mixing Matrix V
  1  1     3.58410759E-02   # V_11
  1  2    -9.99357502E-01   # V_12
  2  1    -9.99357502E-01   # V_21
  2  2    -3.58410759E-02   # V_22
#
BLOCK STOPMIX  # Stop Mixing Matrix
  1  1    -5.02953982E-01   # cos(theta_t)
  1  2     8.64313191E-01   # sin(theta_t)
  2  1    -8.64313191E-01   # -sin(theta_t)
  2  2    -5.02953982E-01   # cos(theta_t)
#
BLOCK SBOTMIX  # Sbottom Mixing Matrix
  1  1     9.99002420E-01   # cos(theta_b)
  1  2    -4.46560728E-02   # sin(theta_b)
  2  1     4.46560728E-02   # -sin(theta_b)
  2  2     9.99002420E-01   # cos(theta_b)
#
BLOCK STAUMIX  # Stau Mixing Matrix
  1  1    -4.53425323E-02   # cos(theta_tau)
  1  2     9.98971498E-01   # sin(theta_tau)
  2  1    -9.98971498E-01   # -sin(theta_tau)
  2  2    -4.53425323E-02   # cos(theta_tau)
#
BLOCK ALPHA  # Higgs mixing
          -1.05489577E-01   # Mixing angle in the neutral Higgs boson sector
#
BLOCK HMIX Q=  5.00076476E+03  # DRbar Higgs Parameters
         1    -3.85611232E+02   # mu(Q)MSSM           
         2     9.46897998E+00   # tan                 
         3     2.41724406E+02   # higgs               
         4     8.71416905E+06   # mA^2(Q)MSSM         
#
BLOCK GAUGE Q=  5.00076476E+03  # The gauge couplings
     1     3.71004253E-01   # gprime(Q) DRbar
     2     6.33574331E-01   # g(Q) DRbar
     3     9.97790956E-01   # g3(Q) DRbar
#
BLOCK AU Q=  5.00076476E+03  # The trilinear couplings
  1  1     5.00000001E+03   # A_u(Q) DRbar
  2  2     5.00000001E+03   # A_c(Q) DRbar
  3  3     5.00000002E+03   # A_t(Q) DRbar
#
BLOCK AD Q=  5.00076476E+03  # The trilinear couplings
  1  1     5.00000001E+03   # A_d(Q) DRbar
  2  2     5.00000001E+03   # A_s(Q) DRbar
  3  3     5.00000001E+03   # A_b(Q) DRbar
#
BLOCK AE Q=  5.00076476E+03  # The trilinear couplings
  1  1     0.00000000E+00   # A_e(Q) DRbar
  2  2     1.87082004E-07   # A_mu(Q) DRbar
  3  3     1.86770930E-07   # A_tau(Q) DRbar
#
BLOCK Yu Q=  5.00076476E+03  # The Yukawa couplings
  1  1     0.00000000E+00   # y_u(Q) DRbar
  2  2     0.00000000E+00   # y_c(Q) DRbar
  3  3     8.20574043E-01   # y_t(Q) DRbar
#
BLOCK Yd Q=  5.00076476E+03  # The Yukawa couplings
  1  1     0.00000000E+00   # y_d(Q) DRbar
  2  2     0.00000000E+00   # y_s(Q) DRbar
  3  3     1.30006225E-01   # y_b(Q) DRbar
#
BLOCK Ye Q=  5.00076476E+03  # The Yukawa couplings
  1  1     0.00000000E+00   # y_e(Q) DRbar
  2  2     0.00000000E+00   # y_mu(Q) DRbar
  3  3     9.72058956E-02   # y_tau(Q) DRbar
#
BLOCK MSOFT Q=  5.00076476E+03  # The soft SUSY breaking masses at the scale Q
         1     6.00000000E+01   # M_1(Q)              
         2     3.00000000E+03   # M_2(Q)              
         3     1.76108900E+03   # M_3(Q)              
        21     8.57919321E+06   # mH1^2(Q)            
        22     4.29106508E+05   # mH2^2(Q)            
        31     5.00000000E+03   # meL(Q)              
        32     5.00000000E+03   # mmuL(Q)             
        33     5.00000000E+03   # mtauL(Q)            
        34     5.00000000E+03   # meR(Q)              
        35     5.00000000E+03   # mmuR(Q)             
        36     5.00000000E+03   # mtauR(Q)            
        41     5.00000000E+03   # mqL1(Q)             
        42     5.00000000E+03   # mqL2(Q)             
        43     4.99999999E+03   # mqL3(Q)             
        44     5.00000000E+03   # muR(Q)              
        45     5.00000000E+03   # mcR(Q)              
        46     4.99999999E+03   # mtR(Q)              
        47     5.00000000E+03   # mdR(Q)              
        48     5.00000000E+03   # msR(Q)              
        49     5.00000000E+03   # mbR(Q)              
#
#
#
#                             =================
#                             |The decay table|
#                             =================
#
# - The QCD corrections to the decays gluino -> squark  + quark
#                                     squark -> gaugino + quark_prime
#                                     squark -> squark_prime + Higgs
#                                     squark -> gluino  + quark
#   are included.
#
# - The multi-body decays for the inos, stops and sbottoms are included.
#
# - The loop induced decays for the gluino, neutralinos and stops
#   are included.
#
# - The SUSY decays of the top quark are included.
#
#
#         PDG            Width
DECAY         6     1.40681337E+00   # top decays
#          BR         NDA      ID1       ID2
     1.00000000E+00    2           5        24   # BR(t ->  b    W+)
#
#         PDG            Width
DECAY   1000021     2.78344087E-03   # gluino decays
#          BR         NDA      ID1       ID2
     1.83048579E-08    2     1000022        21   # BR(~g -> ~chi_10 g)
     6.08564605E-03    2     1000023        21   # BR(~g -> ~chi_20 g)
     5.90906643E-03    2     1000025        21   # BR(~g -> ~chi_30 g)
#           BR         NDA      ID1       ID2       ID3
     1.07140952E-02    3     1000022         1        -1   # BR(~g -> ~chi_10 d  db)
     5.60885668E-05    3     1000023         1        -1   # BR(~g -> ~chi_20 d  db)
     5.72804652E-05    3     1000025         1        -1   # BR(~g -> ~chi_30 d  db)
     3.65339431E-02    3     1000022         2        -2   # BR(~g -> ~chi_10 u  ub)
     2.86121216E-04    3     1000023         2        -2   # BR(~g -> ~chi_20 u  ub)
     1.05091467E-04    3     1000025         2        -2   # BR(~g -> ~chi_30 u  ub)
     1.07140952E-02    3     1000022         3        -3   # BR(~g -> ~chi_10 s  sb)
     5.60885668E-05    3     1000023         3        -3   # BR(~g -> ~chi_20 s  sb)
     5.72804652E-05    3     1000025         3        -3   # BR(~g -> ~chi_30 s  sb)
     3.65339431E-02    3     1000022         4        -4   # BR(~g -> ~chi_10 c  cb)
     2.86121216E-04    3     1000023         4        -4   # BR(~g -> ~chi_20 c  cb)
     1.05091467E-04    3     1000025         4        -4   # BR(~g -> ~chi_30 c  cb)
     1.10341335E-02    3     1000022         5        -5   # BR(~g -> ~chi_10 b  bb)
     5.38734005E-03    3     1000023         5        -5   # BR(~g -> ~chi_20 b  bb)
     5.36287133E-03    3     1000025         5        -5   # BR(~g -> ~chi_30 b  bb)
     3.54968978E-02    3     1000022         6        -6   # BR(~g -> ~chi_10 t  tb)
     2.07796238E-01    3     1000023         6        -6   # BR(~g -> ~chi_20 t  tb)
     1.94016202E-01    3     1000025         6        -6   # BR(~g -> ~chi_30 t  tb)
     5.40515197E-05    3     1000024         1        -2   # BR(~g -> ~chi_1+ d  ub)
     5.40515197E-05    3    -1000024         2        -1   # BR(~g -> ~chi_1- u  db)
     5.40515197E-05    3     1000024         3        -4   # BR(~g -> ~chi_1+ s  cb)
     5.40515197E-05    3    -1000024         4        -3   # BR(~g -> ~chi_1- c  sb)
     2.16595070E-01    3     1000024         5        -6   # BR(~g -> ~chi_1+ b  tb)
     2.16595070E-01    3    -1000024         6        -5   # BR(~g -> ~chi_1- t  bb)
#
#         PDG            Width
DECAY   1000006     3.40662705E+02   # stop1 decays
#          BR         NDA      ID1       ID2
     2.55039635E-02    2     1000022         6   # BR(~t_1 -> ~chi_10 t )
     9.77591180E-02    2     1000023         6   # BR(~t_1 -> ~chi_20 t )
     9.15370031E-02    2     1000025         6   # BR(~t_1 -> ~chi_30 t )
     5.94287475E-03    2     1000035         6   # BR(~t_1 -> ~chi_40 t )
     1.41167720E-01    2     1000024         5   # BR(~t_1 -> ~chi_1+ b )
     1.18473013E-02    2     1000037         5   # BR(~t_1 -> ~chi_2+ b )
     6.26242020E-01    2     1000021         6   # BR(~t_1 -> ~g      t )
#
#         PDG            Width
DECAY   2000006     3.45470164E+02   # stop2 decays
#          BR         NDA      ID1       ID2
     1.02245284E-02    2     1000022         6   # BR(~t_2 -> ~chi_10 t )
     9.49618442E-02    2     1000023         6   # BR(~t_2 -> ~chi_20 t )
     1.01885144E-01    2     1000025         6   # BR(~t_2 -> ~chi_30 t )
     1.63066662E-02    2     1000035         6   # BR(~t_2 -> ~chi_40 t )
     5.60479337E-02    2     1000024         5   # BR(~t_2 -> ~chi_1+ b )
     3.24715527E-02    2     1000037         5   # BR(~t_2 -> ~chi_2+ b )
     6.84617062E-01    2     1000021         6   # BR(~t_2 -> ~g      t )
     8.09095775E-04    2     1000006        25   # BR(~t_2 -> ~t_1    h )
     2.67617392E-03    2     1000006        23   # BR(~t_2 -> ~t_1    Z )
#
#         PDG            Width
DECAY   1000005     3.20311413E+02   # sbottom1 decays
#          BR         NDA      ID1       ID2
     2.44896073E-03    2     1000022         5   # BR(~b_1 -> ~chi_10 b )
     2.55213861E-03    2     1000023         5   # BR(~b_1 -> ~chi_20 b )
     2.57675297E-03    2     1000025         5   # BR(~b_1 -> ~chi_30 b )
     2.37384806E-02    2     1000035         5   # BR(~b_1 -> ~chi_40 b )
     2.07476792E-01    2    -1000024         6   # BR(~b_1 -> ~chi_1- t )
     4.76582132E-02    2    -1000037         6   # BR(~b_1 -> ~chi_2- t )
     7.11834083E-01    2     1000021         5   # BR(~b_1 -> ~g      b )
     1.71457918E-03    2     1000006       -24   # BR(~b_1 -> ~t_1    W-)
#
#         PDG            Width
DECAY   2000005     2.37151173E+02   # sbottom2 decays
#          BR         NDA      ID1       ID2
     1.23303190E-02    2     1000022         5   # BR(~b_2 -> ~chi_10 b )
     3.64197951E-03    2     1000023         5   # BR(~b_2 -> ~chi_20 b )
     3.66658532E-03    2     1000025         5   # BR(~b_2 -> ~chi_30 b )
     5.87086861E-05    2     1000035         5   # BR(~b_2 -> ~chi_40 b )
     7.60719903E-03    2    -1000024         6   # BR(~b_2 -> ~chi_1- t )
     1.17883076E-04    2    -1000037         6   # BR(~b_2 -> ~chi_2- t )
     9.72558127E-01    2     1000021         5   # BR(~b_2 -> ~g      b )
     1.91982063E-05    2     1000006       -24   # BR(~b_2 -> ~t_1    W-)
#
#         PDG            Width
DECAY   1000002     2.56625085E+02   # sup_L decays
#          BR         NDA      ID1       ID2
     2.87927038E-03    2     1000022         2   # BR(~u_L -> ~chi_10 u)
     8.96530170E-05    2     1000023         2   # BR(~u_L -> ~chi_20 u)
     6.15123161E-07    2     1000025         2   # BR(~u_L -> ~chi_30 u)
     3.07476255E-02    2     1000035         2   # BR(~u_L -> ~chi_40 u)
     1.93992051E-04    2     1000024         1   # BR(~u_L -> ~chi_1+ d)
     6.14574020E-02    2     1000037         1   # BR(~u_L -> ~chi_2+ d)
     9.04631442E-01    2     1000021         2   # BR(~u_L -> ~g      u)
#
#         PDG            Width
DECAY   2000002     2.42575894E+02   # sup_R decays
#          BR         NDA      ID1       ID2
     4.84680257E-02    2     1000022         2   # BR(~u_R -> ~chi_10 u)
     3.31582202E-04    2     1000023         2   # BR(~u_R -> ~chi_20 u)
     2.73337910E-04    2     1000025         2   # BR(~u_R -> ~chi_30 u)
     3.01558064E-09    2     1000035         2   # BR(~u_R -> ~chi_40 u)
     9.50927051E-01    2     1000021         2   # BR(~u_R -> ~g      u)
#
#         PDG            Width
DECAY   1000001     2.56639104E+02   # sdown_L decays
#          BR         NDA      ID1       ID2
     2.86797440E-03    2     1000022         1   # BR(~d_L -> ~chi_10 d)
     3.60652482E-07    2     1000023         1   # BR(~d_L -> ~chi_20 d)
     7.80756922E-05    2     1000025         1   # BR(~d_L -> ~chi_30 d)
     3.07648685E-02    2     1000035         1   # BR(~d_L -> ~chi_40 d)
     9.58173668E-08    2    -1000024         2   # BR(~d_L -> ~chi_1- u)
     6.15520716E-02    2    -1000037         2   # BR(~d_L -> ~chi_2- u)
     9.04736553E-01    2     1000021         1   # BR(~d_L -> ~g      d)
#
#         PDG            Width
DECAY   2000001     2.33673530E+02   # sdown_R decays
#          BR         NDA      ID1       ID2
     1.25793984E-02    2     1000022         1   # BR(~d_R -> ~chi_10 d)
     8.60590113E-05    2     1000023         1   # BR(~d_R -> ~chi_20 d)
     7.09422596E-05    2     1000025         1   # BR(~d_R -> ~chi_30 d)
     7.82773104E-10    2     1000035         1   # BR(~d_R -> ~chi_40 d)
     9.87263600E-01    2     1000021         1   # BR(~d_R -> ~g      d)
#
#         PDG            Width
DECAY   1000004     2.56625085E+02   # scharm_L decays
#          BR         NDA      ID1       ID2
     2.87927038E-03    2     1000022         4   # BR(~c_L -> ~chi_10 c)
     8.96530170E-05    2     1000023         4   # BR(~c_L -> ~chi_20 c)
     6.15123161E-07    2     1000025         4   # BR(~c_L -> ~chi_30 c)
     3.07476255E-02    2     1000035         4   # BR(~c_L -> ~chi_40 c)
     1.93992051E-04    2     1000024         3   # BR(~c_L -> ~chi_1+ s)
     6.14574020E-02    2     1000037         3   # BR(~c_L -> ~chi_2+ s)
     9.04631442E-01    2     1000021         4   # BR(~c_L -> ~g      c)
#
#         PDG            Width
DECAY   2000004     2.42575894E+02   # scharm_R decays
#          BR         NDA      ID1       ID2
     4.84680257E-02    2     1000022         4   # BR(~c_R -> ~chi_10 c)
     3.31582202E-04    2     1000023         4   # BR(~c_R -> ~chi_20 c)
     2.73337910E-04    2     1000025         4   # BR(~c_R -> ~chi_30 c)
     3.01558064E-09    2     1000035         4   # BR(~c_R -> ~chi_40 c)
     9.50927051E-01    2     1000021         4   # BR(~c_R -> ~g      c)
#
#         PDG            Width
DECAY   1000003     2.56639104E+02   # sstrange_L decays
#          BR         NDA      ID1       ID2
     2.86797440E-03    2     1000022         3   # BR(~s_L -> ~chi_10 s)
     3.60652482E-07    2     1000023         3   # BR(~s_L -> ~chi_20 s)
     7.80756922E-05    2     1000025         3   # BR(~s_L -> ~chi_30 s)
     3.07648685E-02    2     1000035         3   # BR(~s_L -> ~chi_40 s)
     9.58173668E-08    2    -1000024         4   # BR(~s_L -> ~chi_1- c)
     6.15520716E-02    2    -1000037         4   # BR(~s_L -> ~chi_2- c)
     9.04736553E-01    2     1000021         3   # BR(~s_L -> ~g      s)
#
#         PDG            Width
DECAY   2000003     2.33673530E+02   # sstrange_R decays
#          BR         NDA      ID1       ID2
     1.25793984E-02    2     1000022         3   # BR(~s_R -> ~chi_10 s)
     8.60590113E-05    2     1000023         3   # BR(~s_R -> ~chi_20 s)
     7.09422596E-05    2     1000025         3   # BR(~s_R -> ~chi_30 s)
     7.82773104E-10    2     1000035         3   # BR(~s_R -> ~chi_40 s)
     9.87263600E-01    2     1000021         3   # BR(~s_R -> ~g      s)
#
#         PDG            Width
DECAY   1000011     3.03545511E+01   # selectron_L decays
#          BR         NDA      ID1       ID2
     2.23653290E-01    2     1000022        11   # BR(~e_L -> ~chi_10 e-)
     2.90272317E-03    2     1000023        11   # BR(~e_L -> ~chi_20 e-)
     4.55942633E-04    2     1000025        11   # BR(~e_L -> ~chi_30 e-)
     2.57495798E-01    2     1000035        11   # BR(~e_L -> ~chi_40 e-)
     8.27177927E-07    2    -1000024        12   # BR(~e_L -> ~chi_1- nu_e)
     5.15491420E-01    2    -1000037        12   # BR(~e_L -> ~chi_2- nu_e)
#
#         PDG            Width
DECAY   2000011     2.74038147E+01   # selectron_R decays
#          BR         NDA      ID1       ID2
     9.87685557E-01    2     1000022        11   # BR(~e_R -> ~chi_10 e-)
     6.75005322E-03    2     1000023        11   # BR(~e_R -> ~chi_20 e-)
     5.56432982E-03    2     1000025        11   # BR(~e_R -> ~chi_30 e-)
     5.96684496E-08    2     1000035        11   # BR(~e_R -> ~chi_40 e-)
#
#         PDG            Width
DECAY   1000013     3.03545511E+01   # smuon_L decays
#          BR         NDA      ID1       ID2
     2.23653290E-01    2     1000022        13   # BR(~mu_L -> ~chi_10 mu-)
     2.90272317E-03    2     1000023        13   # BR(~mu_L -> ~chi_20 mu-)
     4.55942633E-04    2     1000025        13   # BR(~mu_L -> ~chi_30 mu-)
     2.57495798E-01    2     1000035        13   # BR(~mu_L -> ~chi_40 mu-)
     8.27177927E-07    2    -1000024        14   # BR(~mu_L -> ~chi_1- nu_mu)
     5.15491420E-01    2    -1000037        14   # BR(~mu_L -> ~chi_2- nu_mu)
#
#         PDG            Width
DECAY   2000013     2.74038147E+01   # smuon_R decays
#          BR         NDA      ID1       ID2
     9.87685557E-01    2     1000022        13   # BR(~mu_R -> ~chi_10 mu-)
     6.75005322E-03    2     1000023        13   # BR(~mu_R -> ~chi_20 mu-)
     5.56432982E-03    2     1000025        13   # BR(~mu_R -> ~chi_30 mu-)
     5.96684496E-08    2     1000035        13   # BR(~mu_R -> ~chi_40 mu-)
#
#         PDG            Width
DECAY   1000015     2.92595528E+01   # stau_1 decays
#          BR         NDA      ID1       ID2
     9.24675054E-01    2     1000022        15   # BR(~tau_1 -> ~chi_10  tau-)
     2.17169366E-02    2     1000023        15   # BR(~tau_1 -> ~chi_20  tau-)
     2.02899140E-02    2     1000025        15   # BR(~tau_1 -> ~chi_30  tau-)
     5.41026929E-04    2     1000035        15   # BR(~tau_1 -> ~chi_40  tau-)
     3.16941121E-02    2    -1000024        16   # BR(~tau_1 -> ~chi_1-  nu_tau)
     1.08295630E-03    2    -1000037        16   # BR(~tau_1 -> ~chi_2-  nu_tau)
#
#         PDG            Width
DECAY   2000015     3.12727170E+01   # stau_2 decays
#          BR         NDA      ID1       ID2
     2.17961200E-01    2     1000022        15   # BR(~tau_2 -> ~chi_10  tau-)
     1.78038691E-02    2     1000023        15   # BR(~tau_2 -> ~chi_20  tau-)
     1.56822376E-02    2     1000025        15   # BR(~tau_2 -> ~chi_30  tau-)
     2.49340087E-01    2     1000035        15   # BR(~tau_2 -> ~chi_40  tau-)
     4.80290350E-05    2    -1000024        16   # BR(~tau_2 -> ~chi_1-  nu_tau)
     4.99164577E-01    2    -1000037        16   # BR(~tau_2 -> ~chi_2-  nu_tau)
#
#         PDG            Width
DECAY   1000012     3.03577462E+01   # snu_eL decays
#          BR         NDA      ID1       ID2
     2.23291601E-01    2     1000022        12   # BR(~nu_eL -> ~chi_10 nu_e)
     5.89910748E-04    2     1000023        12   # BR(~nu_eL -> ~chi_20 nu_e)
     2.46130208E-03    2     1000025        12   # BR(~nu_eL -> ~chi_30 nu_e)
     2.57539280E-01    2     1000035        12   # BR(~nu_eL -> ~chi_40 nu_e)
     1.67427536E-03    2     1000024        11   # BR(~nu_eL -> ~chi_1+ e-)
     5.14443631E-01    2     1000037        11   # BR(~nu_eL -> ~chi_2+ e-)
#
#         PDG            Width
DECAY   1000014     3.03577462E+01   # snu_muL decays
#          BR         NDA      ID1       ID2
     2.23291601E-01    2     1000022        14   # BR(~nu_muL -> ~chi_10 nu_mu)
     5.89910748E-04    2     1000023        14   # BR(~nu_muL -> ~chi_20 nu_mu)
     2.46130208E-03    2     1000025        14   # BR(~nu_muL -> ~chi_30 nu_mu)
     2.57539280E-01    2     1000035        14   # BR(~nu_muL -> ~chi_40 nu_mu)
     1.67427536E-03    2     1000024        13   # BR(~nu_muL -> ~chi_1+ mu-)
     5.14443631E-01    2     1000037        13   # BR(~nu_muL -> ~chi_2+ mu-)
#
#         PDG            Width
DECAY   1000016     3.12794788E+01   # snu_tauL decays
#          BR         NDA      ID1       ID2
     2.16687840E-01    2     1000022        16   # BR(~nu_tauL -> ~chi_10 nu_tau)
     5.72462785E-04    2     1000023        16   # BR(~nu_tauL -> ~chi_20 nu_tau)
     2.38850335E-03    2     1000025        16   # BR(~nu_tauL -> ~chi_30 nu_tau)
     2.49856516E-01    2     1000035        16   # BR(~nu_tauL -> ~chi_40 nu_tau)
     3.13980545E-02    2     1000024        15   # BR(~nu_tauL -> ~chi_1+ tau-)
     4.99096623E-01    2     1000037        15   # BR(~nu_tauL -> ~chi_2+ tau-)
#
#         PDG            Width
DECAY   1000024     2.29940615E-01   # chargino1+ decays
#          BR         NDA      ID1       ID2
     1.00000000E+00    2     1000022        24   # BR(~chi_1+ -> ~chi_10  W+)
#
#         PDG            Width
DECAY   1000037     2.25251736E+01   # chargino2+ decays
#          BR         NDA      ID1       ID2
     2.53607333E-01    2     1000024        23   # BR(~chi_2+ -> ~chi_1+  Z )
     1.38111361E-04    2     1000022        24   # BR(~chi_2+ -> ~chi_10  W+)
     2.45214628E-01    2     1000023        24   # BR(~chi_2+ -> ~chi_20  W+)
     2.44434812E-01    2     1000025        24   # BR(~chi_2+ -> ~chi_30  W+)
     2.56596880E-01    2     1000024        25   # BR(~chi_2+ -> ~chi_1+  h )
     8.23578656E-06    2     1000022        37   # BR(~chi_2+ -> ~chi_10  H+)
#
#         PDG            Width
DECAY   1000022     0.00000000E+00   # neutralino1 decays
#
#         PDG            Width
DECAY   1000023     2.27194331E-01   # neutralino2 decays
#          BR         NDA      ID1       ID2
     4.94343412E-01    2     1000022        23   # BR(~chi_20 -> ~chi_10   Z )
     5.05656588E-01    2     1000022        25   # BR(~chi_20 -> ~chi_10   h )
#
#         PDG            Width
DECAY   1000025     2.16618696E-01   # neutralino3 decays
#          BR         NDA      ID1       ID2
     5.81740795E-01    2     1000022        23   # BR(~chi_30 -> ~chi_10   Z )
     4.18259205E-01    2     1000022        25   # BR(~chi_30 -> ~chi_10   h )
#
#         PDG            Width
DECAY   1000035     2.25320499E+01   # neutralino4 decays
#          BR         NDA      ID1       ID2
     2.15565465E-06    2     1000022        23   # BR(~chi_40 -> ~chi_10   Z )
     1.20957077E-01    2     1000023        23   # BR(~chi_40 -> ~chi_20   Z )
     1.32333806E-01    2     1000025        23   # BR(~chi_40 -> ~chi_30   Z )
     2.45207816E-01    2     1000024       -24   # BR(~chi_40 -> ~chi_1+   W-)
     2.45207816E-01    2    -1000024        24   # BR(~chi_40 -> ~chi_1-   W+)
     1.25376912E-04    2     1000022        25   # BR(~chi_40 -> ~chi_10   h )
     7.94276007E-06    2     1000022        35   # BR(~chi_40 -> ~chi_10   H )
     8.51107500E-07    2     1000022        36   # BR(~chi_40 -> ~chi_10   A )
     1.34945665E-01    2     1000023        25   # BR(~chi_40 -> ~chi_20   h )
     1.21211493E-01    2     1000025        25   # BR(~chi_40 -> ~chi_30   h )
#
#         PDG            Width
DECAY        25     4.07298615E-03   # h decays
#          BR         NDA      ID1       ID2
     6.09816688E-01    2           5        -5   # BR(h -> b       bb     )
     6.36835749E-02    2         -15        15   # BR(h -> tau+    tau-   )
     2.25463051E-04    2         -13        13   # BR(h -> mu+     mu-    )
     4.77974602E-04    2           3        -3   # BR(h -> s       sb     )
     2.07091447E-02    2           4        -4   # BR(h -> c       cb     )
     6.69788940E-02    2          21        21   # BR(h -> g       g      )
     2.30149000E-03    2          22        22   # BR(h -> gam     gam    )
     1.48379006E-03    2          22        23   # BR(h -> Z       gam    )
     2.09331353E-01    2          24       -24   # BR(h -> W+      W-     )
     2.49307265E-02    2          23        23   # BR(h -> Z       Z      )
     6.09007686E-05    2     1000022   1000022   # BR(h -> ~chi_10 ~chi_10)
#
#         PDG            Width
DECAY        35     8.72885340E+00   # H decays
#          BR         NDA      ID1       ID2
     3.64599144E-01    2           5        -5   # BR(H -> b       bb     )
     6.38125400E-02    2         -15        15   # BR(H -> tau+    tau-   )
     2.25646210E-04    2         -13        13   # BR(H -> mu+     mu-    )
     2.76607583E-04    2           3        -3   # BR(H -> s       sb     )
     1.54799986E-06    2           4        -4   # BR(H -> c       cb     )
     1.54657452E-01    2           6        -6   # BR(H -> t       tb     )
     5.14482713E-05    2          21        21   # BR(H -> g       g      )
     1.39947278E-07    2          22        22   # BR(H -> gam     gam    )
     9.12545102E-08    2          23        22   # BR(H -> Z       gam    )
     7.45163270E-05    2          24       -24   # BR(H -> W+      W-     )
     3.72109931E-05    2          23        23   # BR(H -> Z       Z      )
     2.68342891E-04    2          25        25   # BR(H -> h       h      )
     2.60178047E-24    2          36        36   # BR(H -> A       A      )
     8.54701771E-19    2          23        36   # BR(H -> Z       A      )
     3.30491177E-03    2     1000024  -1000024   # BR(H -> ~chi_1+ ~chi_1-)
     1.04831391E-02    2     1000022   1000022   # BR(H -> ~chi_10 ~chi_10)
     1.10139384E-03    2     1000023   1000023   # BR(H -> ~chi_20 ~chi_20)
     3.42863927E-03    2     1000025   1000025   # BR(H -> ~chi_30 ~chi_30)
     2.38959064E-01    2     1000022   1000023   # BR(H -> ~chi_10 ~chi_20)
     1.53399783E-01    2     1000022   1000025   # BR(H -> ~chi_10 ~chi_30)
     5.31838131E-03    2     1000023   1000025   # BR(H -> ~chi_20 ~chi_30)
#
#         PDG            Width
DECAY        36     8.73487043E+00   # A decays
#          BR         NDA      ID1       ID2
     3.64472597E-01    2           5        -5   # BR(A -> b       bb     )
     6.37704709E-02    2         -15        15   # BR(A -> tau+    tau-   )
     2.25497135E-04    2         -13        13   # BR(A -> mu+     mu-    )
     2.76626964E-04    2           3        -3   # BR(A -> s       sb     )
     1.55308856E-06    2           4        -4   # BR(A -> c       cb     )
     1.55080236E-01    2           6        -6   # BR(A -> t       tb     )
     1.53454659E-04    2          21        21   # BR(A -> g       g      )
     5.82614113E-07    2          22        22   # BR(A -> gam     gam    )
     1.85729438E-07    2          23        22   # BR(A -> Z       gam    )
     7.41831559E-05    2          23        25   # BR(A -> Z       h      )
     3.52230011E-03    2     1000024  -1000024   # BR(A -> ~chi_1+ ~chi_1-)
     1.02837640E-02    2     1000022   1000022   # BR(A -> ~chi_10 ~chi_10)
     7.73816358E-04    2     1000023   1000023   # BR(A -> ~chi_20 ~chi_20)
     5.66441756E-03    2     1000025   1000025   # BR(A -> ~chi_30 ~chi_30)
     1.57090409E-01    2     1000022   1000023   # BR(A -> ~chi_10 ~chi_20)
     2.34398739E-01    2     1000022   1000025   # BR(A -> ~chi_10 ~chi_30)
     4.21116688E-03    2     1000023   1000025   # BR(A -> ~chi_20 ~chi_30)
#
#         PDG            Width
DECAY        37     8.67744403E+00   # H+ decays
#          BR         NDA      ID1       ID2
     5.84440308E-04    2           4        -5   # BR(H+ -> c       bb     )
     6.42235706E-02    2         -15        16   # BR(H+ -> tau+    nu_tau )
     2.27099329E-04    2         -13        14   # BR(H+ -> mu+     nu_mu  )
     3.74039830E-06    2           2        -5   # BR(H+ -> u       bb     )
     1.33253828E-05    2           2        -3   # BR(H+ -> u       sb     )
     2.75570282E-04    2           4        -3   # BR(H+ -> c       sb     )
     5.18157165E-01    2           6        -5   # BR(H+ -> t       bb     )
     7.48307923E-05    2          24        25   # BR(H+ -> W+      h      )
     9.78030474E-13    2          24        36   # BR(H+ -> W+      A      )
     4.10469991E-01    2     1000024   1000022   # BR(H+ -> ~chi_1+ ~chi_10)
     5.22346720E-03    2     1000024   1000023   # BR(H+ -> ~chi_1+ ~chi_20)
     7.46799659E-04    2     1000024   1000025   # BR(H+ -> ~chi_1+ ~chi_30)
