#
#                              ======================
#                              | THE SUSYHIT OUTPUT |
#                              ======================
#
#
#              ------------------------------------------------------
#              |     This is the output of the SUSY-HIT package     |
#              |  created by A.Djouadi, M.Muehlleitner and M.Spira. |
#              |  In case of problems with SUSY-HIT email to        |
#              |           margarete.muehlleitner@cern.ch           |
#              |           michael.spira@psi.ch                     |
#              |           abdelhak.djouadi@cern.ch                 |
#              ------------------------------------------------------
#
#              ------------------------------------------------------
#              |  SUSY Les Houches Accord - MSSM Spectrum + Decays  |
#              |              based on the decay programs           |
#              |                                                    |
#              |                     SDECAY 1.3b                    |
#              |                                                    |
#              |  Authors: M.Muhlleitner, A.Djouadi and Y.Mambrini  |
#              |  Ref.:    Comput.Phys.Commun.168(2005)46           |
#              |           [hep-ph/0311167]                         |
#              |                                                    |
#              |                     HDECAY 3.4                     |
#              |                                                    |
#              |  By: A.Djouadi,J.Kalinowski,M.Muhlleitner,M.Spira  |
#              |  Ref.:    Comput.Phys.Commun.108(1998)56           |
#              |           [hep-ph/9704448]                         |
#              |                                                    |
#              |                                                    |
#              |  If not stated otherwise all DRbar couplings and   |
#              |  soft SUSY breaking masses are given at the scale  |
#              |  Q=  0.50007672E+04
#              |                                                    |
#              ------------------------------------------------------
#
#
BLOCK DCINFO  # Decay Program information
     1   SDECAY/HDECAY # decay calculator
     2   1.3b  /3.4    # version number
#
BLOCK SPINFO  # Spectrum calculator information
     1    SOFTSUSY    # spectrum calculator                
     2    3.4.0       # version number                     
#
BLOCK MODSEL  # Model selection
     1     0   #  nonUniversal                                     
#
BLOCK SMINPUTS  # Standard Model inputs
         1     1.25778332E+02   # alpha_em^-1(M_Z)^MSbar
         2     1.16570000E-05   # G_F [GeV^-2]
         3     1.17200002E-01   # alpha_S(M_Z)^MSbar
         4     9.11876000E+01   # M_Z pole mass
         5     4.25000000E+00   # mb(mb)^MSbar
         6     1.72500000E+02   # mt pole mass
         7     1.77682000E+00   # mtau pole mass
#
BLOCK MINPAR  # Input parameters - minimal models
         3     1.00000000E+01   # tanb                
#
BLOCK EXTPAR  # Input parameters - non-minimal models
         0    -1.00000000E+00   # Set                 
         1     6.00000000E+01   # M_1(MX)             
         2     3.00000000E+03   # M_2(MX)             
         3     1.57543000E+03   # M_3(MX)             
        11     5.00000000E+03   # At(MX)              
        12     5.00000000E+03   # Ab(MX)              
        13     0.00000000E+00   # Atau(MX)            
        23    -2.82799000E+02   # mu(MX)              
        26     3.00000000E+03   # mA(pole)            
        31     5.00000000E+03   # meL(MX)             
        32     5.00000000E+03   # mmuL(MX)            
        33     5.00000000E+03   # mtauL(MX)           
        34     5.00000000E+03   # meR(MX)             
        35     5.00000000E+03   # mmuR(MX)            
        36     5.00000000E+03   # mtauR(MX)           
        41     5.00000000E+03   # mqL1(MX)            
        42     5.00000000E+03   # mqL2(MX)            
        43     5.00000000E+03   # mqL3(MX)            
        44     5.00000000E+03   # muR(MX)             
        45     5.00000000E+03   # mcR(MX)             
        46     5.00000000E+03   # mtR(MX)             
        47     5.00000000E+03   # mdR(MX)             
        48     5.00000000E+03   # msR(MX)             
        49     5.00000000E+03   # mbR(MX)             
#
BLOCK MASS  # Mass Spectrum
# PDG code           mass       particle
        24     8.00913851E+01   # W+
        25     1.24725072E+02   # h
        35     3.00008894E+03   # H
        36     2.99999971E+03   # A
        37     3.00146924E+03   # H+
         5     4.87878001E+00   # b-quark pole mass calculated from mb(mb)_Msbar
   1000001     5.07074048E+03   # ~d_L
   2000001     5.05286125E+03   # ~d_R
   1000002     5.07026493E+03   # ~u_L
   2000002     5.05255416E+03   # ~u_R
   1000003     5.07074048E+03   # ~s_L
   2000003     5.05286125E+03   # ~s_R
   1000004     5.07026493E+03   # ~c_L
   2000004     5.05255416E+03   # ~c_R
   1000005     5.01675353E+03   # ~b_1
   2000005     5.05099763E+03   # ~b_2
   1000006     4.90775945E+03   # ~t_1
   2000006     5.06045950E+03   # ~t_2
   1000011     5.01913950E+03   # ~e_L
   2000011     5.00595417E+03   # ~e_R
   1000012     5.01818786E+03   # ~nu_eL
   1000013     5.01913950E+03   # ~mu_L
   2000013     5.00595417E+03   # ~mu_R
   1000014     5.01818786E+03   # ~nu_muL
   1000015     5.00481641E+03   # ~tau_1
   2000015     5.01862091E+03   # ~tau_2
   1000016     5.01763401E+03   # ~nu_tauL
   1000021     1.90000018E+03   # ~g
   1000022     5.97918473E+01   # ~chi_10
   1000023     3.01966811E+02   # ~chi_20
   1000025    -3.03836679E+02   # ~chi_30
   1000035     3.07423220E+03   # ~chi_40
   1000024     3.00000567E+02   # ~chi_1+
   1000037     3.07440015E+03   # ~chi_2+
#
BLOCK NMIX  # Neutralino Mixing Matrix
  1  1     9.88606955E-01   # N_11
  1  2     6.01468235E-05   # N_12
  1  3    -1.49798330E-01   # N_13
  1  4    -1.47222693E-02   # N_14
  2  1     1.16363771E-01   # N_21
  2  2     1.76955693E-02   # N_22
  2  3     6.98596456E-01   # N_23
  2  4     7.05768610E-01   # N_24
  3  1    -9.54756682E-02   # N_31
  3  2     1.80278096E-02   # N_32
  3  3    -6.99659477E-01   # N_33
  3  4     7.07838972E-01   # N_34
  4  1    -3.97494421E-04   # N_41
  4  2     9.99680880E-01   # N_42
  4  3     2.60358868E-04   # N_43
  4  4    -2.52569381E-02   # N_44
#
BLOCK UMIX  # Chargino Mixing Matrix U
  1  1    -3.65656352E-04   # U_11
  1  2     9.99999933E-01   # U_12
  2  1    -9.99999933E-01   # U_21
  2  2    -3.65656352E-04   # U_22
#
BLOCK VMIX  # Chargino Mixing Matrix V
  1  1     3.57277604E-02   # V_11
  1  2    -9.99361560E-01   # V_12
  2  1    -9.99361560E-01   # V_21
  2  2    -3.57277604E-02   # V_22
#
BLOCK STOPMIX  # Stop Mixing Matrix
  1  1    -5.03232314E-01   # cos(theta_t)
  1  2     8.64151166E-01   # sin(theta_t)
  2  1    -8.64151166E-01   # -sin(theta_t)
  2  2    -5.03232314E-01   # cos(theta_t)
#
BLOCK SBOTMIX  # Sbottom Mixing Matrix
  1  1     9.99210205E-01   # cos(theta_b)
  1  2    -3.97362080E-02   # sin(theta_b)
  2  1     3.97362080E-02   # -sin(theta_b)
  2  2     9.99210205E-01   # cos(theta_b)
#
BLOCK STAUMIX  # Stau Mixing Matrix
  1  1    -3.37555974E-02   # cos(theta_tau)
  1  2     9.99430117E-01   # sin(theta_tau)
  2  1    -9.99430117E-01   # -sin(theta_tau)
  2  2    -3.37555974E-02   # cos(theta_tau)
#
BLOCK ALPHA  # Higgs mixing
          -1.05487519E-01   # Mixing angle in the neutral Higgs boson sector
#
BLOCK HMIX Q=  5.00076722E+03  # DRbar Higgs Parameters
         1    -2.87946770E+02   # mu(Q)MSSM           
         2     9.46926665E+00   # tan                 
         3     2.41701534E+02   # higgs               
         4     8.75127723E+06   # mA^2(Q)MSSM         
#
BLOCK GAUGE Q=  5.00076722E+03  # The gauge couplings
     1     3.71072281E-01   # gprime(Q) DRbar
     2     6.33907485E-01   # g(Q) DRbar
     3     9.99259553E-01   # g3(Q) DRbar
#
BLOCK AU Q=  5.00076722E+03  # The trilinear couplings
  1  1     5.00000001E+03   # A_u(Q) DRbar
  2  2     5.00000001E+03   # A_c(Q) DRbar
  3  3     5.00000002E+03   # A_t(Q) DRbar
#
BLOCK AD Q=  5.00076722E+03  # The trilinear couplings
  1  1     5.00000001E+03   # A_d(Q) DRbar
  2  2     5.00000001E+03   # A_s(Q) DRbar
  3  3     5.00000001E+03   # A_b(Q) DRbar
#
BLOCK AE Q=  5.00076722E+03  # The trilinear couplings
  1  1     0.00000000E+00   # A_e(Q) DRbar
  2  2     1.56644470E-07   # A_mu(Q) DRbar
  3  3     1.56211808E-07   # A_tau(Q) DRbar
#
BLOCK Yu Q=  5.00076722E+03  # The Yukawa couplings
  1  1     0.00000000E+00   # y_u(Q) DRbar
  2  2     0.00000000E+00   # y_c(Q) DRbar
  3  3     8.20036478E-01   # y_t(Q) DRbar
#
BLOCK Yd Q=  5.00076722E+03  # The Yukawa couplings
  1  1     0.00000000E+00   # y_d(Q) DRbar
  2  2     0.00000000E+00   # y_s(Q) DRbar
  3  3     1.29788799E-01   # y_b(Q) DRbar
#
BLOCK Ye Q=  5.00076722E+03  # The Yukawa couplings
  1  1     0.00000000E+00   # y_e(Q) DRbar
  2  2     0.00000000E+00   # y_mu(Q) DRbar
  3  3     9.72786892E-02   # y_tau(Q) DRbar
#
BLOCK MSOFT Q=  5.00076722E+03  # The soft SUSY breaking masses at the scale Q
         1     6.00000000E+01   # M_1(Q)              
         2     3.00000000E+03   # M_2(Q)              
         3     1.57543000E+03   # M_3(Q)              
        21     8.64836510E+06   # mH1^2(Q)            
        22     4.95404899E+05   # mH2^2(Q)            
        31     5.00000000E+03   # meL(Q)              
        32     5.00000000E+03   # mmuL(Q)             
        33     5.00000000E+03   # mtauL(Q)            
        34     5.00000000E+03   # meR(Q)              
        35     5.00000000E+03   # mmuR(Q)             
        36     5.00000000E+03   # mtauR(Q)            
        41     5.00000000E+03   # mqL1(Q)             
        42     5.00000000E+03   # mqL2(Q)             
        43     5.00000000E+03   # mqL3(Q)             
        44     5.00000000E+03   # muR(Q)              
        45     5.00000000E+03   # mcR(Q)              
        46     4.99999999E+03   # mtR(Q)              
        47     5.00000000E+03   # mdR(Q)              
        48     5.00000000E+03   # msR(Q)              
        49     5.00000000E+03   # mbR(Q)              
#
#
#
#                             =================
#                             |The decay table|
#                             =================
#
# - The QCD corrections to the decays gluino -> squark  + quark
#                                     squark -> gaugino + quark_prime
#                                     squark -> squark_prime + Higgs
#                                     squark -> gluino  + quark
#   are included.
#
# - The multi-body decays for the inos, stops and sbottoms are included.
#
# - The loop induced decays for the gluino, neutralinos and stops
#   are included.
#
# - The SUSY decays of the top quark are included.
#
#
#         PDG            Width
DECAY         6     1.40833784E+00   # top decays
#          BR         NDA      ID1       ID2
     1.00000000E+00    2           5        24   # BR(t ->  b    W+)
#
#         PDG            Width
DECAY   1000021     1.74006765E-03   # gluino decays
#          BR         NDA      ID1       ID2
     1.27739860E-06    2     1000022        21   # BR(~g -> ~chi_10 g)
     7.27536233E-03    2     1000023        21   # BR(~g -> ~chi_20 g)
     7.05754525E-03    2     1000025        21   # BR(~g -> ~chi_30 g)
#           BR         NDA      ID1       ID2       ID3
     1.00965128E-02    3     1000022         1        -1   # BR(~g -> ~chi_10 d  db)
     1.11751017E-04    3     1000023         1        -1   # BR(~g -> ~chi_20 d  db)
     8.83497429E-05    3     1000025         1        -1   # BR(~g -> ~chi_30 d  db)
     3.44151439E-02    3     1000022         2        -2   # BR(~g -> ~chi_10 u  ub)
     5.27959696E-04    3     1000023         2        -2   # BR(~g -> ~chi_20 u  ub)
     1.80973685E-04    3     1000025         2        -2   # BR(~g -> ~chi_30 u  ub)
     1.00965128E-02    3     1000022         3        -3   # BR(~g -> ~chi_10 s  sb)
     1.11751017E-04    3     1000023         3        -3   # BR(~g -> ~chi_20 s  sb)
     8.83497429E-05    3     1000025         3        -3   # BR(~g -> ~chi_30 s  sb)
     3.44151439E-02    3     1000022         4        -4   # BR(~g -> ~chi_10 c  cb)
     5.27959696E-04    3     1000023         4        -4   # BR(~g -> ~chi_20 c  cb)
     1.80973685E-04    3     1000025         4        -4   # BR(~g -> ~chi_30 c  cb)
     1.05423981E-02    3     1000022         5        -5   # BR(~g -> ~chi_10 b  bb)
     5.47066063E-03    3     1000023         5        -5   # BR(~g -> ~chi_20 b  bb)
     5.45102528E-03    3     1000025         5        -5   # BR(~g -> ~chi_30 b  bb)
     3.20527239E-02    3     1000022         6        -6   # BR(~g -> ~chi_10 t  tb)
     2.09354798E-01    3     1000023         6        -6   # BR(~g -> ~chi_20 t  tb)
     1.93574621E-01    3     1000025         6        -6   # BR(~g -> ~chi_30 t  tb)
     5.41087175E-05    3     1000024         1        -2   # BR(~g -> ~chi_1+ d  ub)
     5.41087175E-05    3    -1000024         2        -1   # BR(~g -> ~chi_1- u  db)
     5.41087175E-05    3     1000024         3        -4   # BR(~g -> ~chi_1+ s  cb)
     5.41087175E-05    3    -1000024         4        -3   # BR(~g -> ~chi_1- c  sb)
     2.19080886E-01    3     1000024         5        -6   # BR(~g -> ~chi_1+ b  tb)
     2.19080886E-01    3    -1000024         6        -5   # BR(~g -> ~chi_1- t  bb)
#
#         PDG            Width
DECAY   1000006     3.59210597E+02   # stop1 decays
#          BR         NDA      ID1       ID2
     2.34936823E-02    2     1000022         6   # BR(~t_1 -> ~chi_10 t )
     9.44335855E-02    2     1000023         6   # BR(~t_1 -> ~chi_20 t )
     8.68292250E-02    2     1000025         6   # BR(~t_1 -> ~chi_30 t )
     5.65546374E-03    2     1000035         6   # BR(~t_1 -> ~chi_40 t )
     1.34443798E-01    2     1000024         5   # BR(~t_1 -> ~chi_1+ b )
     1.12744898E-02    2     1000037         5   # BR(~t_1 -> ~chi_2+ b )
     6.43869755E-01    2     1000021         6   # BR(~t_1 -> ~g      t )
#
#         PDG            Width
DECAY   2000006     3.62736377E+02   # stop2 decays
#          BR         NDA      ID1       ID2
     1.01913205E-02    2     1000022         6   # BR(~t_2 -> ~chi_10 t )
     8.97324150E-02    2     1000023         6   # BR(~t_2 -> ~chi_20 t )
     9.83236218E-02    2     1000025         6   # BR(~t_2 -> ~chi_30 t )
     1.54944170E-02    2     1000035         6   # BR(~t_2 -> ~chi_40 t )
     5.38722942E-02    2     1000024         5   # BR(~t_2 -> ~chi_1+ b )
     3.08557931E-02    2     1000037         5   # BR(~t_2 -> ~chi_2+ b )
     6.98196197E-01    2     1000021         6   # BR(~t_2 -> ~g      t )
     7.73682510E-04    2     1000006        25   # BR(~t_2 -> ~t_1    h )
     2.56025888E-03    2     1000006        23   # BR(~t_2 -> ~t_1    Z )
#
#         PDG            Width
DECAY   1000005     3.37975013E+02   # sbottom1 decays
#          BR         NDA      ID1       ID2
     2.36865377E-03    2     1000022         5   # BR(~b_1 -> ~chi_10 b )
     2.38340747E-03    2     1000023         5   # BR(~b_1 -> ~chi_20 b )
     2.44483800E-03    2     1000025         5   # BR(~b_1 -> ~chi_30 b )
     2.24924216E-02    2     1000035         5   # BR(~b_1 -> ~chi_40 b )
     1.97788334E-01    2    -1000024         6   # BR(~b_1 -> ~chi_1- t )
     4.51544708E-02    2    -1000037         6   # BR(~b_1 -> ~chi_2- t )
     7.25732150E-01    2     1000021         5   # BR(~b_1 -> ~g      b )
     1.63572437E-03    2     1000006       -24   # BR(~b_1 -> ~t_1    W-)
#
#         PDG            Width
DECAY   2000005     2.54295457E+02   # sbottom2 decays
#          BR         NDA      ID1       ID2
     1.14370279E-02    2     1000022         5   # BR(~b_2 -> ~chi_10 b )
     3.46465708E-03    2     1000023         5   # BR(~b_2 -> ~chi_20 b )
     3.45089621E-03    2     1000025         5   # BR(~b_2 -> ~chi_30 b )
     4.27762514E-05    2     1000035         5   # BR(~b_2 -> ~chi_40 b )
     7.02020176E-03    2    -1000024         6   # BR(~b_2 -> ~chi_1- t )
     8.58928859E-05    2    -1000037         6   # BR(~b_2 -> ~chi_2- t )
     9.74484451E-01    2     1000021         5   # BR(~b_2 -> ~g      b )
     1.40968726E-05    2     1000006       -24   # BR(~b_2 -> ~t_1    W-)
#
#         PDG            Width
DECAY   1000002     2.73734879E+02   # sup_L decays
#          BR         NDA      ID1       ID2
     2.67028200E-03    2     1000022         2   # BR(~u_L -> ~chi_10 u)
     1.16318811E-04    2     1000023         2   # BR(~u_L -> ~chi_20 u)
     2.58080002E-08    2     1000025         2   # BR(~u_L -> ~chi_30 u)
     2.88068032E-02    2     1000035         2   # BR(~u_L -> ~chi_40 u)
     1.81947684E-04    2     1000024         1   # BR(~u_L -> ~chi_1+ d)
     5.75784760E-02    2     1000037         1   # BR(~u_L -> ~chi_2+ d)
     9.10646147E-01    2     1000021         2   # BR(~u_L -> ~g      u)
#
#         PDG            Width
DECAY   2000002     2.59750099E+02   # sup_R decays
#          BR         NDA      ID1       ID2
     4.48378236E-02    2     1000022         2   # BR(~u_R -> ~chi_10 u)
     6.17253872E-04    2     1000023         2   # BR(~u_R -> ~chi_20 u)
     4.15505206E-04    2     1000025         2   # BR(~u_R -> ~chi_30 u)
     2.89047795E-09    2     1000035         2   # BR(~u_R -> ~chi_40 u)
     9.54129414E-01    2     1000021         2   # BR(~u_R -> ~g      u)
#
#         PDG            Width
DECAY   1000001     2.73747688E+02   # sdown_L decays
#          BR         NDA      ID1       ID2
     2.66708173E-03    2     1000022         1   # BR(~d_L -> ~chi_10 d)
     1.78868520E-06    2     1000023         1   # BR(~d_L -> ~chi_20 d)
     9.57579665E-05    2     1000025         1   # BR(~d_L -> ~chi_30 d)
     2.88233412E-02    2     1000035         1   # BR(~d_L -> ~chi_40 d)
     1.90591068E-08    2    -1000024         2   # BR(~d_L -> ~chi_1- u)
     5.76672605E-02    2    -1000037         2   # BR(~d_L -> ~chi_2- u)
     9.10744751E-01    2     1000021         1   # BR(~d_L -> ~g      d)
#
#         PDG            Width
DECAY   2000001     2.50839102E+02   # sdown_R decays
#          BR         NDA      ID1       ID2
     1.16083823E-02    2     1000022         1   # BR(~d_R -> ~chi_10 d)
     1.59805356E-04    2     1000023         1   # BR(~d_R -> ~chi_20 d)
     1.07573174E-04    2     1000025         1   # BR(~d_R -> ~chi_30 d)
     7.48442061E-10    2     1000035         1   # BR(~d_R -> ~chi_40 d)
     9.88124238E-01    2     1000021         1   # BR(~d_R -> ~g      d)
#
#         PDG            Width
DECAY   1000004     2.73734879E+02   # scharm_L decays
#          BR         NDA      ID1       ID2
     2.67028200E-03    2     1000022         4   # BR(~c_L -> ~chi_10 c)
     1.16318811E-04    2     1000023         4   # BR(~c_L -> ~chi_20 c)
     2.58080002E-08    2     1000025         4   # BR(~c_L -> ~chi_30 c)
     2.88068032E-02    2     1000035         4   # BR(~c_L -> ~chi_40 c)
     1.81947684E-04    2     1000024         3   # BR(~c_L -> ~chi_1+ s)
     5.75784760E-02    2     1000037         3   # BR(~c_L -> ~chi_2+ s)
     9.10646147E-01    2     1000021         4   # BR(~c_L -> ~g      c)
#
#         PDG            Width
DECAY   2000004     2.59750099E+02   # scharm_R decays
#          BR         NDA      ID1       ID2
     4.48378236E-02    2     1000022         4   # BR(~c_R -> ~chi_10 c)
     6.17253872E-04    2     1000023         4   # BR(~c_R -> ~chi_20 c)
     4.15505206E-04    2     1000025         4   # BR(~c_R -> ~chi_30 c)
     2.89047795E-09    2     1000035         4   # BR(~c_R -> ~chi_40 c)
     9.54129414E-01    2     1000021         4   # BR(~c_R -> ~g      c)
#
#         PDG            Width
DECAY   1000003     2.73747688E+02   # sstrange_L decays
#          BR         NDA      ID1       ID2
     2.66708173E-03    2     1000022         3   # BR(~s_L -> ~chi_10 s)
     1.78868520E-06    2     1000023         3   # BR(~s_L -> ~chi_20 s)
     9.57579665E-05    2     1000025         3   # BR(~s_L -> ~chi_30 s)
     2.88233412E-02    2     1000035         3   # BR(~s_L -> ~chi_40 s)
     1.90591068E-08    2    -1000024         4   # BR(~s_L -> ~chi_1- c)
     5.76672605E-02    2    -1000037         4   # BR(~s_L -> ~chi_2- c)
     9.10744751E-01    2     1000021         3   # BR(~s_L -> ~g      s)
#
#         PDG            Width
DECAY   2000003     2.50839102E+02   # sstrange_R decays
#          BR         NDA      ID1       ID2
     1.16083823E-02    2     1000022         3   # BR(~s_R -> ~chi_10 s)
     1.59805356E-04    2     1000023         3   # BR(~s_R -> ~chi_20 s)
     1.07573174E-04    2     1000025         3   # BR(~s_R -> ~chi_30 s)
     7.48442061E-10    2     1000035         3   # BR(~s_R -> ~chi_40 s)
     9.88124238E-01    2     1000021         3   # BR(~s_R -> ~g      s)
#
#         PDG            Width
DECAY   1000011     3.03814485E+01   # selectron_L decays
#          BR         NDA      ID1       ID2
     2.21132353E-01    2     1000022        11   # BR(~e_L -> ~chi_10 e-)
     4.82743888E-03    2     1000023        11   # BR(~e_L -> ~chi_20 e-)
     9.39657183E-04    2     1000025        11   # BR(~e_L -> ~chi_30 e-)
     2.57533066E-01    2     1000035        11   # BR(~e_L -> ~chi_40 e-)
     1.75323549E-07    2    -1000024        12   # BR(~e_L -> ~chi_1- nu_e)
     5.15567309E-01    2    -1000037        12   # BR(~e_L -> ~chi_2- nu_e)
#
#         PDG            Width
DECAY   2000011     2.74139125E+01   # selectron_R decays
#          BR         NDA      ID1       ID2
     9.77499209E-01    2     1000022        11   # BR(~e_R -> ~chi_10 e-)
     1.34481425E-02    2     1000023        11   # BR(~e_R -> ~chi_20 e-)
     9.05258756E-03    2     1000025        11   # BR(~e_R -> ~chi_30 e-)
     6.13252896E-08    2     1000035        11   # BR(~e_R -> ~chi_40 e-)
#
#         PDG            Width
DECAY   1000013     3.03814485E+01   # smuon_L decays
#          BR         NDA      ID1       ID2
     2.21132353E-01    2     1000022        13   # BR(~mu_L -> ~chi_10 mu-)
     4.82743888E-03    2     1000023        13   # BR(~mu_L -> ~chi_20 mu-)
     9.39657183E-04    2     1000025        13   # BR(~mu_L -> ~chi_30 mu-)
     2.57533066E-01    2     1000035        13   # BR(~mu_L -> ~chi_40 mu-)
     1.75323549E-07    2    -1000024        14   # BR(~mu_L -> ~chi_1- nu_mu)
     5.15567309E-01    2    -1000037        14   # BR(~mu_L -> ~chi_2- nu_mu)
#
#         PDG            Width
DECAY   2000013     2.74139125E+01   # smuon_R decays
#          BR         NDA      ID1       ID2
     9.77499209E-01    2     1000022        13   # BR(~mu_R -> ~chi_10 mu-)
     1.34481425E-02    2     1000023        13   # BR(~mu_R -> ~chi_20 mu-)
     9.05258756E-03    2     1000025        13   # BR(~mu_R -> ~chi_30 mu-)
     6.13252896E-08    2     1000035        13   # BR(~mu_R -> ~chi_40 mu-)
#
#         PDG            Width
DECAY   1000015     2.92806947E+01   # stau_1 decays
#          BR         NDA      ID1       ID2
     9.15777802E-01    2     1000022        15   # BR(~tau_1 -> ~chi_10  tau-)
     2.78185880E-02    2     1000023        15   # BR(~tau_1 -> ~chi_20  tau-)
     2.35887693E-02    2     1000025        15   # BR(~tau_1 -> ~chi_30  tau-)
     3.02593751E-04    2     1000035        15   # BR(~tau_1 -> ~chi_40  tau-)
     3.19066130E-02    2    -1000024        16   # BR(~tau_1 -> ~chi_1-  nu_tau)
     6.05633534E-04    2    -1000037        16   # BR(~tau_1 -> ~chi_2-  nu_tau)
#
#         PDG            Width
DECAY   2000015     3.13083224E+01   # stau_2 decays
#          BR         NDA      ID1       ID2
     2.15160798E-01    2     1000022        15   # BR(~tau_2 -> ~chi_10  tau-)
     1.96424429E-02    2     1000023        15   # BR(~tau_2 -> ~chi_20  tau-)
     1.60658796E-02    2     1000025        15   # BR(~tau_2 -> ~chi_30  tau-)
     2.49535284E-01    2     1000035        15   # BR(~tau_2 -> ~chi_40  tau-)
     3.91277689E-05    2    -1000024        16   # BR(~tau_2 -> ~chi_1-  nu_tau)
     4.99556467E-01    2    -1000037        16   # BR(~tau_2 -> ~chi_2-  nu_tau)
#
#         PDG            Width
DECAY   1000012     3.03845773E+01   # snu_eL decays
#          BR         NDA      ID1       ID2
     2.20975749E-01    2     1000022        12   # BR(~nu_eL -> ~chi_10 nu_e)
     1.66613949E-03    2     1000023        12   # BR(~nu_eL -> ~chi_20 nu_e)
     3.58047370E-03    2     1000025        12   # BR(~nu_eL -> ~chi_30 nu_e)
     2.57580171E-01    2     1000035        12   # BR(~nu_eL -> ~chi_40 nu_e)
     1.67331360E-03    2     1000024        11   # BR(~nu_eL -> ~chi_1+ e-)
     5.14524153E-01    2     1000037        11   # BR(~nu_eL -> ~chi_2+ e-)
#
#         PDG            Width
DECAY   1000014     3.03845773E+01   # snu_muL decays
#          BR         NDA      ID1       ID2
     2.20975749E-01    2     1000022        14   # BR(~nu_muL -> ~chi_10 nu_mu)
     1.66613949E-03    2     1000023        14   # BR(~nu_muL -> ~chi_20 nu_mu)
     3.58047370E-03    2     1000025        14   # BR(~nu_muL -> ~chi_30 nu_mu)
     2.57580171E-01    2     1000035        14   # BR(~nu_muL -> ~chi_40 nu_mu)
     1.67331360E-03    2     1000024        13   # BR(~nu_muL -> ~chi_1+ mu-)
     5.14524153E-01    2     1000037        13   # BR(~nu_muL -> ~chi_2+ mu-)
#
#         PDG            Width
DECAY   1000016     3.13129041E+01   # snu_tauL decays
#          BR         NDA      ID1       ID2
     2.14400851E-01    2     1000022        16   # BR(~nu_tauL -> ~chi_10 nu_tau)
     1.61656278E-03    2     1000023        16   # BR(~nu_tauL -> ~chi_20 nu_tau)
     3.47393508E-03    2     1000025        16   # BR(~nu_tauL -> ~chi_30 nu_tau)
     2.49849872E-01    2     1000035        16   # BR(~nu_tauL -> ~chi_40 nu_tau)
     3.15764362E-02    2     1000024        15   # BR(~nu_tauL -> ~chi_1+ tau-)
     4.99082344E-01    2     1000037        15   # BR(~nu_tauL -> ~chi_2+ tau-)
#
#         PDG            Width
DECAY   1000024     1.63085300E-01   # chargino1+ decays
#          BR         NDA      ID1       ID2
     1.00000000E+00    2     1000022        24   # BR(~chi_1+ -> ~chi_10  W+)
#
#         PDG            Width
DECAY   1000037     2.29019781E+01   # chargino2+ decays
#          BR         NDA      ID1       ID2
     2.53650502E-01    2     1000024        23   # BR(~chi_2+ -> ~chi_1+  Z )
     1.47777916E-04    2     1000022        24   # BR(~chi_2+ -> ~chi_10  W+)
     2.45436842E-01    2     1000023        24   # BR(~chi_2+ -> ~chi_20  W+)
     2.44541787E-01    2     1000025        24   # BR(~chi_2+ -> ~chi_30  W+)
     2.56207954E-01    2     1000024        25   # BR(~chi_2+ -> ~chi_1+  h )
     1.51377190E-05    2     1000022        37   # BR(~chi_2+ -> ~chi_10  H+)
#
#         PDG            Width
DECAY   1000022     0.00000000E+00   # neutralino1 decays
#
#         PDG            Width
DECAY   1000023     1.53460099E-01   # neutralino2 decays
#          BR         NDA      ID1       ID2
     4.91672362E-01    2     1000022        23   # BR(~chi_20 -> ~chi_10   Z )
     5.08327638E-01    2     1000022        25   # BR(~chi_20 -> ~chi_10   h )
#
#         PDG            Width
DECAY   1000025     1.38310593E-01   # neutralino3 decays
#          BR         NDA      ID1       ID2
     6.71323240E-01    2     1000022        23   # BR(~chi_30 -> ~chi_10   Z )
     3.28676760E-01    2     1000022        25   # BR(~chi_30 -> ~chi_10   h )
#
#         PDG            Width
DECAY   1000035     2.29034746E+01   # neutralino4 decays
#          BR         NDA      ID1       ID2
     6.90276660E-05    2     1000022        23   # BR(~chi_40 -> ~chi_10   Z )
     1.29010854E-01    2     1000023        23   # BR(~chi_40 -> ~chi_20   Z )
     1.24405328E-01    2     1000025        23   # BR(~chi_40 -> ~chi_30   Z )
     2.45268450E-01    2     1000024       -24   # BR(~chi_40 -> ~chi_1+   W-)
     2.45268450E-01    2    -1000024        24   # BR(~chi_40 -> ~chi_1-   W+)
     6.83109793E-05    2     1000022        25   # BR(~chi_40 -> ~chi_10   h )
     1.46104486E-05    2     1000022        35   # BR(~chi_40 -> ~chi_10   H )
     1.54945206E-06    2     1000022        36   # BR(~chi_40 -> ~chi_10   A )
     1.26588578E-01    2     1000023        25   # BR(~chi_40 -> ~chi_20   h )
     1.29304840E-01    2     1000025        25   # BR(~chi_40 -> ~chi_30   h )
#
#         PDG            Width
DECAY        25     4.07216571E-03   # h decays
#          BR         NDA      ID1       ID2
     6.10868787E-01    2           5        -5   # BR(h -> b       bb     )
     6.36777997E-02    2         -15        15   # BR(h -> tau+    tau-   )
     2.25442776E-04    2         -13        13   # BR(h -> mu+     mu-    )
     4.77960578E-04    2           3        -3   # BR(h -> s       sb     )
     2.07081060E-02    2           4        -4   # BR(h -> c       cb     )
     6.69308246E-02    2          21        21   # BR(h -> g       g      )
     2.29830064E-03    2          22        22   # BR(h -> gam     gam    )
     1.47882553E-03    2          22        23   # BR(h -> Z       gam    )
     2.08517917E-01    2          24       -24   # BR(h -> W+      W-     )
     2.48138416E-02    2          23        23   # BR(h -> Z       Z      )
     2.19436710E-06    2     1000022   1000022   # BR(h -> ~chi_10 ~chi_10)
#
#         PDG            Width
DECAY        35     8.78160037E+00   # H decays
#          BR         NDA      ID1       ID2
     3.61625232E-01    2           5        -5   # BR(H -> b       bb     )
     6.34331086E-02    2         -15        15   # BR(H -> tau+    tau-   )
     2.24304511E-04    2         -13        13   # BR(H -> mu+     mu-    )
     2.74962850E-04    2           3        -3   # BR(H -> s       sb     )
     1.53864164E-06    2           4        -4   # BR(H -> c       cb     )
     1.53722494E-01    2           6        -6   # BR(H -> t       tb     )
     5.11443671E-05    2          21        21   # BR(H -> g       g      )
     1.38271415E-07    2          22        22   # BR(H -> gam     gam    )
     9.06760775E-08    2          23        22   # BR(H -> Z       gam    )
     7.46722026E-05    2          24       -24   # BR(H -> W+      W-     )
     3.72888283E-05    2          23        23   # BR(H -> Z       Z      )
     2.67331036E-04    2          25        25   # BR(H -> h       h      )
     3.91058179E-24    2          36        36   # BR(H -> A       A      )
     5.41863445E-19    2          23        36   # BR(H -> Z       A      )
     3.40612898E-03    2     1000024  -1000024   # BR(H -> ~chi_1+ ~chi_1-)
     1.88109116E-02    2     1000022   1000022   # BR(H -> ~chi_10 ~chi_10)
     3.32899745E-03    2     1000023   1000023   # BR(H -> ~chi_20 ~chi_20)
     5.10519662E-03    2     1000025   1000025   # BR(H -> ~chi_30 ~chi_30)
     2.32075265E-01    2     1000022   1000023   # BR(H -> ~chi_10 ~chi_20)
     1.48052090E-01    2     1000022   1000025   # BR(H -> ~chi_10 ~chi_30)
     9.50910501E-03    2     1000023   1000025   # BR(H -> ~chi_20 ~chi_30)
#
#         PDG            Width
DECAY        36     8.78693886E+00   # A decays
#          BR         NDA      ID1       ID2
     3.61529308E-01    2           5        -5   # BR(A -> b       bb     )
     6.33964294E-02    2         -15        15   # BR(A -> tau+    tau-   )
     2.24174497E-04    2         -13        13   # BR(A -> mu+     mu-    )
     2.75004418E-04    2           3        -3   # BR(A -> s       sb     )
     1.54379206E-06    2           4        -4   # BR(A -> c       cb     )
     1.54151954E-01    2           6        -6   # BR(A -> t       tb     )
     1.52539941E-04    2          21        21   # BR(A -> g       g      )
     5.63737899E-07    2          22        22   # BR(A -> gam     gam    )
     1.84576701E-07    2          23        22   # BR(A -> Z       gam    )
     7.43445020E-05    2          23        25   # BR(A -> Z       h      )
     3.56135550E-03    2     1000024  -1000024   # BR(A -> ~chi_1+ ~chi_1-)
     1.80631977E-02    2     1000022   1000022   # BR(A -> ~chi_10 ~chi_10)
     2.25820040E-03    2     1000023   1000023   # BR(A -> ~chi_20 ~chi_20)
     8.17589419E-03    2     1000025   1000025   # BR(A -> ~chi_30 ~chi_30)
     1.51180154E-01    2     1000022   1000023   # BR(A -> ~chi_10 ~chi_20)
     2.28619163E-01    2     1000022   1000025   # BR(A -> ~chi_10 ~chi_30)
     8.33598758E-03    2     1000023   1000025   # BR(A -> ~chi_20 ~chi_30)
#
#         PDG            Width
DECAY        37     8.72398824E+00   # H+ decays
#          BR         NDA      ID1       ID2
     5.79051504E-04    2           4        -5   # BR(H+ -> c       bb     )
     6.38851644E-02    2         -15        16   # BR(H+ -> tau+    nu_tau )
     2.25902700E-04    2         -13        14   # BR(H+ -> mu+     nu_mu  )
     3.70591008E-06    2           2        -5   # BR(H+ -> u       bb     )
     1.32551588E-05    2           2        -3   # BR(H+ -> u       sb     )
     2.74117863E-04    2           4        -3   # BR(H+ -> c       sb     )
     5.13967145E-01    2           6        -5   # BR(H+ -> t       bb     )
     7.50394017E-05    2          24        25   # BR(H+ -> W+      h      )
     1.03225304E-12    2          24        36   # BR(H+ -> W+      A      )
     4.10156123E-01    2     1000024   1000022   # BR(H+ -> ~chi_1+ ~chi_10)
     9.11496504E-03    2     1000024   1000023   # BR(H+ -> ~chi_1+ ~chi_20)
     1.70553071E-03    2     1000024   1000025   # BR(H+ -> ~chi_1+ ~chi_30)
