#
#                              ======================
#                              | THE SUSYHIT OUTPUT |
#                              ======================
#
#
#              ------------------------------------------------------
#              |     This is the output of the SUSY-HIT package     |
#              |  created by A.Djouadi, M.Muehlleitner and M.Spira. |
#              |  In case of problems with SUSY-HIT email to        |
#              |           margarete.muehlleitner@cern.ch           |
#              |           michael.spira@psi.ch                     |
#              |           abdelhak.djouadi@cern.ch                 |
#              ------------------------------------------------------
#
#              ------------------------------------------------------
#              |  SUSY Les Houches Accord - MSSM Spectrum + Decays  |
#              |              based on the decay programs           |
#              |                                                    |
#              |                     SDECAY 1.3b                    |
#              |                                                    |
#              |  Authors: M.Muhlleitner, A.Djouadi and Y.Mambrini  |
#              |  Ref.:    Comput.Phys.Commun.168(2005)46           |
#              |           [hep-ph/0311167]                         |
#              |                                                    |
#              |                     HDECAY 3.4                     |
#              |                                                    |
#              |  By: A.Djouadi,J.Kalinowski,M.Muhlleitner,M.Spira  |
#              |  Ref.:    Comput.Phys.Commun.108(1998)56           |
#              |           [hep-ph/9704448]                         |
#              |                                                    |
#              |                                                    |
#              |  If not stated otherwise all DRbar couplings and   |
#              |  soft SUSY breaking masses are given at the scale  |
#              |  Q=  0.50007578E+04
#              |                                                    |
#              ------------------------------------------------------
#
#
BLOCK DCINFO  # Decay Program information
     1   SDECAY/HDECAY # decay calculator
     2   1.3b  /3.4    # version number
#
BLOCK SPINFO  # Spectrum calculator information
     1    SOFTSUSY    # spectrum calculator                
     2    3.4.0       # version number                     
#
BLOCK MODSEL  # Model selection
     1     0   #  nonUniversal                                     
#
BLOCK SMINPUTS  # Standard Model inputs
         1     1.25778332E+02   # alpha_em^-1(M_Z)^MSbar
         2     1.16570000E-05   # G_F [GeV^-2]
         3     1.17200002E-01   # alpha_S(M_Z)^MSbar
         4     9.11876000E+01   # M_Z pole mass
         5     4.25000000E+00   # mb(mb)^MSbar
         6     1.72500000E+02   # mt pole mass
         7     1.77682000E+00   # mtau pole mass
#
BLOCK MINPAR  # Input parameters - minimal models
         3     1.00000000E+01   # tanb                
#
BLOCK EXTPAR  # Input parameters - non-minimal models
         0    -1.00000000E+00   # Set                 
         1     6.00000000E+01   # M_1(MX)             
         2     3.00000000E+03   # M_2(MX)             
         3     6.88103000E+02   # M_3(MX)             
        11     5.00000000E+03   # At(MX)              
        12     5.00000000E+03   # Ab(MX)              
        13     0.00000000E+00   # Atau(MX)            
        23    -1.58809000E+02   # mu(MX)              
        26     3.00000000E+03   # mA(pole)            
        31     5.00000000E+03   # meL(MX)             
        32     5.00000000E+03   # mmuL(MX)            
        33     5.00000000E+03   # mtauL(MX)           
        34     5.00000000E+03   # meR(MX)             
        35     5.00000000E+03   # mmuR(MX)            
        36     5.00000000E+03   # mtauR(MX)           
        41     5.00000000E+03   # mqL1(MX)            
        42     5.00000000E+03   # mqL2(MX)            
        43     5.00000000E+03   # mqL3(MX)            
        44     5.00000000E+03   # muR(MX)             
        45     5.00000000E+03   # mcR(MX)             
        46     5.00000000E+03   # mtR(MX)             
        47     5.00000000E+03   # mdR(MX)             
        48     5.00000000E+03   # msR(MX)             
        49     5.00000000E+03   # mbR(MX)             
#
BLOCK MASS  # Mass Spectrum
# PDG code           mass       particle
        24     8.00872835E+01   # W+
        25     1.24210103E+02   # h
        35     3.00009083E+03   # H
        36     2.99999979E+03   # A
        37     3.00148564E+03   # H+
         5     4.87878001E+00   # b-quark pole mass calculated from mb(mb)_Msbar
   1000001     5.06358210E+03   # ~d_L
   2000001     5.04563837E+03   # ~d_R
   1000002     5.06310254E+03   # ~u_L
   2000002     5.04532547E+03   # ~u_R
   1000003     5.06358210E+03   # ~s_L
   2000003     5.04563837E+03   # ~s_R
   1000004     5.06310254E+03   # ~c_L
   2000004     5.04532547E+03   # ~c_R
   1000005     5.01042956E+03   # ~b_1
   2000005     5.04375348E+03   # ~b_2
   1000006     4.90112847E+03   # ~t_1
   2000006     5.05485305E+03   # ~t_2
   1000011     5.01917763E+03   # ~e_L
   2000011     5.00596324E+03   # ~e_R
   1000012     5.01822360E+03   # ~nu_eL
   1000013     5.01917763E+03   # ~mu_L
   2000013     5.00596324E+03   # ~mu_R
   1000014     5.01822360E+03   # ~nu_muL
   1000015     5.00483777E+03   # ~tau_1
   2000015     5.01863864E+03   # ~tau_2
   1000016     5.01766809E+03   # ~nu_tauL
   1000021     9.00000030E+02   # ~g
   1000022     5.78405394E+01   # ~chi_10
   1000023     1.75657759E+02   # ~chi_20
   1000025    -1.75678172E+02   # ~chi_30
   1000035     3.07436053E+03   # ~chi_40
   1000024     1.70000822E+02   # ~chi_1+
   1000037     3.07452887E+03   # ~chi_2+
#
BLOCK NMIX  # Neutralino Mixing Matrix
  1  1     9.59041027E-01   # N_11
  1  2    -9.57417978E-04   # N_12
  1  3    -2.75010894E-01   # N_13
  1  4    -6.78851936E-02   # N_14
  2  1     2.41930178E-01   # N_21
  2  2     1.69361348E-02   # N_22
  2  3     6.70557960E-01   # N_23
  2  4     7.01095556E-01   # N_24
  3  1    -1.47342884E-01   # N_31
  3  2     1.87664661E-02   # N_32
  3  3    -6.88998776E-01   # N_33
  3  4     7.09379011E-01   # N_34
  4  1    -4.14186298E-04   # N_41
  4  2     9.99679984E-01   # N_42
  4  3     1.31053121E-03   # N_43
  4  4    -2.52594639E-02   # N_44
#
BLOCK UMIX  # Chargino Mixing Matrix U
  1  1    -1.84753539E-03   # U_11
  1  2     9.99998293E-01   # U_12
  2  1    -9.99998293E-01   # U_21
  2  2    -1.84753539E-03   # U_22
#
BLOCK VMIX  # Chargino Mixing Matrix V
  1  1     3.57411214E-02   # V_11
  1  2    -9.99361082E-01   # V_12
  2  1    -9.99361082E-01   # V_21
  2  2    -3.57411214E-02   # V_22
#
BLOCK STOPMIX  # Stop Mixing Matrix
  1  1    -5.06124885E-01   # cos(theta_t)
  1  2     8.62460202E-01   # sin(theta_t)
  2  1    -8.62460202E-01   # -sin(theta_t)
  2  2    -5.06124885E-01   # cos(theta_t)
#
BLOCK SBOTMIX  # Sbottom Mixing Matrix
  1  1     9.99418284E-01   # cos(theta_b)
  1  2    -3.41041582E-02   # sin(theta_b)
  2  1     3.41041582E-02   # -sin(theta_b)
  2  2     9.99418284E-01   # cos(theta_b)
#
BLOCK STAUMIX  # Stau Mixing Matrix
  1  1    -1.87331250E-02   # cos(theta_tau)
  1  2     9.99824520E-01   # sin(theta_tau)
  2  1    -9.99824520E-01   # -sin(theta_tau)
  2  2    -1.87331250E-02   # cos(theta_tau)
#
BLOCK ALPHA  # Higgs mixing
          -1.05434196E-01   # Mixing angle in the neutral Higgs boson sector
#
BLOCK HMIX Q=  5.00075783E+03  # DRbar Higgs Parameters
         1    -1.61601434E+02   # mu(Q)MSSM           
         2     9.47412191E+00   # tan                 
         3     2.41740532E+02   # higgs               
         4     8.80014465E+06   # mA^2(Q)MSSM         
#
BLOCK GAUGE Q=  5.00075783E+03  # The gauge couplings
     1     3.71215785E-01   # gprime(Q) DRbar
     2     6.34597575E-01   # g(Q) DRbar
     3     1.01020120E+00   # g3(Q) DRbar
#
BLOCK AU Q=  5.00075783E+03  # The trilinear couplings
  1  1     5.00000001E+03   # A_u(Q) DRbar
  2  2     5.00000001E+03   # A_c(Q) DRbar
  3  3     5.00000001E+03   # A_t(Q) DRbar
#
BLOCK AD Q=  5.00075783E+03  # The trilinear couplings
  1  1     5.00000000E+03   # A_d(Q) DRbar
  2  2     5.00000000E+03   # A_s(Q) DRbar
  3  3     5.00000001E+03   # A_b(Q) DRbar
#
BLOCK AE Q=  5.00075783E+03  # The trilinear couplings
  1  1     0.00000000E+00   # A_e(Q) DRbar
  2  2     0.00000000E+00   # A_mu(Q) DRbar
  3  3    -1.95319485E-09   # A_tau(Q) DRbar
#
BLOCK Yu Q=  5.00075783E+03  # The Yukawa couplings
  1  1     0.00000000E+00   # y_u(Q) DRbar
  2  2     0.00000000E+00   # y_c(Q) DRbar
  3  3     8.13855897E-01   # y_t(Q) DRbar
#
BLOCK Yd Q=  5.00075783E+03  # The Yukawa couplings
  1  1     0.00000000E+00   # y_d(Q) DRbar
  2  2     0.00000000E+00   # y_s(Q) DRbar
  3  3     1.28777315E-01   # y_b(Q) DRbar
#
BLOCK Ye Q=  5.00075783E+03  # The Yukawa couplings
  1  1     0.00000000E+00   # y_e(Q) DRbar
  2  2     0.00000000E+00   # y_mu(Q) DRbar
  3  3     9.73952141E-02   # y_tau(Q) DRbar
#
BLOCK MSOFT Q=  5.00075783E+03  # The soft SUSY breaking masses at the scale Q
         1     6.00000000E+01   # M_1(Q)              
         2     3.00000000E+03   # M_2(Q)              
         3     6.88103000E+02   # M_3(Q)              
        21     8.70849656E+06   # mH1^2(Q)            
        22     5.47697964E+05   # mH2^2(Q)            
        31     5.00000000E+03   # meL(Q)              
        32     5.00000000E+03   # mmuL(Q)             
        33     5.00000000E+03   # mtauL(Q)            
        34     5.00000000E+03   # meR(Q)              
        35     5.00000000E+03   # mmuR(Q)             
        36     5.00000000E+03   # mtauR(Q)            
        41     5.00000000E+03   # mqL1(Q)             
        42     5.00000000E+03   # mqL2(Q)             
        43     5.00000000E+03   # mqL3(Q)             
        44     5.00000000E+03   # muR(Q)              
        45     5.00000000E+03   # mcR(Q)              
        46     5.00000000E+03   # mtR(Q)              
        47     5.00000000E+03   # mdR(Q)              
        48     5.00000000E+03   # msR(Q)              
        49     5.00000000E+03   # mbR(Q)              
#
#
#
#                             =================
#                             |The decay table|
#                             =================
#
# - The QCD corrections to the decays gluino -> squark  + quark
#                                     squark -> gaugino + quark_prime
#                                     squark -> squark_prime + Higgs
#                                     squark -> gluino  + quark
#   are included.
#
# - The multi-body decays for the inos, stops and sbottoms are included.
#
# - The loop induced decays for the gluino, neutralinos and stops
#   are included.
#
# - The SUSY decays of the top quark are included.
#
#
#         PDG            Width
DECAY         6     1.41158630E+00   # top decays
#          BR         NDA      ID1       ID2
     1.00000000E+00    2           5        24   # BR(t ->  b    W+)
#
#         PDG            Width
DECAY   1000021     2.74120925E-05   # gluino decays
#          BR         NDA      ID1       ID2
     4.12929873E-04    2     1000022        21   # BR(~g -> ~chi_10 g)
     4.33338943E-02    2     1000023        21   # BR(~g -> ~chi_20 g)
     4.26701936E-02    2     1000025        21   # BR(~g -> ~chi_30 g)
#           BR         NDA      ID1       ID2       ID3
     1.39205588E-02    3     1000022         1        -1   # BR(~g -> ~chi_10 d  db)
     6.99507937E-04    3     1000023         1        -1   # BR(~g -> ~chi_20 d  db)
     2.19022844E-04    3     1000025         1        -1   # BR(~g -> ~chi_30 d  db)
     4.73136958E-02    3     1000022         2        -2   # BR(~g -> ~chi_10 u  ub)
     2.83063653E-03    3     1000023         2        -2   # BR(~g -> ~chi_20 u  ub)
     5.27525014E-04    3     1000025         2        -2   # BR(~g -> ~chi_30 u  ub)
     1.39205588E-02    3     1000022         3        -3   # BR(~g -> ~chi_10 s  sb)
     6.99507937E-04    3     1000023         3        -3   # BR(~g -> ~chi_20 s  sb)
     2.19022844E-04    3     1000025         3        -3   # BR(~g -> ~chi_30 s  sb)
     4.73136958E-02    3     1000022         4        -4   # BR(~g -> ~chi_10 c  cb)
     2.83063653E-03    3     1000023         4        -4   # BR(~g -> ~chi_20 c  cb)
     5.27525014E-04    3     1000025         4        -4   # BR(~g -> ~chi_30 c  cb)
     1.56360367E-02    3     1000022         5        -5   # BR(~g -> ~chi_10 b  bb)
     6.84693977E-03    3     1000023         5        -5   # BR(~g -> ~chi_20 b  bb)
     6.75631474E-03    3     1000025         5        -5   # BR(~g -> ~chi_30 b  bb)
     2.25620926E-02    3     1000022         6        -6   # BR(~g -> ~chi_10 t  tb)
     1.70395563E-01    3     1000023         6        -6   # BR(~g -> ~chi_20 t  tb)
     1.23961495E-01    3     1000025         6        -6   # BR(~g -> ~chi_30 t  tb)
     6.92677674E-05    3     1000024         1        -2   # BR(~g -> ~chi_1+ d  ub)
     6.92677674E-05    3    -1000024         2        -1   # BR(~g -> ~chi_1- u  db)
     6.92677674E-05    3     1000024         3        -4   # BR(~g -> ~chi_1+ s  cb)
     6.92677674E-05    3    -1000024         4        -3   # BR(~g -> ~chi_1- c  sb)
     2.18062788E-01    3     1000024         5        -6   # BR(~g -> ~chi_1+ b  tb)
     2.18062788E-01    3    -1000024         6        -5   # BR(~g -> ~chi_1- t  bb)
#
#         PDG            Width
DECAY   1000006     4.31031456E+02   # stop1 decays
#          BR         NDA      ID1       ID2
     1.68227808E-02    2     1000022         6   # BR(~t_1 -> ~chi_10 t )
     8.18358446E-02    2     1000023         6   # BR(~t_1 -> ~chi_20 t )
     7.10298095E-02    2     1000025         6   # BR(~t_1 -> ~chi_30 t )
     4.81997546E-03    2     1000035         6   # BR(~t_1 -> ~chi_40 t )
     1.10294329E-01    2     1000024         5   # BR(~t_1 -> ~chi_1+ b )
     9.60978150E-03    2     1000037         5   # BR(~t_1 -> ~chi_2+ b )
     7.05587479E-01    2     1000021         6   # BR(~t_1 -> ~g      t )
#
#         PDG            Width
DECAY   2000006     4.28353893E+02   # stop2 decays
#          BR         NDA      ID1       ID2
     1.12224442E-02    2     1000022         6   # BR(~t_2 -> ~chi_10 t )
     7.10710855E-02    2     1000023         6   # BR(~t_2 -> ~chi_20 t )
     8.47111894E-02    2     1000025         6   # BR(~t_2 -> ~chi_30 t )
     1.29377742E-02    2     1000035         6   # BR(~t_2 -> ~chi_40 t )
     4.64539796E-02    2     1000024         5   # BR(~t_2 -> ~chi_1+ b )
     2.57654426E-02    2     1000037         5   # BR(~t_2 -> ~chi_2+ b )
     7.44957710E-01    2     1000021         6   # BR(~t_2 -> ~g      t )
     6.56589211E-04    2     1000006        25   # BR(~t_2 -> ~t_1    h )
     2.22378522E-03    2     1000006        23   # BR(~t_2 -> ~t_1    Z )
#
#         PDG            Width
DECAY   1000005     4.06458475E+02   # sbottom1 decays
#          BR         NDA      ID1       ID2
     2.15558965E-03    2     1000022         5   # BR(~b_1 -> ~chi_10 b )
     1.81255327E-03    2     1000023         5   # BR(~b_1 -> ~chi_20 b )
     1.98980345E-03    2     1000025         5   # BR(~b_1 -> ~chi_30 b )
     1.86397763E-02    2     1000035         5   # BR(~b_1 -> ~chi_40 b )
     1.63462914E-01    2    -1000024         6   # BR(~b_1 -> ~chi_1- t )
     3.74178715E-02    2    -1000037         6   # BR(~b_1 -> ~chi_2- t )
     7.73146511E-01    2     1000021         5   # BR(~b_1 -> ~g      b )
     1.37498095E-03    2     1000006       -24   # BR(~b_1 -> ~t_1    W-)
#
#         PDG            Width
DECAY   2000005     3.22805237E+02   # sbottom2 decays
#          BR         NDA      ID1       ID2
     8.71212623E-03    2     1000022         5   # BR(~b_2 -> ~chi_10 b )
     2.97801064E-03    2     1000023         5   # BR(~b_2 -> ~chi_20 b )
     2.75599779E-03    2     1000025         5   # BR(~b_2 -> ~chi_30 b )
     2.57144551E-05    2     1000035         5   # BR(~b_2 -> ~chi_40 b )
     5.42576971E-03    2    -1000024         6   # BR(~b_2 -> ~chi_1- t )
     5.16343548E-05    2    -1000037         6   # BR(~b_2 -> ~chi_2- t )
     9.80042774E-01    2     1000021         5   # BR(~b_2 -> ~g      b )
     7.97323850E-06    2     1000006       -24   # BR(~b_2 -> ~t_1    W-)
#
#         PDG            Width
DECAY   1000002     3.42012423E+02   # sup_L decays
#          BR         NDA      ID1       ID2
     1.99442546E-03    2     1000022         2   # BR(~u_L -> ~chi_10 u)
     2.36339556E-04    2     1000023         2   # BR(~u_L -> ~chi_20 u)
     5.70847452E-06    2     1000025         2   # BR(~u_L -> ~chi_30 u)
     2.29619715E-02    2     1000035         2   # BR(~u_L -> ~chi_40 u)
     1.46934209E-04    2     1000024         1   # BR(~u_L -> ~chi_1+ d)
     4.58962215E-02    2     1000037         1   # BR(~u_L -> ~chi_2+ d)
     9.28758399E-01    2     1000021         2   # BR(~u_L -> ~g      u)
#
#         PDG            Width
DECAY   2000002     3.28330103E+02   # sup_R decays
#          BR         NDA      ID1       ID2
     3.34654148E-02    2     1000022         2   # BR(~u_R -> ~chi_10 u)
     2.12519588E-03    2     1000023         2   # BR(~u_R -> ~chi_20 u)
     7.88273575E-04    2     1000025         2   # BR(~u_R -> ~chi_30 u)
     2.46898041E-09    2     1000035         2   # BR(~u_R -> ~chi_40 u)
     9.63621113E-01    2     1000021         2   # BR(~u_R -> ~g      u)
#
#         PDG            Width
DECAY   1000001     3.42020049E+02   # sdown_L decays
#          BR         NDA      ID1       ID2
     2.03583949E-03    2     1000022         1   # BR(~d_L -> ~chi_10 d)
     5.25783924E-05    2     1000023         1   # BR(~d_L -> ~chi_20 d)
     1.29731712E-04    2     1000025         1   # BR(~d_L -> ~chi_30 d)
     2.29761102E-02    2     1000035         1   # BR(~d_L -> ~chi_40 d)
     3.92648377E-07    2    -1000024         2   # BR(~d_L -> ~chi_1- u)
     4.59682099E-02    2    -1000037         2   # BR(~d_L -> ~chi_2- u)
     9.28837138E-01    2     1000021         1   # BR(~d_L -> ~g      d)
#
#         PDG            Width
DECAY   2000001     3.19394277E+02   # sdown_R decays
#          BR         NDA      ID1       ID2
     8.60095733E-03    2     1000022         1   # BR(~d_R -> ~chi_10 d)
     5.46197436E-04    2     1000023         1   # BR(~d_R -> ~chi_20 d)
     2.02594504E-04    2     1000025         1   # BR(~d_R -> ~chi_30 d)
     6.34645812E-10    2     1000035         1   # BR(~d_R -> ~chi_40 d)
     9.90650250E-01    2     1000021         1   # BR(~d_R -> ~g      d)
#
#         PDG            Width
DECAY   1000004     3.42012423E+02   # scharm_L decays
#          BR         NDA      ID1       ID2
     1.99442546E-03    2     1000022         4   # BR(~c_L -> ~chi_10 c)
     2.36339556E-04    2     1000023         4   # BR(~c_L -> ~chi_20 c)
     5.70847452E-06    2     1000025         4   # BR(~c_L -> ~chi_30 c)
     2.29619715E-02    2     1000035         4   # BR(~c_L -> ~chi_40 c)
     1.46934209E-04    2     1000024         3   # BR(~c_L -> ~chi_1+ s)
     4.58962215E-02    2     1000037         3   # BR(~c_L -> ~chi_2+ s)
     9.28758399E-01    2     1000021         4   # BR(~c_L -> ~g      c)
#
#         PDG            Width
DECAY   2000004     3.28330103E+02   # scharm_R decays
#          BR         NDA      ID1       ID2
     3.34654148E-02    2     1000022         4   # BR(~c_R -> ~chi_10 c)
     2.12519588E-03    2     1000023         4   # BR(~c_R -> ~chi_20 c)
     7.88273575E-04    2     1000025         4   # BR(~c_R -> ~chi_30 c)
     2.46898041E-09    2     1000035         4   # BR(~c_R -> ~chi_40 c)
     9.63621113E-01    2     1000021         4   # BR(~c_R -> ~g      c)
#
#         PDG            Width
DECAY   1000003     3.42020049E+02   # sstrange_L decays
#          BR         NDA      ID1       ID2
     2.03583949E-03    2     1000022         3   # BR(~s_L -> ~chi_10 s)
     5.25783924E-05    2     1000023         3   # BR(~s_L -> ~chi_20 s)
     1.29731712E-04    2     1000025         3   # BR(~s_L -> ~chi_30 s)
     2.29761102E-02    2     1000035         3   # BR(~s_L -> ~chi_40 s)
     3.92648377E-07    2    -1000024         4   # BR(~s_L -> ~chi_1- c)
     4.59682099E-02    2    -1000037         4   # BR(~s_L -> ~chi_2- c)
     9.28837138E-01    2     1000021         3   # BR(~s_L -> ~g      s)
#
#         PDG            Width
DECAY   2000003     3.19394277E+02   # sstrange_R decays
#          BR         NDA      ID1       ID2
     8.60095733E-03    2     1000022         3   # BR(~s_R -> ~chi_10 s)
     5.46197436E-04    2     1000023         3   # BR(~s_R -> ~chi_20 s)
     2.02594504E-04    2     1000025         3   # BR(~s_R -> ~chi_30 s)
     6.34645812E-10    2     1000035         3   # BR(~s_R -> ~chi_40 s)
     9.90650250E-01    2     1000021         3   # BR(~s_R -> ~g      s)
#
#         PDG            Width
DECAY   1000011     3.04366658E+01   # selectron_L decays
#          BR         NDA      ID1       ID2
     2.07139970E-01    2     1000022        11   # BR(~e_L -> ~chi_10 e-)
     1.65457520E-02    2     1000023        11   # BR(~e_L -> ~chi_20 e-)
     2.99565309E-03    2     1000025        11   # BR(~e_L -> ~chi_30 e-)
     2.57601278E-01    2     1000035        11   # BR(~e_L -> ~chi_40 e-)
     4.49936236E-06    2    -1000024        12   # BR(~e_L -> ~chi_1- nu_e)
     5.15712847E-01    2    -1000037        12   # BR(~e_L -> ~chi_2- nu_e)
#
#         PDG            Width
DECAY   2000011     2.74352021E+01   # selectron_R decays
#          BR         NDA      ID1       ID2
     9.19921798E-01    2     1000022        11   # BR(~e_R -> ~chi_10 e-)
     5.84120505E-02    2     1000023        11   # BR(~e_R -> ~chi_20 e-)
     2.16660852E-02    2     1000025        11   # BR(~e_R -> ~chi_30 e-)
     6.65773449E-08    2     1000035        11   # BR(~e_R -> ~chi_40 e-)
#
#         PDG            Width
DECAY   1000013     3.04366658E+01   # smuon_L decays
#          BR         NDA      ID1       ID2
     2.07139970E-01    2     1000022        13   # BR(~mu_L -> ~chi_10 mu-)
     1.65457520E-02    2     1000023        13   # BR(~mu_L -> ~chi_20 mu-)
     2.99565309E-03    2     1000025        13   # BR(~mu_L -> ~chi_30 mu-)
     2.57601278E-01    2     1000035        13   # BR(~mu_L -> ~chi_40 mu-)
     4.49936236E-06    2    -1000024        14   # BR(~mu_L -> ~chi_1- nu_mu)
     5.15712847E-01    2    -1000037        14   # BR(~mu_L -> ~chi_2- nu_mu)
#
#         PDG            Width
DECAY   2000013     2.74352021E+01   # smuon_R decays
#          BR         NDA      ID1       ID2
     9.19921798E-01    2     1000022        13   # BR(~mu_R -> ~chi_10 mu-)
     5.84120505E-02    2     1000023        13   # BR(~mu_R -> ~chi_20 mu-)
     2.16660852E-02    2     1000025        13   # BR(~mu_R -> ~chi_30 mu-)
     6.65773449E-08    2     1000035        13   # BR(~mu_R -> ~chi_40 mu-)
#
#         PDG            Width
DECAY   1000015     2.93139477E+01   # stau_1 decays
#          BR         NDA      ID1       ID2
     8.63838778E-01    2     1000022        15   # BR(~tau_1 -> ~chi_10  tau-)
     6.86298738E-02    2     1000023        15   # BR(~tau_1 -> ~chi_20  tau-)
     3.51242474E-02    2     1000025        15   # BR(~tau_1 -> ~chi_30  tau-)
     9.58625289E-05    2     1000035        15   # BR(~tau_1 -> ~chi_40  tau-)
     3.21194788E-02    2    -1000024        16   # BR(~tau_1 -> ~chi_1-  nu_tau)
     1.91759286E-04    2    -1000037        16   # BR(~tau_1 -> ~chi_2-  nu_tau)
#
#         PDG            Width
DECAY   2000015     3.13718940E+01   # stau_2 decays
#          BR         NDA      ID1       ID2
     2.02633181E-01    2     1000022        15   # BR(~tau_2 -> ~chi_10  tau-)
     3.00392959E-02    2     1000023        15   # BR(~tau_2 -> ~chi_20  tau-)
     1.75834836E-02    2     1000025        15   # BR(~tau_2 -> ~chi_30  tau-)
     2.49740239E-01    2     1000035        15   # BR(~tau_2 -> ~chi_40  tau-)
     2.85153655E-05    2    -1000024        16   # BR(~tau_2 -> ~chi_1-  nu_tau)
     4.99975285E-01    2    -1000037        16   # BR(~tau_2 -> ~chi_2-  nu_tau)
#
#         PDG            Width
DECAY   1000012     3.04395177E+01   # snu_eL decays
#          BR         NDA      ID1       ID2
     2.08499645E-01    2     1000022        12   # BR(~nu_eL -> ~chi_10 nu_e)
     1.02251212E-02    2     1000023        12   # BR(~nu_eL -> ~chi_20 nu_e)
     7.25709748E-03    2     1000025        12   # BR(~nu_eL -> ~chi_30 nu_e)
     2.57660258E-01    2     1000035        12   # BR(~nu_eL -> ~chi_40 nu_e)
     1.68336449E-03    2     1000024        11   # BR(~nu_eL -> ~chi_1+ e-)
     5.14674514E-01    2     1000037        11   # BR(~nu_eL -> ~chi_2+ e-)
#
#         PDG            Width
DECAY   1000014     3.04395177E+01   # snu_muL decays
#          BR         NDA      ID1       ID2
     2.08499645E-01    2     1000022        14   # BR(~nu_muL -> ~chi_10 nu_mu)
     1.02251212E-02    2     1000023        14   # BR(~nu_muL -> ~chi_20 nu_mu)
     7.25709748E-03    2     1000025        14   # BR(~nu_muL -> ~chi_30 nu_mu)
     2.57660258E-01    2     1000035        14   # BR(~nu_muL -> ~chi_40 nu_mu)
     1.68336449E-03    2     1000024        13   # BR(~nu_muL -> ~chi_1+ mu-)
     5.14674514E-01    2     1000037        13   # BR(~nu_muL -> ~chi_2+ mu-)
#
#         PDG            Width
DECAY   1000016     3.13746308E+01   # snu_tauL decays
#          BR         NDA      ID1       ID2
     2.02262960E-01    2     1000022        16   # BR(~nu_tauL -> ~chi_10 nu_tau)
     9.91926044E-03    2     1000023        16   # BR(~nu_tauL -> ~chi_20 nu_tau)
     7.04001823E-03    2     1000025        16   # BR(~nu_tauL -> ~chi_30 nu_tau)
     2.49886579E-01    2     1000035        16   # BR(~nu_tauL -> ~chi_40 nu_tau)
     3.17446452E-02    2     1000024        15   # BR(~nu_tauL -> ~chi_1+ tau-)
     4.99146538E-01    2     1000037        15   # BR(~nu_tauL -> ~chi_2+ tau-)
#
#         PDG            Width
DECAY   1000024     5.13798323E-02   # chargino1+ decays
#          BR         NDA      ID1       ID2
     1.00000000E+00    2     1000022        24   # BR(~chi_1+ -> ~chi_10  W+)
#
#         PDG            Width
DECAY   1000037     2.34502266E+01   # chargino2+ decays
#          BR         NDA      ID1       ID2
     2.53939045E-01    2     1000024        23   # BR(~chi_2+ -> ~chi_1+  Z )
     1.78585819E-03    2     1000022        24   # BR(~chi_2+ -> ~chi_10  W+)
     2.43668438E-01    2     1000023        24   # BR(~chi_2+ -> ~chi_20  W+)
     2.45191379E-01    2     1000025        24   # BR(~chi_2+ -> ~chi_30  W+)
     2.55359942E-01    2     1000024        25   # BR(~chi_2+ -> ~chi_1+  h )
     5.53375081E-05    2     1000022        37   # BR(~chi_2+ -> ~chi_10  H+)
#
#         PDG            Width
DECAY   1000022     0.00000000E+00   # neutralino1 decays
#
#         PDG            Width
DECAY   1000023     2.52438228E-02   # neutralino2 decays
#          BR         NDA      ID1       ID2
     1.00000000E+00    2     1000022        23   # BR(~chi_20 -> ~chi_10   Z )
#
#         PDG            Width
DECAY   1000025     2.14176022E-02   # neutralino3 decays
#          BR         NDA      ID1       ID2
     1.00000000E+00    2     1000022        23   # BR(~chi_30 -> ~chi_10   Z )
#
#         PDG            Width
DECAY   1000035     2.34610284E+01   # neutralino4 decays
#          BR         NDA      ID1       ID2
     1.72268302E-03    2     1000022        23   # BR(~chi_40 -> ~chi_10   Z )
     1.37045112E-01    2     1000023        23   # BR(~chi_40 -> ~chi_20   Z )
     1.14768647E-01    2     1000025        23   # BR(~chi_40 -> ~chi_30   Z )
     2.45690664E-01    2     1000024       -24   # BR(~chi_40 -> ~chi_1+   W-)
     2.45690664E-01    2    -1000024        24   # BR(~chi_40 -> ~chi_1-   W+)
     1.61221567E-04    2     1000022        25   # BR(~chi_40 -> ~chi_10   h )
     5.27487399E-05    2     1000022        35   # BR(~chi_40 -> ~chi_10   H )
     5.97901609E-06    2     1000022        36   # BR(~chi_40 -> ~chi_10   A )
     1.15578246E-01    2     1000023        25   # BR(~chi_40 -> ~chi_20   h )
     1.39284035E-01    2     1000025        25   # BR(~chi_40 -> ~chi_30   h )
#
#         PDG            Width
DECAY        25     4.03885467E-03   # h decays
#          BR         NDA      ID1       ID2
     6.16834793E-01    2           5        -5   # BR(h -> b       bb     )
     6.39376717E-02    2         -15        15   # BR(h -> tau+    tau-   )
     2.26365102E-04    2         -13        13   # BR(h -> mu+     mu-    )
     4.80303141E-04    2           3        -3   # BR(h -> s       sb     )
     2.08095087E-02    2           4        -4   # BR(h -> c       cb     )
     6.66669257E-02    2          21        21   # BR(h -> g       g      )
     2.27548654E-03    2          22        22   # BR(h -> gam     gam    )
     1.42264257E-03    2          22        23   # BR(h -> Z       gam    )
     1.98818520E-01    2          24       -24   # BR(h -> W+      W-     )
     2.34414793E-02    2          23        23   # BR(h -> Z       Z      )
     5.08630397E-03    2     1000022   1000022   # BR(h -> ~chi_10 ~chi_10)
#
#         PDG            Width
DECAY        35     8.83486003E+00   # H decays
#          BR         NDA      ID1       ID2
     3.59469454E-01    2           5        -5   # BR(H -> b       bb     )
     6.31154240E-02    2         -15        15   # BR(H -> tau+    tau-   )
     2.23181153E-04    2         -13        13   # BR(H -> mu+     mu-    )
     2.73585844E-04    2           3        -3   # BR(H -> s       sb     )
     1.52780969E-06    2           4        -4   # BR(H -> c       cb     )
     1.52640299E-01    2           6        -6   # BR(H -> t       tb     )
     5.07684343E-05    2          21        21   # BR(H -> g       g      )
     1.51455302E-07    2          22        22   # BR(H -> gam     gam    )
     8.99029311E-08    2          23        22   # BR(H -> Z       gam    )
     7.43313103E-05    2          24       -24   # BR(H -> W+      W-     )
     3.71185817E-05    2          23        23   # BR(H -> Z       Z      )
     2.65943547E-04    2          25        25   # BR(H -> h       h      )
    -4.23709478E-23    2          36        36   # BR(H -> A       A      )
     8.25056345E-19    2          23        36   # BR(H -> Z       A      )
     3.50162144E-03    2     1000024  -1000024   # BR(H -> ~chi_1+ ~chi_1-)
     6.14347002E-02    2     1000022   1000022   # BR(H -> ~chi_10 ~chi_10)
     2.02247521E-02    2     1000023   1000023   # BR(H -> ~chi_20 ~chi_20)
     1.02211996E-02    2     1000025   1000025   # BR(H -> ~chi_30 ~chi_30)
     1.78479810E-01    2     1000022   1000023   # BR(H -> ~chi_10 ~chi_20)
     1.20815737E-01    2     1000022   1000025   # BR(H -> ~chi_10 ~chi_30)
     2.91703042E-02    2     1000023   1000025   # BR(H -> ~chi_20 ~chi_30)
#
#         PDG            Width
DECAY        36     8.83986007E+00   # A decays
#          BR         NDA      ID1       ID2
     3.59389268E-01    2           5        -5   # BR(A -> b       bb     )
     6.30815374E-02    2         -15        15   # BR(A -> tau+    tau-   )
     2.23061015E-04    2         -13        13   # BR(A -> mu+     mu-    )
     2.73638339E-04    2           3        -3   # BR(A -> s       sb     )
     1.53297750E-06    2           4        -4   # BR(A -> c       cb     )
     1.53072091E-01    2           6        -6   # BR(A -> t       tb     )
     1.51535964E-04    2          21        21   # BR(A -> g       g      )
     5.20388823E-07    2          22        22   # BR(A -> gam     gam    )
     1.83160586E-07    2          23        22   # BR(A -> Z       gam    )
     7.40112203E-05    2          23        25   # BR(A -> Z       h      )
     3.62354858E-03    2     1000024  -1000024   # BR(A -> ~chi_1+ ~chi_1-)
     5.53983087E-02    2     1000022   1000022   # BR(A -> ~chi_10 ~chi_10)
     1.31499914E-02    2     1000023   1000023   # BR(A -> ~chi_20 ~chi_20)
     1.60352317E-02    2     1000025   1000025   # BR(A -> ~chi_30 ~chi_30)
     1.11150935E-01    2     1000022   1000023   # BR(A -> ~chi_10 ~chi_20)
     1.94597191E-01    2     1000022   1000025   # BR(A -> ~chi_10 ~chi_30)
     2.97774149E-02    2     1000023   1000025   # BR(A -> ~chi_20 ~chi_30)
#
#         PDG            Width
DECAY        37     8.76133679E+00   # H+ decays
#          BR         NDA      ID1       ID2
     5.73771533E-04    2           4        -5   # BR(H+ -> c       bb     )
     6.36784276E-02    2         -15        16   # BR(H+ -> tau+    nu_tau )
     2.25171663E-04    2         -13        14   # BR(H+ -> mu+     nu_mu  )
     3.67211838E-06    2           2        -5   # BR(H+ -> u       bb     )
     1.32122548E-05    2           2        -3   # BR(H+ -> u       sb     )
     2.73227559E-04    2           4        -3   # BR(H+ -> c       sb     )
     5.09866546E-01    2           6        -5   # BR(H+ -> t       bb     )
     7.48337893E-05    2          24        25   # BR(H+ -> W+      h      )
     1.08620467E-12    2          24        36   # BR(H+ -> W+      A      )
     3.87518147E-01    2     1000024   1000022   # BR(H+ -> ~chi_1+ ~chi_10)
     3.19850137E-02    2     1000024   1000023   # BR(H+ -> ~chi_1+ ~chi_20)
     5.78797669E-03    2     1000024   1000025   # BR(H+ -> ~chi_1+ ~chi_30)
