#
#                              ======================
#                              | THE SUSYHIT OUTPUT |
#                              ======================
#
#
#              ------------------------------------------------------
#              |     This is the output of the SUSY-HIT package     |
#              |  created by A.Djouadi, M.Muehlleitner and M.Spira. |
#              |  In case of problems with SUSY-HIT email to        |
#              |           margarete.muehlleitner@cern.ch           |
#              |           michael.spira@psi.ch                     |
#              |           abdelhak.djouadi@cern.ch                 |
#              ------------------------------------------------------
#
#              ------------------------------------------------------
#              |  SUSY Les Houches Accord - MSSM Spectrum + Decays  |
#              |              based on the decay programs           |
#              |                                                    |
#              |                     SDECAY 1.3b                    |
#              |                                                    |
#              |  Authors: M.Muhlleitner, A.Djouadi and Y.Mambrini  |
#              |  Ref.:    Comput.Phys.Commun.168(2005)46           |
#              |           [hep-ph/0311167]                         |
#              |                                                    |
#              |                     HDECAY 3.4                     |
#              |                                                    |
#              |  By: A.Djouadi,J.Kalinowski,M.Muhlleitner,M.Spira  |
#              |  Ref.:    Comput.Phys.Commun.108(1998)56           |
#              |           [hep-ph/9704448]                         |
#              |                                                    |
#              |                                                    |
#              |  If not stated otherwise all DRbar couplings and   |
#              |  soft SUSY breaking masses are given at the scale  |
#              |  Q=  0.50007526E+04
#              |                                                    |
#              ------------------------------------------------------
#
#
BLOCK DCINFO  # Decay Program information
     1   SDECAY/HDECAY # decay calculator
     2   1.3b  /3.4    # version number
#
BLOCK SPINFO  # Spectrum calculator information
     1    SOFTSUSY    # spectrum calculator                
     2    3.4.0       # version number                     
#
BLOCK MODSEL  # Model selection
     1     0   #  nonUniversal                                     
#
BLOCK SMINPUTS  # Standard Model inputs
         1     1.25778332E+02   # alpha_em^-1(M_Z)^MSbar
         2     1.16570000E-05   # G_F [GeV^-2]
         3     1.17200002E-01   # alpha_S(M_Z)^MSbar
         4     9.11876000E+01   # M_Z pole mass
         5     4.25000000E+00   # mb(mb)^MSbar
         6     1.72500000E+02   # mt pole mass
         7     1.77682000E+00   # mtau pole mass
#
BLOCK MINPAR  # Input parameters - minimal models
         3     1.00000000E+01   # tanb                
#
BLOCK EXTPAR  # Input parameters - non-minimal models
         0    -1.00000000E+00   # Set                 
         1     6.00000000E+01   # M_1(MX)             
         2     3.00000000E+03   # M_2(MX)             
         3     1.03377200E+03   # M_3(MX)             
        11     5.00000000E+03   # At(MX)              
        12     5.00000000E+03   # Ab(MX)              
        13     0.00000000E+00   # Atau(MX)            
        23    -4.75030000E+02   # mu(MX)              
        26     3.00000000E+03   # mA(pole)            
        31     5.00000000E+03   # meL(MX)             
        32     5.00000000E+03   # mmuL(MX)            
        33     5.00000000E+03   # mtauL(MX)           
        34     5.00000000E+03   # meR(MX)             
        35     5.00000000E+03   # mmuR(MX)            
        36     5.00000000E+03   # mtauR(MX)           
        41     5.00000000E+03   # mqL1(MX)            
        42     5.00000000E+03   # mqL2(MX)            
        43     5.00000000E+03   # mqL3(MX)            
        44     5.00000000E+03   # muR(MX)             
        45     5.00000000E+03   # mcR(MX)             
        46     5.00000000E+03   # mtR(MX)             
        47     5.00000000E+03   # mdR(MX)             
        48     5.00000000E+03   # msR(MX)             
        49     5.00000000E+03   # mbR(MX)             
#
BLOCK MASS  # Mass Spectrum
# PDG code           mass       particle
        24     8.00914000E+01   # W+
        25     1.24506066E+02   # h
        35     3.00008545E+03   # H
        36     2.99999944E+03   # A
        37     3.00142901E+03   # H+
         5     4.87878001E+00   # b-quark pole mass calculated from mb(mb)_Msbar
   1000001     5.06531607E+03   # ~d_L
   2000001     5.04744671E+03   # ~d_R
   1000002     5.06483910E+03   # ~u_L
   2000002     5.04714553E+03   # ~u_R
   1000003     5.06531607E+03   # ~s_L
   2000003     5.04744671E+03   # ~s_R
   1000004     5.06483910E+03   # ~c_L
   2000004     5.04714553E+03   # ~c_R
   1000005     5.01152965E+03   # ~b_1
   2000005     5.04571328E+03   # ~b_2
   1000006     4.90202922E+03   # ~t_1
   2000006     5.05626634E+03   # ~t_2
   1000011     5.01911107E+03   # ~e_L
   2000011     5.00594419E+03   # ~e_R
   1000012     5.01816046E+03   # ~nu_eL
   1000013     5.01911107E+03   # ~mu_L
   2000013     5.00594419E+03   # ~mu_R
   1000014     5.01816046E+03   # ~nu_muL
   1000015     5.00477455E+03   # ~tau_1
   2000015     5.01863524E+03   # ~tau_2
   1000016     5.01760867E+03   # ~nu_tauL
   1000021     1.30000112E+03   # ~g
   1000022     6.02021405E+01   # ~chi_10
   1000023     5.00511624E+02   # ~chi_20
   1000025    -5.02708641E+02   # ~chi_30
   1000035     3.07418739E+03   # ~chi_40
   1000024     5.00000137E+02   # ~chi_1+
   1000037     3.07435514E+03   # ~chi_2+
#
BLOCK NMIX  # Neutralino Mixing Matrix
  1  1     9.96028267E-01   # N_11
  1  2     2.24882142E-04   # N_12
  1  3    -8.90242455E-02   # N_13
  1  4    -1.52441850E-03   # N_14
  2  1     6.40635098E-02   # N_21
  2  2     1.90103819E-02   # N_22
  2  3     7.04713494E-01   # N_23
  2  4     7.06337996E-01   # N_24
  3  1    -6.18336922E-02   # N_31
  3  2     1.70166917E-02   # N_32
  3  3    -7.03883241E-01   # N_33
  3  4     7.07414595E-01   # N_34
  4  1    -3.89782779E-04   # N_41
  4  2     9.99674441E-01   # N_42
  4  3    -1.39954421E-03   # N_43
  4  4    -2.54735615E-02   # N_44
#
BLOCK UMIX  # Chargino Mixing Matrix U
  1  1     1.98450780E-03   # U_11
  1  2     9.99998031E-01   # U_12
  2  1    -9.99998031E-01   # U_21
  2  2     1.98450780E-03   # U_22
#
BLOCK VMIX  # Chargino Mixing Matrix V
  1  1     3.60453398E-02   # V_11
  1  2    -9.99350156E-01   # V_12
  2  1    -9.99350156E-01   # V_21
  2  2    -3.60453398E-02   # V_22
#
BLOCK STOPMIX  # Stop Mixing Matrix
  1  1    -5.06373179E-01   # cos(theta_t)
  1  2     8.62314446E-01   # sin(theta_t)
  2  1    -8.62314446E-01   # -sin(theta_t)
  2  2    -5.06373179E-01   # cos(theta_t)
#
BLOCK SBOTMIX  # Sbottom Mixing Matrix
  1  1     9.98727246E-01   # cos(theta_b)
  1  2    -5.04369715E-02   # sin(theta_b)
  2  1     5.04369715E-02   # -sin(theta_b)
  2  2     9.98727246E-01   # cos(theta_b)
#
BLOCK STAUMIX  # Stau Mixing Matrix
  1  1    -5.69228315E-02   # cos(theta_tau)
  1  2     9.98378581E-01   # sin(theta_tau)
  2  1    -9.98378581E-01   # -sin(theta_tau)
  2  2    -5.69228315E-02   # cos(theta_tau)
#
BLOCK ALPHA  # Higgs mixing
          -1.05456090E-01   # Mixing angle in the neutral Higgs boson sector
#
BLOCK HMIX Q=  5.00075263E+03  # DRbar Higgs Parameters
         1    -4.83566939E+02   # mu(Q)MSSM           
         2     9.47183418E+00   # tan                 
         3     2.41786783E+02   # higgs               
         4     8.67572336E+06   # mA^2(Q)MSSM         
#
BLOCK GAUGE Q=  5.00075263E+03  # The gauge couplings
     1     3.70969179E-01   # gprime(Q) DRbar
     2     6.33365590E-01   # g(Q) DRbar
     3     1.00480203E+00   # g3(Q) DRbar
#
BLOCK AU Q=  5.00075263E+03  # The trilinear couplings
  1  1     5.00000001E+03   # A_u(Q) DRbar
  2  2     5.00000001E+03   # A_c(Q) DRbar
  3  3     5.00000001E+03   # A_t(Q) DRbar
#
BLOCK AD Q=  5.00075263E+03  # The trilinear couplings
  1  1     5.00000000E+03   # A_d(Q) DRbar
  2  2     5.00000000E+03   # A_s(Q) DRbar
  3  3     5.00000001E+03   # A_b(Q) DRbar
#
BLOCK AE Q=  5.00075263E+03  # The trilinear couplings
  1  1     0.00000000E+00   # A_e(Q) DRbar
  2  2     6.46100765E-08   # A_mu(Q) DRbar
  3  3     6.38166297E-08   # A_tau(Q) DRbar
#
BLOCK Yu Q=  5.00075263E+03  # The Yukawa couplings
  1  1     0.00000000E+00   # y_u(Q) DRbar
  2  2     0.00000000E+00   # y_c(Q) DRbar
  3  3     8.16880352E-01   # y_t(Q) DRbar
#
BLOCK Yd Q=  5.00075263E+03  # The Yukawa couplings
  1  1     0.00000000E+00   # y_d(Q) DRbar
  2  2     0.00000000E+00   # y_s(Q) DRbar
  3  3     1.29446616E-01   # y_b(Q) DRbar
#
BLOCK Ye Q=  5.00075263E+03  # The Yukawa couplings
  1  1     0.00000000E+00   # y_e(Q) DRbar
  2  2     0.00000000E+00   # y_mu(Q) DRbar
  3  3     9.71517954E-02   # y_tau(Q) DRbar
#
BLOCK MSOFT Q=  5.00075263E+03  # The soft SUSY breaking masses at the scale Q
         1     6.00000000E+01   # M_1(Q)              
         2     3.00000000E+03   # M_2(Q)              
         3     1.03377200E+03   # M_3(Q)              
        21     8.48981160E+06   # mH1^2(Q)            
        22     3.38964694E+05   # mH2^2(Q)            
        31     5.00000000E+03   # meL(Q)              
        32     5.00000000E+03   # mmuL(Q)             
        33     5.00000000E+03   # mtauL(Q)            
        34     5.00000000E+03   # meR(Q)              
        35     5.00000000E+03   # mmuR(Q)             
        36     5.00000000E+03   # mtauR(Q)            
        41     5.00000000E+03   # mqL1(Q)             
        42     5.00000000E+03   # mqL2(Q)             
        43     5.00000000E+03   # mqL3(Q)             
        44     5.00000000E+03   # muR(Q)              
        45     5.00000000E+03   # mcR(Q)              
        46     5.00000000E+03   # mtR(Q)              
        47     5.00000000E+03   # mdR(Q)              
        48     5.00000000E+03   # msR(Q)              
        49     5.00000000E+03   # mbR(Q)              
#
#
#
#                             =================
#                             |The decay table|
#                             =================
#
# - The QCD corrections to the decays gluino -> squark  + quark
#                                     squark -> gaugino + quark_prime
#                                     squark -> squark_prime + Higgs
#                                     squark -> gluino  + quark
#   are included.
#
# - The multi-body decays for the inos, stops and sbottoms are included.
#
# - The loop induced decays for the gluino, neutralinos and stops
#   are included.
#
# - The SUSY decays of the top quark are included.
#
#
#         PDG            Width
DECAY         6     1.40593038E+00   # top decays
#          BR         NDA      ID1       ID2
     1.00000000E+00    2           5        24   # BR(t ->  b    W+)
#
#         PDG            Width
DECAY   1000021     1.05460124E-04   # gluino decays
#          BR         NDA      ID1       ID2
     9.38460519E-07    2     1000022        21   # BR(~g -> ~chi_10 g)
     2.43852668E-02    2     1000023        21   # BR(~g -> ~chi_20 g)
     2.36784901E-02    2     1000025        21   # BR(~g -> ~chi_30 g)
#           BR         NDA      ID1       ID2       ID3
     2.45262684E-02    3     1000022         1        -1   # BR(~g -> ~chi_10 d  db)
     3.99362008E-05    3     1000023         1        -1   # BR(~g -> ~chi_20 d  db)
     3.52015669E-05    3     1000025         1        -1   # BR(~g -> ~chi_30 d  db)
     8.36301142E-02    3     1000022         2        -2   # BR(~g -> ~chi_10 u  ub)
     2.08407124E-04    3     1000023         2        -2   # BR(~g -> ~chi_20 u  ub)
     5.85499036E-05    3     1000025         2        -2   # BR(~g -> ~chi_30 u  ub)
     2.45262684E-02    3     1000022         3        -3   # BR(~g -> ~chi_10 s  sb)
     3.99362008E-05    3     1000023         3        -3   # BR(~g -> ~chi_20 s  sb)
     3.52015669E-05    3     1000025         3        -3   # BR(~g -> ~chi_30 s  sb)
     8.36301142E-02    3     1000022         4        -4   # BR(~g -> ~chi_10 c  cb)
     2.08407124E-04    3     1000023         4        -4   # BR(~g -> ~chi_20 c  cb)
     5.85499036E-05    3     1000025         4        -4   # BR(~g -> ~chi_30 c  cb)
     2.51040449E-02    3     1000022         5        -5   # BR(~g -> ~chi_10 b  bb)
     5.39516707E-03    3     1000023         5        -5   # BR(~g -> ~chi_20 b  bb)
     5.31957006E-03    3     1000025         5        -5   # BR(~g -> ~chi_30 b  bb)
     6.72023991E-02    3     1000022         6        -6   # BR(~g -> ~chi_10 t  tb)
     1.54514668E-01    3     1000023         6        -6   # BR(~g -> ~chi_20 t  tb)
     1.16341818E-01    3     1000025         6        -6   # BR(~g -> ~chi_30 t  tb)
     5.71371931E-05    3     1000024         1        -2   # BR(~g -> ~chi_1+ d  ub)
     5.71371931E-05    3    -1000024         2        -1   # BR(~g -> ~chi_1- u  db)
     5.71371931E-05    3     1000024         3        -4   # BR(~g -> ~chi_1+ s  cb)
     5.71371931E-05    3    -1000024         4        -3   # BR(~g -> ~chi_1- c  sb)
     1.80416067E-01    3     1000024         5        -6   # BR(~g -> ~chi_1+ b  tb)
     1.80416067E-01    3    -1000024         6        -5   # BR(~g -> ~chi_1- t  bb)
#
#         PDG            Width
DECAY   1000006     4.04016994E+02   # stop1 decays
#          BR         NDA      ID1       ID2
     2.16134097E-02    2     1000022         6   # BR(~t_1 -> ~chi_10 t )
     8.09081974E-02    2     1000023         6   # BR(~t_1 -> ~chi_20 t )
     7.64756703E-02    2     1000025         6   # BR(~t_1 -> ~chi_30 t )
     5.11492738E-03    2     1000035         6   # BR(~t_1 -> ~chi_40 t )
     1.16377866E-01    2     1000024         5   # BR(~t_1 -> ~chi_1+ b )
     1.01966284E-02    2     1000037         5   # BR(~t_1 -> ~chi_2+ b )
     6.89313301E-01    2     1000021         6   # BR(~t_1 -> ~g      t )
#
#         PDG            Width
DECAY   2000006     4.04598754E+02   # stop2 decays
#          BR         NDA      ID1       ID2
     8.80824626E-03    2     1000022         6   # BR(~t_2 -> ~chi_10 t )
     8.05725945E-02    2     1000023         6   # BR(~t_2 -> ~chi_20 t )
     8.55295784E-02    2     1000025         6   # BR(~t_2 -> ~chi_30 t )
     1.36917157E-02    2     1000035         6   # BR(~t_2 -> ~chi_40 t )
     4.84559378E-02    2     1000024         5   # BR(~t_2 -> ~chi_1+ b )
     2.72625979E-02    2     1000037         5   # BR(~t_2 -> ~chi_2+ b )
     7.32579879E-01    2     1000021         6   # BR(~t_2 -> ~g      t )
     7.07595567E-04    2     1000006        25   # BR(~t_2 -> ~t_1    h )
     2.39185445E-03    2     1000006        23   # BR(~t_2 -> ~t_1    Z )
#
#         PDG            Width
DECAY   1000005     3.81456704E+02   # sbottom1 decays
#          BR         NDA      ID1       ID2
     2.04540088E-03    2     1000022         5   # BR(~b_1 -> ~chi_10 b )
     2.13729099E-03    2     1000023         5   # BR(~b_1 -> ~chi_20 b )
     2.13664579E-03    2     1000025         5   # BR(~b_1 -> ~chi_30 b )
     1.97917685E-02    2     1000035         5   # BR(~b_1 -> ~chi_40 b )
     1.71924795E-01    2    -1000024         6   # BR(~b_1 -> ~chi_1- t )
     3.97363796E-02    2    -1000037         6   # BR(~b_1 -> ~chi_2- t )
     7.60744429E-01    2     1000021         5   # BR(~b_1 -> ~g      b )
     1.48329029E-03    2     1000006       -24   # BR(~b_1 -> ~t_1    W-)
#
#         PDG            Width
DECAY   2000005     2.98997305E+02   # sbottom2 decays
#          BR         NDA      ID1       ID2
     9.81815930E-03    2     1000022         5   # BR(~b_2 -> ~chi_10 b )
     2.83183652E-03    2     1000023         5   # BR(~b_2 -> ~chi_20 b )
     2.86756551E-03    2     1000025         5   # BR(~b_2 -> ~chi_30 b )
     6.31729141E-05    2     1000035         5   # BR(~b_2 -> ~chi_40 b )
     6.09806733E-03    2    -1000024         6   # BR(~b_2 -> ~chi_1- t )
     1.26838545E-04    2    -1000037         6   # BR(~b_2 -> ~chi_2- t )
     9.78174882E-01    2     1000021         5   # BR(~b_2 -> ~g      b )
     1.94779756E-05    2     1000006       -24   # BR(~b_2 -> ~t_1    W-)
#
#         PDG            Width
DECAY   1000002     3.18120026E+02   # sup_L decays
#          BR         NDA      ID1       ID2
     2.33787100E-03    2     1000022         2   # BR(~u_L -> ~chi_10 u)
     6.01232572E-05    2     1000023         2   # BR(~u_L -> ~chi_20 u)
     1.47941774E-06    2     1000025         2   # BR(~u_L -> ~chi_30 u)
     2.46433252E-02    2     1000035         2   # BR(~u_L -> ~chi_40 u)
     1.57279539E-04    2     1000024         1   # BR(~u_L -> ~chi_1+ d)
     4.92559424E-02    2     1000037         1   # BR(~u_L -> ~chi_2+ d)
     9.23543979E-01    2     1000021         2   # BR(~u_L -> ~g      u)
#
#         PDG            Width
DECAY   2000002     3.04404668E+02   # sup_R decays
#          BR         NDA      ID1       ID2
     3.88641383E-02    2     1000022         2   # BR(~u_R -> ~chi_10 u)
     1.57741854E-04    2     1000023         2   # BR(~u_R -> ~chi_20 u)
     1.46926610E-04    2     1000025         2   # BR(~u_R -> ~chi_30 u)
     2.36055498E-09    2     1000035         2   # BR(~u_R -> ~chi_40 u)
     9.60831191E-01    2     1000021         2   # BR(~u_R -> ~g      u)
#
#         PDG            Width
DECAY   1000001     3.18129828E+02   # sdown_L decays
#          BR         NDA      ID1       ID2
     2.32723010E-03    2     1000022         1   # BR(~d_L -> ~chi_10 d)
     2.55952076E-06    2     1000023         1   # BR(~d_L -> ~chi_20 d)
     5.12077977E-05    2     1000025         1   # BR(~d_L -> ~chi_30 d)
     2.46577746E-02    2     1000035         1   # BR(~d_L -> ~chi_40 d)
     4.76769935E-07    2    -1000024         2   # BR(~d_L -> ~chi_1- u)
     4.93337238E-02    2    -1000037         2   # BR(~d_L -> ~chi_2- u)
     9.23627027E-01    2     1000021         1   # BR(~d_L -> ~g      d)
#
#         PDG            Width
DECAY   2000001     2.95484885E+02   # sdown_R decays
#          BR         NDA      ID1       ID2
     1.00099321E-02    2     1000022         1   # BR(~d_R -> ~chi_10 d)
     4.06284279E-05    2     1000023         1   # BR(~d_R -> ~chi_20 d)
     3.78428247E-05    2     1000025         1   # BR(~d_R -> ~chi_30 d)
     6.08074558E-10    2     1000035         1   # BR(~d_R -> ~chi_40 d)
     9.89911596E-01    2     1000021         1   # BR(~d_R -> ~g      d)
#
#         PDG            Width
DECAY   1000004     3.18120026E+02   # scharm_L decays
#          BR         NDA      ID1       ID2
     2.33787100E-03    2     1000022         4   # BR(~c_L -> ~chi_10 c)
     6.01232572E-05    2     1000023         4   # BR(~c_L -> ~chi_20 c)
     1.47941774E-06    2     1000025         4   # BR(~c_L -> ~chi_30 c)
     2.46433252E-02    2     1000035         4   # BR(~c_L -> ~chi_40 c)
     1.57279539E-04    2     1000024         3   # BR(~c_L -> ~chi_1+ s)
     4.92559424E-02    2     1000037         3   # BR(~c_L -> ~chi_2+ s)
     9.23543979E-01    2     1000021         4   # BR(~c_L -> ~g      c)
#
#         PDG            Width
DECAY   2000004     3.04404668E+02   # scharm_R decays
#          BR         NDA      ID1       ID2
     3.88641383E-02    2     1000022         4   # BR(~c_R -> ~chi_10 c)
     1.57741854E-04    2     1000023         4   # BR(~c_R -> ~chi_20 c)
     1.46926610E-04    2     1000025         4   # BR(~c_R -> ~chi_30 c)
     2.36055498E-09    2     1000035         4   # BR(~c_R -> ~chi_40 c)
     9.60831191E-01    2     1000021         4   # BR(~c_R -> ~g      c)
#
#         PDG            Width
DECAY   1000003     3.18129828E+02   # sstrange_L decays
#          BR         NDA      ID1       ID2
     2.32723010E-03    2     1000022         3   # BR(~s_L -> ~chi_10 s)
     2.55952076E-06    2     1000023         3   # BR(~s_L -> ~chi_20 s)
     5.12077977E-05    2     1000025         3   # BR(~s_L -> ~chi_30 s)
     2.46577746E-02    2     1000035         3   # BR(~s_L -> ~chi_40 s)
     4.76769935E-07    2    -1000024         4   # BR(~s_L -> ~chi_1- c)
     4.93337238E-02    2    -1000037         4   # BR(~s_L -> ~chi_2- c)
     9.23627027E-01    2     1000021         3   # BR(~s_L -> ~g      s)
#
#         PDG            Width
DECAY   2000003     2.95484885E+02   # sstrange_R decays
#          BR         NDA      ID1       ID2
     1.00099321E-02    2     1000022         3   # BR(~s_R -> ~chi_10 s)
     4.06284279E-05    2     1000023         3   # BR(~s_R -> ~chi_20 s)
     3.78428247E-05    2     1000025         3   # BR(~s_R -> ~chi_30 s)
     6.08074558E-10    2     1000035         3   # BR(~s_R -> ~chi_40 s)
     9.89911596E-01    2     1000021         3   # BR(~s_R -> ~g      s)
#
#         PDG            Width
DECAY   1000011     3.03377318E+01   # selectron_L decays
#          BR         NDA      ID1       ID2
     2.24787739E-01    2     1000022        11   # BR(~e_L -> ~chi_10 e-)
     2.06812776E-03    2     1000023        11   # BR(~e_L -> ~chi_20 e-)
     2.38504646E-04    2     1000025        11   # BR(~e_L -> ~chi_30 e-)
     2.57466414E-01    2     1000035        11   # BR(~e_L -> ~chi_40 e-)
     5.09712710E-06    2    -1000024        12   # BR(~e_L -> ~chi_1- nu_e)
     5.15434118E-01    2    -1000037        12   # BR(~e_L -> ~chi_2- nu_e)
#
#         PDG            Width
DECAY   2000011     2.73985968E+01   # selectron_R decays
#          BR         NDA      ID1       ID2
     9.92227312E-01    2     1000022        11   # BR(~e_R -> ~chi_10 e-)
     4.02428036E-03    2     1000023        11   # BR(~e_R -> ~chi_20 e-)
     3.74834849E-03    2     1000025        11   # BR(~e_R -> ~chi_30 e-)
     5.89707333E-08    2     1000035        11   # BR(~e_R -> ~chi_40 e-)
#
#         PDG            Width
DECAY   1000013     3.03377318E+01   # smuon_L decays
#          BR         NDA      ID1       ID2
     2.24787739E-01    2     1000022        13   # BR(~mu_L -> ~chi_10 mu-)
     2.06812776E-03    2     1000023        13   # BR(~mu_L -> ~chi_20 mu-)
     2.38504646E-04    2     1000025        13   # BR(~mu_L -> ~chi_30 mu-)
     2.57466414E-01    2     1000035        13   # BR(~mu_L -> ~chi_40 mu-)
     5.09712710E-06    2    -1000024        14   # BR(~mu_L -> ~chi_1- nu_mu)
     5.15434118E-01    2    -1000037        14   # BR(~mu_L -> ~chi_2- nu_mu)
#
#         PDG            Width
DECAY   2000013     2.73985968E+01   # smuon_R decays
#          BR         NDA      ID1       ID2
     9.92227312E-01    2     1000022        13   # BR(~mu_R -> ~chi_10 mu-)
     4.02428036E-03    2     1000023        13   # BR(~mu_R -> ~chi_20 mu-)
     3.74834849E-03    2     1000025        13   # BR(~mu_R -> ~chi_30 mu-)
     5.89707333E-08    2     1000035        13   # BR(~mu_R -> ~chi_40 mu-)
#
#         PDG            Width
DECAY   1000015     2.92418742E+01   # stau_1 decays
#          BR         NDA      ID1       ID2
     9.28334357E-01    2     1000022        15   # BR(~tau_1 -> ~chi_10  tau-)
     1.91905829E-02    2     1000023        15   # BR(~tau_1 -> ~chi_20  tau-)
     1.84861560E-02    2     1000025        15   # BR(~tau_1 -> ~chi_30  tau-)
     8.48052104E-04    2     1000035        15   # BR(~tau_1 -> ~chi_40  tau-)
     3.14432561E-02    2    -1000024        16   # BR(~tau_1 -> ~chi_1-  nu_tau)
     1.69759582E-03    2    -1000037        16   # BR(~tau_1 -> ~chi_2-  nu_tau)
#
#         PDG            Width
DECAY   2000015     3.12452967E+01   # stau_2 decays
#          BR         NDA      ID1       ID2
     2.19776011E-01    2     1000022        15   # BR(~tau_2 -> ~chi_10  tau-)
     1.68972370E-02    2     1000023        15   # BR(~tau_2 -> ~chi_20  tau-)
     1.54661486E-02    2     1000025        15   # BR(~tau_2 -> ~chi_30  tau-)
     2.49105943E-01    2     1000035        15   # BR(~tau_2 -> ~chi_40  tau-)
     5.72522159E-05    2    -1000024        16   # BR(~tau_2 -> ~chi_1-  nu_tau)
     4.98697409E-01    2    -1000037        16   # BR(~tau_2 -> ~chi_2-  nu_tau)
#
#         PDG            Width
DECAY   1000012     3.03409289E+01   # snu_eL decays
#          BR         NDA      ID1       ID2
     2.24375223E-01    2     1000022        12   # BR(~nu_eL -> ~chi_10 nu_e)
     2.21698291E-04    2     1000023        12   # BR(~nu_eL -> ~chi_20 nu_e)
     1.83287025E-03    2     1000025        12   # BR(~nu_eL -> ~chi_30 nu_e)
     2.57508557E-01    2     1000035        12   # BR(~nu_eL -> ~chi_40 nu_e)
     1.68107374E-03    2     1000024        11   # BR(~nu_eL -> ~chi_1+ e-)
     5.14380577E-01    2     1000037        11   # BR(~nu_eL -> ~chi_2+ e-)
#
#         PDG            Width
DECAY   1000014     3.03409289E+01   # snu_muL decays
#          BR         NDA      ID1       ID2
     2.24375223E-01    2     1000022        14   # BR(~nu_muL -> ~chi_10 nu_mu)
     2.21698291E-04    2     1000023        14   # BR(~nu_muL -> ~chi_20 nu_mu)
     1.83287025E-03    2     1000025        14   # BR(~nu_muL -> ~chi_30 nu_mu)
     2.57508557E-01    2     1000035        14   # BR(~nu_muL -> ~chi_40 nu_mu)
     1.68107374E-03    2     1000024        13   # BR(~nu_muL -> ~chi_1+ mu-)
     5.14380577E-01    2     1000037        13   # BR(~nu_muL -> ~chi_2+ mu-)
#
#         PDG            Width
DECAY   1000016     3.12549648E+01   # snu_tauL decays
#          BR         NDA      ID1       ID2
     2.17789518E-01    2     1000022        16   # BR(~nu_tauL -> ~chi_10 nu_tau)
     2.15190219E-04    2     1000023        16   # BR(~nu_tauL -> ~chi_20 nu_tau)
     1.77906530E-03    2     1000025        16   # BR(~nu_tauL -> ~chi_30 nu_tau)
     2.49884309E-01    2     1000035        16   # BR(~nu_tauL -> ~chi_40 nu_tau)
     3.11814984E-02    2     1000024        15   # BR(~nu_tauL -> ~chi_1+ tau-)
     4.99150419E-01    2     1000037        15   # BR(~nu_tauL -> ~chi_2+ tau-)
#
#         PDG            Width
DECAY   1000024     2.94208721E-01   # chargino1+ decays
#          BR         NDA      ID1       ID2
     1.00000000E+00    2     1000022        24   # BR(~chi_1+ -> ~chi_10  W+)
#
#         PDG            Width
DECAY   1000037     2.21723829E+01   # chargino2+ decays
#          BR         NDA      ID1       ID2
     2.53572122E-01    2     1000024        23   # BR(~chi_2+ -> ~chi_1+  Z )
     1.56207333E-04    2     1000022        24   # BR(~chi_2+ -> ~chi_10  W+)
     2.44994258E-01    2     1000023        24   # BR(~chi_2+ -> ~chi_20  W+)
     2.44401098E-01    2     1000025        24   # BR(~chi_2+ -> ~chi_30  W+)
     2.56871130E-01    2     1000024        25   # BR(~chi_2+ -> ~chi_1+  h )
     5.18341279E-06    2     1000022        37   # BR(~chi_2+ -> ~chi_10  H+)
#
#         PDG            Width
DECAY   1000022     0.00000000E+00   # neutralino1 decays
#
#         PDG            Width
DECAY   1000023     2.97564680E-01   # neutralino2 decays
#          BR         NDA      ID1       ID2
     5.04245753E-01    2     1000022        23   # BR(~chi_20 -> ~chi_10   Z )
     4.95754247E-01    2     1000022        25   # BR(~chi_20 -> ~chi_10   h )
#
#         PDG            Width
DECAY   1000025     2.90481427E-01   # neutralino3 decays
#          BR         NDA      ID1       ID2
     5.33609789E-01    2     1000022        23   # BR(~chi_30 -> ~chi_10   Z )
     4.66390211E-01    2     1000022        25   # BR(~chi_30 -> ~chi_10   h )
#
#         PDG            Width
DECAY   1000035     2.21833441E+01   # neutralino4 decays
#          BR         NDA      ID1       ID2
     3.10091498E-06    2     1000022        23   # BR(~chi_40 -> ~chi_10   Z )
     1.12718342E-01    2     1000023        23   # BR(~chi_40 -> ~chi_20   Z )
     1.40414835E-01    2     1000025        23   # BR(~chi_40 -> ~chi_30   Z )
     2.45177915E-01    2     1000024       -24   # BR(~chi_40 -> ~chi_1+   W-)
     2.45177915E-01    2    -1000024        24   # BR(~chi_40 -> ~chi_1-   W+)
     1.45512013E-04    2     1000022        25   # BR(~chi_40 -> ~chi_10   h )
     4.98578808E-06    2     1000022        35   # BR(~chi_40 -> ~chi_10   H )
     5.44469640E-07    2     1000022        36   # BR(~chi_40 -> ~chi_10   A )
     1.43396490E-01    2     1000023        25   # BR(~chi_40 -> ~chi_20   h )
     1.12960360E-01    2     1000025        25   # BR(~chi_40 -> ~chi_30   h )
#
#         PDG            Width
DECAY        25     4.04555483E-03   # h decays
#          BR         NDA      ID1       ID2
     6.14414113E-01    2           5        -5   # BR(h -> b       bb     )
     6.39801570E-02    2         -15        15   # BR(h -> tau+    tau-   )
     2.26514200E-04    2         -13        13   # BR(h -> mu+     mu-    )
     4.80396963E-04    2           3        -3   # BR(h -> s       sb     )
     2.08148778E-02    2           4        -4   # BR(h -> c       cb     )
     6.70235992E-02    2          21        21   # BR(h -> g       g      )
     2.29750475E-03    2          22        22   # BR(h -> gam     gam    )
     1.45933031E-03    2          22        23   # BR(h -> Z       gam    )
     2.04929244E-01    2          24       -24   # BR(h -> W+      W-     )
     2.42968464E-02    2          23        23   # BR(h -> Z       Z      )
     7.74168224E-05    2     1000022   1000022   # BR(h -> ~chi_10 ~chi_10)
#
#         PDG            Width
DECAY        35     8.66466248E+00   # H decays
#          BR         NDA      ID1       ID2
     3.68615605E-01    2           5        -5   # BR(H -> b       bb     )
     6.43240356E-02    2         -15        15   # BR(H -> tau+    tau-   )
     2.27454899E-04    2         -13        13   # BR(H -> mu+     mu-    )
     2.78824831E-04    2           3        -3   # BR(H -> s       sb     )
     1.55847055E-06    2           4        -4   # BR(H -> c       cb     )
     1.55703555E-01    2           6        -6   # BR(H -> t       tb     )
     5.17706635E-05    2          21        21   # BR(H -> g       g      )
     1.48906745E-07    2          22        22   # BR(H -> gam     gam    )
     9.18253090E-08    2          23        22   # BR(H -> Z       gam    )
     7.39587661E-05    2          24       -24   # BR(H -> W+      W-     )
     3.69325616E-05    2          23        23   # BR(H -> Z       Z      )
     2.69327809E-04    2          25        25   # BR(H -> h       h      )
     8.93993630E-24    2          36        36   # BR(H -> A       A      )
     4.66539276E-19    2          23        36   # BR(H -> Z       A      )
     3.17411820E-03    2     1000024  -1000024   # BR(H -> ~chi_1+ ~chi_1-)
     6.71484339E-03    2     1000022   1000022   # BR(H -> ~chi_10 ~chi_10)
     3.68946106E-04    2     1000023   1000023   # BR(H -> ~chi_20 ~chi_20)
     2.44835264E-03    2     1000025   1000025   # BR(H -> ~chi_30 ~chi_30)
     2.39480505E-01    2     1000022   1000023   # BR(H -> ~chi_10 ~chi_20)
     1.54906368E-01    2     1000022   1000025   # BR(H -> ~chi_10 ~chi_30)
     3.32360307E-03    2     1000023   1000025   # BR(H -> ~chi_20 ~chi_30)
#
#         PDG            Width
DECAY        36     8.67172077E+00   # A decays
#          BR         NDA      ID1       ID2
     3.68441455E-01    2           5        -5   # BR(A -> b       bb     )
     6.42735902E-02    2         -15        15   # BR(A -> tau+    tau-   )
     2.27276202E-04    2         -13        13   # BR(A -> mu+     mu-    )
     2.78809350E-04    2           3        -3   # BR(A -> s       sb     )
     1.56345580E-06    2           4        -4   # BR(A -> c       cb     )
     1.56115434E-01    2           6        -6   # BR(A -> t       tb     )
     1.54517736E-04    2          21        21   # BR(A -> g       g      )
     5.93341937E-07    2          22        22   # BR(A -> gam     gam    )
     1.86957589E-07    2          23        22   # BR(A -> Z       gam    )
     7.36205726E-05    2          23        25   # BR(A -> Z       h      )
     3.48598602E-03    2     1000024  -1000024   # BR(A -> ~chi_1+ ~chi_1-)
     6.67190750E-03    2     1000022   1000022   # BR(A -> ~chi_10 ~chi_10)
     2.71111457E-04    2     1000023   1000023   # BR(A -> ~chi_20 ~chi_20)
     4.22238706E-03    2     1000025   1000025   # BR(A -> ~chi_30 ~chi_30)
     1.58307231E-01    2     1000022   1000023   # BR(A -> ~chi_10 ~chi_20)
     2.35111666E-01    2     1000022   1000025   # BR(A -> ~chi_10 ~chi_30)
     2.36266472E-03    2     1000023   1000025   # BR(A -> ~chi_20 ~chi_30)
#
#         PDG            Width
DECAY        37     8.60617251E+00   # H+ decays
#          BR         NDA      ID1       ID2
     5.89883820E-04    2           4        -5   # BR(H+ -> c       bb     )
     6.47939863E-02    2         -15        16   # BR(H+ -> tau+    nu_tau )
     2.29116362E-04    2         -13        14   # BR(H+ -> mu+     nu_mu  )
     3.77523662E-06    2           2        -5   # BR(H+ -> u       bb     )
     1.34437483E-05    2           2        -3   # BR(H+ -> u       sb     )
     2.78016270E-04    2           4        -3   # BR(H+ -> c       sb     )
     5.22730611E-01    2           6        -5   # BR(H+ -> t       bb     )
     7.43352759E-05    2          24        25   # BR(H+ -> W+      h      )
     9.11658082E-13    2          24        36   # BR(H+ -> W+      A      )
     4.07485748E-01    2     1000024   1000022   # BR(H+ -> ~chi_1+ ~chi_10)
     3.47090276E-03    2     1000024   1000023   # BR(H+ -> ~chi_1+ ~chi_20)
     3.30181086E-04    2     1000024   1000025   # BR(H+ -> ~chi_1+ ~chi_30)
