#
#                              ======================
#                              | THE SUSYHIT OUTPUT |
#                              ======================
#
#
#              ------------------------------------------------------
#              |     This is the output of the SUSY-HIT package     |
#              |  created by A.Djouadi, M.Muehlleitner and M.Spira. |
#              |  In case of problems with SUSY-HIT email to        |
#              |           margarete.muehlleitner@cern.ch           |
#              |           michael.spira@psi.ch                     |
#              |           abdelhak.djouadi@cern.ch                 |
#              ------------------------------------------------------
#
#              ------------------------------------------------------
#              |  SUSY Les Houches Accord - MSSM Spectrum + Decays  |
#              |              based on the decay programs           |
#              |                                                    |
#              |                     SDECAY 1.3b                    |
#              |                                                    |
#              |  Authors: M.Muhlleitner, A.Djouadi and Y.Mambrini  |
#              |  Ref.:    Comput.Phys.Commun.168(2005)46           |
#              |           [hep-ph/0311167]                         |
#              |                                                    |
#              |                     HDECAY 3.4                     |
#              |                                                    |
#              |  By: A.Djouadi,J.Kalinowski,M.Muhlleitner,M.Spira  |
#              |  Ref.:    Comput.Phys.Commun.108(1998)56           |
#              |           [hep-ph/9704448]                         |
#              |                                                    |
#              |                                                    |
#              |  If not stated otherwise all DRbar couplings and   |
#              |  soft SUSY breaking masses are given at the scale  |
#              |  Q=  0.50007485E+04
#              |                                                    |
#              ------------------------------------------------------
#
#
BLOCK DCINFO  # Decay Program information
     1   SDECAY/HDECAY # decay calculator
     2   1.3b  /3.4    # version number
#
BLOCK SPINFO  # Spectrum calculator information
     1    SOFTSUSY    # spectrum calculator                
     2    3.4.0       # version number                     
#
BLOCK MODSEL  # Model selection
     1     0   #  nonUniversal                                     
#
BLOCK SMINPUTS  # Standard Model inputs
         1     1.25778332E+02   # alpha_em^-1(M_Z)^MSbar
         2     1.16570000E-05   # G_F [GeV^-2]
         3     1.17200002E-01   # alpha_S(M_Z)^MSbar
         4     9.11876000E+01   # M_Z pole mass
         5     4.25000000E+00   # mb(mb)^MSbar
         6     1.72500000E+02   # mt pole mass
         7     1.77682000E+00   # mtau pole mass
#
BLOCK MINPAR  # Input parameters - minimal models
         3     1.00000000E+01   # tanb                
#
BLOCK EXTPAR  # Input parameters - non-minimal models
         0    -1.00000000E+00   # Set                 
         1     6.00000000E+01   # M_1(MX)             
         2     3.00000000E+03   # M_2(MX)             
         3     1.30154000E+03   # M_3(MX)             
        11     5.00000000E+03   # At(MX)              
        12     5.00000000E+03   # Ab(MX)              
        13     0.00000000E+00   # Atau(MX)            
        23    -6.68098000E+02   # mu(MX)              
        26     3.00000000E+03   # mA(pole)            
        31     5.00000000E+03   # meL(MX)             
        32     5.00000000E+03   # mmuL(MX)            
        33     5.00000000E+03   # mtauL(MX)           
        34     5.00000000E+03   # meR(MX)             
        35     5.00000000E+03   # mmuR(MX)            
        36     5.00000000E+03   # mtauR(MX)           
        41     5.00000000E+03   # mqL1(MX)            
        42     5.00000000E+03   # mqL2(MX)            
        43     5.00000000E+03   # mqL3(MX)            
        44     5.00000000E+03   # muR(MX)             
        45     5.00000000E+03   # mcR(MX)             
        46     5.00000000E+03   # mtR(MX)             
        47     5.00000000E+03   # mdR(MX)             
        48     5.00000000E+03   # msR(MX)             
        49     5.00000000E+03   # mbR(MX)             
#
BLOCK MASS  # Mass Spectrum
# PDG code           mass       particle
        24     8.00932700E+01   # W+
        25     1.24649437E+02   # h
        35     3.00008350E+03   # H
        36     2.99999868E+03   # A
        37     3.00137684E+03   # H+
         5     4.87878001E+00   # b-quark pole mass calculated from mb(mb)_Msbar
   1000001     5.06755304E+03   # ~d_L
   2000001     5.04971292E+03   # ~d_R
   1000002     5.06707740E+03   # ~u_L
   2000002     5.04941829E+03   # ~u_R
   1000003     5.06755304E+03   # ~s_L
   2000003     5.04971292E+03   # ~s_R
   1000004     5.06707740E+03   # ~c_L
   2000004     5.04941829E+03   # ~c_R
   1000005     5.01348406E+03   # ~b_1
   2000005     5.04807398E+03   # ~b_2
   1000006     4.90408184E+03   # ~t_1
   2000006     5.05830268E+03   # ~t_2
   1000011     5.01909130E+03   # ~e_L
   2000011     5.00593543E+03   # ~e_R
   1000012     5.01814172E+03   # ~nu_eL
   1000013     5.01909130E+03   # ~mu_L
   2000013     5.00593543E+03   # ~mu_R
   1000014     5.01814172E+03   # ~nu_muL
   1000015     5.00471959E+03   # ~tau_1
   2000015     5.01867283E+03   # ~tau_2
   1000016     5.01759213E+03   # ~nu_tauL
   1000021     1.60000077E+03   # ~g
   1000022     6.02747731E+01   # ~chi_10
   1000023     6.99988810E+02   # ~chi_20
   1000025    -7.02215534E+02   # ~chi_30
   1000035     3.07419959E+03   # ~chi_40
   1000024     7.00000063E+02   # ~chi_1+
   1000037     3.07436718E+03   # ~chi_2+
#
BLOCK NMIX  # Neutralino Mixing Matrix
  1  1     9.97979279E-01   # N_11
  1  2     2.19016665E-04   # N_12
  1  3    -6.35297634E-02   # N_13
  1  4     1.13135063E-03   # N_14
  2  1     4.41429697E-02   # N_21
  2  2     2.05676296E-02   # N_22
  2  3     7.06086609E-01   # N_23
  2  4     7.06448916E-01   # N_24
  3  1    -4.57012530E-02   # N_31
  3  2     1.61082594E-02   # N_32
  3  3    -7.05262896E-01   # N_33
  3  4     7.07287895E-01   # N_34
  4  1    -3.90455982E-04   # N_41
  4  2     9.99658666E-01   # N_42
  4  3    -3.14913097E-03   # N_43
  4  4    -2.59322559E-02   # N_44
#
BLOCK UMIX  # Chargino Mixing Matrix U
  1  1     4.46254884E-03   # U_11
  1  2     9.99990043E-01   # U_12
  2  1    -9.99990043E-01   # U_21
  2  2     4.46254884E-03   # U_22
#
BLOCK VMIX  # Chargino Mixing Matrix V
  1  1     3.67002275E-02   # V_11
  1  2    -9.99326320E-01   # V_12
  2  1    -9.99326320E-01   # V_21
  2  2    -3.67002275E-02   # V_22
#
BLOCK STOPMIX  # Stop Mixing Matrix
  1  1    -5.06411597E-01   # cos(theta_t)
  1  2     8.62291885E-01   # sin(theta_t)
  2  1    -8.62291885E-01   # -sin(theta_t)
  2  2    -5.06411597E-01   # cos(theta_t)
#
BLOCK SBOTMIX  # Sbottom Mixing Matrix
  1  1     9.98165246E-01   # cos(theta_b)
  1  2    -6.05486720E-02   # sin(theta_b)
  2  1     6.05486720E-02   # -sin(theta_b)
  2  2     9.98165246E-01   # cos(theta_b)
#
BLOCK STAUMIX  # Stau Mixing Matrix
  1  1    -7.99429666E-02   # cos(theta_tau)
  1  2     9.96799439E-01   # sin(theta_tau)
  2  1    -9.96799439E-01   # -sin(theta_tau)
  2  2    -7.99429666E-02   # cos(theta_tau)
#
BLOCK ALPHA  # Higgs mixing
          -1.05467073E-01   # Mixing angle in the neutral Higgs boson sector
#
BLOCK HMIX Q=  5.00074851E+03  # DRbar Higgs Parameters
         1    -6.80224376E+02   # mu(Q)MSSM           
         2     9.47068607E+00   # tan                 
         3     2.41808570E+02   # higgs               
         4     8.60776627E+06   # mA^2(Q)MSSM         
#
BLOCK GAUGE Q=  5.00074851E+03  # The gauge couplings
     1     3.70887024E-01   # gprime(Q) DRbar
     2     6.32975278E-01   # g(Q) DRbar
     3     1.00176864E+00   # g3(Q) DRbar
#
BLOCK AU Q=  5.00074851E+03  # The trilinear couplings
  1  1     5.00000001E+03   # A_u(Q) DRbar
  2  2     5.00000001E+03   # A_c(Q) DRbar
  3  3     5.00000001E+03   # A_t(Q) DRbar
#
BLOCK AD Q=  5.00074851E+03  # The trilinear couplings
  1  1     5.00000000E+03   # A_d(Q) DRbar
  2  2     5.00000000E+03   # A_s(Q) DRbar
  3  3     5.00000001E+03   # A_b(Q) DRbar
#
BLOCK AE Q=  5.00074851E+03  # The trilinear couplings
  1  1     0.00000000E+00   # A_e(Q) DRbar
  2  2     1.12036116E-07   # A_mu(Q) DRbar
  3  3     1.11430474E-07   # A_tau(Q) DRbar
#
BLOCK Yu Q=  5.00074851E+03  # The Yukawa couplings
  1  1     0.00000000E+00   # y_u(Q) DRbar
  2  2     0.00000000E+00   # y_c(Q) DRbar
  3  3     8.18468867E-01   # y_t(Q) DRbar
#
BLOCK Yd Q=  5.00074851E+03  # The Yukawa couplings
  1  1     0.00000000E+00   # y_d(Q) DRbar
  2  2     0.00000000E+00   # y_s(Q) DRbar
  3  3     1.29935036E-01   # y_b(Q) DRbar
#
BLOCK Ye Q=  5.00074851E+03  # The Yukawa couplings
  1  1     0.00000000E+00   # y_e(Q) DRbar
  2  2     0.00000000E+00   # y_mu(Q) DRbar
  3  3     9.70236620E-02   # y_tau(Q) DRbar
#
BLOCK MSOFT Q=  5.00074851E+03  # The soft SUSY breaking masses at the scale Q
         1     6.00000000E+01   # M_1(Q)              
         2     3.00000000E+03   # M_2(Q)              
         3     1.30154000E+03   # M_3(Q)              
        21     8.25173648E+06   # mH1^2(Q)            
        22     1.07655838E+05   # mH2^2(Q)            
        31     5.00000000E+03   # meL(Q)              
        32     5.00000000E+03   # mmuL(Q)             
        33     5.00000000E+03   # mtauL(Q)            
        34     5.00000000E+03   # meR(Q)              
        35     5.00000000E+03   # mmuR(Q)             
        36     5.00000000E+03   # mtauR(Q)            
        41     5.00000000E+03   # mqL1(Q)             
        42     5.00000000E+03   # mqL2(Q)             
        43     5.00000000E+03   # mqL3(Q)             
        44     5.00000000E+03   # muR(Q)              
        45     5.00000000E+03   # mcR(Q)              
        46     4.99999999E+03   # mtR(Q)              
        47     5.00000000E+03   # mdR(Q)              
        48     5.00000000E+03   # msR(Q)              
        49     5.00000000E+03   # mbR(Q)              
#
#
#
#                             =================
#                             |The decay table|
#                             =================
#
# - The QCD corrections to the decays gluino -> squark  + quark
#                                     squark -> gaugino + quark_prime
#                                     squark -> squark_prime + Higgs
#                                     squark -> gluino  + quark
#   are included.
#
# - The multi-body decays for the inos, stops and sbottoms are included.
#
# - The loop induced decays for the gluino, neutralinos and stops
#   are included.
#
# - The SUSY decays of the top quark are included.
#
#
#         PDG            Width
DECAY         6     1.40411625E+00   # top decays
#          BR         NDA      ID1       ID2
     1.00000000E+00    2           5        24   # BR(t ->  b    W+)
#
#         PDG            Width
DECAY   1000021     2.61834442E-04   # gluino decays
#          BR         NDA      ID1       ID2
     2.92452798E-06    2     1000022        21   # BR(~g -> ~chi_10 g)
     1.61042200E-02    2     1000023        21   # BR(~g -> ~chi_20 g)
     1.57171648E-02    2     1000025        21   # BR(~g -> ~chi_30 g)
#           BR         NDA      ID1       ID2       ID3
     2.83305537E-02    3     1000022         1        -1   # BR(~g -> ~chi_10 d  db)
     2.28308158E-05    3     1000023         1        -1   # BR(~g -> ~chi_20 d  db)
     1.93659641E-05    3     1000025         1        -1   # BR(~g -> ~chi_30 d  db)
     9.66027198E-02    3     1000022         2        -2   # BR(~g -> ~chi_10 u  ub)
     1.05798981E-04    3     1000023         2        -2   # BR(~g -> ~chi_20 u  ub)
     2.74316755E-05    3     1000025         2        -2   # BR(~g -> ~chi_30 u  ub)
     2.83305537E-02    3     1000022         3        -3   # BR(~g -> ~chi_10 s  sb)
     2.28308158E-05    3     1000023         3        -3   # BR(~g -> ~chi_20 s  sb)
     1.93659641E-05    3     1000025         3        -3   # BR(~g -> ~chi_30 s  sb)
     9.66027198E-02    3     1000022         4        -4   # BR(~g -> ~chi_10 c  cb)
     1.05798981E-04    3     1000023         4        -4   # BR(~g -> ~chi_20 c  cb)
     2.74316755E-05    3     1000025         4        -4   # BR(~g -> ~chi_30 c  cb)
     2.88271775E-02    3     1000022         5        -5   # BR(~g -> ~chi_10 b  bb)
     4.69543269E-03    3     1000023         5        -5   # BR(~g -> ~chi_20 b  bb)
     4.62947449E-03    3     1000025         5        -5   # BR(~g -> ~chi_30 b  bb)
     8.69693731E-02    3     1000022         6        -6   # BR(~g -> ~chi_10 t  tb)
     1.47245689E-01    3     1000023         6        -6   # BR(~g -> ~chi_20 t  tb)
     1.16938503E-01    3     1000025         6        -6   # BR(~g -> ~chi_30 t  tb)
     5.42243363E-05    3     1000024         1        -2   # BR(~g -> ~chi_1+ d  ub)
     5.42243363E-05    3    -1000024         2        -1   # BR(~g -> ~chi_1- u  db)
     5.42243363E-05    3     1000024         3        -4   # BR(~g -> ~chi_1+ s  cb)
     5.42243363E-05    3    -1000024         4        -3   # BR(~g -> ~chi_1- c  sb)
     1.64217871E-01    3     1000024         5        -6   # BR(~g -> ~chi_1+ b  tb)
     1.64217871E-01    3    -1000024         6        -5   # BR(~g -> ~chi_1- t  bb)
#
#         PDG            Width
DECAY   1000006     3.79786465E+02   # stop1 decays
#          BR         NDA      ID1       ID2
     2.32170013E-02    2     1000022         6   # BR(~t_1 -> ~chi_10 t )
     8.39799591E-02    2     1000023         6   # BR(~t_1 -> ~chi_20 t )
     8.02279813E-02    2     1000025         6   # BR(~t_1 -> ~chi_30 t )
     5.43562884E-03    2     1000035         6   # BR(~t_1 -> ~chi_40 t )
     1.21754894E-01    2     1000024         5   # BR(~t_1 -> ~chi_1+ b )
     1.08341533E-02    2     1000037         5   # BR(~t_1 -> ~chi_2+ b )
     6.74550382E-01    2     1000021         6   # BR(~t_1 -> ~g      t )
#
#         PDG            Width
DECAY   2000006     3.83040270E+02   # stop2 decays
#          BR         NDA      ID1       ID2
     9.16688670E-03    2     1000022         6   # BR(~t_2 -> ~chi_10 t )
     8.43047812E-02    2     1000023         6   # BR(~t_2 -> ~chi_20 t )
     8.84378993E-02    2     1000025         6   # BR(~t_2 -> ~chi_30 t )
     1.44849861E-02    2     1000035         6   # BR(~t_2 -> ~chi_40 t )
     5.02339564E-02    2     1000024         5   # BR(~t_2 -> ~chi_1+ b )
     2.88352947E-02    2     1000037         5   # BR(~t_2 -> ~chi_2+ b )
     7.21251593E-01    2     1000021         6   # BR(~t_2 -> ~g      t )
     7.50122878E-04    2     1000006        25   # BR(~t_2 -> ~t_1    h )
     2.53447986E-03    2     1000006        23   # BR(~t_2 -> ~t_1    Z )
#
#         PDG            Width
DECAY   1000005     3.59148786E+02   # sbottom1 decays
#          BR         NDA      ID1       ID2
     2.15532250E-03    2     1000022         5   # BR(~b_1 -> ~chi_10 b )
     2.26753139E-03    2     1000023         5   # BR(~b_1 -> ~chi_20 b )
     2.23885649E-03    2     1000025         5   # BR(~b_1 -> ~chi_30 b )
     2.10074465E-02    2     1000035         5   # BR(~b_1 -> ~chi_40 b )
     1.79361924E-01    2    -1000024         6   # BR(~b_1 -> ~chi_1- t )
     4.21864423E-02    2    -1000037         6   # BR(~b_1 -> ~chi_2- t )
     7.49209242E-01    2     1000021         5   # BR(~b_1 -> ~g      b )
     1.57323494E-03    2     1000006       -24   # BR(~b_1 -> ~t_1    W-)
#
#         PDG            Width
DECAY   2000005     2.78079450E+02   # sbottom2 decays
#          BR         NDA      ID1       ID2
     1.05707947E-02    2     1000022         5   # BR(~b_2 -> ~chi_10 b )
     2.97858977E-03    2     1000023         5   # BR(~b_2 -> ~chi_20 b )
     3.03486630E-03    2     1000025         5   # BR(~b_2 -> ~chi_30 b )
     9.91705066E-05    2     1000035         5   # BR(~b_2 -> ~chi_40 b )
     6.71747550E-03    2    -1000024         6   # BR(~b_2 -> ~chi_1- t )
     1.99145454E-04    2    -1000037         6   # BR(~b_2 -> ~chi_2- t )
     9.76369330E-01    2     1000021         5   # BR(~b_2 -> ~g      b )
     3.06275813E-05    2     1000006       -24   # BR(~b_2 -> ~t_1    W-)
#
#         PDG            Width
DECAY   1000002     2.97220813E+02   # sup_L decays
#          BR         NDA      ID1       ID2
     2.50942689E-03    2     1000022         2   # BR(~u_L -> ~chi_10 u)
     5.40833430E-05    2     1000023         2   # BR(~u_L -> ~chi_20 u)
     3.27353525E-06    2     1000025         2   # BR(~u_L -> ~chi_30 u)
     2.63921177E-02    2     1000035         2   # BR(~u_L -> ~chi_40 u)
     1.70994016E-04    2     1000024         1   # BR(~u_L -> ~chi_1+ d)
     5.27505335E-02    2     1000037         1   # BR(~u_L -> ~chi_2+ d)
     9.18119571E-01    2     1000021         2   # BR(~u_L -> ~g      u)
#
#         PDG            Width
DECAY   2000002     2.83422742E+02   # sup_R decays
#          BR         NDA      ID1       ID2
     4.18635425E-02    2     1000022         2   # BR(~u_R -> ~chi_10 u)
     7.88726944E-05    2     1000023         2   # BR(~u_R -> ~chi_20 u)
     8.45185478E-05    2     1000025         2   # BR(~u_R -> ~chi_30 u)
     2.54781507E-09    2     1000035         2   # BR(~u_R -> ~chi_40 u)
     9.57973064E-01    2     1000021         2   # BR(~u_R -> ~g      u)
#
#         PDG            Width
DECAY   1000001     2.97232451E+02   # sdown_L decays
#          BR         NDA      ID1       ID2
     2.49831201E-03    2     1000022         1   # BR(~d_L -> ~chi_10 d)
     9.05894647E-06    2     1000023         1   # BR(~d_L -> ~chi_20 d)
     3.97747125E-05    2     1000025         1   # BR(~d_L -> ~chi_30 d)
     2.64073528E-02    2     1000035         1   # BR(~d_L -> ~chi_40 d)
     2.52834595E-06    2    -1000024         2   # BR(~d_L -> ~chi_1- u)
     5.28349956E-02    2    -1000037         2   # BR(~d_L -> ~chi_2- u)
     9.18207978E-01    2     1000021         1   # BR(~d_L -> ~g      d)
#
#         PDG            Width
DECAY   2000001     2.74512290E+02   # sdown_R decays
#          BR         NDA      ID1       ID2
     1.08062353E-02    2     1000022         1   # BR(~d_R -> ~chi_10 d)
     2.03594968E-05    2     1000023         1   # BR(~d_R -> ~chi_20 d)
     2.18168679E-05    2     1000025         1   # BR(~d_R -> ~chi_30 d)
     6.57756958E-10    2     1000035         1   # BR(~d_R -> ~chi_40 d)
     9.89151588E-01    2     1000021         1   # BR(~d_R -> ~g      d)
#
#         PDG            Width
DECAY   1000004     2.97220813E+02   # scharm_L decays
#          BR         NDA      ID1       ID2
     2.50942689E-03    2     1000022         4   # BR(~c_L -> ~chi_10 c)
     5.40833430E-05    2     1000023         4   # BR(~c_L -> ~chi_20 c)
     3.27353525E-06    2     1000025         4   # BR(~c_L -> ~chi_30 c)
     2.63921177E-02    2     1000035         4   # BR(~c_L -> ~chi_40 c)
     1.70994016E-04    2     1000024         3   # BR(~c_L -> ~chi_1+ s)
     5.27505335E-02    2     1000037         3   # BR(~c_L -> ~chi_2+ s)
     9.18119571E-01    2     1000021         4   # BR(~c_L -> ~g      c)
#
#         PDG            Width
DECAY   2000004     2.83422742E+02   # scharm_R decays
#          BR         NDA      ID1       ID2
     4.18635425E-02    2     1000022         4   # BR(~c_R -> ~chi_10 c)
     7.88726944E-05    2     1000023         4   # BR(~c_R -> ~chi_20 c)
     8.45185478E-05    2     1000025         4   # BR(~c_R -> ~chi_30 c)
     2.54781507E-09    2     1000035         4   # BR(~c_R -> ~chi_40 c)
     9.57973064E-01    2     1000021         4   # BR(~c_R -> ~g      c)
#
#         PDG            Width
DECAY   1000003     2.97232451E+02   # sstrange_L decays
#          BR         NDA      ID1       ID2
     2.49831201E-03    2     1000022         3   # BR(~s_L -> ~chi_10 s)
     9.05894647E-06    2     1000023         3   # BR(~s_L -> ~chi_20 s)
     3.97747125E-05    2     1000025         3   # BR(~s_L -> ~chi_30 s)
     2.64073528E-02    2     1000035         3   # BR(~s_L -> ~chi_40 s)
     2.52834595E-06    2    -1000024         4   # BR(~s_L -> ~chi_1- c)
     5.28349956E-02    2    -1000037         4   # BR(~s_L -> ~chi_2- c)
     9.18207978E-01    2     1000021         3   # BR(~s_L -> ~g      s)
#
#         PDG            Width
DECAY   2000003     2.74512290E+02   # sstrange_R decays
#          BR         NDA      ID1       ID2
     1.08062353E-02    2     1000022         3   # BR(~s_R -> ~chi_10 s)
     2.03594968E-05    2     1000023         3   # BR(~s_R -> ~chi_20 s)
     2.18168679E-05    2     1000025         3   # BR(~s_R -> ~chi_30 s)
     6.57756958E-10    2     1000035         3   # BR(~s_R -> ~chi_40 s)
     9.89151588E-01    2     1000021         3   # BR(~s_R -> ~g      s)
#
#         PDG            Width
DECAY   1000011     3.03056196E+01   # selectron_L decays
#          BR         NDA      ID1       ID2
     2.25802315E-01    2     1000022        11   # BR(~e_L -> ~chi_10 e-)
     1.36825025E-03    2     1000023        11   # BR(~e_L -> ~chi_20 e-)
     7.22332063E-05    2     1000025        11   # BR(~e_L -> ~chi_30 e-)
     2.57407384E-01    2     1000035        11   # BR(~e_L -> ~chi_40 e-)
     2.52760948E-05    2    -1000024        12   # BR(~e_L -> ~chi_1- nu_e)
     5.15324541E-01    2    -1000037        12   # BR(~e_L -> ~chi_2- nu_e)
#
#         PDG            Width
DECAY   2000011     2.73864067E+01   # selectron_R decays
#          BR         NDA      ID1       ID2
     9.96117849E-01    2     1000022        11   # BR(~e_R -> ~chi_10 e-)
     1.87398027E-03    2     1000023        11   # BR(~e_R -> ~chi_20 e-)
     2.00811114E-03    2     1000025        11   # BR(~e_R -> ~chi_30 e-)
     5.91738066E-08    2     1000035        11   # BR(~e_R -> ~chi_40 e-)
#
#         PDG            Width
DECAY   1000013     3.03056196E+01   # smuon_L decays
#          BR         NDA      ID1       ID2
     2.25802315E-01    2     1000022        13   # BR(~mu_L -> ~chi_10 mu-)
     1.36825025E-03    2     1000023        13   # BR(~mu_L -> ~chi_20 mu-)
     7.22332063E-05    2     1000025        13   # BR(~mu_L -> ~chi_30 mu-)
     2.57407384E-01    2     1000035        13   # BR(~mu_L -> ~chi_40 mu-)
     2.52760948E-05    2    -1000024        14   # BR(~mu_L -> ~chi_1- nu_mu)
     5.15324541E-01    2    -1000037        14   # BR(~mu_L -> ~chi_2- nu_mu)
#
#         PDG            Width
DECAY   2000013     2.73864067E+01   # smuon_R decays
#          BR         NDA      ID1       ID2
     9.96117849E-01    2     1000022        13   # BR(~mu_R -> ~chi_10 mu-)
     1.87398027E-03    2     1000023        13   # BR(~mu_R -> ~chi_20 mu-)
     2.00811114E-03    2     1000025        13   # BR(~mu_R -> ~chi_30 mu-)
     5.91738066E-08    2     1000035        13   # BR(~mu_R -> ~chi_40 mu-)
#
#         PDG            Width
DECAY   1000015     2.91977478E+01   # stau_1 decays
#          BR         NDA      ID1       ID2
     9.30623485E-01    2     1000022        15   # BR(~tau_1 -> ~chi_10  tau-)
     1.70534845E-02    2     1000023        15   # BR(~tau_1 -> ~chi_20  tau-)
     1.65306226E-02    2     1000025        15   # BR(~tau_1 -> ~chi_30  tau-)
     1.66222619E-03    2     1000035        15   # BR(~tau_1 -> ~chi_40  tau-)
     3.08026323E-02    2    -1000024        16   # BR(~tau_1 -> ~chi_1-  nu_tau)
     3.32754979E-03    2    -1000037        16   # BR(~tau_1 -> ~chi_2-  nu_tau)
#
#         PDG            Width
DECAY   2000015     3.11850135E+01   # stau_2 decays
#          BR         NDA      ID1       ID2
     2.22918574E-01    2     1000022        15   # BR(~tau_2 -> ~chi_10  tau-)
     1.58590408E-02    2     1000023        15   # BR(~tau_2 -> ~chi_20  tau-)
     1.51350585E-02    2     1000025        15   # BR(~tau_2 -> ~chi_30  tau-)
     2.48506473E-01    2     1000035        15   # BR(~tau_2 -> ~chi_40  tau-)
     7.51406617E-05    2    -1000024        16   # BR(~tau_2 -> ~chi_1-  nu_tau)
     4.97505713E-01    2    -1000037        16   # BR(~tau_2 -> ~chi_2-  nu_tau)
#
#         PDG            Width
DECAY   1000012     3.03087134E+01   # snu_eL decays
#          BR         NDA      ID1       ID2
     2.25398588E-01    2     1000022        12   # BR(~nu_eL -> ~chi_10 nu_e)
     1.78049535E-05    2     1000023        12   # BR(~nu_eL -> ~chi_20 nu_e)
     1.16657887E-03    2     1000025        12   # BR(~nu_eL -> ~chi_30 nu_e)
     2.57451046E-01    2     1000035        12   # BR(~nu_eL -> ~chi_40 nu_e)
     1.70902532E-03    2     1000024        11   # BR(~nu_eL -> ~chi_1+ e-)
     5.14256957E-01    2     1000037        11   # BR(~nu_eL -> ~chi_2+ e-)
#
#         PDG            Width
DECAY   1000014     3.03087134E+01   # snu_muL decays
#          BR         NDA      ID1       ID2
     2.25398588E-01    2     1000022        14   # BR(~nu_muL -> ~chi_10 nu_mu)
     1.78049535E-05    2     1000023        14   # BR(~nu_muL -> ~chi_20 nu_mu)
     1.16657887E-03    2     1000025        14   # BR(~nu_muL -> ~chi_30 nu_mu)
     2.57451046E-01    2     1000035        14   # BR(~nu_muL -> ~chi_40 nu_mu)
     1.70902532E-03    2     1000024        13   # BR(~nu_muL -> ~chi_1+ mu-)
     5.14256957E-01    2     1000037        13   # BR(~nu_muL -> ~chi_2+ mu-)
#
#         PDG            Width
DECAY   1000016     3.12027042E+01   # snu_tauL decays
#          BR         NDA      ID1       ID2
     2.18916685E-01    2     1000022        16   # BR(~nu_tauL -> ~chi_10 nu_tau)
     1.72927781E-05    2     1000023        16   # BR(~nu_tauL -> ~chi_20 nu_tau)
     1.13302112E-03    2     1000025        16   # BR(~nu_tauL -> ~chi_30 nu_tau)
     2.49981595E-01    2     1000035        16   # BR(~nu_tauL -> ~chi_40 nu_tau)
     3.06152206E-02    2     1000024        15   # BR(~nu_tauL -> ~chi_1+ tau-)
     4.99336186E-01    2     1000037        15   # BR(~nu_tauL -> ~chi_2+ tau-)
#
#         PDG            Width
DECAY   1000024     4.20527730E-01   # chargino1+ decays
#          BR         NDA      ID1       ID2
     1.00000000E+00    2     1000022        24   # BR(~chi_1+ -> ~chi_10  W+)
#
#         PDG            Width
DECAY   1000037     2.14661604E+01   # chargino2+ decays
#          BR         NDA      ID1       ID2
     2.53438825E-01    2     1000024        23   # BR(~chi_2+ -> ~chi_1+  Z )
     1.77973670E-04    2     1000022        24   # BR(~chi_2+ -> ~chi_10  W+)
     2.44580280E-01    2     1000023        24   # BR(~chi_2+ -> ~chi_20  W+)
     2.44288428E-01    2     1000025        24   # BR(~chi_2+ -> ~chi_30  W+)
     2.57511928E-01    2     1000024        25   # BR(~chi_2+ -> ~chi_1+  h )
     2.56599026E-06    2     1000022        37   # BR(~chi_2+ -> ~chi_10  H+)
#
#         PDG            Width
DECAY   1000022     0.00000000E+00   # neutralino1 decays
#
#         PDG            Width
DECAY   1000023     4.34249901E-01   # neutralino2 decays
#          BR         NDA      ID1       ID2
     5.22400718E-01    2     1000022        23   # BR(~chi_20 -> ~chi_10   Z )
     4.77599282E-01    2     1000022        25   # BR(~chi_20 -> ~chi_10   h )
#
#         PDG            Width
DECAY   1000025     4.32125365E-01   # neutralino3 decays
#          BR         NDA      ID1       ID2
     4.83911511E-01    2     1000022        23   # BR(~chi_30 -> ~chi_10   Z )
     5.16088489E-01    2     1000022        25   # BR(~chi_30 -> ~chi_10   h )
#
#         PDG            Width
DECAY   1000035     2.14812524E+01   # neutralino4 decays
#          BR         NDA      ID1       ID2
     2.28890795E-05    2     1000022        23   # BR(~chi_40 -> ~chi_10   Z )
     9.62842363E-02    2     1000023        23   # BR(~chi_40 -> ~chi_20   Z )
     1.56546135E-01    2     1000025        23   # BR(~chi_40 -> ~chi_30   Z )
     2.45031484E-01    2     1000024       -24   # BR(~chi_40 -> ~chi_1+   W-)
     2.45031484E-01    2    -1000024        24   # BR(~chi_40 -> ~chi_1-   W+)
     1.52116256E-04    2     1000022        25   # BR(~chi_40 -> ~chi_10   h )
     2.45151160E-06    2     1000022        35   # BR(~chi_40 -> ~chi_10   H )
     2.79427811E-07    2     1000022        36   # BR(~chi_40 -> ~chi_10   A )
     1.60376935E-01    2     1000023        25   # BR(~chi_40 -> ~chi_20   h )
     9.65519900E-02    2     1000025        25   # BR(~chi_40 -> ~chi_30   h )
#
#         PDG            Width
DECAY        25     4.05569089E-03   # h decays
#          BR         NDA      ID1       ID2
     6.11415213E-01    2           5        -5   # BR(h -> b       bb     )
     6.38918655E-02    2         -15        15   # BR(h -> tau+    tau-   )
     2.26200981E-04    2         -13        13   # BR(h -> mu+     mu-    )
     4.79625298E-04    2           3        -3   # BR(h -> s       sb     )
     2.07821001E-02    2           4        -4   # BR(h -> c       cb     )
     6.70826229E-02    2          21        21   # BR(h -> g       g      )
     2.30323860E-03    2          22        22   # BR(h -> gam     gam    )
     1.47481798E-03    2          22        23   # BR(h -> Z       gam    )
     2.07589204E-01    2          24       -24   # BR(h -> W+      W-     )
     2.46785143E-02    2          23        23   # BR(h -> Z       Z      )
     7.65976419E-05    2     1000022   1000022   # BR(h -> ~chi_10 ~chi_10)
#
#         PDG            Width
DECAY        35     8.48043474E+00   # H decays
#          BR         NDA      ID1       ID2
     3.78139765E-01    2           5        -5   # BR(H -> b       bb     )
     6.57054501E-02    2         -15        15   # BR(H -> tau+    tau-   )
     2.32339691E-04    2         -13        13   # BR(H -> mu+     mu-    )
     2.84812842E-04    2           3        -3   # BR(H -> s       sb     )
     1.59266036E-06    2           4        -4   # BR(H -> c       cb     )
     1.59119386E-01    2           6        -6   # BR(H -> t       tb     )
     5.28947279E-05    2          21        21   # BR(H -> g       g      )
     1.84747223E-07    2          22        22   # BR(H -> gam     gam    )
     9.38950427E-08    2          23        22   # BR(H -> Z       gam    )
     7.46293398E-05    2          24       -24   # BR(H -> W+      W-     )
     3.72674314E-05    2          23        23   # BR(H -> Z       Z      )
     2.73957667E-04    2          25        25   # BR(H -> h       h      )
    -1.00834699E-23    2          36        36   # BR(H -> A       A      )
     7.09719732E-19    2          23        36   # BR(H -> Z       A      )
     2.81446194E-03    2     1000024  -1000024   # BR(H -> ~chi_1+ ~chi_1-)
     3.48123137E-03    2     1000022   1000022   # BR(H -> ~chi_10 ~chi_10)
     1.48497720E-05    2     1000023   1000023   # BR(H -> ~chi_20 ~chi_20)
     1.35585500E-03    2     1000025   1000025   # BR(H -> ~chi_30 ~chi_30)
     2.33779465E-01    2     1000022   1000023   # BR(H -> ~chi_10 ~chi_20)
     1.53111279E-01    2     1000022   1000025   # BR(H -> ~chi_10 ~chi_30)
     1.52048463E-03    2     1000023   1000025   # BR(H -> ~chi_20 ~chi_30)
#
#         PDG            Width
DECAY        36     8.49046272E+00   # A decays
#          BR         NDA      ID1       ID2
     3.77821748E-01    2           5        -5   # BR(A -> b       bb     )
     6.56298006E-02    2         -15        15   # BR(A -> tau+    tau-   )
     2.32071863E-04    2         -13        13   # BR(A -> mu+     mu-    )
     2.84692430E-04    2           3        -3   # BR(A -> s       sb     )
     1.59721996E-06    2           4        -4   # BR(A -> c       cb     )
     1.59486879E-01    2           6        -6   # BR(A -> t       tb     )
     1.57838807E-04    2          21        21   # BR(A -> g       g      )
     5.99760825E-07    2          22        22   # BR(A -> gam     gam    )
     1.91066027E-07    2          23        22   # BR(A -> Z       gam    )
     7.42599986E-05    2          23        25   # BR(A -> Z       h      )
     3.41378232E-03    2     1000024  -1000024   # BR(A -> ~chi_1+ ~chi_1-)
     3.50917018E-03    2     1000022   1000022   # BR(A -> ~chi_10 ~chi_10)
     1.24009089E-05    2     1000023   1000023   # BR(A -> ~chi_20 ~chi_20)
     2.65490450E-03    2     1000025   1000025   # BR(A -> ~chi_30 ~chi_30)
     1.55736147E-01    2     1000022   1000023   # BR(A -> ~chi_10 ~chi_20)
     2.30154310E-01    2     1000022   1000025   # BR(A -> ~chi_10 ~chi_30)
     8.29606453E-04    2     1000023   1000025   # BR(A -> ~chi_20 ~chi_30)
#
#         PDG            Width
DECAY        37     8.43529806E+00   # H+ decays
#          BR         NDA      ID1       ID2
     6.06231142E-04    2           4        -5   # BR(H+ -> c       bb     )
     6.60893491E-02    2         -15        16   # BR(H+ -> tau+    nu_tau )
     2.33696861E-04    2         -13        14   # BR(H+ -> mu+     nu_mu  )
     3.87985905E-06    2           2        -5   # BR(H+ -> u       bb     )
     1.37125469E-05    2           2        -3   # BR(H+ -> u       sb     )
     2.83575764E-04    2           4        -3   # BR(H+ -> c       sb     )
     5.36100123E-01    2           6        -5   # BR(H+ -> t       bb     )
     7.48969152E-05    2          24        25   # BR(H+ -> W+      h      )
     7.74491436E-13    2          24        36   # BR(H+ -> W+      A      )
     3.94668396E-01    2     1000024   1000022   # BR(H+ -> ~chi_1+ ~chi_10)
     1.87163066E-03    2     1000024   1000023   # BR(H+ -> ~chi_1+ ~chi_20)
     5.45084806E-05    2     1000024   1000025   # BR(H+ -> ~chi_1+ ~chi_30)
