#
#                              ======================
#                              | THE SUSYHIT OUTPUT |
#                              ======================
#
#
#              ------------------------------------------------------
#              |     This is the output of the SUSY-HIT package     |
#              |  created by A.Djouadi, M.Muehlleitner and M.Spira. |
#              |  In case of problems with SUSY-HIT email to        |
#              |           margarete.muehlleitner@cern.ch           |
#              |           michael.spira@psi.ch                     |
#              |           abdelhak.djouadi@cern.ch                 |
#              ------------------------------------------------------
#
#              ------------------------------------------------------
#              |  SUSY Les Houches Accord - MSSM Spectrum + Decays  |
#              |              based on the decay programs           |
#              |                                                    |
#              |                     SDECAY 1.3b                    |
#              |                                                    |
#              |  Authors: M.Muhlleitner, A.Djouadi and Y.Mambrini  |
#              |  Ref.:    Comput.Phys.Commun.168(2005)46           |
#              |           [hep-ph/0311167]                         |
#              |                                                    |
#              |                     HDECAY 3.4                     |
#              |                                                    |
#              |  By: A.Djouadi,J.Kalinowski,M.Muhlleitner,M.Spira  |
#              |  Ref.:    Comput.Phys.Commun.108(1998)56           |
#              |           [hep-ph/9704448]                         |
#              |                                                    |
#              |                                                    |
#              |  If not stated otherwise all DRbar couplings and   |
#              |  soft SUSY breaking masses are given at the scale  |
#              |  Q=  0.50007693E+04
#              |                                                    |
#              ------------------------------------------------------
#
#
BLOCK DCINFO  # Decay Program information
     1   SDECAY/HDECAY # decay calculator
     2   1.3b  /3.4    # version number
#
BLOCK SPINFO  # Spectrum calculator information
     1    SOFTSUSY    # spectrum calculator                
     2    3.4.0       # version number                     
#
BLOCK MODSEL  # Model selection
     1     0   #  nonUniversal                                     
#
BLOCK SMINPUTS  # Standard Model inputs
         1     1.25778332E+02   # alpha_em^-1(M_Z)^MSbar
         2     1.16570000E-05   # G_F [GeV^-2]
         3     1.17200002E-01   # alpha_S(M_Z)^MSbar
         4     9.11876000E+01   # M_Z pole mass
         5     4.25000000E+00   # mb(mb)^MSbar
         6     1.72500000E+02   # mt pole mass
         7     1.77682000E+00   # mtau pole mass
#
BLOCK MINPAR  # Input parameters - minimal models
         3     1.00000000E+01   # tanb                
#
BLOCK EXTPAR  # Input parameters - non-minimal models
         0    -1.00000000E+00   # Set                 
         1     6.00000000E+01   # M_1(MX)             
         2     3.00000000E+03   # M_2(MX)             
         3     1.30153700E+03   # M_3(MX)             
        11     5.00000000E+03   # At(MX)              
        12     5.00000000E+03   # Ab(MX)              
        13     0.00000000E+00   # Atau(MX)            
        23    -1.58742000E+02   # mu(MX)              
        26     3.00000000E+03   # mA(pole)            
        31     5.00000000E+03   # meL(MX)             
        32     5.00000000E+03   # mmuL(MX)            
        33     5.00000000E+03   # mtauL(MX)           
        34     5.00000000E+03   # meR(MX)             
        35     5.00000000E+03   # mmuR(MX)            
        36     5.00000000E+03   # mtauR(MX)           
        41     5.00000000E+03   # mqL1(MX)            
        42     5.00000000E+03   # mqL2(MX)            
        43     5.00000000E+03   # mqL3(MX)            
        44     5.00000000E+03   # muR(MX)             
        45     5.00000000E+03   # mcR(MX)             
        46     5.00000000E+03   # mtR(MX)             
        47     5.00000000E+03   # mdR(MX)             
        48     5.00000000E+03   # msR(MX)             
        49     5.00000000E+03   # mbR(MX)             
#
BLOCK MASS  # Mass Spectrum
# PDG code           mass       particle
        24     8.00898250E+01   # W+
        25     1.24642079E+02   # h
        35     3.00009147E+03   # H
        36     2.99999979E+03   # A
        37     3.00148497E+03   # H+
         5     4.87878001E+00   # b-quark pole mass calculated from mb(mb)_Msbar
   1000001     5.06764790E+03   # ~d_L
   2000001     5.04972074E+03   # ~d_R
   1000002     5.06717036E+03   # ~u_L
   2000002     5.04940863E+03   # ~u_R
   1000003     5.06764790E+03   # ~s_L
   2000003     5.04972074E+03   # ~s_R
   1000004     5.06717036E+03   # ~c_L
   2000004     5.04940863E+03   # ~c_R
   1000005     5.01388354E+03   # ~b_1
   2000005     5.04780303E+03   # ~b_2
   1000006     4.90466920E+03   # ~t_1
   2000006     5.05771628E+03   # ~t_2
   1000011     5.01917591E+03   # ~e_L
   2000011     5.00596276E+03   # ~e_R
   1000012     5.01822249E+03   # ~nu_eL
   1000013     5.01917591E+03   # ~mu_L
   2000013     5.00596276E+03   # ~mu_R
   1000014     5.01822249E+03   # ~nu_muL
   1000015     5.00483759E+03   # ~tau_1
   2000015     5.01863706E+03   # ~tau_2
   1000016     5.01766713E+03   # ~nu_tauL
   1000021     1.60000062E+03   # ~g
   1000022     5.78421212E+01   # ~chi_10
   1000023    -1.75656003E+02   # ~chi_20
   1000025     1.75674770E+02   # ~chi_30
   1000035     3.07435434E+03   # ~chi_40
   1000024     1.70000855E+02   # ~chi_1+
   1000037     3.07452260E+03   # ~chi_2+
#
BLOCK NMIX  # Neutralino Mixing Matrix
  1  1     9.59059214E-01   # N_11
  1  2    -9.56512727E-04   # N_12
  1  3    -2.74952644E-01   # N_13
  1  4    -6.78642274E-02   # N_14
  2  1    -1.47316835E-01   # N_21
  2  2     1.87622786E-02   # N_22
  2  3    -6.89008492E-01   # N_23
  2  4     7.09375095E-01   # N_24
  3  1     2.41873942E-01   # N_31
  3  2     1.69312877E-02   # N_32
  3  3     6.70571862E-01   # N_33
  3  4     7.01101780E-01   # N_34
  4  1    -4.14017878E-04   # N_41
  4  2     9.99680146E-01   # N_42
  4  3     1.31114784E-03   # N_43
  4  4    -2.52530394E-02   # N_44
#
BLOCK UMIX  # Chargino Mixing Matrix U
  1  1    -1.84841374E-03   # U_11
  1  2     9.99998292E-01   # U_12
  2  1    -9.99998292E-01   # U_21
  2  2    -1.84841374E-03   # U_22
#
BLOCK VMIX  # Chargino Mixing Matrix V
  1  1     3.57319881E-02   # V_11
  1  2    -9.99361409E-01   # V_12
  2  1    -9.99361409E-01   # V_21
  2  2    -3.57319881E-02   # V_22
#
BLOCK STOPMIX  # Stop Mixing Matrix
  1  1    -5.03711276E-01   # cos(theta_t)
  1  2     8.63872068E-01   # sin(theta_t)
  2  1    -8.63872068E-01   # -sin(theta_t)
  2  2    -5.03711276E-01   # cos(theta_t)
#
BLOCK SBOTMIX  # Sbottom Mixing Matrix
  1  1     9.99439972E-01   # cos(theta_b)
  1  2    -3.34625517E-02   # sin(theta_b)
  2  1     3.34625517E-02   # -sin(theta_b)
  2  2     9.99439972E-01   # cos(theta_b)
#
BLOCK STAUMIX  # Stau Mixing Matrix
  1  1    -1.87273866E-02   # cos(theta_tau)
  1  2     9.99824627E-01   # sin(theta_tau)
  2  1    -9.99824627E-01   # -sin(theta_tau)
  2  2    -1.87273866E-02   # cos(theta_tau)
#
BLOCK ALPHA  # Higgs mixing
          -1.05481323E-01   # Mixing angle in the neutral Higgs boson sector
#
BLOCK HMIX Q=  5.00076932E+03  # DRbar Higgs Parameters
         1    -1.61607793E+02   # mu(Q)MSSM           
         2     9.46996519E+00   # tan                 
         3     2.41669403E+02   # higgs               
         4     8.80107886E+06   # mA^2(Q)MSSM         
#
BLOCK GAUGE Q=  5.00076932E+03  # The gauge couplings
     1     3.71201830E-01   # gprime(Q) DRbar
     2     6.34567101E-01   # g(Q) DRbar
     3     1.00177255E+00   # g3(Q) DRbar
#
BLOCK AU Q=  5.00076932E+03  # The trilinear couplings
  1  1     5.00000001E+03   # A_u(Q) DRbar
  2  2     5.00000001E+03   # A_c(Q) DRbar
  3  3     5.00000001E+03   # A_t(Q) DRbar
#
BLOCK AD Q=  5.00076932E+03  # The trilinear couplings
  1  1     5.00000000E+03   # A_d(Q) DRbar
  2  2     5.00000000E+03   # A_s(Q) DRbar
  3  3     5.00000001E+03   # A_b(Q) DRbar
#
BLOCK AE Q=  5.00076932E+03  # The trilinear couplings
  1  1     0.00000000E+00   # A_e(Q) DRbar
  2  2     1.10564291E-07   # A_mu(Q) DRbar
  3  3     1.09945633E-07   # A_tau(Q) DRbar
#
BLOCK Yu Q=  5.00076932E+03  # The Yukawa couplings
  1  1     0.00000000E+00   # y_u(Q) DRbar
  2  2     0.00000000E+00   # y_c(Q) DRbar
  3  3     8.18944216E-01   # y_t(Q) DRbar
#
BLOCK Yd Q=  5.00076932E+03  # The Yukawa couplings
  1  1     0.00000000E+00   # y_d(Q) DRbar
  2  2     0.00000000E+00   # y_s(Q) DRbar
  3  3     1.29482200E-01   # y_b(Q) DRbar
#
BLOCK Ye Q=  5.00076932E+03  # The Yukawa couplings
  1  1     0.00000000E+00   # y_e(Q) DRbar
  2  2     0.00000000E+00   # y_mu(Q) DRbar
  3  3     9.73815690E-02   # y_tau(Q) DRbar
#
BLOCK MSOFT Q=  5.00076932E+03  # The soft SUSY breaking masses at the scale Q
         1     6.00000000E+01   # M_1(Q)              
         2     3.00000000E+03   # M_2(Q)              
         3     1.30153700E+03   # M_3(Q)              
        21     8.70869549E+06   # mH1^2(Q)            
        22     5.52085830E+05   # mH2^2(Q)            
        31     5.00000000E+03   # meL(Q)              
        32     5.00000000E+03   # mmuL(Q)             
        33     5.00000000E+03   # mtauL(Q)            
        34     5.00000000E+03   # meR(Q)              
        35     5.00000000E+03   # mmuR(Q)             
        36     5.00000000E+03   # mtauR(Q)            
        41     5.00000000E+03   # mqL1(Q)             
        42     5.00000000E+03   # mqL2(Q)             
        43     5.00000000E+03   # mqL3(Q)             
        44     5.00000000E+03   # muR(Q)              
        45     5.00000000E+03   # mcR(Q)              
        46     4.99999999E+03   # mtR(Q)              
        47     5.00000000E+03   # mdR(Q)              
        48     5.00000000E+03   # msR(Q)              
        49     5.00000000E+03   # mbR(Q)              
#
#
#
#                             =================
#                             |The decay table|
#                             =================
#
# - The QCD corrections to the decays gluino -> squark  + quark
#                                     squark -> gaugino + quark_prime
#                                     squark -> squark_prime + Higgs
#                                     squark -> gluino  + quark
#   are included.
#
# - The multi-body decays for the inos, stops and sbottoms are included.
#
# - The loop induced decays for the gluino, neutralinos and stops
#   are included.
#
# - The SUSY decays of the top quark are included.
#
#
#         PDG            Width
DECAY         6     1.41133891E+00   # top decays
#          BR         NDA      ID1       ID2
     1.00000000E+00    2           5        24   # BR(t ->  b    W+)
#
#         PDG            Width
DECAY   1000021     7.56687832E-04   # gluino decays
#          BR         NDA      ID1       ID2
     8.48080480E-05    2     1000022        21   # BR(~g -> ~chi_10 g)
     9.80789108E-03    2     1000023        21   # BR(~g -> ~chi_20 g)
     9.97593267E-03    2     1000025        21   # BR(~g -> ~chi_30 g)
#           BR         NDA      ID1       ID2       ID3
     9.07592796E-03    3     1000022         1        -1   # BR(~g -> ~chi_10 d  db)
     2.02322798E-04    3     1000023         1        -1   # BR(~g -> ~chi_20 d  db)
     5.20811475E-04    3     1000025         1        -1   # BR(~g -> ~chi_30 d  db)
     3.08495987E-02    3     1000022         2        -2   # BR(~g -> ~chi_10 u  ub)
     4.87398101E-04    3     1000023         2        -2   # BR(~g -> ~chi_20 u  ub)
     2.10750582E-03    3     1000025         2        -2   # BR(~g -> ~chi_30 u  ub)
     9.07592796E-03    3     1000022         3        -3   # BR(~g -> ~chi_10 s  sb)
     2.02322798E-04    3     1000023         3        -3   # BR(~g -> ~chi_20 s  sb)
     5.20811475E-04    3     1000025         3        -3   # BR(~g -> ~chi_30 s  sb)
     3.08495987E-02    3     1000022         4        -4   # BR(~g -> ~chi_10 c  cb)
     4.87398101E-04    3     1000023         4        -4   # BR(~g -> ~chi_20 c  cb)
     2.10750582E-03    3     1000025         4        -4   # BR(~g -> ~chi_30 c  cb)
     1.01917125E-02    3     1000022         5        -5   # BR(~g -> ~chi_10 b  bb)
     5.57839076E-03    3     1000023         5        -5   # BR(~g -> ~chi_20 b  bb)
     5.59667375E-03    3     1000025         5        -5   # BR(~g -> ~chi_30 b  bb)
     2.56963127E-02    3     1000022         6        -6   # BR(~g -> ~chi_10 t  tb)
     1.90626172E-01    3     1000023         6        -6   # BR(~g -> ~chi_20 t  tb)
     2.11049376E-01    3     1000025         6        -6   # BR(~g -> ~chi_30 t  tb)
     5.59184678E-05    3     1000024         1        -2   # BR(~g -> ~chi_1+ d  ub)
     5.59184678E-05    3    -1000024         2        -1   # BR(~g -> ~chi_1- u  db)
     5.59184678E-05    3     1000024         3        -4   # BR(~g -> ~chi_1+ s  cb)
     5.59184678E-05    3    -1000024         4        -3   # BR(~g -> ~chi_1- c  sb)
     2.22340964E-01    3     1000024         5        -6   # BR(~g -> ~chi_1+ b  tb)
     2.22340964E-01    3    -1000024         6        -5   # BR(~g -> ~chi_1- t  bb)
#
#         PDG            Width
DECAY   1000006     3.84547125E+02   # stop1 decays
#          BR         NDA      ID1       ID2
     1.89860081E-02    2     1000022         6   # BR(~t_1 -> ~chi_10 t )
     8.04524292E-02    2     1000023         6   # BR(~t_1 -> ~chi_20 t )
     9.25082507E-02    2     1000025         6   # BR(~t_1 -> ~chi_30 t )
     5.31780760E-03    2     1000035         6   # BR(~t_1 -> ~chi_40 t )
     1.25773200E-01    2     1000024         5   # BR(~t_1 -> ~chi_1+ b )
     1.06020032E-02    2     1000037         5   # BR(~t_1 -> ~chi_2+ b )
     6.66360301E-01    2     1000021         6   # BR(~t_1 -> ~g      t )
#
#         PDG            Width
DECAY   2000006     3.86106439E+02   # stop2 decays
#          BR         NDA      ID1       ID2
     1.22961248E-02    2     1000022         6   # BR(~t_2 -> ~chi_10 t )
     9.48804208E-02    2     1000023         6   # BR(~t_2 -> ~chi_20 t )
     7.97569640E-02    2     1000025         6   # BR(~t_2 -> ~chi_30 t )
     1.45148694E-02    2     1000035         6   # BR(~t_2 -> ~chi_40 t )
     5.11118511E-02    2     1000024         5   # BR(~t_2 -> ~chi_1+ b )
     2.89053587E-02    2     1000037         5   # BR(~t_2 -> ~chi_2+ b )
     7.15384538E-01    2     1000021         6   # BR(~t_2 -> ~g      t )
     7.29010917E-04    2     1000006        25   # BR(~t_2 -> ~t_1    h )
     2.42086200E-03    2     1000006        23   # BR(~t_2 -> ~t_1    Z )
#
#         PDG            Width
DECAY   1000005     3.62099469E+02   # sbottom1 decays
#          BR         NDA      ID1       ID2
     2.41296561E-03    2     1000022         5   # BR(~b_1 -> ~chi_10 b )
     2.25530290E-03    2     1000023         5   # BR(~b_1 -> ~chi_20 b )
     2.05595555E-03    2     1000025         5   # BR(~b_1 -> ~chi_30 b )
     2.09998141E-02    2     1000035         5   # BR(~b_1 -> ~chi_40 b )
     1.85373733E-01    2    -1000024         6   # BR(~b_1 -> ~chi_1- t )
     4.21569993E-02    2    -1000037         6   # BR(~b_1 -> ~chi_2- t )
     7.43206420E-01    2     1000021         5   # BR(~b_1 -> ~g      b )
     1.53880864E-03    2     1000006       -24   # BR(~b_1 -> ~t_1    W-)
#
#         PDG            Width
DECAY   2000005     2.77946551E+02   # sbottom2 decays
#          BR         NDA      ID1       ID2
     1.01212893E-02    2     1000022         5   # BR(~b_2 -> ~chi_10 b )
     3.22160111E-03    2     1000023         5   # BR(~b_2 -> ~chi_20 b )
     3.47707545E-03    2     1000025         5   # BR(~b_2 -> ~chi_30 b )
     2.72418723E-05    2     1000035         5   # BR(~b_2 -> ~chi_40 b )
     6.33370538E-03    2    -1000024         6   # BR(~b_2 -> ~chi_1- t )
     5.47077483E-05    2    -1000037         6   # BR(~b_2 -> ~chi_2- t )
     9.76755312E-01    2     1000021         5   # BR(~b_2 -> ~g      b )
     9.06736095E-06    2     1000006       -24   # BR(~b_2 -> ~t_1    W-)
#
#         PDG            Width
DECAY   1000002     2.97349480E+02   # sup_L decays
#          BR         NDA      ID1       ID2
     2.29169866E-03    2     1000022         2   # BR(~u_L -> ~chi_10 u)
     6.55889633E-06    2     1000023         2   # BR(~u_L -> ~chi_20 u)
     2.71450531E-04    2     1000025         2   # BR(~u_L -> ~chi_30 u)
     2.65129688E-02    2     1000035         2   # BR(~u_L -> ~chi_40 u)
     1.68756477E-04    2     1000024         1   # BR(~u_L -> ~chi_1+ d)
     5.29939719E-02    2     1000037         1   # BR(~u_L -> ~chi_2+ d)
     9.17754595E-01    2     1000021         2   # BR(~u_L -> ~g      u)
#
#         PDG            Width
DECAY   2000002     2.83444698E+02   # sup_R decays
#          BR         NDA      ID1       ID2
     3.87252283E-02    2     1000022         2   # BR(~u_R -> ~chi_10 u)
     9.11921937E-04    2     1000023         2   # BR(~u_R -> ~chi_20 u)
     2.45827722E-03    2     1000025         2   # BR(~u_R -> ~chi_30 u)
     2.86887203E-09    2     1000035         2   # BR(~u_R -> ~chi_40 u)
     9.57904570E-01    2     1000021         2   # BR(~u_R -> ~g      u)
#
#         PDG            Width
DECAY   1000001     2.97360332E+02   # sdown_L decays
#          BR         NDA      ID1       ID2
     2.33920563E-03    2     1000022         1   # BR(~d_L -> ~chi_10 d)
     1.49017850E-04    2     1000023         1   # BR(~d_L -> ~chi_20 d)
     6.03950526E-05    2     1000025         1   # BR(~d_L -> ~chi_30 d)
     2.65288517E-02    2     1000035         1   # BR(~d_L -> ~chi_40 d)
     4.51616699E-07    2    -1000024         2   # BR(~d_L -> ~chi_1- u)
     5.30761801E-02    2    -1000037         2   # BR(~d_L -> ~chi_2- u)
     9.17845898E-01    2     1000021         1   # BR(~d_L -> ~g      d)
#
#         PDG            Width
DECAY   2000001     2.74520363E+02   # sdown_R decays
#          BR         NDA      ID1       ID2
     9.99665751E-03    2     1000022         1   # BR(~d_R -> ~chi_10 d)
     2.35406577E-04    2     1000023         1   # BR(~d_R -> ~chi_20 d)
     6.34587900E-04    2     1000025         1   # BR(~d_R -> ~chi_30 d)
     7.40686836E-10    2     1000035         1   # BR(~d_R -> ~chi_40 d)
     9.89133347E-01    2     1000021         1   # BR(~d_R -> ~g      d)
#
#         PDG            Width
DECAY   1000004     2.97349480E+02   # scharm_L decays
#          BR         NDA      ID1       ID2
     2.29169866E-03    2     1000022         4   # BR(~c_L -> ~chi_10 c)
     6.55889633E-06    2     1000023         4   # BR(~c_L -> ~chi_20 c)
     2.71450531E-04    2     1000025         4   # BR(~c_L -> ~chi_30 c)
     2.65129688E-02    2     1000035         4   # BR(~c_L -> ~chi_40 c)
     1.68756477E-04    2     1000024         3   # BR(~c_L -> ~chi_1+ s)
     5.29939719E-02    2     1000037         3   # BR(~c_L -> ~chi_2+ s)
     9.17754595E-01    2     1000021         4   # BR(~c_L -> ~g      c)
#
#         PDG            Width
DECAY   2000004     2.83444698E+02   # scharm_R decays
#          BR         NDA      ID1       ID2
     3.87252283E-02    2     1000022         4   # BR(~c_R -> ~chi_10 c)
     9.11921937E-04    2     1000023         4   # BR(~c_R -> ~chi_20 c)
     2.45827722E-03    2     1000025         4   # BR(~c_R -> ~chi_30 c)
     2.86887203E-09    2     1000035         4   # BR(~c_R -> ~chi_40 c)
     9.57904570E-01    2     1000021         4   # BR(~c_R -> ~g      c)
#
#         PDG            Width
DECAY   1000003     2.97360332E+02   # sstrange_L decays
#          BR         NDA      ID1       ID2
     2.33920563E-03    2     1000022         3   # BR(~s_L -> ~chi_10 s)
     1.49017850E-04    2     1000023         3   # BR(~s_L -> ~chi_20 s)
     6.03950526E-05    2     1000025         3   # BR(~s_L -> ~chi_30 s)
     2.65288517E-02    2     1000035         3   # BR(~s_L -> ~chi_40 s)
     4.51616699E-07    2    -1000024         4   # BR(~s_L -> ~chi_1- c)
     5.30761801E-02    2    -1000037         4   # BR(~s_L -> ~chi_2- c)
     9.17845898E-01    2     1000021         3   # BR(~s_L -> ~g      s)
#
#         PDG            Width
DECAY   2000003     2.74520363E+02   # sstrange_R decays
#          BR         NDA      ID1       ID2
     9.99665751E-03    2     1000022         3   # BR(~s_R -> ~chi_10 s)
     2.35406577E-04    2     1000023         3   # BR(~s_R -> ~chi_20 s)
     6.34587900E-04    2     1000025         3   # BR(~s_R -> ~chi_30 s)
     7.40686836E-10    2     1000035         3   # BR(~s_R -> ~chi_40 s)
     9.89133347E-01    2     1000021         3   # BR(~s_R -> ~g      s)
#
#         PDG            Width
DECAY   1000011     3.04339652E+01   # selectron_L decays
#          BR         NDA      ID1       ID2
     2.07151249E-01    2     1000022        11   # BR(~e_L -> ~chi_10 e-)
     2.99473002E-03    2     1000023        11   # BR(~e_L -> ~chi_20 e-)
     1.65380444E-02    2     1000025        11   # BR(~e_L -> ~chi_30 e-)
     2.57600473E-01    2     1000035        11   # BR(~e_L -> ~chi_40 e-)
     4.50360704E-06    2    -1000024        12   # BR(~e_L -> ~chi_1- nu_e)
     5.15711000E-01    2    -1000037        12   # BR(~e_L -> ~chi_2- nu_e)
#
#         PDG            Width
DECAY   2000011     2.74331381E+01   # selectron_R decays
#          BR         NDA      ID1       ID2
     9.19956629E-01    2     1000022        11   # BR(~e_R -> ~chi_10 e-)
     2.16584374E-02    2     1000023        11   # BR(~e_R -> ~chi_20 e-)
     5.83848674E-02    2     1000025        11   # BR(~e_R -> ~chi_30 e-)
     6.65235171E-08    2     1000035        11   # BR(~e_R -> ~chi_40 e-)
#
#         PDG            Width
DECAY   1000013     3.04339652E+01   # smuon_L decays
#          BR         NDA      ID1       ID2
     2.07151249E-01    2     1000022        13   # BR(~mu_L -> ~chi_10 mu-)
     2.99473002E-03    2     1000023        13   # BR(~mu_L -> ~chi_20 mu-)
     1.65380444E-02    2     1000025        13   # BR(~mu_L -> ~chi_30 mu-)
     2.57600473E-01    2     1000035        13   # BR(~mu_L -> ~chi_40 mu-)
     4.50360704E-06    2    -1000024        14   # BR(~mu_L -> ~chi_1- nu_mu)
     5.15711000E-01    2    -1000037        14   # BR(~mu_L -> ~chi_2- nu_mu)
#
#         PDG            Width
DECAY   2000013     2.74331381E+01   # smuon_R decays
#          BR         NDA      ID1       ID2
     9.19956629E-01    2     1000022        13   # BR(~mu_R -> ~chi_10 mu-)
     2.16584374E-02    2     1000023        13   # BR(~mu_R -> ~chi_20 mu-)
     5.83848674E-02    2     1000025        13   # BR(~mu_R -> ~chi_30 mu-)
     6.65235171E-08    2     1000035        13   # BR(~mu_R -> ~chi_40 mu-)
#
#         PDG            Width
DECAY   1000015     2.93113572E+01   # stau_1 decays
#          BR         NDA      ID1       ID2
     8.63880854E-01    2     1000022        15   # BR(~tau_1 -> ~chi_10  tau-)
     3.51151045E-02    2     1000023        15   # BR(~tau_1 -> ~chi_20  tau-)
     6.86032711E-02    2     1000025        15   # BR(~tau_1 -> ~chi_30  tau-)
     9.58055291E-05    2     1000035        15   # BR(~tau_1 -> ~chi_40  tau-)
     3.21133193E-02    2    -1000024        16   # BR(~tau_1 -> ~chi_1-  nu_tau)
     1.91645219E-04    2    -1000037        16   # BR(~tau_1 -> ~chi_2-  nu_tau)
#
#         PDG            Width
DECAY   2000015     3.13689323E+01   # stau_2 decays
#          BR         NDA      ID1       ID2
     2.02644229E-01    2     1000022        15   # BR(~tau_2 -> ~chi_10  tau-)
     1.75801396E-02    2     1000023        15   # BR(~tau_2 -> ~chi_20  tau-)
     3.00296746E-02    2     1000025        15   # BR(~tau_2 -> ~chi_30  tau-)
     2.49740954E-01    2     1000035        15   # BR(~tau_2 -> ~chi_40  tau-)
     2.85120857E-05    2    -1000024        16   # BR(~tau_2 -> ~chi_1-  nu_tau)
     4.99976490E-01    2    -1000037        16   # BR(~tau_2 -> ~chi_2-  nu_tau)
#
#         PDG            Width
DECAY   1000012     3.04368160E+01   # snu_eL decays
#          BR         NDA      ID1       ID2
     2.08509641E-01    2     1000022        12   # BR(~nu_eL -> ~chi_10 nu_e)
     7.25448574E-03    2     1000023        12   # BR(~nu_eL -> ~chi_20 nu_e)
     1.02206781E-02    2     1000025        12   # BR(~nu_eL -> ~chi_30 nu_e)
     2.57659467E-01    2     1000035        12   # BR(~nu_eL -> ~chi_40 nu_e)
     1.68249163E-03    2     1000024        11   # BR(~nu_eL -> ~chi_1+ e-)
     5.14673236E-01    2     1000037        11   # BR(~nu_eL -> ~chi_2+ e-)
#
#         PDG            Width
DECAY   1000014     3.04368160E+01   # snu_muL decays
#          BR         NDA      ID1       ID2
     2.08509641E-01    2     1000022        14   # BR(~nu_muL -> ~chi_10 nu_mu)
     7.25448574E-03    2     1000023        14   # BR(~nu_muL -> ~chi_20 nu_mu)
     1.02206781E-02    2     1000025        14   # BR(~nu_muL -> ~chi_30 nu_mu)
     2.57659467E-01    2     1000035        14   # BR(~nu_muL -> ~chi_40 nu_mu)
     1.68249163E-03    2     1000024        13   # BR(~nu_muL -> ~chi_1+ mu-)
     5.14673236E-01    2     1000037        13   # BR(~nu_muL -> ~chi_2+ mu-)
#
#         PDG            Width
DECAY   1000016     3.13716678E+01   # snu_tauL decays
#          BR         NDA      ID1       ID2
     2.02273813E-01    2     1000022        16   # BR(~nu_tauL -> ~chi_10 nu_tau)
     7.03752485E-03    2     1000023        16   # BR(~nu_tauL -> ~chi_20 nu_tau)
     9.91500692E-03    2     1000025        16   # BR(~nu_tauL -> ~chi_30 nu_tau)
     2.49887259E-01    2     1000035        16   # BR(~nu_tauL -> ~chi_40 nu_tau)
     3.17382084E-02    2     1000024        15   # BR(~nu_tauL -> ~chi_1+ tau-)
     4.99148189E-01    2     1000037        15   # BR(~nu_tauL -> ~chi_2+ tau-)
#
#         PDG            Width
DECAY   1000024     5.13458305E-02   # chargino1+ decays
#          BR         NDA      ID1       ID2
     1.00000000E+00    2     1000022        24   # BR(~chi_1+ -> ~chi_10  W+)
#
#         PDG            Width
DECAY   1000037     2.34381375E+01   # chargino2+ decays
#          BR         NDA      ID1       ID2
     2.53916750E-01    2     1000024        23   # BR(~chi_2+ -> ~chi_1+  Z )
     1.78475779E-03    2     1000022        24   # BR(~chi_2+ -> ~chi_10  W+)
     2.45151669E-01    2     1000023        24   # BR(~chi_2+ -> ~chi_20  W+)
     2.43633331E-01    2     1000025        24   # BR(~chi_2+ -> ~chi_30  W+)
     2.55458173E-01    2     1000024        25   # BR(~chi_2+ -> ~chi_1+  h )
     5.53198131E-05    2     1000022        37   # BR(~chi_2+ -> ~chi_10  H+)
#
#         PDG            Width
DECAY   1000022     0.00000000E+00   # neutralino1 decays
#
#         PDG            Width
DECAY   1000023     2.13769070E-02   # neutralino2 decays
#          BR         NDA      ID1       ID2
     1.00000000E+00    2     1000022        23   # BR(~chi_20 -> ~chi_10   Z )
#
#         PDG            Width
DECAY   1000025     2.52448293E-02   # neutralino3 decays
#          BR         NDA      ID1       ID2
     1.00000000E+00    2     1000022        23   # BR(~chi_30 -> ~chi_10   Z )
#
#         PDG            Width
DECAY   1000035     2.34489733E+01   # neutralino4 decays
#          BR         NDA      ID1       ID2
     1.72195306E-03    2     1000022        23   # BR(~chi_40 -> ~chi_10   Z )
     1.14748089E-01    2     1000023        23   # BR(~chi_40 -> ~chi_20   Z )
     1.37044286E-01    2     1000025        23   # BR(~chi_40 -> ~chi_30   Z )
     2.45651048E-01    2     1000024       -24   # BR(~chi_40 -> ~chi_1+   W-)
     2.45651048E-01    2    -1000024        24   # BR(~chi_40 -> ~chi_1-   W+)
     1.60957877E-04    2     1000022        25   # BR(~chi_40 -> ~chi_10   h )
     5.27324079E-05    2     1000022        35   # BR(~chi_40 -> ~chi_10   H )
     5.97456711E-06    2     1000022        36   # BR(~chi_40 -> ~chi_10   A )
     1.39350538E-01    2     1000023        25   # BR(~chi_40 -> ~chi_20   h )
     1.15613373E-01    2     1000025        25   # BR(~chi_40 -> ~chi_30   h )
#
#         PDG            Width
DECAY        25     4.08917297E-03   # h decays
#          BR         NDA      ID1       ID2
     6.09395669E-01    2           5        -5   # BR(h -> b       bb     )
     6.33724886E-02    2         -15        15   # BR(h -> tau+    tau-   )
     2.24362225E-04    2         -13        13   # BR(h -> mu+     mu-    )
     4.75731224E-04    2           3        -3   # BR(h -> s       sb     )
     2.06109300E-02    2           4        -4   # BR(h -> c       cb     )
     6.65220570E-02    2          21        21   # BR(h -> g       g      )
     2.28030534E-03    2          22        22   # BR(h -> gam     gam    )
     1.46158832E-03    2          22        23   # BR(h -> Z       gam    )
     2.05827361E-01    2          24       -24   # BR(h -> W+      W-     )
     2.44537648E-02    2          23        23   # BR(h -> Z       Z      )
     5.37574203E-03    2     1000022   1000022   # BR(h -> ~chi_10 ~chi_10)
#
#         PDG            Width
DECAY        35     8.82688558E+00   # H decays
#          BR         NDA      ID1       ID2
     3.58899306E-01    2           5        -5   # BR(H -> b       bb     )
     6.31170177E-02    2         -15        15   # BR(H -> tau+    tau-   )
     2.23186788E-04    2         -13        13   # BR(H -> mu+     mu-    )
     2.73592673E-04    2           3        -3   # BR(H -> s       sb     )
     1.53056731E-06    2           4        -4   # BR(H -> c       cb     )
     1.52915808E-01    2           6        -6   # BR(H -> t       tb     )
     5.08834378E-05    2          21        21   # BR(H -> g       g      )
     1.51828430E-07    2          22        22   # BR(H -> gam     gam    )
     9.01575925E-08    2          23        22   # BR(H -> Z       gam    )
     7.51131579E-05    2          24       -24   # BR(H -> W+      W-     )
     3.75090206E-05    2          23        23   # BR(H -> Z       Z      )
     2.66674080E-04    2          25        25   # BR(H -> h       h      )
    -4.01314010E-23    2          36        36   # BR(H -> A       A      )
     9.27718390E-19    2          23        36   # BR(H -> Z       A      )
     3.50313650E-03    2     1000024  -1000024   # BR(H -> ~chi_1+ ~chi_1-)
     6.14536381E-02    2     1000022   1000022   # BR(H -> ~chi_10 ~chi_10)
     1.02241509E-02    2     1000023   1000023   # BR(H -> ~chi_20 ~chi_20)
     2.02311008E-02    2     1000025   1000025   # BR(H -> ~chi_30 ~chi_30)
     1.20900739E-01    2     1000022   1000023   # BR(H -> ~chi_10 ~chi_20)
     1.78647165E-01    2     1000022   1000025   # BR(H -> ~chi_10 ~chi_30)
     2.91792063E-02    2     1000023   1000025   # BR(H -> ~chi_20 ~chi_30)
#
#         PDG            Width
DECAY        36     8.83185294E+00   # A decays
#          BR         NDA      ID1       ID2
     3.58820462E-01    2           5        -5   # BR(A -> b       bb     )
     6.30833370E-02    2         -15        15   # BR(A -> tau+    tau-   )
     2.23067378E-04    2         -13        13   # BR(A -> mu+     mu-    )
     2.73646251E-04    2           3        -3   # BR(A -> s       sb     )
     1.53571461E-06    2           4        -4   # BR(A -> c       cb     )
     1.53345398E-01    2           6        -6   # BR(A -> t       tb     )
     1.51751122E-04    2          21        21   # BR(A -> g       g      )
     5.21152556E-07    2          22        22   # BR(A -> gam     gam    )
     1.83551203E-07    2          23        22   # BR(A -> Z       gam    )
     7.47872198E-05    2          23        25   # BR(A -> Z       h      )
     3.62522141E-03    2     1000024  -1000024   # BR(A -> ~chi_1+ ~chi_1-)
     5.54135619E-02    2     1000022   1000022   # BR(A -> ~chi_10 ~chi_10)
     1.60428661E-02    2     1000023   1000023   # BR(A -> ~chi_20 ~chi_20)
     1.31516551E-02    2     1000025   1000025   # BR(A -> ~chi_30 ~chi_30)
     1.94771234E-01    2     1000022   1000023   # BR(A -> ~chi_10 ~chi_20)
     1.11234363E-01    2     1000022   1000025   # BR(A -> ~chi_10 ~chi_30)
     2.97864086E-02    2     1000023   1000025   # BR(A -> ~chi_20 ~chi_30)
#
#         PDG            Width
DECAY        37     8.76180624E+00   # H+ decays
#          BR         NDA      ID1       ID2
     5.73848767E-04    2           4        -5   # BR(H+ -> c       bb     )
     6.36191396E-02    2         -15        16   # BR(H+ -> tau+    nu_tau )
     2.24962016E-04    2         -13        14   # BR(H+ -> mu+     nu_mu  )
     3.67261267E-06    2           2        -5   # BR(H+ -> u       bb     )
     1.31999539E-05    2           2        -3   # BR(H+ -> u       sb     )
     2.72975783E-04    2           4        -3   # BR(H+ -> c       sb     )
     5.10039886E-01    2           6        -5   # BR(H+ -> t       bb     )
     7.55458138E-05    2          24        25   # BR(H+ -> W+      h      )
     1.08370216E-12    2          24        36   # BR(H+ -> W+      A      )
     3.87429723E-01    2     1000024   1000022   # BR(H+ -> ~chi_1+ ~chi_10)
     5.78441818E-03    2     1000024   1000023   # BR(H+ -> ~chi_1+ ~chi_20)
     3.19626275E-02    2     1000024   1000025   # BR(H+ -> ~chi_1+ ~chi_30)
