#
#                              ======================
#                              | THE SUSYHIT OUTPUT |
#                              ======================
#
#
#              ------------------------------------------------------
#              |     This is the output of the SUSY-HIT package     |
#              |  created by A.Djouadi, M.Muehlleitner and M.Spira. |
#              |  In case of problems with SUSY-HIT email to        |
#              |           margarete.muehlleitner@cern.ch           |
#              |           michael.spira@psi.ch                     |
#              |           abdelhak.djouadi@cern.ch                 |
#              ------------------------------------------------------
#
#              ------------------------------------------------------
#              |  SUSY Les Houches Accord - MSSM Spectrum + Decays  |
#              |              based on the decay programs           |
#              |                                                    |
#              |                     SDECAY 1.3b                    |
#              |                                                    |
#              |  Authors: M.Muhlleitner, A.Djouadi and Y.Mambrini  |
#              |  Ref.:    Comput.Phys.Commun.168(2005)46           |
#              |           [hep-ph/0311167]                         |
#              |                                                    |
#              |                     HDECAY 3.4                     |
#              |                                                    |
#              |  By: A.Djouadi,J.Kalinowski,M.Muhlleitner,M.Spira  |
#              |  Ref.:    Comput.Phys.Commun.108(1998)56           |
#              |           [hep-ph/9704448]                         |
#              |                                                    |
#              |                                                    |
#              |  If not stated otherwise all DRbar couplings and   |
#              |  soft SUSY breaking masses are given at the scale  |
#              |  Q=  0.50007354E+04
#              |                                                    |
#              ------------------------------------------------------
#
#
BLOCK DCINFO  # Decay Program information
     1   SDECAY/HDECAY # decay calculator
     2   1.3b  /3.4    # version number
#
BLOCK SPINFO  # Spectrum calculator information
     1    SOFTSUSY    # spectrum calculator                
     2    3.4.0       # version number                     
#
BLOCK MODSEL  # Model selection
     1     0   #  nonUniversal                                     
#
BLOCK SMINPUTS  # Standard Model inputs
         1     1.25778332E+02   # alpha_em^-1(M_Z)^MSbar
         2     1.16570000E-05   # G_F [GeV^-2]
         3     1.17200002E-01   # alpha_S(M_Z)^MSbar
         4     9.11876000E+01   # M_Z pole mass
         5     4.25000000E+00   # mb(mb)^MSbar
         6     1.72500000E+02   # mt pole mass
         7     1.77682000E+00   # mtau pole mass
#
BLOCK MINPAR  # Input parameters - minimal models
         3     1.00000000E+01   # tanb                
#
BLOCK EXTPAR  # Input parameters - non-minimal models
         0    -1.00000000E+00   # Set                 
         1     6.00000000E+01   # M_1(MX)             
         2     3.00000000E+03   # M_2(MX)             
         3     7.73142000E+02   # M_3(MX)             
        11     5.00000000E+03   # At(MX)              
        12     5.00000000E+03   # Ab(MX)              
        13     0.00000000E+00   # Atau(MX)            
        23    -7.65213000E+02   # mu(MX)              
        26     3.00000000E+03   # mA(pole)            
        31     5.00000000E+03   # meL(MX)             
        32     5.00000000E+03   # mmuL(MX)            
        33     5.00000000E+03   # mtauL(MX)           
        34     5.00000000E+03   # meR(MX)             
        35     5.00000000E+03   # mmuR(MX)            
        36     5.00000000E+03   # mtauR(MX)           
        41     5.00000000E+03   # mqL1(MX)            
        42     5.00000000E+03   # mqL2(MX)            
        43     5.00000000E+03   # mqL3(MX)            
        44     5.00000000E+03   # muR(MX)             
        45     5.00000000E+03   # mcR(MX)             
        46     5.00000000E+03   # mtR(MX)             
        47     5.00000000E+03   # mdR(MX)             
        48     5.00000000E+03   # msR(MX)             
        49     5.00000000E+03   # mbR(MX)             
#
BLOCK MASS  # Mass Spectrum
# PDG code           mass       particle
        24     8.00916535E+01   # W+
        25     1.24307535E+02   # h
        35     3.00008225E+03   # H
        36     2.99999717E+03   # A
        37     3.00136329E+03   # H+
         5     4.87878001E+00   # b-quark pole mass calculated from mb(mb)_Msbar
   1000001     5.06380718E+03   # ~d_L
   2000001     5.04595996E+03   # ~d_R
   1000002     5.06332991E+03   # ~u_L
   2000002     5.04566784E+03   # ~u_R
   1000003     5.06380718E+03   # ~s_L
   2000003     5.04595996E+03   # ~s_R
   1000004     5.06332991E+03   # ~c_L
   2000004     5.04566784E+03   # ~c_R
   1000005     5.01020333E+03   # ~b_1
   2000005     5.04441814E+03   # ~b_2
   1000006     4.90066471E+03   # ~t_1
   2000006     5.05575003E+03   # ~t_2
   1000011     5.01908557E+03   # ~e_L
   2000011     5.00593167E+03   # ~e_R
   1000012     5.01813581E+03   # ~nu_eL
   1000013     5.01908557E+03   # ~mu_L
   2000013     5.00593167E+03   # ~mu_R
   1000014     5.01813581E+03   # ~nu_muL
   1000015     5.00468700E+03   # ~tau_1
   2000015     5.01870118E+03   # ~tau_2
   1000016     5.01758721E+03   # ~nu_tauL
   1000021     1.00000076E+03   # ~g
   1000022     6.02872238E+01   # ~chi_10
   1000023     7.99840594E+02   # ~chi_20
   1000025    -8.02075252E+02   # ~chi_30
   1000035     3.07422029E+03   # ~chi_40
   1000024     8.00000395E+02   # ~chi_1+
   1000037     3.07438790E+03   # ~chi_2+
#
BLOCK NMIX  # Neutralino Mixing Matrix
  1  1     9.98451320E-01   # N_11
  1  2     2.07760812E-04   # N_12
  1  3    -5.56091095E-02   # N_13
  1  4     1.59546090E-03   # N_14
  2  1     3.82090183E-02   # N_21
  2  2     2.14602250E-02   # N_22
  2  3     7.06385134E-01   # N_23
  2  4     7.06469796E-01   # N_24
  3  1    -4.04336264E-02   # N_31
  3  2     1.56919778E-02   # N_32
  3  3    -7.05628127E-01   # N_33
  3  4     7.07253724E-01   # N_34
  4  1    -3.93068559E-04   # N_41
  4  2     9.99646526E-01   # N_42
  4  3    -4.07637052E-03   # N_43
  4  4    -2.62688273E-02   # N_44
#
BLOCK UMIX  # Chargino Mixing Matrix U
  1  1     5.77565193E-03   # U_11
  1  2     9.99983321E-01   # U_12
  2  1    -9.99983321E-01   # U_21
  2  2     5.77565193E-03   # U_22
#
BLOCK VMIX  # Chargino Mixing Matrix V
  1  1     3.71779715E-02   # V_11
  1  2    -9.99308660E-01   # V_12
  2  1    -9.99308660E-01   # V_21
  2  2    -3.71779715E-02   # V_22
#
BLOCK STOPMIX  # Stop Mixing Matrix
  1  1    -5.09026642E-01   # cos(theta_t)
  1  2     8.60750764E-01   # sin(theta_t)
  2  1    -8.60750764E-01   # -sin(theta_t)
  2  2    -5.09026642E-01   # cos(theta_t)
#
BLOCK SBOTMIX  # Sbottom Mixing Matrix
  1  1     9.97786130E-01   # cos(theta_b)
  1  2    -6.65044268E-02   # sin(theta_b)
  2  1     6.65044268E-02   # -sin(theta_b)
  2  2     9.97786130E-01   # cos(theta_b)
#
BLOCK STAUMIX  # Stau Mixing Matrix
  1  1    -9.13746768E-02   # cos(theta_tau)
  1  2     9.95816584E-01   # sin(theta_tau)
  2  1    -9.95816584E-01   # -sin(theta_tau)
  2  2    -9.13746768E-02   # cos(theta_tau)
#
BLOCK ALPHA  # Higgs mixing
          -1.05427511E-01   # Mixing angle in the neutral Higgs boson sector
#
BLOCK HMIX Q=  5.00073541E+03  # DRbar Higgs Parameters
         1    -7.78814127E+02   # mu(Q)MSSM           
         2     9.47408747E+00   # tan                 
         3     2.41885204E+02   # higgs               
         4     8.57185278E+06   # mA^2(Q)MSSM         
#
BLOCK GAUGE Q=  5.00073541E+03  # The gauge couplings
     1     3.70868087E-01   # gprime(Q) DRbar
     2     6.32851197E-01   # g(Q) DRbar
     3     1.00864445E+00   # g3(Q) DRbar
#
BLOCK AU Q=  5.00073541E+03  # The trilinear couplings
  1  1     5.00000001E+03   # A_u(Q) DRbar
  2  2     5.00000001E+03   # A_c(Q) DRbar
  3  3     5.00000001E+03   # A_t(Q) DRbar
#
BLOCK AD Q=  5.00073541E+03  # The trilinear couplings
  1  1     5.00000000E+03   # A_d(Q) DRbar
  2  2     5.00000000E+03   # A_s(Q) DRbar
  3  3     5.00000001E+03   # A_b(Q) DRbar
#
BLOCK AE Q=  5.00073541E+03  # The trilinear couplings
  1  1     0.00000000E+00   # A_e(Q) DRbar
  2  2     1.64611341E-08   # A_mu(Q) DRbar
  3  3     1.54819854E-08   # A_tau(Q) DRbar
#
BLOCK Yu Q=  5.00073541E+03  # The Yukawa couplings
  1  1     0.00000000E+00   # y_u(Q) DRbar
  2  2     0.00000000E+00   # y_c(Q) DRbar
  3  3     8.14288145E-01   # y_t(Q) DRbar
#
BLOCK Yd Q=  5.00073541E+03  # The Yukawa couplings
  1  1     0.00000000E+00   # y_d(Q) DRbar
  2  2     0.00000000E+00   # y_s(Q) DRbar
  3  3     1.29234551E-01   # y_b(Q) DRbar
#
BLOCK Ye Q=  5.00073541E+03  # The Yukawa couplings
  1  1     0.00000000E+00   # y_e(Q) DRbar
  2  2     0.00000000E+00   # y_mu(Q) DRbar
  3  3     9.69773916E-02   # y_tau(Q) DRbar
#
BLOCK MSOFT Q=  5.00073541E+03  # The soft SUSY breaking masses at the scale Q
         1     6.00000000E+01   # M_1(Q)              
         2     3.00000000E+03   # M_2(Q)              
         3     7.73142000E+02   # M_3(Q)              
        21     8.10197214E+06   # mH1^2(Q)            
        22    -4.20758928E+04   # mH2^2(Q)            
        31     5.00000000E+03   # meL(Q)              
        32     5.00000000E+03   # mmuL(Q)             
        33     5.00000000E+03   # mtauL(Q)            
        34     5.00000000E+03   # meR(Q)              
        35     5.00000000E+03   # mmuR(Q)             
        36     5.00000000E+03   # mtauR(Q)            
        41     5.00000000E+03   # mqL1(Q)             
        42     5.00000000E+03   # mqL2(Q)             
        43     5.00000000E+03   # mqL3(Q)             
        44     5.00000000E+03   # muR(Q)              
        45     5.00000000E+03   # mcR(Q)              
        46     5.00000000E+03   # mtR(Q)              
        47     5.00000000E+03   # mdR(Q)              
        48     5.00000000E+03   # msR(Q)              
        49     5.00000000E+03   # mbR(Q)              
#
#
#
#                             =================
#                             |The decay table|
#                             =================
#
# - The QCD corrections to the decays gluino -> squark  + quark
#                                     squark -> gaugino + quark_prime
#                                     squark -> squark_prime + Higgs
#                                     squark -> gluino  + quark
#   are included.
#
# - The multi-body decays for the inos, stops and sbottoms are included.
#
# - The loop induced decays for the gluino, neutralinos and stops
#   are included.
#
# - The SUSY decays of the top quark are included.
#
#
#         PDG            Width
DECAY         6     1.40363654E+00   # top decays
#          BR         NDA      ID1       ID2
     1.00000000E+00    2           5        24   # BR(t ->  b    W+)
#
#         PDG            Width
DECAY   1000021     8.57416321E-06   # gluino decays
#          BR         NDA      ID1       ID2
     1.72203770E-05    2     1000022        21   # BR(~g -> ~chi_10 g)
     1.02410777E-02    2     1000023        21   # BR(~g -> ~chi_20 g)
     9.77678809E-03    2     1000025        21   # BR(~g -> ~chi_30 g)
#           BR         NDA      ID1       ID2       ID3
     8.13786559E-02    3     1000022         1        -1   # BR(~g -> ~chi_10 d  db)
     7.60890234E-07    3     1000023         1        -1   # BR(~g -> ~chi_20 d  db)
     4.68660125E-07    3     1000025         1        -1   # BR(~g -> ~chi_30 d  db)
     2.77464061E-01    3     1000022         2        -2   # BR(~g -> ~chi_10 u  ub)
     3.14011089E-06    3     1000023         2        -2   # BR(~g -> ~chi_20 u  ub)
     6.21532939E-07    3     1000025         2        -2   # BR(~g -> ~chi_30 u  ub)
     8.13786559E-02    3     1000022         3        -3   # BR(~g -> ~chi_10 s  sb)
     7.60890234E-07    3     1000023         3        -3   # BR(~g -> ~chi_20 s  sb)
     4.68660125E-07    3     1000025         3        -3   # BR(~g -> ~chi_30 s  sb)
     2.77464061E-01    3     1000022         4        -4   # BR(~g -> ~chi_10 c  cb)
     3.14011089E-06    3     1000023         4        -4   # BR(~g -> ~chi_20 c  cb)
     6.21532939E-07    3     1000025         4        -4   # BR(~g -> ~chi_30 c  cb)
     8.27075928E-02    3     1000022         5        -5   # BR(~g -> ~chi_10 b  bb)
     1.55331950E-04    3     1000023         5        -5   # BR(~g -> ~chi_20 b  bb)
     1.45249497E-04    3     1000025         5        -5   # BR(~g -> ~chi_30 b  bb)
     1.79194779E-01    3     1000022         6        -6   # BR(~g -> ~chi_10 t  tb)
     1.95746342E-06    3     1000024         1        -2   # BR(~g -> ~chi_1+ d  ub)
     1.95746342E-06    3    -1000024         2        -1   # BR(~g -> ~chi_1- u  db)
     1.95746342E-06    3     1000024         3        -4   # BR(~g -> ~chi_1+ s  cb)
     1.95746342E-06    3    -1000024         4        -3   # BR(~g -> ~chi_1- c  sb)
     2.93572491E-05    3     1000024         5        -6   # BR(~g -> ~chi_1+ b  tb)
     2.93572491E-05    3    -1000024         6        -5   # BR(~g -> ~chi_1- t  bb)
#
#         PDG            Width
DECAY   1000006     4.19144055E+02   # stop1 decays
#          BR         NDA      ID1       ID2
     2.09652029E-02    2     1000022         6   # BR(~t_1 -> ~chi_10 t )
     7.44181740E-02    2     1000023         6   # BR(~t_1 -> ~chi_20 t )
     7.12540870E-02    2     1000025         6   # BR(~t_1 -> ~chi_30 t )
     5.00851792E-03    2     1000035         6   # BR(~t_1 -> ~chi_40 t )
     1.07227960E-01    2     1000024         5   # BR(~t_1 -> ~chi_1+ b )
     9.98193123E-03    2     1000037         5   # BR(~t_1 -> ~chi_2+ b )
     7.11144127E-01    2     1000021         6   # BR(~t_1 -> ~g      t )
#
#         PDG            Width
DECAY   2000006     4.19167688E+02   # stop2 decays
#          BR         NDA      ID1       ID2
     8.51016013E-03    2     1000022         6   # BR(~t_2 -> ~chi_10 t )
     7.56018870E-02    2     1000023         6   # BR(~t_2 -> ~chi_20 t )
     7.90957762E-02    2     1000025         6   # BR(~t_2 -> ~chi_30 t )
     1.30837209E-02    2     1000035         6   # BR(~t_2 -> ~chi_40 t )
     4.58218596E-02    2     1000024         5   # BR(~t_2 -> ~chi_1+ b )
     2.60424553E-02    2     1000037         5   # BR(~t_2 -> ~chi_2+ b )
     7.48782660E-01    2     1000021         6   # BR(~t_2 -> ~g      t )
     6.87690291E-04    2     1000006        25   # BR(~t_2 -> ~t_1    h )
     2.37379066E-03    2     1000006        23   # BR(~t_2 -> ~t_1    Z )
#
#         PDG            Width
DECAY   1000005     3.97171704E+02   # sbottom1 decays
#          BR         NDA      ID1       ID2
     1.95138412E-03    2     1000022         5   # BR(~b_1 -> ~chi_10 b )
     2.01680772E-03    2     1000023         5   # BR(~b_1 -> ~chi_20 b )
     1.98005406E-03    2     1000025         5   # BR(~b_1 -> ~chi_30 b )
     1.89094213E-02    2     1000035         5   # BR(~b_1 -> ~chi_40 b )
     1.58752439E-01    2    -1000024         6   # BR(~b_1 -> ~chi_1- t )
     3.79774878E-02    2    -1000037         6   # BR(~b_1 -> ~chi_2- t )
     7.76980806E-01    2     1000021         5   # BR(~b_1 -> ~g      b )
     1.43160020E-03    2     1000006       -24   # BR(~b_1 -> ~t_1    W-)
#
#         PDG            Width
DECAY   2000005     3.17364108E+02   # sbottom2 decays
#          BR         NDA      ID1       ID2
     9.27007623E-03    2     1000022         5   # BR(~b_2 -> ~chi_10 b )
     2.54752257E-03    2     1000023         5   # BR(~b_2 -> ~chi_20 b )
     2.60429468E-03    2     1000025         5   # BR(~b_2 -> ~chi_30 b )
     1.07940903E-04    2     1000035         5   # BR(~b_2 -> ~chi_40 b )
     5.92924389E-03    2    -1000024         6   # BR(~b_2 -> ~chi_1- t )
     2.16768610E-04    2    -1000037         6   # BR(~b_2 -> ~chi_2- t )
     9.79292028E-01    2     1000021         5   # BR(~b_2 -> ~g      b )
     3.21253082E-05    2     1000006       -24   # BR(~b_2 -> ~t_1    W-)
#
#         PDG            Width
DECAY   1000002     3.36300516E+02   # sup_L decays
#          BR         NDA      ID1       ID2
     2.22141975E-03    2     1000022         2   # BR(~u_L -> ~chi_10 u)
     4.63700238E-05    2     1000023         2   # BR(~u_L -> ~chi_20 u)
     3.36563710E-06    2     1000025         2   # BR(~u_L -> ~chi_30 u)
     2.32339837E-02    2     1000035         2   # BR(~u_L -> ~chi_40 u)
     1.53218445E-04    2     1000024         1   # BR(~u_L -> ~chi_1+ d)
     4.64378125E-02    2     1000037         1   # BR(~u_L -> ~chi_2+ d)
     9.27903830E-01    2     1000021         2   # BR(~u_L -> ~g      u)
#
#         PDG            Width
DECAY   2000002     3.22709967E+02   # sup_R decays
#          BR         NDA      ID1       ID2
     3.68314614E-02    2     1000022         2   # BR(~u_R -> ~chi_10 u)
     5.12864468E-05    2     1000023         2   # BR(~u_R -> ~chi_20 u)
     5.74156989E-05    2     1000025         2   # BR(~u_R -> ~chi_30 u)
     2.25944388E-09    2     1000035         2   # BR(~u_R -> ~chi_40 u)
     9.63059834E-01    2     1000021         2   # BR(~u_R -> ~g      u)
#
#         PDG            Width
DECAY   1000001     3.36309454E+02   # sdown_L decays
#          BR         NDA      ID1       ID2
     2.21212499E-03    2     1000022         1   # BR(~d_L -> ~chi_10 d)
     1.08588496E-05    2     1000023         1   # BR(~d_L -> ~chi_20 d)
     3.08388003E-05    2     1000025         1   # BR(~d_L -> ~chi_30 d)
     2.32477831E-02    2     1000035         1   # BR(~d_L -> ~chi_40 d)
     3.69807189E-06    2    -1000024         2   # BR(~d_L -> ~chi_1- u)
     4.65138633E-02    2    -1000037         2   # BR(~d_L -> ~chi_2- u)
     9.27980833E-01    2     1000021         1   # BR(~d_L -> ~g      d)
#
#         PDG            Width
DECAY   2000001     3.13790356E+02   # sdown_R decays
#          BR         NDA      ID1       ID2
     9.47015233E-03    2     1000022         1   # BR(~d_R -> ~chi_10 d)
     1.31869143E-05    2     1000023         1   # BR(~d_R -> ~chi_20 d)
     1.47628853E-05    2     1000025         1   # BR(~d_R -> ~chi_30 d)
     5.81029953E-10    2     1000035         1   # BR(~d_R -> ~chi_40 d)
     9.90501897E-01    2     1000021         1   # BR(~d_R -> ~g      d)
#
#         PDG            Width
DECAY   1000004     3.36300516E+02   # scharm_L decays
#          BR         NDA      ID1       ID2
     2.22141975E-03    2     1000022         4   # BR(~c_L -> ~chi_10 c)
     4.63700238E-05    2     1000023         4   # BR(~c_L -> ~chi_20 c)
     3.36563710E-06    2     1000025         4   # BR(~c_L -> ~chi_30 c)
     2.32339837E-02    2     1000035         4   # BR(~c_L -> ~chi_40 c)
     1.53218445E-04    2     1000024         3   # BR(~c_L -> ~chi_1+ s)
     4.64378125E-02    2     1000037         3   # BR(~c_L -> ~chi_2+ s)
     9.27903830E-01    2     1000021         4   # BR(~c_L -> ~g      c)
#
#         PDG            Width
DECAY   2000004     3.22709967E+02   # scharm_R decays
#          BR         NDA      ID1       ID2
     3.68314614E-02    2     1000022         4   # BR(~c_R -> ~chi_10 c)
     5.12864468E-05    2     1000023         4   # BR(~c_R -> ~chi_20 c)
     5.74156989E-05    2     1000025         4   # BR(~c_R -> ~chi_30 c)
     2.25944388E-09    2     1000035         4   # BR(~c_R -> ~chi_40 c)
     9.63059834E-01    2     1000021         4   # BR(~c_R -> ~g      c)
#
#         PDG            Width
DECAY   1000003     3.36309454E+02   # sstrange_L decays
#          BR         NDA      ID1       ID2
     2.21212499E-03    2     1000022         3   # BR(~s_L -> ~chi_10 s)
     1.08588496E-05    2     1000023         3   # BR(~s_L -> ~chi_20 s)
     3.08388003E-05    2     1000025         3   # BR(~s_L -> ~chi_30 s)
     2.32477831E-02    2     1000035         3   # BR(~s_L -> ~chi_40 s)
     3.69807189E-06    2    -1000024         4   # BR(~s_L -> ~chi_1- c)
     4.65138633E-02    2    -1000037         4   # BR(~s_L -> ~chi_2- c)
     9.27980833E-01    2     1000021         3   # BR(~s_L -> ~g      s)
#
#         PDG            Width
DECAY   2000003     3.13790356E+02   # sstrange_R decays
#          BR         NDA      ID1       ID2
     9.47015233E-03    2     1000022         3   # BR(~s_R -> ~chi_10 s)
     1.31869143E-05    2     1000023         3   # BR(~s_R -> ~chi_20 s)
     1.47628853E-05    2     1000025         3   # BR(~s_R -> ~chi_30 s)
     5.81029953E-10    2     1000035         3   # BR(~s_R -> ~chi_40 s)
     9.90501897E-01    2     1000021         3   # BR(~s_R -> ~g      s)
#
#         PDG            Width
DECAY   1000011     3.02956310E+01   # selectron_L decays
#          BR         NDA      ID1       ID2
     2.26058320E-01    2     1000022        11   # BR(~e_L -> ~chi_10 e-)
     1.20553177E-03    2     1000023        11   # BR(~e_L -> ~chi_20 e-)
     4.01429105E-05    2     1000025        11   # BR(~e_L -> ~chi_30 e-)
     2.57379090E-01    2     1000035        11   # BR(~e_L -> ~chi_40 e-)
     4.18242065E-05    2    -1000024        12   # BR(~e_L -> ~chi_1- nu_e)
     5.15275091E-01    2    -1000037        12   # BR(~e_L -> ~chi_2- nu_e)
#
#         PDG            Width
DECAY   2000011     2.73835895E+01   # selectron_R decays
#          BR         NDA      ID1       ID2
     9.97060277E-01    2     1000022        11   # BR(~e_R -> ~chi_10 e-)
     1.38695713E-03    2     1000023        11   # BR(~e_R -> ~chi_20 e-)
     1.55270635E-03    2     1000025        11   # BR(~e_R -> ~chi_30 e-)
     5.99672437E-08    2     1000035        11   # BR(~e_R -> ~chi_40 e-)
#
#         PDG            Width
DECAY   1000013     3.02956310E+01   # smuon_L decays
#          BR         NDA      ID1       ID2
     2.26058320E-01    2     1000022        13   # BR(~mu_L -> ~chi_10 mu-)
     1.20553177E-03    2     1000023        13   # BR(~mu_L -> ~chi_20 mu-)
     4.01429105E-05    2     1000025        13   # BR(~mu_L -> ~chi_30 mu-)
     2.57379090E-01    2     1000035        13   # BR(~mu_L -> ~chi_40 mu-)
     4.18242065E-05    2    -1000024        14   # BR(~mu_L -> ~chi_1- nu_mu)
     5.15275091E-01    2    -1000037        14   # BR(~mu_L -> ~chi_2- nu_mu)
#
#         PDG            Width
DECAY   2000013     2.73835895E+01   # smuon_R decays
#          BR         NDA      ID1       ID2
     9.97060277E-01    2     1000022        13   # BR(~mu_R -> ~chi_10 mu-)
     1.38695713E-03    2     1000023        13   # BR(~mu_R -> ~chi_20 mu-)
     1.55270635E-03    2     1000025        13   # BR(~mu_R -> ~chi_30 mu-)
     5.99672437E-08    2     1000035        13   # BR(~mu_R -> ~chi_40 mu-)
#
#         PDG            Width
DECAY   1000015     2.91765935E+01   # stau_1 decays
#          BR         NDA      ID1       ID2
     9.30672323E-01    2     1000022        15   # BR(~tau_1 -> ~chi_10  tau-)
     1.64896336E-02    2     1000023        15   # BR(~tau_1 -> ~chi_20  tau-)
     1.59040475E-02    2     1000025        15   # BR(~tau_1 -> ~chi_30  tau-)
     2.16727720E-03    2     1000035        15   # BR(~tau_1 -> ~chi_40  tau-)
     3.04280254E-02    2    -1000024        16   # BR(~tau_1 -> ~chi_1-  nu_tau)
     4.33869336E-03    2    -1000037        16   # BR(~tau_1 -> ~chi_2-  nu_tau)
#
#         PDG            Width
DECAY   2000015     3.11580216E+01   # stau_2 decays
#          BR         NDA      ID1       ID2
     2.24555398E-01    2     1000022        15   # BR(~tau_2 -> ~chi_10  tau-)
     1.54722664E-02    2     1000023        15   # BR(~tau_2 -> ~chi_20  tau-)
     1.49667032E-02    2     1000025        15   # BR(~tau_2 -> ~chi_30  tau-)
     2.48141226E-01    2     1000035        15   # BR(~tau_2 -> ~chi_40  tau-)
     8.29758964E-05    2    -1000024        16   # BR(~tau_2 -> ~chi_1-  nu_tau)
     4.96781431E-01    2    -1000037        16   # BR(~tau_2 -> ~chi_2-  nu_tau)
#
#         PDG            Width
DECAY   1000012     3.02986412E+01   # snu_eL decays
#          BR         NDA      ID1       ID2
     2.25672315E-01    2     1000022        12   # BR(~nu_eL -> ~chi_10 nu_e)
     5.43567102E-07    2     1000023        12   # BR(~nu_eL -> ~chi_20 nu_e)
     9.71972685E-04    2     1000025        12   # BR(~nu_eL -> ~chi_30 nu_e)
     2.57425028E-01    2     1000035        12   # BR(~nu_eL -> ~chi_40 nu_e)
     1.73245976E-03    2     1000024        11   # BR(~nu_eL -> ~chi_1+ e-)
     5.14197681E-01    2     1000037        11   # BR(~nu_eL -> ~chi_2+ e-)
#
#         PDG            Width
DECAY   1000014     3.02986412E+01   # snu_muL decays
#          BR         NDA      ID1       ID2
     2.25672315E-01    2     1000022        14   # BR(~nu_muL -> ~chi_10 nu_mu)
     5.43567102E-07    2     1000023        14   # BR(~nu_muL -> ~chi_20 nu_mu)
     9.71972685E-04    2     1000025        14   # BR(~nu_muL -> ~chi_30 nu_mu)
     2.57425028E-01    2     1000035        14   # BR(~nu_muL -> ~chi_40 nu_mu)
     1.73245976E-03    2     1000024        13   # BR(~nu_muL -> ~chi_1+ mu-)
     5.14197681E-01    2     1000037        13   # BR(~nu_muL -> ~chi_2+ mu-)
#
#         PDG            Width
DECAY   1000016     3.11808499E+01   # snu_tauL decays
#          BR         NDA      ID1       ID2
     2.19263316E-01    2     1000022        16   # BR(~nu_tauL -> ~chi_10 nu_tau)
     5.28124038E-07    2     1000023        16   # BR(~nu_tauL -> ~chi_20 nu_tau)
     9.44358302E-04    2     1000025        16   # BR(~nu_tauL -> ~chi_30 nu_tau)
     2.50048566E-01    2     1000035        16   # BR(~nu_tauL -> ~chi_40 nu_tau)
     3.02803490E-02    2     1000024        15   # BR(~nu_tauL -> ~chi_1+ tau-)
     4.99462882E-01    2     1000037        15   # BR(~nu_tauL -> ~chi_2+ tau-)
#
#         PDG            Width
DECAY   1000024     4.83662754E-01   # chargino1+ decays
#          BR         NDA      ID1       ID2
     1.00000000E+00    2     1000022        24   # BR(~chi_1+ -> ~chi_10  W+)
#
#         PDG            Width
DECAY   1000037     2.11286159E+01   # chargino2+ decays
#          BR         NDA      ID1       ID2
     2.53380848E-01    2     1000024        23   # BR(~chi_2+ -> ~chi_1+  Z )
     1.84747497E-04    2     1000022        24   # BR(~chi_2+ -> ~chi_10  W+)
     2.44448410E-01    2     1000023        24   # BR(~chi_2+ -> ~chi_20  W+)
     2.44265213E-01    2     1000025        24   # BR(~chi_2+ -> ~chi_30  W+)
     2.57718857E-01    2     1000024        25   # BR(~chi_2+ -> ~chi_1+  h )
     1.92396248E-06    2     1000022        37   # BR(~chi_2+ -> ~chi_10  H+)
#
#         PDG            Width
DECAY   1000022     0.00000000E+00   # neutralino1 decays
#
#         PDG            Width
DECAY   1000023     5.01990397E-01   # neutralino2 decays
#          BR         NDA      ID1       ID2
     5.29387835E-01    2     1000022        23   # BR(~chi_20 -> ~chi_10   Z )
     4.70612165E-01    2     1000022        25   # BR(~chi_20 -> ~chi_10   h )
#
#         PDG            Width
DECAY   1000025     5.01793735E-01   # neutralino3 decays
#          BR         NDA      ID1       ID2
     4.69567566E-01    2     1000022        23   # BR(~chi_30 -> ~chi_10   Z )
     5.30432434E-01    2     1000022        25   # BR(~chi_30 -> ~chi_10   h )
#
#         PDG            Width
DECAY   1000035     2.11443667E+01   # neutralino4 decays
#          BR         NDA      ID1       ID2
     3.18685708E-05    2     1000022        23   # BR(~chi_40 -> ~chi_10   Z )
     8.82278126E-02    2     1000023        23   # BR(~chi_40 -> ~chi_20   Z )
     1.64493098E-01    2     1000025        23   # BR(~chi_40 -> ~chi_30   Z )
     2.44985758E-01    2     1000024       -24   # BR(~chi_40 -> ~chi_1+   W-)
     2.44985758E-01    2    -1000024        24   # BR(~chi_40 -> ~chi_1-   W+)
     1.51419965E-04    2     1000022        25   # BR(~chi_40 -> ~chi_10   h )
     1.83263367E-06    2     1000022        35   # BR(~chi_40 -> ~chi_10   H )
     2.13856781E-07    2     1000022        36   # BR(~chi_40 -> ~chi_10   A )
     1.68676616E-01    2     1000023        25   # BR(~chi_40 -> ~chi_20   h )
     8.84456227E-02    2     1000025        25   # BR(~chi_40 -> ~chi_30   h )
#
#         PDG            Width
DECAY        25     4.01919483E-03   # h decays
#          BR         NDA      ID1       ID2
     6.17457344E-01    2           5        -5   # BR(h -> b       bb     )
     6.42923589E-02    2         -15        15   # BR(h -> tau+    tau-   )
     2.27620401E-04    2         -13        13   # BR(h -> mu+     mu-    )
     4.82893658E-04    2           3        -3   # BR(h -> s       sb     )
     2.09245254E-02    2           4        -4   # BR(h -> c       cb     )
     6.71472556E-02    2          21        21   # BR(h -> g       g      )
     2.29777196E-03    2          22        22   # BR(h -> gam     gam    )
     1.44261111E-03    2          22        23   # BR(h -> Z       gam    )
     2.01817196E-01    2          24       -24   # BR(h -> W+      W-     )
     2.38492648E-02    2          23        23   # BR(h -> Z       Z      )
     6.11581550E-05    2     1000022   1000022   # BR(h -> ~chi_10 ~chi_10)
#
#         PDG            Width
DECAY        35     8.36838132E+00   # H decays
#          BR         NDA      ID1       ID2
     3.84174737E-01    2           5        -5   # BR(H -> b       bb     )
     6.66330920E-02    2         -15        15   # BR(H -> tau+    tau-   )
     2.35619906E-04    2         -13        13   # BR(H -> mu+     mu-    )
     2.88833960E-04    2           3        -3   # BR(H -> s       sb     )
     1.61276674E-06    2           4        -4   # BR(H -> c       cb     )
     1.61128171E-01    2           6        -6   # BR(H -> t       tb     )
     5.35324726E-05    2          21        21   # BR(H -> g       g      )
     2.09284519E-07    2          22        22   # BR(H -> gam     gam    )
     9.50119260E-08    2          23        22   # BR(H -> Z       gam    )
     7.44637119E-05    2          24       -24   # BR(H -> W+      W-     )
     3.71847158E-05    2          23        23   # BR(H -> Z       Z      )
     2.76671567E-04    2          25        25   # BR(H -> h       h      )
    -3.90821854E-24    2          36        36   # BR(H -> A       A      )
     5.33756641E-19    2          23        36   # BR(H -> Z       A      )
     2.57876211E-03    2     1000024  -1000024   # BR(H -> ~chi_1+ ~chi_1-)
     2.69982730E-03    2     1000022   1000022   # BR(H -> ~chi_10 ~chi_10)
     4.83954614E-07    2     1000023   1000023   # BR(H -> ~chi_20 ~chi_20)
     1.01815256E-03    2     1000025   1000025   # BR(H -> ~chi_30 ~chi_30)
     2.28957852E-01    2     1000022   1000023   # BR(H -> ~chi_10 ~chi_20)
     1.50777657E-01    2     1000022   1000025   # BR(H -> ~chi_10 ~chi_30)
     1.06304086E-03    2     1000023   1000025   # BR(H -> ~chi_20 ~chi_30)
#
#         PDG            Width
DECAY        36     8.38035414E+00   # A decays
#          BR         NDA      ID1       ID2
     3.83756294E-01    2           5        -5   # BR(A -> b       bb     )
     6.65398399E-02    2         -15        15   # BR(A -> tau+    tau-   )
     2.35289830E-04    2         -13        13   # BR(A -> mu+     mu-    )
     2.88639975E-04    2           3        -3   # BR(A -> s       sb     )
     1.61704322E-06    2           4        -4   # BR(A -> c       cb     )
     1.61466287E-01    2           6        -6   # BR(A -> t       tb     )
     1.59845588E-04    2          21        21   # BR(A -> g       g      )
     5.95778166E-07    2          22        22   # BR(A -> gam     gam    )
     1.93403756E-07    2          23        22   # BR(A -> Z       gam    )
     7.40789023E-05    2          23        25   # BR(A -> Z       h      )
     3.37008242E-03    2     1000024  -1000024   # BR(A -> ~chi_1+ ~chi_1-)
     2.73335908E-03    2     1000022   1000022   # BR(A -> ~chi_10 ~chi_10)
     4.41763059E-07    2     1000023   1000023   # BR(A -> ~chi_20 ~chi_20)
     2.17860959E-03    2     1000025   1000025   # BR(A -> ~chi_30 ~chi_30)
     1.53075444E-01    2     1000022   1000023   # BR(A -> ~chi_10 ~chi_20)
     2.25630458E-01    2     1000022   1000025   # BR(A -> ~chi_10 ~chi_30)
     4.88923139E-04    2     1000023   1000025   # BR(A -> ~chi_20 ~chi_30)
#
#         PDG            Width
DECAY        37     8.31535046E+00   # H+ decays
#          BR         NDA      ID1       ID2
     6.14622743E-04    2           4        -5   # BR(H+ -> c       bb     )
     6.70905399E-02    2         -15        16   # BR(H+ -> tau+    nu_tau )
     2.37237146E-04    2         -13        14   # BR(H+ -> mu+     nu_mu  )
     3.93356501E-06    2           2        -5   # BR(H+ -> u       bb     )
     1.39202871E-05    2           2        -3   # BR(H+ -> u       sb     )
     2.87869588E-04    2           4        -3   # BR(H+ -> c       sb     )
     5.43497304E-01    2           6        -5   # BR(H+ -> t       bb     )
     7.48081969E-05    2          24        25   # BR(H+ -> W+      h      )
     7.51941686E-13    2          24        36   # BR(H+ -> W+      A      )
     3.86710802E-01    2     1000024   1000022   # BR(H+ -> ~chi_1+ ~chi_10)
     1.44475157E-03    2     1000024   1000023   # BR(H+ -> ~chi_1+ ~chi_20)
     2.42103325E-05    2     1000024   1000025   # BR(H+ -> ~chi_1+ ~chi_30)
