#
#                              ======================
#                              | THE SUSYHIT OUTPUT |
#                              ======================
#
#
#              ------------------------------------------------------
#              |     This is the output of the SUSY-HIT package     |
#              |  created by A.Djouadi, M.Muehlleitner and M.Spira. |
#              |  In case of problems with SUSY-HIT email to        |
#              |           margarete.muehlleitner@kit.edu           |
#              |           michael.spira@psi.ch                     |
#              |           abdelhak.djouadi@cern.ch                 |
#              ------------------------------------------------------
#
#              ------------------------------------------------------
#              |  SUSY Les Houches Accord - MSSM Spectrum + Decays  |
#              |              based on the decay programs           |
#              |                                                    |
#              |                     SDECAY 1.5                     |
#              |                                                    |
#              |  Authors: M.Muhlleitner, A.Djouadi and Y.Mambrini  |
#              |  Ref.:    Comput.Phys.Commun.168(2005)46           |
#              |           [hep-ph/0311167]                         |
#              |                                                    |
#              |                     HDECAY 3.4                     |
#              |                                                    |
#              |  By: A.Djouadi,J.Kalinowski,M.Muhlleitner,M.Spira  |
#              |  Ref.:    Comput.Phys.Commun.108(1998)56           |
#              |           [hep-ph/9704448]                         |
#              |                                                    |
#              |                                                    |
#              |  If not stated otherwise all DRbar couplings and   |
#              |  soft SUSY breaking masses are given at the scale  |
#              |  Q=  0.11086609E+04
#              |                                                    |
#              ------------------------------------------------------
#
#
BLOCK DCINFO  # Decay Program information
     1   SDECAY/HDECAY # decay calculator
     2   1.5  /3.4    # version number
#
BLOCK SPINFO  # Spectrum calculator information
     1    SOFTSUSY    # spectrum calculator                
     2    3.7.3       # version number                     
#
BLOCK MODSEL  # Model selection
     1     0   #  nonUniversal                                     
#
BLOCK SMINPUTS  # Standard Model inputs
         1     1.27934000E+02   # alpha_em^-1(M_Z)^MSbar
         2     1.16639000E-05   # G_F [GeV^-2]
         3     1.17200000E-01   # alpha_S(M_Z)^MSbar
         4     9.11870000E+01   # M_Z pole mass
         5     4.19000000E+00   # mb(mb)^MSbar
         6     1.72500000E+02   # mt pole mass
         7     1.77690000E+00   # mtau pole mass
#
BLOCK MINPAR  # Input parameters - minimal models
         3     2.00000000E+01   # tanb                
#
BLOCK EXTPAR  # Input parameters - non-minimal models
         0    -1.00000000E+00   # Set                 
         1     3.09990000E+02   # M_1(MX)             
         2     2.00000000E+03   # M_2(MX)             
         3     1.80000000E+03   # M_3(MX)             
        11     2.25959179E+03   # At(MX)              
        12     0.00000000E+00   # Ab(MX)              
        13     0.00000000E+00   # Atau(MX)            
        23    -3.49900000E+02   # mu(MX)              
        25     2.00000000E+01   # tan                 
        26     4.00000000E+03   # mA(pole)            
        31     4.00000000E+03   # meL(MX)             
        32     4.00000000E+03   # mmuL(MX)            
        33     4.00000000E+03   # mtauL(MX)           
        34     4.00000000E+03   # meR(MX)             
        35     4.00000000E+03   # mmuR(MX)            
        36     4.00000000E+03   # mtauR(MX)           
        41     4.00000000E+03   # mqL1(MX)            
        42     4.00000000E+03   # mqL2(MX)            
        43     5.59900000E+02   # mqL3(MX)            
        44     4.00000000E+03   # muR(MX)             
        45     4.00000000E+03   # mcR(MX)             
        46     2.20485961E+03   # mtR(MX)             
        47     4.00000000E+03   # mdR(MX)             
        48     4.00000000E+03   # msR(MX)             
        49     4.00000000E+03   # mbR(MX)             
#
BLOCK MASS  # Mass Spectrum
# PDG code           mass       particle
        24     8.04164080E+01   # W+
        25     1.24091697E+02   # h
        35     4.00000866E+03   # H
        36     3.99999669E+03   # A
        37     4.00100829E+03   # H+
         5     4.81337004E+00   # b-quark pole mass calculated from mb(mb)_Msbar
   1000001     4.02012424E+03   # ~d_L
   2000001     4.01789705E+03   # ~d_R
   1000002     4.01946162E+03   # ~u_L
   2000002     4.01920493E+03   # ~u_R
   1000003     4.02012424E+03   # ~s_L
   2000003     4.01789705E+03   # ~s_R
   1000004     4.01946162E+03   # ~c_L
   2000004     4.01920493E+03   # ~c_R
   1000005     6.24246500E+02   # ~b_1
   2000005     4.02217079E+03   # ~b_2
   1000006     6.16542005E+02   # ~t_1
   2000006     2.22292082E+03   # ~t_2
   1000011     4.00360043E+03   # ~e_L
   2000011     4.00286149E+03   # ~e_R
   1000012     4.00247751E+03   # ~nu_eL
   1000013     4.00360043E+03   # ~mu_L
   2000013     4.00286149E+03   # ~mu_R
   1000014     4.00247751E+03   # ~nu_muL
   1000015     4.00447472E+03   # ~tau_1
   2000015     4.00779362E+03   # ~tau_2
   1000016     4.00441670E+03   # ~nu_tauL
   1000021     1.97170734E+03   # ~g
   1000022     3.01038011E+02   # ~chi_10
   1000023    -3.60443780E+02   # ~chi_20
   1000025     3.71620960E+02   # ~chi_30
   1000035     2.05490436E+03   # ~chi_40
   1000024     3.57937707E+02   # ~chi_1+
   1000037     2.05506864E+03   # ~chi_2+
#
BLOCK NMIX  # Neutralino Mixing Matrix
  1  1     8.72989105E-01   # N_11
  1  2    -1.33006754E-02   # N_12
  1  3    -3.75402348E-01   # N_13
  1  4    -3.11104792E-01   # N_14
  2  1    -4.94571696E-02   # N_21
  2  2     2.45238962E-02   # N_22
  2  3    -7.03264525E-01   # N_23
  2  4     7.08781754E-01   # N_24
  3  1     4.85224651E-01   # N_31
  3  2     2.85379571E-02   # N_32
  3  3     6.03711267E-01   # N_33
  3  4     6.31882369E-01   # N_34
  4  1    -1.02390880E-03   # N_41
  4  2     9.99203310E-01   # N_42
  4  3    -4.97897150E-03   # N_43
  4  4    -3.95841622E-02   # N_44
#
BLOCK UMIX  # Chargino Mixing Matrix U
  1  1     7.04702301E-03   # U_11
  1  2     9.99975169E-01   # U_12
  2  1    -9.99975169E-01   # U_21
  2  2     7.04702301E-03   # U_22
#
BLOCK VMIX  # Chargino Mixing Matrix V
  1  1     5.59918460E-02   # V_11
  1  2    -9.98431226E-01   # V_12
  2  1    -9.98431226E-01   # V_21
  2  2    -5.59918460E-02   # V_22
#
BLOCK STOPMIX  # Stop Mixing Matrix
  1  1     9.97235180E-01   # cos(theta_t)
  1  2    -7.43101324E-02   # sin(theta_t)
  2  1     7.43101324E-02   # -sin(theta_t)
  2  2     9.97235180E-01   # cos(theta_t)
#
BLOCK SBOTMIX  # Sbottom Mixing Matrix
  1  1     9.99999403E-01   # cos(theta_b)
  1  2    -1.09270291E-03   # sin(theta_b)
  2  1     1.09270291E-03   # -sin(theta_b)
  2  2     9.99999403E-01   # cos(theta_b)
#
BLOCK STAUMIX  # Stau Mixing Matrix
  1  1    -7.05743132E-01   # cos(theta_tau)
  1  2     7.08467806E-01   # sin(theta_tau)
  2  1    -7.08467806E-01   # -sin(theta_tau)
  2  2    -7.05743132E-01   # cos(theta_tau)
#
BLOCK ALPHA  # Higgs mixing
          -5.00242110E-02   # Mixing angle in the neutral Higgs boson sector
#
BLOCK HMIX Q=  1.10866087E+03  # DRbar Higgs Parameters
         1    -3.49900000E+02   # mu(Q)MSSM           
         2     2.00000000E+01   # tan                 
         3     2.44205950E+02   # higgs               
         4     1.62378358E+07   # mA^2(Q)MSSM         
#
BLOCK GAUGE Q=  1.10866087E+03  # The gauge couplings
     1     3.61384010E-01   # gprime(Q) DRbar
     2     6.36025559E-01   # g(Q) DRbar
     3     1.03386224E+00   # g3(Q) DRbar
#
BLOCK AU Q=  1.10866087E+03  # The trilinear couplings
  1  1     0.00000000E+00   # A_u(Q) DRbar
  2  2     9.49037654E-07   # A_c(Q) DRbar
  3  3     2.25959179E+03   # A_t(Q) DRbar
#
BLOCK AD Q=  1.10866087E+03  # The trilinear couplings
  1  1     3.50914991E-07   # A_d(Q) DRbar
  2  2     3.50948306E-07   # A_s(Q) DRbar
  3  3     6.24279464E-07   # A_b(Q) DRbar
#
BLOCK AE Q=  1.10866087E+03  # The trilinear couplings
  1  1     0.00000000E+00   # A_e(Q) DRbar
  2  2     7.70883246E-08   # A_mu(Q) DRbar
  3  3     7.78706314E-08   # A_tau(Q) DRbar
#
BLOCK Yu Q=  1.10866087E+03  # The Yukawa couplings
  1  1     0.00000000E+00   # y_u(Q) DRbar
  2  2     0.00000000E+00   # y_c(Q) DRbar
  3  3     8.68030447E-01   # y_t(Q) DRbar
#
BLOCK Yd Q=  1.10866087E+03  # The Yukawa couplings
  1  1     0.00000000E+00   # y_d(Q) DRbar
  2  2     0.00000000E+00   # y_s(Q) DRbar
  3  3     2.84020570E-01   # y_b(Q) DRbar
#
BLOCK Ye Q=  1.10866087E+03  # The Yukawa couplings
  1  1     0.00000000E+00   # y_e(Q) DRbar
  2  2     0.00000000E+00   # y_mu(Q) DRbar
  3  3     2.03089217E-01   # y_tau(Q) DRbar
#
BLOCK MSOFT Q=  1.10866087E+03  # The soft SUSY breaking masses at the scale Q
         1     3.09990000E+02   # M_1(Q)              
         2     2.00000000E+03   # M_2(Q)              
         3     1.80000000E+03   # M_3(Q)              
        21     1.57583589E+07   # M^2_Hd              
        22    -1.42017530E+05   # M^2_Hu              
        31     4.00000000E+03   # M_eL                
        32     4.00000000E+03   # M_muL               
        33     4.00000000E+03   # M_tauL              
        34     4.00000000E+03   # M_eR                
        35     4.00000000E+03   # M_muR               
        36     4.00000000E+03   # M_tauR              
        41     4.00000000E+03   # M_q1L               
        42     4.00000000E+03   # M_q2L               
        43     5.59899996E+02   # M_q3L               
        44     4.00000000E+03   # M_uR                
        45     4.00000000E+03   # M_cR                
        46     2.20485961E+03   # M_tR                
        47     4.00000000E+03   # M_dR                
        48     4.00000000E+03   # M_sR                
        49     4.00000000E+03   # M_bR                
#
#
#
#                             =================
#                             |The decay table|
#                             =================
#
# - The QCD corrections to the decays gluino -> squark  + quark
#                                     squark -> gaugino + quark_prime
#                                     squark -> squark_prime + Higgs
#                                     squark -> gluino  + quark
#   are included.
#
# - The multi-body decays for the inos, stops and sbottoms are included.
#
# - The loop induced decays for the gluino, neutralinos and stops
#   are included.
#
# - The SUSY decays of the top quark are included.
#
#
#         PDG            Width
DECAY         6     1.40347851E+00   # top decays
#          BR         NDA      ID1       ID2
     1.00000000E+00    2           5        24   # BR(t ->  b    W+)
#
#         PDG            Width
DECAY   1000021     6.73426157E+01   # gluino decays
#          BR         NDA      ID1       ID2
     2.46288988E-01    2     1000005        -5   # BR(~g -> ~b_1  bb)
     2.46288988E-01    2    -1000005         5   # BR(~g -> ~b_1* b )
     2.53711012E-01    2     1000006        -6   # BR(~g -> ~t_1  tb)
     2.53711012E-01    2    -1000006         6   # BR(~g -> ~t_1* t )
#
#         PDG            Width
DECAY   1000006     3.06440507E+00   # stop1 decays
#          BR         NDA      ID1       ID2
     1.50467757E-01    2     1000022         6   # BR(~t_1 -> ~chi_10 t )
     4.01034833E-01    2     1000023         6   # BR(~t_1 -> ~chi_20 t )
     3.09161794E-01    2     1000025         6   # BR(~t_1 -> ~chi_30 t )
     1.39335615E-01    2     1000024         5   # BR(~t_1 -> ~chi_1+ b )
#
#         PDG            Width
DECAY   2000006     1.19372602E+02   # stop2 decays
#          BR         NDA      ID1       ID2
     5.61273801E-02    2     1000022         6   # BR(~t_2 -> ~chi_10 t )
     1.28319210E-01    2     1000023         6   # BR(~t_2 -> ~chi_20 t )
     1.07981673E-01    2     1000025         6   # BR(~t_2 -> ~chi_30 t )
     2.54794076E-01    2     1000024         5   # BR(~t_2 -> ~chi_1+ b )
     7.83328693E-08    2     1000037         5   # BR(~t_2 -> ~chi_2+ b )
     5.71766047E-02    2     1000021         6   # BR(~t_2 -> ~g      t )
     1.26167828E-01    2     1000006        25   # BR(~t_2 -> ~t_1    h )
     8.24365479E-02    2     1000006        23   # BR(~t_2 -> ~t_1    Z )
     1.86996602E-01    2     1000005        24   # BR(~t_2 -> ~b_1    W+)
#
#         PDG            Width
DECAY   1000005     3.34790890E+00   # sbottom1 decays
#          BR         NDA      ID1       ID2
     3.94242121E-02    2     1000022         5   # BR(~b_1 -> ~chi_10 b )
     6.49595285E-02    2     1000023         5   # BR(~b_1 -> ~chi_20 b )
     4.56505227E-02    2     1000025         5   # BR(~b_1 -> ~chi_30 b )
     8.49965737E-01    2    -1000024         6   # BR(~b_1 -> ~chi_1- t )
#
#         PDG            Width
DECAY   2000005     1.66820002E+02   # sbottom2 decays
#          BR         NDA      ID1       ID2
     1.51618665E-02    2     1000022         5   # BR(~b_2 -> ~chi_10 b )
     1.77487933E-02    2     1000023         5   # BR(~b_2 -> ~chi_20 b )
     1.61599829E-02    2     1000025         5   # BR(~b_2 -> ~chi_30 b )
     8.60166616E-07    2     1000035         5   # BR(~b_2 -> ~chi_40 b )
     3.57183848E-02    2    -1000024         6   # BR(~b_2 -> ~chi_1- t )
     1.70221087E-06    2    -1000037         6   # BR(~b_2 -> ~chi_2- t )
     9.14590635E-01    2     1000021         5   # BR(~b_2 -> ~g      b )
     1.34340897E-04    2     1000005        25   # BR(~b_2 -> ~b_1    h )
     1.80018888E-04    2     1000005        23   # BR(~b_2 -> ~b_1    Z )
     3.03043666E-04    2     1000006       -24   # BR(~b_2 -> ~t_1    W-)
     3.71194193E-07    2     2000006       -24   # BR(~b_2 -> ~t_2    W-)
#
#         PDG            Width
DECAY   1000002     1.78617069E+02   # sup_L decays
#          BR         NDA      ID1       ID2
     1.99473169E-03    2     1000022         2   # BR(~u_L -> ~chi_10 u)
     1.97308664E-05    2     1000023         2   # BR(~u_L -> ~chi_20 u)
     1.24459603E-03    2     1000025         2   # BR(~u_L -> ~chi_30 u)
     4.77657465E-02    2     1000035         2   # BR(~u_L -> ~chi_40 u)
     5.38643307E-04    2     1000024         1   # BR(~u_L -> ~chi_1+ d)
     9.54102320E-02    2     1000037         1   # BR(~u_L -> ~chi_2+ d)
     8.53026320E-01    2     1000021         2   # BR(~u_L -> ~g      u)
#
#         PDG            Width
DECAY   2000002     1.61176650E+02   # sup_R decays
#          BR         NDA      ID1       ID2
     4.18253665E-02    2     1000022         2   # BR(~u_R -> ~chi_10 u)
     1.33611650E-04    2     1000023         2   # BR(~u_R -> ~chi_20 u)
     1.28482666E-02    2     1000025         2   # BR(~u_R -> ~chi_30 u)
     3.19095063E-08    2     1000035         2   # BR(~u_R -> ~chi_40 u)
     9.45192723E-01    2     1000021         2   # BR(~u_R -> ~g      u)
#
#         PDG            Width
DECAY   1000001     1.78637907E+02   # sdown_L decays
#          BR         NDA      ID1       ID2
     2.75394862E-03    2     1000022         1   # BR(~d_L -> ~chi_10 d)
     9.86550877E-05    2     1000023         1   # BR(~d_L -> ~chi_20 d)
     3.44496832E-04    2     1000025         1   # BR(~d_L -> ~chi_30 d)
     4.78162802E-02    2     1000035         1   # BR(~d_L -> ~chi_40 d)
     8.53272042E-06    2    -1000024         2   # BR(~d_L -> ~chi_1- u)
     9.57324476E-02    2    -1000037         2   # BR(~d_L -> ~chi_2- u)
     8.53245639E-01    2     1000021         1   # BR(~d_L -> ~g      d)
#
#         PDG            Width
DECAY   2000001     1.54438238E+02   # sdown_R decays
#          BR         NDA      ID1       ID2
     1.09088765E-02    2     1000022         1   # BR(~d_R -> ~chi_10 d)
     3.48484344E-05    2     1000023         1   # BR(~d_R -> ~chi_20 d)
     3.35106773E-03    2     1000025         1   # BR(~d_R -> ~chi_30 d)
     8.31890519E-09    2     1000035         1   # BR(~d_R -> ~chi_40 d)
     9.85705199E-01    2     1000021         1   # BR(~d_R -> ~g      d)
#
#         PDG            Width
DECAY   1000004     1.78617069E+02   # scharm_L decays
#          BR         NDA      ID1       ID2
     1.99473169E-03    2     1000022         4   # BR(~c_L -> ~chi_10 c)
     1.97308664E-05    2     1000023         4   # BR(~c_L -> ~chi_20 c)
     1.24459603E-03    2     1000025         4   # BR(~c_L -> ~chi_30 c)
     4.77657465E-02    2     1000035         4   # BR(~c_L -> ~chi_40 c)
     5.38643307E-04    2     1000024         3   # BR(~c_L -> ~chi_1+ s)
     9.54102320E-02    2     1000037         3   # BR(~c_L -> ~chi_2+ s)
     8.53026320E-01    2     1000021         4   # BR(~c_L -> ~g      c)
#
#         PDG            Width
DECAY   2000004     1.61176650E+02   # scharm_R decays
#          BR         NDA      ID1       ID2
     4.18253665E-02    2     1000022         4   # BR(~c_R -> ~chi_10 c)
     1.33611650E-04    2     1000023         4   # BR(~c_R -> ~chi_20 c)
     1.28482666E-02    2     1000025         4   # BR(~c_R -> ~chi_30 c)
     3.19095063E-08    2     1000035         4   # BR(~c_R -> ~chi_40 c)
     9.45192723E-01    2     1000021         4   # BR(~c_R -> ~g      c)
#
#         PDG            Width
DECAY   1000003     1.78637907E+02   # sstrange_L decays
#          BR         NDA      ID1       ID2
     2.75394862E-03    2     1000022         3   # BR(~s_L -> ~chi_10 s)
     9.86550877E-05    2     1000023         3   # BR(~s_L -> ~chi_20 s)
     3.44496832E-04    2     1000025         3   # BR(~s_L -> ~chi_30 s)
     4.78162802E-02    2     1000035         3   # BR(~s_L -> ~chi_40 s)
     8.53272042E-06    2    -1000024         4   # BR(~s_L -> ~chi_1- c)
     9.57324476E-02    2    -1000037         4   # BR(~s_L -> ~chi_2- c)
     8.53245639E-01    2     1000021         3   # BR(~s_L -> ~g      s)
#
#         PDG            Width
DECAY   2000003     1.54438238E+02   # sstrange_R decays
#          BR         NDA      ID1       ID2
     1.09088765E-02    2     1000022         3   # BR(~s_R -> ~chi_10 s)
     3.48484344E-05    2     1000023         3   # BR(~s_R -> ~chi_20 s)
     3.35106773E-03    2     1000025         3   # BR(~s_R -> ~chi_30 s)
     8.31890519E-09    2     1000035         3   # BR(~s_R -> ~chi_40 s)
     9.85705199E-01    2     1000021         3   # BR(~s_R -> ~g      s)
#
#         PDG            Width
DECAY   1000011     3.13724073E+01   # selectron_L decays
#          BR         NDA      ID1       ID2
     1.18310962E-01    2     1000022        11   # BR(~e_L -> ~chi_10 e-)
     6.46510152E-06    2     1000023        11   # BR(~e_L -> ~chi_20 e-)
     4.67157916E-02    2     1000025        11   # BR(~e_L -> ~chi_30 e-)
     2.77824309E-01    2     1000035        11   # BR(~e_L -> ~chi_40 e-)
     5.01906659E-05    2    -1000024        12   # BR(~e_L -> ~chi_1- nu_e)
     5.57092281E-01    2    -1000037        12   # BR(~e_L -> ~chi_2- nu_e)
#
#         PDG            Width
DECAY   2000011     2.05365547E+01   # selectron_R decays
#          BR         NDA      ID1       ID2
     7.63188879E-01    2     1000022        11   # BR(~e_R -> ~chi_10 e-)
     2.43740638E-03    2     1000023        11   # BR(~e_R -> ~chi_20 e-)
     2.34373138E-01    2     1000025        11   # BR(~e_R -> ~chi_30 e-)
     5.75923815E-07    2     1000035        11   # BR(~e_R -> ~chi_40 e-)
#
#         PDG            Width
DECAY   1000013     3.13724073E+01   # smuon_L decays
#          BR         NDA      ID1       ID2
     1.18310962E-01    2     1000022        13   # BR(~mu_L -> ~chi_10 mu-)
     6.46510152E-06    2     1000023        13   # BR(~mu_L -> ~chi_20 mu-)
     4.67157916E-02    2     1000025        13   # BR(~mu_L -> ~chi_30 mu-)
     2.77824309E-01    2     1000035        13   # BR(~mu_L -> ~chi_40 mu-)
     5.01906659E-05    2    -1000024        14   # BR(~mu_L -> ~chi_1- nu_mu)
     5.57092281E-01    2    -1000037        14   # BR(~mu_L -> ~chi_2- nu_mu)
#
#         PDG            Width
DECAY   2000013     2.05365547E+01   # smuon_R decays
#          BR         NDA      ID1       ID2
     7.63188879E-01    2     1000022        13   # BR(~mu_R -> ~chi_10 mu-)
     2.43740638E-03    2     1000023        13   # BR(~mu_R -> ~chi_20 mu-)
     2.34373138E-01    2     1000025        13   # BR(~mu_R -> ~chi_30 mu-)
     5.75923815E-07    2     1000035        13   # BR(~mu_R -> ~chi_40 mu-)
#
#         PDG            Width
DECAY   1000015     3.08573266E+01   # stau_1 decays
#          BR         NDA      ID1       ID2
     3.74375571E-01    2     1000022        15   # BR(~tau_1 -> ~chi_10  tau-)
     4.40439053E-02    2     1000023        15   # BR(~tau_1 -> ~chi_20  tau-)
     1.05541540E-01    2     1000025        15   # BR(~tau_1 -> ~chi_30  tau-)
     1.40125704E-01    2     1000035        15   # BR(~tau_1 -> ~chi_40  tau-)
     5.49327703E-02    2    -1000024        16   # BR(~tau_1 -> ~chi_1-  nu_tau)
     2.80980510E-01    2    -1000037        16   # BR(~tau_1 -> ~chi_2-  nu_tau)
#
#         PDG            Width
DECAY   2000015     3.08179496E+01   # stau_2 decays
#          BR         NDA      ID1       ID2
     2.84357727E-01    2     1000022        15   # BR(~tau_2 -> ~chi_10  tau-)
     6.13492551E-02    2     1000023        15   # BR(~tau_2 -> ~chi_20  tau-)
     1.74669165E-01    2     1000025        15   # BR(~tau_2 -> ~chi_30  tau-)
     1.42957678E-01    2     1000035        15   # BR(~tau_2 -> ~chi_40  tau-)
     5.00104844E-02    2    -1000024        16   # BR(~tau_2 -> ~chi_1-  nu_tau)
     2.86655691E-01    2    -1000037        16   # BR(~tau_2 -> ~chi_2-  nu_tau)
#
#         PDG            Width
DECAY   1000012     3.13830176E+01   # snu_eL decays
#          BR         NDA      ID1       ID2
     1.31627413E-01    2     1000022        12   # BR(~nu_eL -> ~chi_10 nu_e)
     1.39828290E-03    2     1000023        12   # BR(~nu_eL -> ~chi_20 nu_e)
     3.08125573E-02    2     1000025        12   # BR(~nu_eL -> ~chi_30 nu_e)
     2.78188169E-01    2     1000035        12   # BR(~nu_eL -> ~chi_40 nu_e)
     3.16656597E-03    2     1000024        11   # BR(~nu_eL -> ~chi_1+ e-)
     5.54807012E-01    2     1000037        11   # BR(~nu_eL -> ~chi_2+ e-)
#
#         PDG            Width
DECAY   1000014     3.13830176E+01   # snu_muL decays
#          BR         NDA      ID1       ID2
     1.31627413E-01    2     1000022        14   # BR(~nu_muL -> ~chi_10 nu_mu)
     1.39828290E-03    2     1000023        14   # BR(~nu_muL -> ~chi_20 nu_mu)
     3.08125573E-02    2     1000025        14   # BR(~nu_muL -> ~chi_30 nu_mu)
     2.78188169E-01    2     1000035        14   # BR(~nu_muL -> ~chi_40 nu_mu)
     3.16656597E-03    2     1000024        13   # BR(~nu_muL -> ~chi_1+ mu-)
     5.54807012E-01    2     1000037        13   # BR(~nu_muL -> ~chi_2+ mu-)
#
#         PDG            Width
DECAY   1000016     3.46498970E+01   # snu_tauL decays
#          BR         NDA      ID1       ID2
     1.19276324E-01    2     1000022        16   # BR(~nu_tauL -> ~chi_10 nu_tau)
     1.26708292E-03    2     1000023        16   # BR(~nu_tauL -> ~chi_20 nu_tau)
     2.79214632E-02    2     1000025        16   # BR(~nu_tauL -> ~chi_30 nu_tau)
     2.52256729E-01    2     1000035        16   # BR(~nu_tauL -> ~chi_40 nu_tau)
     9.61871195E-02    2     1000024        15   # BR(~nu_tauL -> ~chi_1+ tau-)
     5.03091281E-01    2     1000037        15   # BR(~nu_tauL -> ~chi_2+ tau-)
#
#         PDG            Width
DECAY   1000024     1.93983430E-04   # chargino1+ decays
#           BR         NDA      ID1       ID2       ID3
     3.33503076E-01    3     1000022         2        -1   # BR(~chi_1+ -> ~chi_10 u    db)
     3.33503076E-01    3     1000022         4        -3   # BR(~chi_1+ -> ~chi_10 c    sb)
     1.11169117E-01    3     1000022       -11        12   # BR(~chi_1+ -> ~chi_10 e+   nu_e)
     1.11169117E-01    3     1000022       -13        14   # BR(~chi_1+ -> ~chi_10 mu+  nu_mu)
     1.10655615E-01    3     1000022       -15        16   # BR(~chi_1+ -> ~chi_10 tau+ nu_tau)
#
#         PDG            Width
DECAY   1000037     6.28108328E+01   # chargino2+ decays
#          BR         NDA      ID1       ID2
     3.79312658E-01    2     1000006        -5   # BR(~chi_2+ -> ~t_1     bb)
     3.69159419E-01    2    -1000005         6   # BR(~chi_2+ -> ~b_1*    t )
     6.39779224E-02    2     1000024        23   # BR(~chi_2+ -> ~chi_1+  Z )
     1.05968588E-02    2     1000022        24   # BR(~chi_2+ -> ~chi_10  W+)
     6.24732568E-02    2     1000023        24   # BR(~chi_2+ -> ~chi_20  W+)
     5.16321922E-02    2     1000025        24   # BR(~chi_2+ -> ~chi_30  W+)
     6.28476925E-02    2     1000024        25   # BR(~chi_2+ -> ~chi_1+  h )
#
#         PDG            Width
DECAY   1000022     0.00000000E+00   # neutralino1 decays
#
#         PDG            Width
DECAY   1000023     1.79936616E-04   # neutralino2 decays
#          BR         NDA      ID1       ID2
     5.62958459E-04    2     1000022        22   # BR(~chi_20 -> ~chi_10 gam)
#           BR         NDA      ID1       ID2       ID3
     1.17726367E-01    3     1000022        -2         2   # BR(~chi_20 -> ~chi_10 ub      u)
     1.52679417E-01    3     1000022        -1         1   # BR(~chi_20 -> ~chi_10 db      d)
     1.17726367E-01    3     1000022        -4         4   # BR(~chi_20 -> ~chi_10 cb      c)
     1.52679417E-01    3     1000022        -3         3   # BR(~chi_20 -> ~chi_10 sb      s)
     1.44035990E-01    3     1000022        -5         5   # BR(~chi_20 -> ~chi_10 bb      b)
     3.49935718E-02    3     1000022       -11        11   # BR(~chi_20 -> ~chi_10 e+      e-)
     3.49935718E-02    3     1000022       -13        13   # BR(~chi_20 -> ~chi_10 mu+     mu-)
     3.47342398E-02    3     1000022       -15        15   # BR(~chi_20 -> ~chi_10 tau+    tau-)
     6.99556511E-02    3     1000022       -12        12   # BR(~chi_20 -> ~chi_10 nu_eb   nu_e)
     6.99556511E-02    3     1000022       -14        14   # BR(~chi_20 -> ~chi_10 nu_mub  nu_mu)
     6.99556486E-02    3     1000022       -16        16   # BR(~chi_20 -> ~chi_10 nu_taub nu_tau)
     2.14052897E-07    3     1000024        -2         1   # BR(~chi_20 -> ~chi_1+ ub      d)
     2.14052897E-07    3    -1000024        -1         2   # BR(~chi_20 -> ~chi_1- db      u)
     2.14052897E-07    3     1000024        -4         3   # BR(~chi_20 -> ~chi_1+ cb      s)
     2.14052897E-07    3    -1000024        -3         4   # BR(~chi_20 -> ~chi_1- sb      c)
     7.13510353E-08    3     1000024       -12        11   # BR(~chi_20 -> ~chi_1+ nu_eb   e-)
     7.13510353E-08    3    -1000024        12       -11   # BR(~chi_20 -> ~chi_1- nu_e    e+)
     7.13510353E-08    3     1000024       -14        13   # BR(~chi_20 -> ~chi_1+ nu_mub  mu-)
     7.13510353E-08    3    -1000024        14       -13   # BR(~chi_20 -> ~chi_1- nu_mu   mu+)
     4.30410977E-09    3     1000024       -16        15   # BR(~chi_20 -> ~chi_1+ nu_taub tau-)
     4.30410977E-09    3    -1000024        16       -15   # BR(~chi_20 -> ~chi_1- nu_tau  tau+)
#
#         PDG            Width
DECAY   1000025     9.41819645E-06   # neutralino3 decays
#          BR         NDA      ID1       ID2
     2.74953744E-02    2     1000022        22   # BR(~chi_30 -> ~chi_10 gam)
     2.38635802E-02    2     1000023        22   # BR(~chi_30 -> ~chi_20 gam)
#           BR         NDA      ID1       ID2       ID3
     9.99973262E-02    3     1000022        -2         2   # BR(~chi_30 -> ~chi_10 ub      u)
     1.29278881E-01    3     1000022        -1         1   # BR(~chi_30 -> ~chi_10 db      d)
     9.99973262E-02    3     1000022        -4         4   # BR(~chi_30 -> ~chi_10 cb      c)
     1.29278881E-01    3     1000022        -3         3   # BR(~chi_30 -> ~chi_10 sb      s)
     1.24360420E-01    3     1000022        -5         5   # BR(~chi_30 -> ~chi_10 bb      b)
     2.93048994E-02    3     1000022       -11        11   # BR(~chi_30 -> ~chi_10 e+      e-)
     2.93048994E-02    3     1000022       -13        13   # BR(~chi_30 -> ~chi_10 mu+     mu-)
     2.92521196E-02    3     1000022       -15        15   # BR(~chi_30 -> ~chi_10 tau+    tau-)
     5.93832122E-02    3     1000022       -12        12   # BR(~chi_30 -> ~chi_10 nu_eb   nu_e)
     5.93832122E-02    3     1000022       -14        14   # BR(~chi_30 -> ~chi_10 nu_mub  nu_mu)
     5.93830893E-02    3     1000022       -16        16   # BR(~chi_30 -> ~chi_10 nu_taub nu_tau)
     1.59111157E-03    3     1000023        -2         2   # BR(~chi_30 -> ~chi_20 ub      u)
     2.06358762E-03    3     1000023        -1         1   # BR(~chi_30 -> ~chi_20 db      d)
     1.59111157E-03    3     1000023        -4         4   # BR(~chi_30 -> ~chi_20 cb      c)
     2.06358762E-03    3     1000023        -3         3   # BR(~chi_30 -> ~chi_20 sb      s)
     1.38952076E-04    3     1000023        -5         5   # BR(~chi_30 -> ~chi_20 bb      b)
     4.73010509E-04    3     1000023       -11        11   # BR(~chi_30 -> ~chi_20 e+      e-)
     4.73010509E-04    3     1000023       -13        13   # BR(~chi_30 -> ~chi_20 mu+     mu-)
     4.06701589E-04    3     1000023       -15        15   # BR(~chi_30 -> ~chi_20 tau+    tau-)
     9.45447815E-04    3     1000023       -12        12   # BR(~chi_30 -> ~chi_20 nu_eb   nu_e)
     9.45447815E-04    3     1000023       -14        14   # BR(~chi_30 -> ~chi_20 nu_mub  nu_mu)
     9.45447826E-04    3     1000023       -16        16   # BR(~chi_30 -> ~chi_20 nu_taub nu_tau)
     1.48100186E-02    3     1000024        -2         1   # BR(~chi_30 -> ~chi_1+ ub      d)
     1.48100186E-02    3    -1000024        -1         2   # BR(~chi_30 -> ~chi_1- db      u)
     1.48100186E-02    3     1000024        -4         3   # BR(~chi_30 -> ~chi_1+ cb      s)
     1.48100186E-02    3    -1000024        -3         4   # BR(~chi_30 -> ~chi_1- sb      c)
     4.93662834E-03    3     1000024       -12        11   # BR(~chi_30 -> ~chi_1+ nu_eb   e-)
     4.93662834E-03    3    -1000024        12       -11   # BR(~chi_30 -> ~chi_1- nu_e    e+)
     4.93662834E-03    3     1000024       -14        13   # BR(~chi_30 -> ~chi_1+ nu_mub  mu-)
     4.93662834E-03    3    -1000024        14       -13   # BR(~chi_30 -> ~chi_1- nu_mu   mu+)
     4.54638659E-03    3     1000024       -16        15   # BR(~chi_30 -> ~chi_1+ nu_taub tau-)
     4.54638659E-03    3    -1000024        16       -15   # BR(~chi_30 -> ~chi_1- nu_tau  tau+)
#
#         PDG            Width
DECAY   1000035     6.27984056E+01   # neutralino4 decays
#          BR         NDA      ID1       ID2
     4.52974557E-03    2     1000022        23   # BR(~chi_40 -> ~chi_10   Z )
     4.00155878E-02    2     1000023        23   # BR(~chi_40 -> ~chi_20   Z )
     1.94292191E-02    2     1000025        23   # BR(~chi_40 -> ~chi_30   Z )
     6.24042473E-02    2     1000024       -24   # BR(~chi_40 -> ~chi_1+   W-)
     6.24042473E-02    2    -1000024        24   # BR(~chi_40 -> ~chi_1-   W+)
     6.21751266E-03    2     1000022        25   # BR(~chi_40 -> ~chi_10   h )
     2.35903386E-02    2     1000023        25   # BR(~chi_40 -> ~chi_20   h )
     3.28752050E-02    2     1000025        25   # BR(~chi_40 -> ~chi_30   h )
     1.86258201E-01    2     1000006        -6   # BR(~chi_40 -> ~t_1      tb)
     1.86258201E-01    2    -1000006         6   # BR(~chi_40 -> ~t_1*     t )
     1.88008747E-01    2     1000005        -5   # BR(~chi_40 -> ~b_1      bb)
     1.88008747E-01    2    -1000005         5   # BR(~chi_40 -> ~b_1*     b )
#
#         PDG            Width
DECAY        25     3.83808658E-03   # h decays
#          BR         NDA      ID1       ID2
     6.14468935E-01    2           5        -5   # BR(h -> b       bb     )
     6.70935735E-02    2         -15        15   # BR(h -> tau+    tau-   )
     2.37517458E-04    2         -13        13   # BR(h -> mu+     mu-    )
     5.04848105E-04    2           3        -3   # BR(h -> s       sb     )
     2.19285249E-02    2           4        -4   # BR(h -> c       cb     )
     7.06140427E-02    2          21        21   # BR(h -> g       g      )
     2.37494119E-03    2          22        22   # BR(h -> gam     gam    )
     1.50046597E-03    2          22        23   # BR(h -> Z       gam    )
     1.96961491E-01    2          24       -24   # BR(h -> W+      W-     )
     2.43156609E-02    2          23        23   # BR(h -> Z       Z      )
#
#         PDG            Width
DECAY        35     5.50490519E+01   # H decays
#          BR         NDA      ID1       ID2
     3.55563409E-01    2           5        -5   # BR(H -> b       bb     )
     6.02299643E-02    2         -15        15   # BR(H -> tau+    tau-   )
     2.12958565E-04    2         -13        13   # BR(H -> mu+     mu-    )
     2.51893252E-04    2           3        -3   # BR(H -> s       sb     )
     7.06439851E-08    2           4        -4   # BR(H -> c       cb     )
     7.07999816E-03    2           6        -6   # BR(H -> t       tb     )
     7.89846139E-07    2          21        21   # BR(H -> g       g      )
     8.69348367E-10    2          22        22   # BR(H -> gam     gam    )
     1.82201032E-09    2          23        22   # BR(H -> Z       gam    )
     1.64862599E-06    2          24       -24   # BR(H -> W+      W-     )
     8.23741862E-07    2          23        23   # BR(H -> Z       Z      )
     6.61481108E-06    2          25        25   # BR(H -> h       h      )
     1.90767644E-24    2          36        36   # BR(H -> A       A      )
     2.97014574E-20    2          23        36   # BR(H -> Z       A      )
     1.86007622E-03    2     1000024  -1000024   # BR(H -> ~chi_1+ ~chi_1-)
     1.59604606E-01    2     1000024  -1000037   # BR(H -> ~chi_1+ ~chi_2-)
     1.59604606E-01    2     1000037  -1000024   # BR(H -> ~chi_2+ ~chi_1-)
     2.09382146E-02    2     1000022   1000022   # BR(H -> ~chi_10 ~chi_10)
     6.78185673E-04    2     1000023   1000023   # BR(H -> ~chi_20 ~chi_20)
     1.25581354E-02    2     1000025   1000025   # BR(H -> ~chi_30 ~chi_30)
     2.74086803E-02    2     1000022   1000023   # BR(H -> ~chi_10 ~chi_20)
     1.35823796E-02    2     1000022   1000025   # BR(H -> ~chi_10 ~chi_30)
     2.19163759E-02    2     1000022   1000035   # BR(H -> ~chi_10 ~chi_40)
     1.05248395E-02    2     1000023   1000025   # BR(H -> ~chi_20 ~chi_30)
     8.13238654E-02    2     1000023   1000035   # BR(H -> ~chi_20 ~chi_40)
     5.68570525E-02    2     1000025   1000035   # BR(H -> ~chi_30 ~chi_40)
     3.05295413E-04    2     1000006  -1000006   # BR(H -> ~t_1    ~t_1*  )
     4.74468548E-03    2     1000006  -2000006   # BR(H -> ~t_1    ~t_2*  )
     4.74468548E-03    2     2000006  -1000006   # BR(H -> ~t_2    ~t_1*  )
     1.42844847E-07    2     1000005  -1000005   # BR(H -> ~b_1    ~b_1*  )
#
#         PDG            Width
DECAY        36     5.50443670E+01   # A decays
#          BR         NDA      ID1       ID2
     3.55619133E-01    2           5        -5   # BR(A -> b       bb     )
     6.02353545E-02    2         -15        15   # BR(A -> tau+    tau-   )
     2.12977456E-04    2         -13        13   # BR(A -> mu+     mu-    )
     2.51956700E-04    2           3        -3   # BR(A -> s       sb     )
     7.11137726E-08    2           4        -4   # BR(A -> c       cb     )
     7.09487497E-03    2           6        -6   # BR(A -> t       tb     )
     1.45781733E-05    2          21        21   # BR(A -> g       g      )
     5.97801846E-08    2          22        22   # BR(A -> gam     gam    )
     1.60231287E-08    2          23        22   # BR(A -> Z       gam    )
     1.64541185E-06    2          23        25   # BR(A -> Z       h      )
     1.87406600E-03    2     1000024  -1000024   # BR(A -> ~chi_1+ ~chi_1-)
     1.59612868E-01    2     1000024  -1000037   # BR(A -> ~chi_1+ ~chi_2-)
     1.59612868E-01    2     1000037  -1000024   # BR(A -> ~chi_2+ ~chi_1-)
     1.81493790E-02    2     1000022   1000022   # BR(A -> ~chi_10 ~chi_10)
     8.57832313E-04    2     1000023   1000023   # BR(A -> ~chi_20 ~chi_20)
     1.05480125E-02    2     1000025   1000025   # BR(A -> ~chi_30 ~chi_30)
     3.33636754E-02    2     1000022   1000023   # BR(A -> ~chi_10 ~chi_20)
     1.11219071E-02    2     1000022   1000025   # BR(A -> ~chi_10 ~chi_30)
     2.31743604E-02    2     1000022   1000035   # BR(A -> ~chi_10 ~chi_40)
     1.16583078E-02    2     1000023   1000025   # BR(A -> ~chi_20 ~chi_30)
     7.70153609E-02    2     1000023   1000035   # BR(A -> ~chi_20 ~chi_40)
     5.98771306E-02    2     1000025   1000035   # BR(A -> ~chi_30 ~chi_40)
     4.85178206E-03    2     1000006  -2000006   # BR(A -> ~t_1    ~t_2*  )
     4.85178206E-03    2    -1000006   2000006   # BR(A -> ~t_1*   ~t_2   )
#
#         PDG            Width
DECAY        37     5.51802974E+01   # H+ decays
#          BR         NDA      ID1       ID2
     5.71448560E-04    2           4        -5   # BR(H+ -> c       bb     )
     6.01021675E-02    2         -15        16   # BR(H+ -> tau+    nu_tau )
     2.12506540E-04    2         -13        14   # BR(H+ -> mu+     nu_mu  )
     3.65726767E-06    2           2        -5   # BR(H+ -> u       bb     )
     1.20389004E-05    2           2        -3   # BR(H+ -> u       sb     )
     2.47678895E-04    2           4        -3   # BR(H+ -> c       sb     )
     3.63860103E-01    2           6        -5   # BR(H+ -> t       bb     )
     1.64317885E-06    2          24        25   # BR(H+ -> W+      h      )
     2.52641279E-14    2          24        36   # BR(H+ -> W+      A      )
     6.24855088E-02    2     1000024   1000022   # BR(H+ -> ~chi_1+ ~chi_10)
     1.00631013E-05    2     1000024   1000023   # BR(H+ -> ~chi_1+ ~chi_20)
     2.35986392E-02    2     1000024   1000025   # BR(H+ -> ~chi_1+ ~chi_30)
     1.59431446E-01    2     1000024   1000035   # BR(H+ -> ~chi_1+ ~chi_40)
     4.50542657E-02    2     1000037   1000022   # BR(H+ -> ~chi_2+ ~chi_10)
     1.58010623E-01    2     1000037   1000023   # BR(H+ -> ~chi_2+ ~chi_20)
     1.16666635E-01    2     1000037   1000025   # BR(H+ -> ~chi_2+ ~chi_30)
     1.59221591E-04    2     1000006  -1000005   # BR(H+ -> ~t_1    ~b_1*  )
     9.57235269E-03    2     2000006  -1000005   # BR(H+ -> ~t_2    ~b_1*  )
