#
#                              ======================
#                              | THE SUSYHIT OUTPUT |
#                              ======================
#
#
#              ------------------------------------------------------
#              |     This is the output of the SUSY-HIT package     |
#              |  created by A.Djouadi, M.Muehlleitner and M.Spira. |
#              |  In case of problems with SUSY-HIT email to        |
#              |           margarete.muehlleitner@kit.edu           |
#              |           michael.spira@psi.ch                     |
#              |           abdelhak.djouadi@cern.ch                 |
#              ------------------------------------------------------
#
#              ------------------------------------------------------
#              |  SUSY Les Houches Accord - MSSM Spectrum + Decays  |
#              |              based on the decay programs           |
#              |                                                    |
#              |                     SDECAY 1.5                     |
#              |                                                    |
#              |  Authors: M.Muhlleitner, A.Djouadi and Y.Mambrini  |
#              |  Ref.:    Comput.Phys.Commun.168(2005)46           |
#              |           [hep-ph/0311167]                         |
#              |                                                    |
#              |                     HDECAY 3.4                     |
#              |                                                    |
#              |  By: A.Djouadi,J.Kalinowski,M.Muhlleitner,M.Spira  |
#              |  Ref.:    Comput.Phys.Commun.108(1998)56           |
#              |           [hep-ph/9704448]                         |
#              |                                                    |
#              |                                                    |
#              |  If not stated otherwise all DRbar couplings and   |
#              |  soft SUSY breaking masses are given at the scale  |
#              |  Q=  0.12074133E+04
#              |                                                    |
#              ------------------------------------------------------
#
#
BLOCK DCINFO  # Decay Program information
     1   SDECAY/HDECAY # decay calculator
     2   1.5  /3.4    # version number
#
BLOCK SPINFO  # Spectrum calculator information
     1    SOFTSUSY    # spectrum calculator                
     2    3.7.3       # version number                     
#
BLOCK MODSEL  # Model selection
     1     0   #  nonUniversal                                     
#
BLOCK SMINPUTS  # Standard Model inputs
         1     1.27934000E+02   # alpha_em^-1(M_Z)^MSbar
         2     1.16639000E-05   # G_F [GeV^-2]
         3     1.17200000E-01   # alpha_S(M_Z)^MSbar
         4     9.11870000E+01   # M_Z pole mass
         5     4.19000000E+00   # mb(mb)^MSbar
         6     1.72500000E+02   # mt pole mass
         7     1.77690000E+00   # mtau pole mass
#
BLOCK MINPAR  # Input parameters - minimal models
         3     2.00000000E+01   # tanb                
#
BLOCK EXTPAR  # Input parameters - non-minimal models
         0    -1.00000000E+00   # Set                 
         1     1.59990000E+02   # M_1(MX)             
         2     2.00000000E+03   # M_2(MX)             
         3     1.80000000E+03   # M_3(MX)             
        11     2.52959179E+03   # At(MX)              
        12     0.00000000E+00   # Ab(MX)              
        13     0.00000000E+00   # Atau(MX)            
        23    -1.85900000E+02   # mu(MX)              
        25     2.00000000E+01   # tan                 
        26     4.00000000E+03   # mA(pole)            
        31     4.00000000E+03   # meL(MX)             
        32     4.00000000E+03   # mmuL(MX)            
        33     4.00000000E+03   # mtauL(MX)           
        34     4.00000000E+03   # meR(MX)             
        35     4.00000000E+03   # mmuR(MX)            
        36     4.00000000E+03   # mtauR(MX)           
        41     4.00000000E+03   # mqL1(MX)            
        42     4.00000000E+03   # mqL2(MX)            
        43     2.22485961E+03   # mqL3(MX)            
        44     4.00000000E+03   # muR(MX)             
        45     4.00000000E+03   # mcR(MX)             
        46     6.59990000E+02   # mtR(MX)             
        47     4.00000000E+03   # mdR(MX)             
        48     4.00000000E+03   # msR(MX)             
        49     4.00000000E+03   # mbR(MX)             
#
BLOCK MASS  # Mass Spectrum
# PDG code           mass       particle
        24     8.04182886E+01   # W+
        25     1.25331341E+02   # h
        35     4.00000350E+03   # H
        36     3.99999641E+03   # A
        37     4.00103407E+03   # H+
         5     4.81337004E+00   # b-quark pole mass calculated from mb(mb)_Msbar
   1000001     4.02328017E+03   # ~d_L
   2000001     4.02054374E+03   # ~d_R
   1000002     4.02262955E+03   # ~u_L
   2000002     4.02107107E+03   # ~u_R
   1000003     4.02328017E+03   # ~s_L
   2000003     4.02054374E+03   # ~s_R
   1000004     4.02262955E+03   # ~c_L
   2000004     4.02107107E+03   # ~c_R
   1000005     2.25142214E+03   # ~b_1
   2000005     4.02429469E+03   # ~b_2
   1000006     7.02728682E+02   # ~t_1
   2000006     2.26176484E+03   # ~t_2
   1000011     4.00386533E+03   # ~e_L
   2000011     4.00371942E+03   # ~e_R
   1000012     4.00275334E+03   # ~nu_eL
   1000013     4.00386533E+03   # ~mu_L
   2000013     4.00371942E+03   # ~mu_R
   1000014     4.00275334E+03   # ~nu_muL
   1000015     4.00517744E+03   # ~tau_1
   2000015     4.00744453E+03   # ~tau_2
   1000016     4.00443599E+03   # ~nu_tauL
   1000021     1.98929385E+03   # ~g
   1000022     1.44736392E+02   # ~chi_10
   1000023    -1.96225387E+02   # ~chi_20
   1000025     2.11120272E+02   # ~chi_30
   1000035     2.06722156E+03   # ~chi_40
   1000024     1.92207581E+02   # ~chi_1+
   1000037     2.06738921E+03   # ~chi_2+
#
BLOCK NMIX  # Neutralino Mixing Matrix
  1  1     8.15307300E-01   # N_11
  1  2    -1.34561934E-02   # N_12
  1  3    -4.64126194E-01   # N_13
  1  4    -3.45947703E-01   # N_14
  2  1    -9.38199631E-02   # N_21
  2  2     2.63843658E-02   # N_22
  2  3    -6.95902133E-01   # N_23
  2  4     7.11492727E-01   # N_24
  3  1     5.71376377E-01   # N_31
  3  2     2.51524094E-02   # N_32
  3  3     5.48000283E-01   # N_33
  3  4     6.10403212E-01   # N_34
  4  1    -9.25878817E-04   # N_41
  4  2     9.99244791E-01   # N_42
  4  3    -1.66922349E-03   # N_43
  4  4    -3.88098446E-02   # N_44
#
BLOCK UMIX  # Chargino Mixing Matrix U
  1  1     2.36531963E-03   # U_11
  1  2     9.99997203E-01   # U_12
  2  1    -9.99997203E-01   # U_21
  2  2     2.36531963E-03   # U_22
#
BLOCK VMIX  # Chargino Mixing Matrix V
  1  1     5.48981605E-02   # V_11
  1  2    -9.98491959E-01   # V_12
  2  1    -9.98491959E-01   # V_21
  2  2    -5.48981605E-02   # V_22
#
BLOCK STOPMIX  # Stop Mixing Matrix
  1  1    -8.32261214E-02   # cos(theta_t)
  1  2     9.96530688E-01   # sin(theta_t)
  2  1    -9.96530688E-01   # -sin(theta_t)
  2  2    -8.32261214E-02   # cos(theta_t)
#
BLOCK SBOTMIX  # Sbottom Mixing Matrix
  1  1     9.99999666E-01   # cos(theta_b)
  1  2    -8.17312601E-04   # sin(theta_b)
  2  1     8.17312601E-04   # -sin(theta_b)
  2  2     9.99999666E-01   # cos(theta_b)
#
BLOCK STAUMIX  # Stau Mixing Matrix
  1  1    -7.04768051E-01   # cos(theta_tau)
  1  2     7.09437802E-01   # sin(theta_tau)
  2  1    -7.09437802E-01   # -sin(theta_tau)
  2  2    -7.04768051E-01   # cos(theta_tau)
#
BLOCK ALPHA  # Higgs mixing
          -5.00300342E-02   # Mixing angle in the neutral Higgs boson sector
#
BLOCK HMIX Q=  1.20741326E+03  # DRbar Higgs Parameters
         1    -1.85900000E+02   # mu(Q)MSSM           
         2     2.00000000E+01   # tan                 
         3     2.43799981E+02   # higgs               
         4     1.61299591E+07   # mA^2(Q)MSSM         
#
BLOCK GAUGE Q=  1.20741326E+03  # The gauge couplings
     1     3.61920965E-01   # gprime(Q) DRbar
     2     6.36097641E-01   # g(Q) DRbar
     3     1.03105558E+00   # g3(Q) DRbar
#
BLOCK AU Q=  1.20741326E+03  # The trilinear couplings
  1  1     0.00000000E+00   # A_u(Q) DRbar
  2  2     1.14864012E-06   # A_c(Q) DRbar
  3  3     2.52959179E+03   # A_t(Q) DRbar
#
BLOCK AD Q=  1.20741326E+03  # The trilinear couplings
  1  1     4.21362776E-07   # A_d(Q) DRbar
  2  2     4.21402739E-07   # A_s(Q) DRbar
  3  3     7.54264460E-07   # A_b(Q) DRbar
#
BLOCK AE Q=  1.20741326E+03  # The trilinear couplings
  1  1     0.00000000E+00   # A_e(Q) DRbar
  2  2     9.15904210E-08   # A_mu(Q) DRbar
  3  3     9.25312693E-08   # A_tau(Q) DRbar
#
BLOCK Yu Q=  1.20741326E+03  # The Yukawa couplings
  1  1     0.00000000E+00   # y_u(Q) DRbar
  2  2     0.00000000E+00   # y_c(Q) DRbar
  3  3     8.68275904E-01   # y_t(Q) DRbar
#
BLOCK Yd Q=  1.20741326E+03  # The Yukawa couplings
  1  1     0.00000000E+00   # y_d(Q) DRbar
  2  2     0.00000000E+00   # y_s(Q) DRbar
  3  3     2.82105522E-01   # y_b(Q) DRbar
#
BLOCK Ye Q=  1.20741326E+03  # The Yukawa couplings
  1  1     0.00000000E+00   # y_e(Q) DRbar
  2  2     0.00000000E+00   # y_mu(Q) DRbar
  3  3     2.03890505E-01   # y_tau(Q) DRbar
#
BLOCK MSOFT Q=  1.20741326E+03  # The soft SUSY breaking masses at the scale Q
         1     1.59990000E+02   # M_1(Q)              
         2     2.00000000E+03   # M_2(Q)              
         3     1.80000000E+03   # M_3(Q)              
        21     1.58489912E+07   # M^2_Hd              
        22    -4.73489624E+04   # M^2_Hu              
        31     4.00000000E+03   # M_eL                
        32     4.00000000E+03   # M_muL               
        33     4.00000000E+03   # M_tauL              
        34     4.00000000E+03   # M_eR                
        35     4.00000000E+03   # M_muR               
        36     4.00000000E+03   # M_tauR              
        41     4.00000000E+03   # M_q1L               
        42     4.00000000E+03   # M_q2L               
        43     2.22485961E+03   # M_q3L               
        44     4.00000000E+03   # M_uR                
        45     4.00000000E+03   # M_cR                
        46     6.59989995E+02   # M_tR                
        47     4.00000000E+03   # M_dR                
        48     4.00000000E+03   # M_sR                
        49     4.00000000E+03   # M_bR                
#
#
#
#                             =================
#                             |The decay table|
#                             =================
#
# - The QCD corrections to the decays gluino -> squark  + quark
#                                     squark -> gaugino + quark_prime
#                                     squark -> squark_prime + Higgs
#                                     squark -> gluino  + quark
#   are included.
#
# - The multi-body decays for the inos, stops and sbottoms are included.
#
# - The loop induced decays for the gluino, neutralinos and stops
#   are included.
#
# - The SUSY decays of the top quark are included.
#
#
#         PDG            Width
DECAY         6     1.40371442E+00   # top decays
#          BR         NDA      ID1       ID2
     1.00000000E+00    2           5        24   # BR(t ->  b    W+)
#
#         PDG            Width
DECAY   1000021     3.23691666E+01   # gluino decays
#          BR         NDA      ID1       ID2
     5.00000000E-01    2     1000006        -6   # BR(~g -> ~t_1  tb)
     5.00000000E-01    2    -1000006         6   # BR(~g -> ~t_1* t )
#
#         PDG            Width
DECAY   1000006     1.81620594E+01   # stop1 decays
#          BR         NDA      ID1       ID2
     8.86806528E-02    2     1000022         6   # BR(~t_1 -> ~chi_10 t )
     2.15103654E-01    2     1000023         6   # BR(~t_1 -> ~chi_20 t )
     2.07312568E-01    2     1000025         6   # BR(~t_1 -> ~chi_30 t )
     4.88903125E-01    2     1000024         5   # BR(~t_1 -> ~chi_1+ b )
#
#         PDG            Width
DECAY   2000006     7.23308410E+01   # stop2 decays
#          BR         NDA      ID1       ID2
     6.19871438E-02    2     1000022         6   # BR(~t_2 -> ~chi_10 t )
     2.26261784E-01    2     1000023         6   # BR(~t_2 -> ~chi_20 t )
     1.59097415E-01    2     1000025         6   # BR(~t_2 -> ~chi_30 t )
     1.77907244E-03    2     1000035         6   # BR(~t_2 -> ~chi_40 t )
     4.98814698E-02    2     1000024         5   # BR(~t_2 -> ~chi_1+ b )
     6.74860494E-03    2     1000037         5   # BR(~t_2 -> ~chi_2+ b )
     1.11872481E-01    2     1000021         6   # BR(~t_2 -> ~g      t )
     2.47840969E-01    2     1000006        25   # BR(~t_2 -> ~t_1    h )
     1.34531060E-01    2     1000006        23   # BR(~t_2 -> ~t_1    Z )
#
#         PDG            Width
DECAY   1000005     6.91247853E+01   # sbottom1 decays
#          BR         NDA      ID1       ID2
     1.34161875E-02    2     1000022         5   # BR(~b_1 -> ~chi_10 b )
     2.23366911E-02    2     1000023         5   # BR(~b_1 -> ~chi_20 b )
     1.45004647E-02    2     1000025         5   # BR(~b_1 -> ~chi_30 b )
     3.26957203E-03    2     1000035         5   # BR(~b_1 -> ~chi_40 b )
     4.58284723E-01    2    -1000024         6   # BR(~b_1 -> ~chi_1- t )
     2.61240826E-03    2    -1000037         6   # BR(~b_1 -> ~chi_2- t )
     1.21141031E-01    2     1000021         5   # BR(~b_1 -> ~g      b )
     3.64438922E-01    2     1000006       -24   # BR(~b_1 -> ~t_1    W-)
#
#         PDG            Width
DECAY   2000005     1.64413562E+02   # sbottom2 decays
#          BR         NDA      ID1       ID2
     1.68376414E-02    2     1000022         5   # BR(~b_2 -> ~chi_10 b )
     1.76332651E-02    2     1000023         5   # BR(~b_2 -> ~chi_20 b )
     1.52965187E-02    2     1000025         5   # BR(~b_2 -> ~chi_30 b )
     1.75109582E-07    2     1000035         5   # BR(~b_2 -> ~chi_40 b )
     3.60629875E-02    2    -1000024         6   # BR(~b_2 -> ~chi_1- t )
     3.37891753E-07    2    -1000037         6   # BR(~b_2 -> ~chi_2- t )
     9.14057107E-01    2     1000021         5   # BR(~b_2 -> ~g      b )
     2.50428914E-05    2     1000005        25   # BR(~b_2 -> ~b_1    h )
     3.14576923E-05    2     1000005        23   # BR(~b_2 -> ~b_1    Z )
     1.14137066E-06    2     1000006       -24   # BR(~b_2 -> ~t_1    W-)
     5.43250354E-05    2     2000006       -24   # BR(~b_2 -> ~t_2    W-)
#
#         PDG            Width
DECAY   1000002     1.76260770E+02   # sup_L decays
#          BR         NDA      ID1       ID2
     1.75869858E-03    2     1000022         2   # BR(~u_L -> ~chi_10 u)
     6.49981374E-06    2     1000023         2   # BR(~u_L -> ~chi_20 u)
     1.56897359E-03    2     1000025         2   # BR(~u_L -> ~chi_30 u)
     4.81100199E-02    2     1000035         2   # BR(~u_L -> ~chi_40 u)
     5.30958206E-04    2     1000024         1   # BR(~u_L -> ~chi_1+ d)
     9.60977797E-02    2     1000037         1   # BR(~u_L -> ~chi_2+ d)
     8.51927070E-01    2     1000021         2   # BR(~u_L -> ~g      u)
#
#         PDG            Width
DECAY   2000002     1.58968010E+02   # sup_R decays
#          BR         NDA      ID1       ID2
     3.74166496E-02    2     1000022         2   # BR(~u_R -> ~chi_10 u)
     4.94491115E-04    2     1000023         2   # BR(~u_R -> ~chi_20 u)
     1.83278394E-02    2     1000025         2   # BR(~u_R -> ~chi_30 u)
     2.63418591E-08    2     1000035         2   # BR(~u_R -> ~chi_40 u)
     9.43760994E-01    2     1000021         2   # BR(~u_R -> ~g      u)
#
#         PDG            Width
DECAY   1000001     1.76279761E+02   # sdown_L decays
#          BR         NDA      ID1       ID2
     2.49329527E-03    2     1000022         1   # BR(~d_L -> ~chi_10 d)
     1.71899530E-04    2     1000023         1   # BR(~d_L -> ~chi_20 d)
     6.09460223E-04    2     1000025         1   # BR(~d_L -> ~chi_30 d)
     4.81576067E-02    2     1000035         1   # BR(~d_L -> ~chi_40 d)
     9.85711524E-07    2    -1000024         2   # BR(~d_L -> ~chi_1- u)
     9.64152837E-02    2    -1000037         2   # BR(~d_L -> ~chi_2- u)
     8.52151469E-01    2     1000021         1   # BR(~d_L -> ~g      d)
#
#         PDG            Width
DECAY   2000001     1.52217378E+02   # sdown_R decays
#          BR         NDA      ID1       ID2
     9.76769425E-03    2     1000022         1   # BR(~d_R -> ~chi_10 d)
     1.29087869E-04    2     1000023         1   # BR(~d_R -> ~chi_20 d)
     4.78451731E-03    2     1000025         1   # BR(~d_R -> ~chi_30 d)
     6.87532526E-09    2     1000035         1   # BR(~d_R -> ~chi_40 d)
     9.85318694E-01    2     1000021         1   # BR(~d_R -> ~g      d)
#
#         PDG            Width
DECAY   1000004     1.76260770E+02   # scharm_L decays
#          BR         NDA      ID1       ID2
     1.75869858E-03    2     1000022         4   # BR(~c_L -> ~chi_10 c)
     6.49981374E-06    2     1000023         4   # BR(~c_L -> ~chi_20 c)
     1.56897359E-03    2     1000025         4   # BR(~c_L -> ~chi_30 c)
     4.81100199E-02    2     1000035         4   # BR(~c_L -> ~chi_40 c)
     5.30958206E-04    2     1000024         3   # BR(~c_L -> ~chi_1+ s)
     9.60977797E-02    2     1000037         3   # BR(~c_L -> ~chi_2+ s)
     8.51927070E-01    2     1000021         4   # BR(~c_L -> ~g      c)
#
#         PDG            Width
DECAY   2000004     1.58968010E+02   # scharm_R decays
#          BR         NDA      ID1       ID2
     3.74166496E-02    2     1000022         4   # BR(~c_R -> ~chi_10 c)
     4.94491115E-04    2     1000023         4   # BR(~c_R -> ~chi_20 c)
     1.83278394E-02    2     1000025         4   # BR(~c_R -> ~chi_30 c)
     2.63418591E-08    2     1000035         4   # BR(~c_R -> ~chi_40 c)
     9.43760994E-01    2     1000021         4   # BR(~c_R -> ~g      c)
#
#         PDG            Width
DECAY   1000003     1.76279761E+02   # sstrange_L decays
#          BR         NDA      ID1       ID2
     2.49329527E-03    2     1000022         3   # BR(~s_L -> ~chi_10 s)
     1.71899530E-04    2     1000023         3   # BR(~s_L -> ~chi_20 s)
     6.09460223E-04    2     1000025         3   # BR(~s_L -> ~chi_30 s)
     4.81576067E-02    2     1000035         3   # BR(~s_L -> ~chi_40 s)
     9.85711524E-07    2    -1000024         4   # BR(~s_L -> ~chi_1- c)
     9.64152837E-02    2    -1000037         4   # BR(~s_L -> ~chi_2- c)
     8.52151469E-01    2     1000021         3   # BR(~s_L -> ~g      s)
#
#         PDG            Width
DECAY   2000003     1.52217378E+02   # sstrange_R decays
#          BR         NDA      ID1       ID2
     9.76769425E-03    2     1000022         3   # BR(~s_R -> ~chi_10 s)
     1.29087869E-04    2     1000023         3   # BR(~s_R -> ~chi_20 s)
     4.78451731E-03    2     1000025         3   # BR(~s_R -> ~chi_30 s)
     6.87532526E-09    2     1000035         3   # BR(~s_R -> ~chi_40 s)
     9.85318694E-01    2     1000021         3   # BR(~s_R -> ~g      s)
#
#         PDG            Width
DECAY   1000011     3.12197466E+01   # selectron_L decays
#          BR         NDA      ID1       ID2
     1.04451892E-01    2     1000022        11   # BR(~e_L -> ~chi_10 e-)
     3.74388411E-04    2     1000023        11   # BR(~e_L -> ~chi_20 e-)
     6.29698895E-02    2     1000025        11   # BR(~e_L -> ~chi_30 e-)
     2.76947910E-01    2     1000035        11   # BR(~e_L -> ~chi_40 e-)
     5.74914783E-06    2    -1000024        12   # BR(~e_L -> ~chi_1- nu_e)
     5.55250171E-01    2    -1000037        12   # BR(~e_L -> ~chi_2- nu_e)
#
#         PDG            Width
DECAY   2000011     2.07916280E+01   # selectron_R decays
#          BR         NDA      ID1       ID2
     6.65379717E-01    2     1000022        11   # BR(~e_R -> ~chi_10 e-)
     8.79152806E-03    2     1000023        11   # BR(~e_R -> ~chi_20 e-)
     3.25828293E-01    2     1000025        11   # BR(~e_R -> ~chi_30 e-)
     4.62767214E-07    2     1000035        11   # BR(~e_R -> ~chi_40 e-)
#
#         PDG            Width
DECAY   1000013     3.12197466E+01   # smuon_L decays
#          BR         NDA      ID1       ID2
     1.04451892E-01    2     1000022        13   # BR(~mu_L -> ~chi_10 mu-)
     3.74388411E-04    2     1000023        13   # BR(~mu_L -> ~chi_20 mu-)
     6.29698895E-02    2     1000025        13   # BR(~mu_L -> ~chi_30 mu-)
     2.76947910E-01    2     1000035        13   # BR(~mu_L -> ~chi_40 mu-)
     5.74914783E-06    2    -1000024        14   # BR(~mu_L -> ~chi_1- nu_mu)
     5.55250171E-01    2    -1000037        14   # BR(~mu_L -> ~chi_2- nu_mu)
#
#         PDG            Width
DECAY   2000013     2.07916280E+01   # smuon_R decays
#          BR         NDA      ID1       ID2
     6.65379717E-01    2     1000022        13   # BR(~mu_R -> ~chi_10 mu-)
     8.79152806E-03    2     1000023        13   # BR(~mu_R -> ~chi_20 mu-)
     3.25828293E-01    2     1000025        13   # BR(~mu_R -> ~chi_30 mu-)
     4.62767214E-07    2     1000035        13   # BR(~mu_R -> ~chi_40 mu-)
#
#         PDG            Width
DECAY   1000015     3.09639636E+01   # stau_1 decays
#          BR         NDA      ID1       ID2
     3.52404035E-01    2     1000022        15   # BR(~tau_1 -> ~chi_10  tau-)
     4.16797998E-02    2     1000023        15   # BR(~tau_1 -> ~chi_20  tau-)
     1.35069376E-01    2     1000025        15   # BR(~tau_1 -> ~chi_30  tau-)
     1.38595658E-01    2     1000035        15   # BR(~tau_1 -> ~chi_40  tau-)
     5.43822410E-02    2    -1000024        16   # BR(~tau_1 -> ~chi_1-  nu_tau)
     2.77868890E-01    2    -1000037        16   # BR(~tau_1 -> ~chi_2-  nu_tau)
#
#         PDG            Width
DECAY   2000015     3.09979170E+01   # stau_2 decays
#          BR         NDA      ID1       ID2
     2.45738587E-01    2     1000022        15   # BR(~tau_2 -> ~chi_10  tau-)
     6.76854013E-02    2     1000023        15   # BR(~tau_2 -> ~chi_20  tau-)
     2.11089152E-01    2     1000025        15   # BR(~tau_2 -> ~chi_30  tau-)
     1.40905767E-01    2     1000035        15   # BR(~tau_2 -> ~chi_40  tau-)
     5.20801896E-02    2    -1000024        16   # BR(~tau_2 -> ~chi_1-  nu_tau)
     2.82500903E-01    2    -1000037        16   # BR(~tau_2 -> ~chi_2-  nu_tau)
#
#         PDG            Width
DECAY   1000012     3.12307004E+01   # snu_eL decays
#          BR         NDA      ID1       ID2
     1.17232520E-01    2     1000022        12   # BR(~nu_eL -> ~chi_10 nu_e)
     3.26634181E-03    2     1000023        12   # BR(~nu_eL -> ~chi_20 nu_e)
     4.61514788E-02    2     1000025        12   # BR(~nu_eL -> ~chi_30 nu_e)
     2.77246131E-01    2     1000035        12   # BR(~nu_eL -> ~chi_40 nu_e)
     3.09503305E-03    2     1000024        11   # BR(~nu_eL -> ~chi_1+ e-)
     5.53008496E-01    2     1000037        11   # BR(~nu_eL -> ~chi_2+ e-)
#
#         PDG            Width
DECAY   1000014     3.12307004E+01   # snu_muL decays
#          BR         NDA      ID1       ID2
     1.17232520E-01    2     1000022        14   # BR(~nu_muL -> ~chi_10 nu_mu)
     3.26634181E-03    2     1000023        14   # BR(~nu_muL -> ~chi_20 nu_mu)
     4.61514788E-02    2     1000025        14   # BR(~nu_muL -> ~chi_30 nu_mu)
     2.77246131E-01    2     1000035        14   # BR(~nu_muL -> ~chi_40 nu_mu)
     3.09503305E-03    2     1000024        13   # BR(~nu_muL -> ~chi_1+ mu-)
     5.53008496E-01    2     1000037        13   # BR(~nu_muL -> ~chi_2+ mu-)
#
#         PDG            Width
DECAY   1000016     3.45562826E+01   # snu_tauL decays
#          BR         NDA      ID1       ID2
     1.05995222E-01    2     1000022        16   # BR(~nu_tauL -> ~chi_10 nu_tau)
     2.95325279E-03    2     1000023        16   # BR(~nu_tauL -> ~chi_20 nu_tau)
     4.17277427E-02    2     1000025        16   # BR(~nu_tauL -> ~chi_30 nu_tau)
     2.50823454E-01    2     1000035        16   # BR(~nu_tauL -> ~chi_40 nu_tau)
     9.81962620E-02    2     1000024        15   # BR(~nu_tauL -> ~chi_1+ tau-)
     5.00304066E-01    2     1000037        15   # BR(~nu_tauL -> ~chi_2+ tau-)
#
#         PDG            Width
DECAY   1000024     8.62009146E-05   # chargino1+ decays
#           BR         NDA      ID1       ID2       ID3
     3.33584940E-01    3     1000022         2        -1   # BR(~chi_1+ -> ~chi_10 u    db)
     3.33584940E-01    3     1000022         4        -3   # BR(~chi_1+ -> ~chi_10 c    sb)
     1.11196024E-01    3     1000022       -11        12   # BR(~chi_1+ -> ~chi_10 e+   nu_e)
     1.11196024E-01    3     1000022       -13        14   # BR(~chi_1+ -> ~chi_10 mu+  nu_mu)
     1.10438071E-01    3     1000022       -15        16   # BR(~chi_1+ -> ~chi_10 tau+ nu_tau)
#
#         PDG            Width
DECAY   1000037     1.68150801E+01   # chargino2+ decays
#          BR         NDA      ID1       ID2
     3.22206773E-02    2     1000006        -5   # BR(~chi_2+ -> ~t_1     bb)
     2.46856190E-01    2     1000024        23   # BR(~chi_2+ -> ~chi_1+  Z )
     5.18122011E-02    2     1000022        24   # BR(~chi_2+ -> ~chi_10  W+)
     2.42043165E-01    2     1000023        24   # BR(~chi_2+ -> ~chi_20  W+)
     1.86766018E-01    2     1000025        24   # BR(~chi_2+ -> ~chi_30  W+)
     2.40301749E-01    2     1000024        25   # BR(~chi_2+ -> ~chi_1+  h )
#
#         PDG            Width
DECAY   1000022     0.00000000E+00   # neutralino1 decays
#
#         PDG            Width
DECAY   1000023     9.50922259E-05   # neutralino2 decays
#          BR         NDA      ID1       ID2
     6.39431137E-04    2     1000022        22   # BR(~chi_20 -> ~chi_10 gam)
#           BR         NDA      ID1       ID2       ID3
     1.18069288E-01    3     1000022        -2         2   # BR(~chi_20 -> ~chi_10 ub      u)
     1.53154456E-01    3     1000022        -1         1   # BR(~chi_20 -> ~chi_10 db      d)
     1.18069288E-01    3     1000022        -4         4   # BR(~chi_20 -> ~chi_10 cb      c)
     1.53154456E-01    3     1000022        -3         3   # BR(~chi_20 -> ~chi_10 sb      s)
     1.41205724E-01    3     1000022        -5         5   # BR(~chi_20 -> ~chi_10 bb      b)
     3.51192618E-02    3     1000022       -11        11   # BR(~chi_20 -> ~chi_10 e+      e-)
     3.51192618E-02    3     1000022       -13        13   # BR(~chi_20 -> ~chi_10 mu+     mu-)
     3.47912567E-02    3     1000022       -15        15   # BR(~chi_20 -> ~chi_10 tau+    tau-)
     7.02180600E-02    3     1000022       -12        12   # BR(~chi_20 -> ~chi_10 nu_eb   nu_e)
     7.02180600E-02    3     1000022       -14        14   # BR(~chi_20 -> ~chi_10 nu_mub  nu_mu)
     7.02180572E-02    3     1000022       -16        16   # BR(~chi_20 -> ~chi_10 nu_taub nu_tau)
     4.18445822E-06    3     1000024        -2         1   # BR(~chi_20 -> ~chi_1+ ub      d)
     4.18445822E-06    3    -1000024        -1         2   # BR(~chi_20 -> ~chi_1- db      u)
     4.18445822E-06    3     1000024        -4         3   # BR(~chi_20 -> ~chi_1+ cb      s)
     4.18445822E-06    3    -1000024        -3         4   # BR(~chi_20 -> ~chi_1- sb      c)
     1.39482179E-06    3     1000024       -12        11   # BR(~chi_20 -> ~chi_1+ nu_eb   e-)
     1.39482179E-06    3    -1000024        12       -11   # BR(~chi_20 -> ~chi_1- nu_e    e+)
     1.39482179E-06    3     1000024       -14        13   # BR(~chi_20 -> ~chi_1+ nu_mub  mu-)
     1.39482179E-06    3    -1000024        14       -13   # BR(~chi_20 -> ~chi_1- nu_mu   mu+)
     5.41101311E-07    3     1000024       -16        15   # BR(~chi_20 -> ~chi_1+ nu_taub tau-)
     5.41101311E-07    3    -1000024        16       -15   # BR(~chi_20 -> ~chi_1- nu_tau  tau+)
#
#         PDG            Width
DECAY   1000025     1.30579636E-05   # neutralino3 decays
#          BR         NDA      ID1       ID2
     1.44493187E-02    2     1000022        22   # BR(~chi_30 -> ~chi_10 gam)
     4.83595675E-02    2     1000023        22   # BR(~chi_30 -> ~chi_20 gam)
#           BR         NDA      ID1       ID2       ID3
     7.53881347E-02    3     1000022        -2         2   # BR(~chi_30 -> ~chi_10 ub      u)
     9.75374902E-02    3     1000022        -1         1   # BR(~chi_30 -> ~chi_10 db      d)
     7.53881347E-02    3     1000022        -4         4   # BR(~chi_30 -> ~chi_10 cb      c)
     9.75374902E-02    3     1000022        -3         3   # BR(~chi_30 -> ~chi_10 sb      s)
     9.30035809E-02    3     1000022        -5         5   # BR(~chi_30 -> ~chi_10 bb      b)
     2.21656512E-02    3     1000022       -11        11   # BR(~chi_30 -> ~chi_10 e+      e-)
     2.21656512E-02    3     1000022       -13        13   # BR(~chi_30 -> ~chi_10 mu+     mu-)
     2.20210576E-02    3     1000022       -15        15   # BR(~chi_30 -> ~chi_10 tau+    tau-)
     4.48146457E-02    3     1000022       -12        12   # BR(~chi_30 -> ~chi_10 nu_eb   nu_e)
     4.48146457E-02    3     1000022       -14        14   # BR(~chi_30 -> ~chi_10 nu_mub  nu_mu)
     4.48145774E-02    3     1000022       -16        16   # BR(~chi_30 -> ~chi_10 nu_taub nu_tau)
     3.99364132E-03    3     1000023        -2         2   # BR(~chi_30 -> ~chi_20 ub      u)
     5.18071572E-03    3     1000023        -1         1   # BR(~chi_30 -> ~chi_20 db      d)
     3.99364132E-03    3     1000023        -4         4   # BR(~chi_30 -> ~chi_20 cb      c)
     5.18071572E-03    3     1000023        -3         3   # BR(~chi_30 -> ~chi_20 sb      s)
     1.74475090E-03    3     1000023        -5         5   # BR(~chi_30 -> ~chi_20 bb      b)
     1.18819607E-03    3     1000023       -11        11   # BR(~chi_30 -> ~chi_20 e+      e-)
     1.18819607E-03    3     1000023       -13        13   # BR(~chi_30 -> ~chi_20 mu+     mu-)
     1.09486763E-03    3     1000023       -15        15   # BR(~chi_30 -> ~chi_20 tau+    tau-)
     2.37503611E-03    3     1000023       -12        12   # BR(~chi_30 -> ~chi_20 nu_eb   nu_e)
     2.37503611E-03    3     1000023       -14        14   # BR(~chi_30 -> ~chi_20 nu_mub  nu_mu)
     2.37503615E-03    3     1000023       -16        16   # BR(~chi_30 -> ~chi_20 nu_taub nu_tau)
     4.46865345E-02    3     1000024        -2         1   # BR(~chi_30 -> ~chi_1+ ub      d)
     4.46865345E-02    3    -1000024        -1         2   # BR(~chi_30 -> ~chi_1- db      u)
     4.46865345E-02    3     1000024        -4         3   # BR(~chi_30 -> ~chi_1+ cb      s)
     4.46865345E-02    3    -1000024        -3         4   # BR(~chi_30 -> ~chi_1- sb      c)
     1.48953195E-02    3     1000024       -12        11   # BR(~chi_30 -> ~chi_1+ nu_eb   e-)
     1.48953195E-02    3    -1000024        12       -11   # BR(~chi_30 -> ~chi_1- nu_e    e+)
     1.48953195E-02    3     1000024       -14        13   # BR(~chi_30 -> ~chi_1+ nu_mub  mu-)
     1.48953195E-02    3    -1000024        14       -13   # BR(~chi_30 -> ~chi_1- nu_mu   mu+)
     1.42614026E-02    3     1000024       -16        15   # BR(~chi_30 -> ~chi_1+ nu_taub tau-)
     1.42614026E-02    3    -1000024        16       -15   # BR(~chi_30 -> ~chi_1- nu_tau  tau+)
#
#         PDG            Width
DECAY   1000035     1.68036301E+01   # neutralino4 decays
#          BR         NDA      ID1       ID2
     2.65851377E-02    2     1000022        23   # BR(~chi_40 -> ~chi_10   Z )
     1.35562089E-01    2     1000023        23   # BR(~chi_40 -> ~chi_20   Z )
     8.47586365E-02    2     1000025        23   # BR(~chi_40 -> ~chi_30   Z )
     2.40718385E-01    2     1000024       -24   # BR(~chi_40 -> ~chi_1+   W-)
     2.40718385E-01    2    -1000024        24   # BR(~chi_40 -> ~chi_1-   W+)
     2.58471013E-02    2     1000022        25   # BR(~chi_40 -> ~chi_10   h )
     1.09781139E-01    2     1000023        25   # BR(~chi_40 -> ~chi_20   h )
     1.04179702E-01    2     1000025        25   # BR(~chi_40 -> ~chi_30   h )
     1.59247120E-02    2     1000006        -6   # BR(~chi_40 -> ~t_1      tb)
     1.59247120E-02    2    -1000006         6   # BR(~chi_40 -> ~t_1*     t )
#
#         PDG            Width
DECAY        25     4.02915723E-03   # h decays
#          BR         NDA      ID1       ID2
     5.99216208E-01    2           5        -5   # BR(h -> b       bb     )
     6.45669072E-02    2         -15        15   # BR(h -> tau+    tau-   )
     2.28567306E-04    2         -13        13   # BR(h -> mu+     mu-    )
     4.84882872E-04    2           3        -3   # BR(h -> s       sb     )
     2.10563726E-02    2           4        -4   # BR(h -> c       cb     )
     6.86149441E-02    2          21        21   # BR(h -> g       g      )
     2.36072879E-03    2          22        22   # BR(h -> gam     gam    )
     1.59838728E-03    2          22        23   # BR(h -> Z       gam    )
     2.14800614E-01    2          24       -24   # BR(h -> W+      W-     )
     2.70723886E-02    2          23        23   # BR(h -> Z       Z      )
#
#         PDG            Width
DECAY        35     5.41197817E+01   # H decays
#          BR         NDA      ID1       ID2
     3.42750399E-01    2           5        -5   # BR(H -> b       bb     )
     6.12640353E-02    2         -15        15   # BR(H -> tau+    tau-   )
     2.16614790E-04    2         -13        13   # BR(H -> mu+     mu-    )
     2.56217976E-04    2           3        -3   # BR(H -> s       sb     )
     7.18736217E-08    2           4        -4   # BR(H -> c       cb     )
     7.20323324E-03    2           6        -6   # BR(H -> t       tb     )
     9.87008059E-07    2          21        21   # BR(H -> g       g      )
     1.41429657E-11    2          22        22   # BR(H -> gam     gam    )
     1.84996904E-09    2          23        22   # BR(H -> Z       gam    )
     1.98679691E-06    2          24       -24   # BR(H -> W+      W-     )
     9.92710284E-07    2          23        23   # BR(H -> Z       Z      )
     7.25175184E-06    2          25        25   # BR(H -> h       h      )
    -1.10548567E-24    2          36        36   # BR(H -> A       A      )
     2.47170340E-20    2          23        36   # BR(H -> Z       A      )
     1.86815534E-03    2     1000024  -1000024   # BR(H -> ~chi_1+ ~chi_1-)
     1.65410243E-01    2     1000024  -1000037   # BR(H -> ~chi_1+ ~chi_2-)
     1.65410243E-01    2     1000037  -1000024   # BR(H -> ~chi_2+ ~chi_1-)
     2.90531894E-02    2     1000022   1000022   # BR(H -> ~chi_10 ~chi_10)
     1.57529034E-03    2     1000023   1000023   # BR(H -> ~chi_20 ~chi_20)
     1.61831163E-02    2     1000025   1000025   # BR(H -> ~chi_30 ~chi_30)
     2.10397554E-02    2     1000022   1000023   # BR(H -> ~chi_10 ~chi_20)
     4.83081656E-03    2     1000022   1000025   # BR(H -> ~chi_10 ~chi_30)
     3.65240611E-02    2     1000022   1000035   # BR(H -> ~chi_10 ~chi_40)
     1.63736117E-02    2     1000023   1000025   # BR(H -> ~chi_20 ~chi_30)
     7.76923437E-02    2     1000023   1000035   # BR(H -> ~chi_20 ~chi_40)
     5.16769201E-02    2     1000025   1000035   # BR(H -> ~chi_30 ~chi_40)
     8.39151100E-05    2     1000006  -1000006   # BR(H -> ~t_1    ~t_1*  )
     2.88273380E-04    2     1000006  -2000006   # BR(H -> ~t_1    ~t_2*  )
     2.88273380E-04    2     2000006  -1000006   # BR(H -> ~t_2    ~t_1*  )
#
#         PDG            Width
DECAY        36     5.41164614E+01   # A decays
#          BR         NDA      ID1       ID2
     3.42797419E-01    2           5        -5   # BR(A -> b       bb     )
     6.12681731E-02    2         -15        15   # BR(A -> tau+    tau-   )
     2.16629250E-04    2         -13        13   # BR(A -> mu+     mu-    )
     2.56276850E-04    2           3        -3   # BR(A -> s       sb     )
     7.23331175E-08    2           4        -4   # BR(A -> c       cb     )
     7.21652650E-03    2           6        -6   # BR(A -> t       tb     )
     1.48281378E-05    2          21        21   # BR(A -> g       g      )
     4.72884069E-08    2          22        22   # BR(A -> gam     gam    )
     1.63032060E-08    2          23        22   # BR(A -> Z       gam    )
     1.98276863E-06    2          23        25   # BR(A -> Z       h      )
     1.86952940E-03    2     1000024  -1000024   # BR(A -> ~chi_1+ ~chi_1-)
     1.65424029E-01    2     1000024  -1000037   # BR(A -> ~chi_1+ ~chi_2-)
     1.65424029E-01    2     1000037  -1000024   # BR(A -> ~chi_2+ ~chi_1-)
     2.51585747E-02    2     1000022   1000022   # BR(A -> ~chi_10 ~chi_10)
     1.95227021E-03    2     1000023   1000023   # BR(A -> ~chi_20 ~chi_20)
     1.30930768E-02    2     1000025   1000025   # BR(A -> ~chi_30 ~chi_30)
     2.68339877E-02    2     1000022   1000023   # BR(A -> ~chi_10 ~chi_20)
     3.58449351E-03    2     1000022   1000025   # BR(A -> ~chi_10 ~chi_30)
     3.51077004E-02    2     1000022   1000035   # BR(A -> ~chi_10 ~chi_40)
     1.84365074E-02    2     1000023   1000025   # BR(A -> ~chi_20 ~chi_30)
     8.29049391E-02    2     1000023   1000035   # BR(A -> ~chi_20 ~chi_40)
     4.78390695E-02    2     1000025   1000035   # BR(A -> ~chi_30 ~chi_40)
     2.99911221E-04    2     1000006  -2000006   # BR(A -> ~t_1    ~t_2*  )
     2.99911221E-04    2    -1000006   2000006   # BR(A -> ~t_1*   ~t_2   )
#
#         PDG            Width
DECAY        37     5.39812853E+01   # H+ decays
#          BR         NDA      ID1       ID2
     5.45860990E-04    2           4        -5   # BR(H+ -> c       bb     )
     6.14375303E-02    2         -15        16   # BR(H+ -> tau+    nu_tau )
     2.17228055E-04    2         -13        14   # BR(H+ -> mu+     nu_mu  )
     3.49350732E-06    2           2        -5   # BR(H+ -> u       bb     )
     1.23063733E-05    2           2        -3   # BR(H+ -> u       sb     )
     2.53181673E-04    2           4        -3   # BR(H+ -> c       sb     )
     3.48034108E-01    2           6        -5   # BR(H+ -> t       bb     )
     1.98997713E-06    2          24        25   # BR(H+ -> W+      h      )
     2.93264756E-14    2          24        36   # BR(H+ -> W+      A      )
     5.61240857E-02    2     1000024   1000022   # BR(H+ -> ~chi_1+ ~chi_10)
     1.47985333E-04    2     1000024   1000023   # BR(H+ -> ~chi_1+ ~chi_20)
     3.36184927E-02    2     1000024   1000025   # BR(H+ -> ~chi_1+ ~chi_30)
     1.66051813E-01    2     1000024   1000035   # BR(H+ -> ~chi_1+ ~chi_40)
     7.18980483E-02    2     1000037   1000022   # BR(H+ -> ~chi_2+ ~chi_10)
     1.61143627E-01    2     1000037   1000023   # BR(H+ -> ~chi_2+ ~chi_20)
     9.98956672E-02    2     1000037   1000025   # BR(H+ -> ~chi_2+ ~chi_30)
     6.14583028E-04    2     1000006  -1000005   # BR(H+ -> ~t_1    ~b_1*  )
