#
#                              ======================
#                              | THE SUSYHIT OUTPUT |
#                              ======================
#
#
#              ------------------------------------------------------
#              |     This is the output of the SUSY-HIT package     |
#              |  created by A.Djouadi, M.Muehlleitner and M.Spira. |
#              |  In case of problems with SUSY-HIT email to        |
#              |           margarete.muehlleitner@kit.edu           |
#              |           michael.spira@psi.ch                     |
#              |           abdelhak.djouadi@cern.ch                 |
#              ------------------------------------------------------
#
#              ------------------------------------------------------
#              |  SUSY Les Houches Accord - MSSM Spectrum + Decays  |
#              |              based on the decay programs           |
#              |                                                    |
#              |                     SDECAY 1.5                     |
#              |                                                    |
#              |  Authors: M.Muhlleitner, A.Djouadi and Y.Mambrini  |
#              |  Ref.:    Comput.Phys.Commun.168(2005)46           |
#              |           [hep-ph/0311167]                         |
#              |                                                    |
#              |                     HDECAY 3.4                     |
#              |                                                    |
#              |  By: A.Djouadi,J.Kalinowski,M.Muhlleitner,M.Spira  |
#              |  Ref.:    Comput.Phys.Commun.108(1998)56           |
#              |           [hep-ph/9704448]                         |
#              |                                                    |
#              |                                                    |
#              |  If not stated otherwise all DRbar couplings and   |
#              |  soft SUSY breaking masses are given at the scale  |
#              |  Q=  0.13998654E+04
#              |                                                    |
#              ------------------------------------------------------
#
#
BLOCK DCINFO  # Decay Program information
     1   SDECAY/HDECAY # decay calculator
     2   1.5  /3.4    # version number
#
BLOCK SPINFO  # Spectrum calculator information
     1    SOFTSUSY    # spectrum calculator                
     2    3.7.3       # version number                     
#
BLOCK MODSEL  # Model selection
     1     0   #  nonUniversal                                     
#
BLOCK SMINPUTS  # Standard Model inputs
         1     1.27934000E+02   # alpha_em^-1(M_Z)^MSbar
         2     1.16639000E-05   # G_F [GeV^-2]
         3     1.17200000E-01   # alpha_S(M_Z)^MSbar
         4     9.11870000E+01   # M_Z pole mass
         5     4.19000000E+00   # mb(mb)^MSbar
         6     1.72500000E+02   # mt pole mass
         7     1.77690000E+00   # mtau pole mass
#
BLOCK MINPAR  # Input parameters - minimal models
         3     2.00000000E+01   # tanb                
#
BLOCK EXTPAR  # Input parameters - non-minimal models
         0    -1.00000000E+00   # Set                 
         1     4.59990000E+02   # M_1(MX)             
         2     2.00000000E+03   # M_2(MX)             
         3     1.80000000E+03   # M_3(MX)             
        11     2.64959179E+03   # At(MX)              
        12     0.00000000E+00   # Ab(MX)              
        13     0.00000000E+00   # Atau(MX)            
        23    -4.75990000E+02   # mu(MX)              
        25     2.00000000E+01   # tan                 
        26     4.00000000E+03   # mA(pole)            
        31     4.00000000E+03   # meL(MX)             
        32     4.00000000E+03   # mmuL(MX)            
        33     4.00000000E+03   # mtauL(MX)           
        34     4.00000000E+03   # meR(MX)             
        35     4.00000000E+03   # mmuR(MX)            
        36     4.00000000E+03   # mtauR(MX)           
        41     4.00000000E+03   # mqL1(MX)            
        42     4.00000000E+03   # mqL2(MX)            
        43     1.05990000E+03   # mqL3(MX)            
        44     4.00000000E+03   # muR(MX)             
        45     4.00000000E+03   # mcR(MX)             
        46     1.86485961E+03   # mtR(MX)             
        47     4.00000000E+03   # mdR(MX)             
        48     4.00000000E+03   # msR(MX)             
        49     4.00000000E+03   # mbR(MX)             
#
BLOCK MASS  # Mass Spectrum
# PDG code           mass       particle
        24     8.04178711E+01   # W+
        25     1.25654091E+02   # h
        35     4.00000872E+03   # H
        36     3.99999738E+03   # A
        37     4.00106061E+03   # H+
         5     4.81337004E+00   # b-quark pole mass calculated from mb(mb)_Msbar
   1000001     4.02852343E+03   # ~d_L
   2000001     4.02462599E+03   # ~d_R
   1000002     4.02787245E+03   # ~u_L
   2000002     4.02530728E+03   # ~u_R
   1000003     4.02852343E+03   # ~s_L
   2000003     4.02462599E+03   # ~s_R
   1000004     4.02787245E+03   # ~c_L
   2000004     4.02530728E+03   # ~c_R
   1000005     1.12179944E+03   # ~b_1
   2000005     4.02683401E+03   # ~b_2
   1000006     1.09889299E+03   # ~t_1
   2000006     1.88190629E+03   # ~t_2
   1000011     4.00507083E+03   # ~e_L
   2000011     4.00346431E+03   # ~e_R
   1000012     4.00395845E+03   # ~nu_eL
   1000013     4.00507083E+03   # ~mu_L
   2000013     4.00346431E+03   # ~mu_R
   1000014     4.00395845E+03   # ~nu_muL
   1000015     4.00394560E+03   # ~tau_1
   2000015     4.00815944E+03   # ~tau_2
   1000016     4.00514785E+03   # ~nu_tauL
   1000021     1.98339014E+03   # ~g
   1000022     4.44381473E+02   # ~chi_10
   1000023    -4.88140009E+02   # ~chi_20
   1000025     5.06194491E+02   # ~chi_30
   1000035     2.05150782E+03   # ~chi_40
   1000024     4.85953808E+02   # ~chi_1+
   1000037     2.05167168E+03   # ~chi_2+
#
BLOCK NMIX  # Neutralino Mixing Matrix
  1  1     7.79517838E-01   # N_11
  1  2    -1.97193781E-02   # N_12
  1  3    -4.62824383E-01   # N_13
  1  4    -4.21611998E-01   # N_14
  2  1    -3.48843744E-02   # N_21
  2  2     2.31927580E-02   # N_22
  2  3    -7.04827089E-01   # N_23
  2  4     7.08141194E-01   # N_24
  3  1     6.25406839E-01   # N_31
  3  2     2.76975930E-02   # N_32
  3  3     5.37543916E-01   # N_33
  3  4     5.64929790E-01   # N_34
  4  1    -1.14256035E-03   # N_41
  4  2     9.99152684E-01   # N_42
  4  3    -7.67490055E-03   # N_43
  4  4    -4.04191169E-02   # N_44
#
BLOCK UMIX  # Chargino Mixing Matrix U
  1  1     1.08599975E-02   # U_11
  1  2     9.99941028E-01   # U_12
  2  1    -9.99941028E-01   # U_21
  2  2     1.08599975E-02   # U_22
#
BLOCK VMIX  # Chargino Mixing Matrix V
  1  1     5.71702010E-02   # V_11
  1  2    -9.98364447E-01   # V_12
  2  1    -9.98364447E-01   # V_21
  2  2    -5.71702010E-02   # V_22
#
BLOCK STOPMIX  # Stop Mixing Matrix
  1  1     9.86763569E-01   # cos(theta_t)
  1  2    -1.62165529E-01   # sin(theta_t)
  2  1     1.62165529E-01   # -sin(theta_t)
  2  2     9.86763569E-01   # cos(theta_t)
#
BLOCK SBOTMIX  # Sbottom Mixing Matrix
  1  1     9.99998757E-01   # cos(theta_b)
  1  2    -1.57670494E-03   # sin(theta_b)
  2  1     1.57670494E-03   # -sin(theta_b)
  2  2     9.99998757E-01   # cos(theta_b)
#
BLOCK STAUMIX  # Stau Mixing Matrix
  1  1    -7.06251728E-01   # cos(theta_tau)
  1  2     7.07960802E-01   # sin(theta_tau)
  2  1    -7.07960802E-01   # -sin(theta_tau)
  2  2    -7.06251728E-01   # cos(theta_tau)
#
BLOCK ALPHA  # Higgs mixing
          -5.00248680E-02   # Mixing angle in the neutral Higgs boson sector
#
BLOCK HMIX Q=  1.39986539E+03  # DRbar Higgs Parameters
         1    -4.75990000E+02   # mu(Q)MSSM           
         2     2.00000000E+01   # tan                 
         3     2.43529412E+02   # higgs               
         4     1.60819076E+07   # mA^2(Q)MSSM         
#
BLOCK GAUGE Q=  1.39986539E+03  # The gauge couplings
     1     3.62119972E-01   # gprime(Q) DRbar
     2     6.35833596E-01   # g(Q) DRbar
     3     1.02835691E+00   # g3(Q) DRbar
#
BLOCK AU Q=  1.39986539E+03  # The trilinear couplings
  1  1     1.59787254E-06   # A_u(Q) DRbar
  2  2     1.59788756E-06   # A_c(Q) DRbar
  3  3     2.64959179E+03   # A_t(Q) DRbar
#
BLOCK AD Q=  1.39986539E+03  # The trilinear couplings
  1  1     5.90960524E-07   # A_d(Q) DRbar
  2  2     5.91014747E-07   # A_s(Q) DRbar
  3  3     1.05426516E-06   # A_b(Q) DRbar
#
BLOCK AE Q=  1.39986539E+03  # The trilinear couplings
  1  1     0.00000000E+00   # A_e(Q) DRbar
  2  2     1.30579135E-07   # A_mu(Q) DRbar
  3  3     1.31917835E-07   # A_tau(Q) DRbar
#
BLOCK Yu Q=  1.39986539E+03  # The Yukawa couplings
  1  1     0.00000000E+00   # y_u(Q) DRbar
  2  2     0.00000000E+00   # y_c(Q) DRbar
  3  3     8.65358939E-01   # y_t(Q) DRbar
#
BLOCK Yd Q=  1.39986539E+03  # The Yukawa couplings
  1  1     0.00000000E+00   # y_d(Q) DRbar
  2  2     0.00000000E+00   # y_s(Q) DRbar
  3  3     2.86420581E-01   # y_b(Q) DRbar
#
BLOCK Ye Q=  1.39986539E+03  # The Yukawa couplings
  1  1     0.00000000E+00   # y_e(Q) DRbar
  2  2     0.00000000E+00   # y_mu(Q) DRbar
  3  3     2.03020350E-01   # y_tau(Q) DRbar
#
BLOCK MSOFT Q=  1.39986539E+03  # The soft SUSY breaking masses at the scale Q
         1     4.59990000E+02   # M_1(Q)              
         2     2.00000000E+03   # M_2(Q)              
         3     1.80000000E+03   # M_3(Q)              
        21     1.56703153E+07   # M^2_Hd              
        22    -1.73074505E+05   # M^2_Hu              
        31     4.00000000E+03   # M_eL                
        32     4.00000000E+03   # M_muL               
        33     4.00000000E+03   # M_tauL              
        34     4.00000000E+03   # M_eR                
        35     4.00000000E+03   # M_muR               
        36     4.00000000E+03   # M_tauR              
        41     4.00000000E+03   # M_q1L               
        42     4.00000000E+03   # M_q2L               
        43     1.05990000E+03   # M_q3L               
        44     4.00000000E+03   # M_uR                
        45     4.00000000E+03   # M_cR                
        46     1.86485961E+03   # M_tR                
        47     4.00000000E+03   # M_dR                
        48     4.00000000E+03   # M_sR                
        49     4.00000000E+03   # M_bR                
#
#
#
#                             =================
#                             |The decay table|
#                             =================
#
# - The QCD corrections to the decays gluino -> squark  + quark
#                                     squark -> gaugino + quark_prime
#                                     squark -> squark_prime + Higgs
#                                     squark -> gluino  + quark
#   are included.
#
# - The multi-body decays for the inos, stops and sbottoms are included.
#
# - The loop induced decays for the gluino, neutralinos and stops
#   are included.
#
# - The SUSY decays of the top quark are included.
#
#
#         PDG            Width
DECAY         6     1.40256753E+00   # top decays
#          BR         NDA      ID1       ID2
     1.00000000E+00    2           5        24   # BR(t ->  b    W+)
#
#         PDG            Width
DECAY   1000021     4.01994372E+01   # gluino decays
#          BR         NDA      ID1       ID2
     2.37561649E-01    2     1000005        -5   # BR(~g -> ~b_1  bb)
     2.37561649E-01    2    -1000005         5   # BR(~g -> ~b_1* b )
     2.62438351E-01    2     1000006        -6   # BR(~g -> ~t_1  tb)
     2.62438351E-01    2    -1000006         6   # BR(~g -> ~t_1* t )
#
#         PDG            Width
DECAY   1000006     1.09743781E+01   # stop1 decays
#          BR         NDA      ID1       ID2
     1.61732460E-01    2     1000022         6   # BR(~t_1 -> ~chi_10 t )
     4.19114558E-01    2     1000023         6   # BR(~t_1 -> ~chi_20 t )
     3.07102328E-01    2     1000025         6   # BR(~t_1 -> ~chi_30 t )
     1.12050653E-01    2     1000024         5   # BR(~t_1 -> ~chi_1+ b )
#
#         PDG            Width
DECAY   2000006     1.03361066E+02   # stop2 decays
#          BR         NDA      ID1       ID2
     6.68004536E-02    2     1000022         6   # BR(~t_2 -> ~chi_10 t )
     1.16243875E-01    2     1000023         6   # BR(~t_2 -> ~chi_20 t )
     7.99029133E-02    2     1000025         6   # BR(~t_2 -> ~chi_30 t )
     2.26662509E-01    2     1000024         5   # BR(~t_2 -> ~chi_1+ b )
     1.59884062E-01    2     1000006        25   # BR(~t_2 -> ~t_1    h )
     1.20843720E-01    2     1000006        23   # BR(~t_2 -> ~t_1    Z )
     2.29662467E-01    2     1000005        24   # BR(~t_2 -> ~b_1    W+)
#
#         PDG            Width
DECAY   1000005     1.14558554E+01   # sbottom1 decays
#          BR         NDA      ID1       ID2
     3.16182600E-02    2     1000022         5   # BR(~b_1 -> ~chi_10 b )
     5.05409937E-02    2     1000023         5   # BR(~b_1 -> ~chi_20 b )
     3.01881713E-02    2     1000025         5   # BR(~b_1 -> ~chi_30 b )
     8.87652575E-01    2    -1000024         6   # BR(~b_1 -> ~chi_1- t )
#
#         PDG            Width
DECAY   2000005     1.65823031E+02   # sbottom2 decays
#          BR         NDA      ID1       ID2
     1.59501713E-02    2     1000022         5   # BR(~b_2 -> ~chi_10 b )
     1.83257274E-02    2     1000023         5   # BR(~b_2 -> ~chi_20 b )
     1.57951830E-02    2     1000025         5   # BR(~b_2 -> ~chi_30 b )
     2.07408268E-06    2     1000035         5   # BR(~b_2 -> ~chi_40 b )
     3.67481052E-02    2    -1000024         6   # BR(~b_2 -> ~chi_1- t )
     4.11992345E-06    2    -1000037         6   # BR(~b_2 -> ~chi_2- t )
     9.12040589E-01    2     1000021         5   # BR(~b_2 -> ~g      b )
     2.41623463E-04    2     1000005        25   # BR(~b_2 -> ~b_1    h )
     3.31808643E-04    2     1000005        23   # BR(~b_2 -> ~b_1    Z )
     5.52016640E-04    2     1000006       -24   # BR(~b_2 -> ~t_1    W-)
     8.58088571E-06    2     2000006       -24   # BR(~b_2 -> ~t_2    W-)
#
#         PDG            Width
DECAY   1000002     1.77757499E+02   # sup_L decays
#          BR         NDA      ID1       ID2
     1.41097011E-03    2     1000022         2   # BR(~u_L -> ~chi_10 u)
     2.34321890E-05    2     1000023         2   # BR(~u_L -> ~chi_20 u)
     1.82569953E-03    2     1000025         2   # BR(~u_L -> ~chi_30 u)
     4.83283697E-02    2     1000035         2   # BR(~u_L -> ~chi_40 u)
     5.57999614E-04    2     1000024         1   # BR(~u_L -> ~chi_1+ d)
     9.65354801E-02    2     1000037         1   # BR(~u_L -> ~chi_2+ d)
     8.51318049E-01    2     1000021         2   # BR(~u_L -> ~g      u)
#
#         PDG            Width
DECAY   2000002     1.59868667E+02   # sup_R decays
#          BR         NDA      ID1       ID2
     3.33905488E-02    2     1000022         2   # BR(~u_R -> ~chi_10 u)
     6.65389604E-05    2     1000023         2   # BR(~u_R -> ~chi_20 u)
     2.13396001E-02    2     1000025         2   # BR(~u_R -> ~chi_30 u)
     4.04744784E-08    2     1000035         2   # BR(~u_R -> ~chi_40 u)
     9.45203272E-01    2     1000021         2   # BR(~u_R -> ~g      u)
#
#         PDG            Width
DECAY   1000001     1.77777638E+02   # sdown_L decays
#          BR         NDA      ID1       ID2
     2.41220259E-03    2     1000022         1   # BR(~d_L -> ~chi_10 d)
     7.58671360E-05    2     1000023         1   # BR(~d_L -> ~chi_20 d)
     7.05654575E-04    2     1000025         1   # BR(~d_L -> ~chi_30 d)
     4.83836276E-02    2     1000035         1   # BR(~d_L -> ~chi_40 d)
     2.01363232E-05    2    -1000024         2   # BR(~d_L -> ~chi_1- u)
     9.68671911E-02    2    -1000037         2   # BR(~d_L -> ~chi_2- u)
     8.51535321E-01    2     1000021         1   # BR(~d_L -> ~g      d)
#
#         PDG            Width
DECAY   2000001     1.53239683E+02   # sdown_R decays
#          BR         NDA      ID1       ID2
     8.70717603E-03    2     1000022         1   # BR(~d_R -> ~chi_10 d)
     1.73511811E-05    2     1000023         1   # BR(~d_R -> ~chi_20 d)
     5.56466444E-03    2     1000025         1   # BR(~d_R -> ~chi_30 d)
     1.05520493E-08    2     1000035         1   # BR(~d_R -> ~chi_40 d)
     9.85710798E-01    2     1000021         1   # BR(~d_R -> ~g      d)
#
#         PDG            Width
DECAY   1000004     1.77757499E+02   # scharm_L decays
#          BR         NDA      ID1       ID2
     1.41097011E-03    2     1000022         4   # BR(~c_L -> ~chi_10 c)
     2.34321890E-05    2     1000023         4   # BR(~c_L -> ~chi_20 c)
     1.82569953E-03    2     1000025         4   # BR(~c_L -> ~chi_30 c)
     4.83283697E-02    2     1000035         4   # BR(~c_L -> ~chi_40 c)
     5.57999614E-04    2     1000024         3   # BR(~c_L -> ~chi_1+ s)
     9.65354801E-02    2     1000037         3   # BR(~c_L -> ~chi_2+ s)
     8.51318049E-01    2     1000021         4   # BR(~c_L -> ~g      c)
#
#         PDG            Width
DECAY   2000004     1.59868667E+02   # scharm_R decays
#          BR         NDA      ID1       ID2
     3.33905488E-02    2     1000022         4   # BR(~c_R -> ~chi_10 c)
     6.65389604E-05    2     1000023         4   # BR(~c_R -> ~chi_20 c)
     2.13396001E-02    2     1000025         4   # BR(~c_R -> ~chi_30 c)
     4.04744784E-08    2     1000035         4   # BR(~c_R -> ~chi_40 c)
     9.45203272E-01    2     1000021         4   # BR(~c_R -> ~g      c)
#
#         PDG            Width
DECAY   1000003     1.77777638E+02   # sstrange_L decays
#          BR         NDA      ID1       ID2
     2.41220259E-03    2     1000022         3   # BR(~s_L -> ~chi_10 s)
     7.58671360E-05    2     1000023         3   # BR(~s_L -> ~chi_20 s)
     7.05654575E-04    2     1000025         3   # BR(~s_L -> ~chi_30 s)
     4.83836276E-02    2     1000035         3   # BR(~s_L -> ~chi_40 s)
     2.01363232E-05    2    -1000024         4   # BR(~s_L -> ~chi_1- c)
     9.68671911E-02    2    -1000037         4   # BR(~s_L -> ~chi_2- c)
     8.51535321E-01    2     1000021         3   # BR(~s_L -> ~g      s)
#
#         PDG            Width
DECAY   2000003     1.53239683E+02   # sstrange_R decays
#          BR         NDA      ID1       ID2
     8.70717603E-03    2     1000022         3   # BR(~s_R -> ~chi_10 s)
     1.73511811E-05    2     1000023         3   # BR(~s_R -> ~chi_20 s)
     5.56466444E-03    2     1000025         3   # BR(~s_R -> ~chi_30 s)
     1.05520493E-08    2     1000035         3   # BR(~s_R -> ~chi_40 s)
     9.85710798E-01    2     1000021         3   # BR(~s_R -> ~g      s)
#
#         PDG            Width
DECAY   1000011     3.13894010E+01   # selectron_L decays
#          BR         NDA      ID1       ID2
     9.00867404E-02    2     1000022        11   # BR(~e_L -> ~chi_10 e-)
     5.50686647E-06    2     1000023        11   # BR(~e_L -> ~chi_20 e-)
     7.32178237E-02    2     1000025        11   # BR(~e_L -> ~chi_30 e-)
     2.78343372E-01    2     1000035        11   # BR(~e_L -> ~chi_40 e-)
     1.17495491E-04    2    -1000024        12   # BR(~e_L -> ~chi_1- nu_e)
     5.58229062E-01    2    -1000037        12   # BR(~e_L -> ~chi_2- nu_e)
#
#         PDG            Width
DECAY   2000011     2.03174579E+01   # selectron_R decays
#          BR         NDA      ID1       ID2
     6.09418444E-01    2     1000022        11   # BR(~e_R -> ~chi_10 e-)
     1.21418118E-03    2     1000023        11   # BR(~e_R -> ~chi_20 e-)
     3.89366645E-01    2     1000025        11   # BR(~e_R -> ~chi_30 e-)
     7.29811503E-07    2     1000035        11   # BR(~e_R -> ~chi_40 e-)
#
#         PDG            Width
DECAY   1000013     3.13894010E+01   # smuon_L decays
#          BR         NDA      ID1       ID2
     9.00867404E-02    2     1000022        13   # BR(~mu_L -> ~chi_10 mu-)
     5.50686647E-06    2     1000023        13   # BR(~mu_L -> ~chi_20 mu-)
     7.32178237E-02    2     1000025        13   # BR(~mu_L -> ~chi_30 mu-)
     2.78343372E-01    2     1000035        13   # BR(~mu_L -> ~chi_40 mu-)
     1.17495491E-04    2    -1000024        14   # BR(~mu_L -> ~chi_1- nu_mu)
     5.58229062E-01    2    -1000037        14   # BR(~mu_L -> ~chi_2- nu_mu)
#
#         PDG            Width
DECAY   2000013     2.03174579E+01   # smuon_R decays
#          BR         NDA      ID1       ID2
     6.09418444E-01    2     1000022        13   # BR(~mu_R -> ~chi_10 mu-)
     1.21418118E-03    2     1000023        13   # BR(~mu_R -> ~chi_20 mu-)
     3.89366645E-01    2     1000025        13   # BR(~mu_R -> ~chi_30 mu-)
     7.29811503E-07    2     1000035        13   # BR(~mu_R -> ~chi_40 mu-)
#
#         PDG            Width
DECAY   1000015     3.06977907E+01   # stau_1 decays
#          BR         NDA      ID1       ID2
     3.20039706E-01    2     1000022        15   # BR(~tau_1 -> ~chi_10  tau-)
     4.49885927E-02    2     1000023        15   # BR(~tau_1 -> ~chi_20  tau-)
     1.55923144E-01    2     1000025        15   # BR(~tau_1 -> ~chi_30  tau-)
     1.40881309E-01    2     1000035        15   # BR(~tau_1 -> ~chi_40  tau-)
     5.56226519E-02    2    -1000024        16   # BR(~tau_1 -> ~chi_1-  nu_tau)
     2.82544596E-01    2    -1000037        16   # BR(~tau_1 -> ~chi_2-  nu_tau)
#
#         PDG            Width
DECAY   2000015     3.06077110E+01   # stau_2 decays
#          BR         NDA      ID1       ID2
     2.21045896E-01    2     1000022        15   # BR(~tau_2 -> ~chi_10  tau-)
     5.91901706E-02    2     1000023        15   # BR(~tau_2 -> ~chi_20  tau-)
     2.37459718E-01    2     1000025        15   # BR(~tau_2 -> ~chi_30  tau-)
     1.44334898E-01    2     1000035        15   # BR(~tau_2 -> ~chi_40  tau-)
     4.85060906E-02    2    -1000024        16   # BR(~tau_2 -> ~chi_1-  nu_tau)
     2.89463228E-01    2    -1000037        16   # BR(~tau_2 -> ~chi_2-  nu_tau)
#
#         PDG            Width
DECAY   1000012     3.13999076E+01   # snu_eL decays
#          BR         NDA      ID1       ID2
     1.07547792E-01    2     1000022        12   # BR(~nu_eL -> ~chi_10 nu_e)
     9.22766205E-04    2     1000023        12   # BR(~nu_eL -> ~chi_20 nu_e)
     5.35774896E-02    2     1000025        12   # BR(~nu_eL -> ~chi_30 nu_e)
     2.78788305E-01    2     1000035        12   # BR(~nu_eL -> ~chi_40 nu_e)
     3.25407826E-03    2     1000024        11   # BR(~nu_eL -> ~chi_1+ e-)
     5.55909569E-01    2     1000037        11   # BR(~nu_eL -> ~chi_2+ e-)
#
#         PDG            Width
DECAY   1000014     3.13999076E+01   # snu_muL decays
#          BR         NDA      ID1       ID2
     1.07547792E-01    2     1000022        14   # BR(~nu_muL -> ~chi_10 nu_mu)
     9.22766205E-04    2     1000023        14   # BR(~nu_muL -> ~chi_20 nu_mu)
     5.35774896E-02    2     1000025        14   # BR(~nu_muL -> ~chi_30 nu_mu)
     2.78788305E-01    2     1000035        14   # BR(~nu_muL -> ~chi_40 nu_mu)
     3.25407826E-03    2     1000024        13   # BR(~nu_muL -> ~chi_1+ mu-)
     5.55909569E-01    2     1000037        13   # BR(~nu_muL -> ~chi_2+ mu-)
#
#         PDG            Width
DECAY   1000016     3.46084798E+01   # snu_tauL decays
#          BR         NDA      ID1       ID2
     9.76074059E-02    2     1000022        16   # BR(~nu_tauL -> ~chi_10 nu_tau)
     8.37479723E-04    2     1000023        16   # BR(~nu_tauL -> ~chi_20 nu_tau)
     4.86256676E-02    2     1000025        16   # BR(~nu_tauL -> ~chi_30 nu_tau)
     2.53123801E-01    2     1000035        16   # BR(~nu_tauL -> ~chi_40 nu_tau)
     9.50680103E-02    2     1000024        15   # BR(~nu_tauL -> ~chi_1+ tau-)
     5.04737635E-01    2     1000037        15   # BR(~nu_tauL -> ~chi_2+ tau-)
#
#         PDG            Width
DECAY   1000024     6.03057563E-05   # chargino1+ decays
#           BR         NDA      ID1       ID2       ID3
     3.33663840E-01    3     1000022         2        -1   # BR(~chi_1+ -> ~chi_10 u    db)
     3.33663840E-01    3     1000022         4        -3   # BR(~chi_1+ -> ~chi_10 c    sb)
     1.11222701E-01    3     1000022       -11        12   # BR(~chi_1+ -> ~chi_10 e+   nu_e)
     1.11222701E-01    3     1000022       -13        14   # BR(~chi_1+ -> ~chi_10 mu+  nu_mu)
     1.10226917E-01    3     1000022       -15        16   # BR(~chi_1+ -> ~chi_10 tau+ nu_tau)
#
#         PDG            Width
DECAY   1000037     4.47504545E+01   # chargino2+ decays
#          BR         NDA      ID1       ID2
     3.37427175E-01    2     1000006        -5   # BR(~chi_2+ -> ~t_1     bb)
     1.25428002E-04    2     2000006        -5   # BR(~chi_2+ -> ~t_2     bb)
     3.17406737E-01    2    -1000005         6   # BR(~chi_2+ -> ~b_1*    t )
     8.76233086E-02    2     1000024        23   # BR(~chi_2+ -> ~chi_1+  Z )
     2.78523751E-02    2     1000022        24   # BR(~chi_2+ -> ~chi_10  W+)
     8.53782912E-02    2     1000023        24   # BR(~chi_2+ -> ~chi_20  W+)
     5.74572252E-02    2     1000025        24   # BR(~chi_2+ -> ~chi_30  W+)
     8.67294593E-02    2     1000024        25   # BR(~chi_2+ -> ~chi_1+  h )
#
#         PDG            Width
DECAY   1000022     0.00000000E+00   # neutralino1 decays
#
#         PDG            Width
DECAY   1000023     6.23898124E-05   # neutralino2 decays
#          BR         NDA      ID1       ID2
     7.25632418E-04    2     1000022        22   # BR(~chi_20 -> ~chi_10 gam)
#           BR         NDA      ID1       ID2       ID3
     1.18469399E-01    3     1000022        -2         2   # BR(~chi_20 -> ~chi_10 ub      u)
     1.53700610E-01    3     1000022        -1         1   # BR(~chi_20 -> ~chi_10 db      d)
     1.18469399E-01    3     1000022        -4         4   # BR(~chi_20 -> ~chi_10 cb      c)
     1.53700610E-01    3     1000022        -3         3   # BR(~chi_20 -> ~chi_10 sb      s)
     1.38056509E-01    3     1000022        -5         5   # BR(~chi_20 -> ~chi_10 bb      b)
     3.52611062E-02    3     1000022       -11        11   # BR(~chi_20 -> ~chi_10 e+      e-)
     3.52611062E-02    3     1000022       -13        13   # BR(~chi_20 -> ~chi_10 mu+     mu-)
     3.48615821E-02    3     1000022       -15        15   # BR(~chi_20 -> ~chi_10 tau+    tau-)
     7.04974578E-02    3     1000022       -12        12   # BR(~chi_20 -> ~chi_10 nu_eb   nu_e)
     7.04974578E-02    3     1000022       -14        14   # BR(~chi_20 -> ~chi_10 nu_mub  nu_mu)
     7.04974568E-02    3     1000022       -16        16   # BR(~chi_20 -> ~chi_10 nu_taub nu_tau)
     3.12901937E-07    3     1000024        -2         1   # BR(~chi_20 -> ~chi_1+ ub      d)
     3.12901937E-07    3    -1000024        -1         2   # BR(~chi_20 -> ~chi_1- db      u)
     3.12901937E-07    3     1000024        -4         3   # BR(~chi_20 -> ~chi_1+ cb      s)
     3.12901937E-07    3    -1000024        -3         4   # BR(~chi_20 -> ~chi_1- sb      c)
     1.04300723E-07    3     1000024       -12        11   # BR(~chi_20 -> ~chi_1+ nu_eb   e-)
     1.04300723E-07    3    -1000024        12       -11   # BR(~chi_20 -> ~chi_1- nu_e    e+)
     1.04300723E-07    3     1000024       -14        13   # BR(~chi_20 -> ~chi_1+ nu_mub  mu-)
     1.04300723E-07    3    -1000024        14       -13   # BR(~chi_20 -> ~chi_1- nu_mu   mu+)
     1.53974806E-09    3     1000024       -16        15   # BR(~chi_20 -> ~chi_1+ nu_taub tau-)
     1.53974806E-09    3    -1000024        16       -15   # BR(~chi_20 -> ~chi_1- nu_tau  tau+)
#
#         PDG            Width
DECAY   1000025     7.25637882E-06   # neutralino3 decays
#          BR         NDA      ID1       ID2
     1.13838305E-01    2     1000022        22   # BR(~chi_30 -> ~chi_10 gam)
     2.36091689E-02    2     1000023        22   # BR(~chi_30 -> ~chi_20 gam)
#           BR         NDA      ID1       ID2       ID3
     7.23793775E-03    3     1000022        -2         2   # BR(~chi_30 -> ~chi_10 ub      u)
     9.27716990E-03    3     1000022        -1         1   # BR(~chi_30 -> ~chi_10 db      d)
     7.23793775E-03    3     1000022        -4         4   # BR(~chi_30 -> ~chi_10 cb      c)
     9.27716990E-03    3     1000022        -3         3   # BR(~chi_30 -> ~chi_10 sb      s)
     8.85629584E-03    3     1000022        -5         5   # BR(~chi_30 -> ~chi_10 bb      b)
     2.04054762E-03    3     1000022       -11        11   # BR(~chi_30 -> ~chi_10 e+      e-)
     2.04054762E-03    3     1000022       -13        13   # BR(~chi_30 -> ~chi_10 mu+     mu-)
     2.05174776E-03    3     1000022       -15        15   # BR(~chi_30 -> ~chi_10 tau+    tau-)
     4.29899623E-03    3     1000022       -12        12   # BR(~chi_30 -> ~chi_10 nu_eb   nu_e)
     4.29899623E-03    3     1000022       -14        14   # BR(~chi_30 -> ~chi_10 nu_mub  nu_mu)
     4.29897438E-03    3     1000022       -16        16   # BR(~chi_30 -> ~chi_10 nu_taub nu_tau)
     1.81981951E-02    3     1000023        -2         2   # BR(~chi_30 -> ~chi_20 ub      u)
     2.36106532E-02    3     1000023        -1         1   # BR(~chi_30 -> ~chi_20 db      d)
     1.81981951E-02    3     1000023        -4         4   # BR(~chi_30 -> ~chi_20 cb      c)
     2.36106532E-02    3     1000023        -3         3   # BR(~chi_30 -> ~chi_20 sb      s)
     1.20196460E-02    3     1000023        -5         5   # BR(~chi_30 -> ~chi_20 bb      b)
     5.41691332E-03    3     1000023       -11        11   # BR(~chi_30 -> ~chi_20 e+      e-)
     5.41691332E-03    3     1000023       -13        13   # BR(~chi_30 -> ~chi_20 mu+     mu-)
     5.12698050E-03    3     1000023       -15        15   # BR(~chi_30 -> ~chi_20 tau+    tau-)
     1.08289016E-02    3     1000023       -12        12   # BR(~chi_30 -> ~chi_20 nu_eb   nu_e)
     1.08289016E-02    3     1000023       -14        14   # BR(~chi_30 -> ~chi_20 nu_mub  nu_mu)
     1.08289017E-02    3     1000023       -16        16   # BR(~chi_30 -> ~chi_20 nu_taub nu_tau)
     1.10047901E-01    3     1000024        -2         1   # BR(~chi_30 -> ~chi_1+ ub      d)
     1.10047901E-01    3    -1000024        -1         2   # BR(~chi_30 -> ~chi_1- db      u)
     1.10047901E-01    3     1000024        -4         3   # BR(~chi_30 -> ~chi_1+ cb      s)
     1.10047901E-01    3    -1000024        -3         4   # BR(~chi_30 -> ~chi_1- sb      c)
     3.66821732E-02    3     1000024       -12        11   # BR(~chi_30 -> ~chi_1+ nu_eb   e-)
     3.66821732E-02    3    -1000024        12       -11   # BR(~chi_30 -> ~chi_1- nu_e    e+)
     3.66821732E-02    3     1000024       -14        13   # BR(~chi_30 -> ~chi_1+ nu_mub  mu-)
     3.66821732E-02    3    -1000024        14       -13   # BR(~chi_30 -> ~chi_1- nu_mu   mu+)
     3.53155276E-02    3     1000024       -16        15   # BR(~chi_30 -> ~chi_1+ nu_taub tau-)
     3.53155276E-02    3    -1000024        16       -15   # BR(~chi_30 -> ~chi_1- nu_tau  tau+)
#
#         PDG            Width
DECAY   1000035     4.47310776E+01   # neutralino4 decays
#          BR         NDA      ID1       ID2
     9.76499661E-03    2     1000022        23   # BR(~chi_40 -> ~chi_10   Z )
     5.99185364E-02    2     1000023        23   # BR(~chi_40 -> ~chi_20   Z )
     1.79789999E-02    2     1000025        23   # BR(~chi_40 -> ~chi_30   Z )
     8.53858079E-02    2     1000024       -24   # BR(~chi_40 -> ~chi_1+   W-)
     8.53858079E-02    2    -1000024        24   # BR(~chi_40 -> ~chi_1-   W+)
     1.85904102E-02    2     1000022        25   # BR(~chi_40 -> ~chi_10   h )
     2.74116833E-02    2     1000023        25   # BR(~chi_40 -> ~chi_20   h )
     4.04942561E-02    2     1000025        25   # BR(~chi_40 -> ~chi_30   h )
     1.63746564E-01    2     1000006        -6   # BR(~chi_40 -> ~t_1      tb)
     1.63746564E-01    2    -1000006         6   # BR(~chi_40 -> ~t_1*     t )
     1.63788187E-01    2     1000005        -5   # BR(~chi_40 -> ~b_1      bb)
     1.63788187E-01    2    -1000005         5   # BR(~chi_40 -> ~b_1*     b )
#
#         PDG            Width
DECAY        25     4.02536782E-03   # h decays
#          BR         NDA      ID1       ID2
     5.89445501E-01    2           5        -5   # BR(h -> b       bb     )
     6.47811485E-02    2         -15        15   # BR(h -> tau+    tau-   )
     2.29324306E-04    2         -13        13   # BR(h -> mu+     mu-    )
     4.86246640E-04    2           3        -3   # BR(h -> s       sb     )
     2.11198826E-02    2           4        -4   # BR(h -> c       cb     )
     6.90391676E-02    2          21        21   # BR(h -> g       g      )
     2.39271351E-03    2          22        22   # BR(h -> gam     gam    )
     1.64616800E-03    2          22        23   # BR(h -> Z       gam    )
     2.22657732E-01    2          24       -24   # BR(h -> W+      W-     )
     2.82021154E-02    2          23        23   # BR(h -> Z       Z      )
#
#         PDG            Width
DECAY        35     5.53411813E+01   # H decays
#          BR         NDA      ID1       ID2
     3.63814989E-01    2           5        -5   # BR(H -> b       bb     )
     5.99120254E-02    2         -15        15   # BR(H -> tau+    tau-   )
     2.11834411E-04    2         -13        13   # BR(H -> mu+     mu-    )
     2.50563570E-04    2           3        -3   # BR(H -> s       sb     )
     7.02729221E-08    2           4        -4   # BR(H -> c       cb     )
     7.04280992E-03    2           6        -6   # BR(H -> t       tb     )
     5.27505662E-07    2          21        21   # BR(H -> g       g      )
     6.72953187E-09    2          22        22   # BR(H -> gam     gam    )
     1.81257895E-09    2          23        22   # BR(H -> Z       gam    )
     1.67282775E-06    2          24       -24   # BR(H -> W+      W-     )
     8.35834435E-07    2          23        23   # BR(H -> Z       Z      )
     6.77046556E-06    2          25        25   # BR(H -> h       h      )
     7.67415104E-25    2          36        36   # BR(H -> A       A      )
     5.44914083E-20    2          23        36   # BR(H -> Z       A      )
     1.86052221E-03    2     1000024  -1000024   # BR(H -> ~chi_1+ ~chi_1-)
     1.54365466E-01    2     1000024  -1000037   # BR(H -> ~chi_1+ ~chi_2-)
     1.54365466E-01    2     1000037  -1000024   # BR(H -> ~chi_2+ ~chi_1-)
     2.53038132E-02    2     1000022   1000022   # BR(H -> ~chi_10 ~chi_10)
     4.37829898E-04    2     1000023   1000023   # BR(H -> ~chi_20 ~chi_20)
     1.66815179E-02    2     1000025   1000025   # BR(H -> ~chi_30 ~chi_30)
     2.19937265E-02    2     1000022   1000023   # BR(H -> ~chi_10 ~chi_20)
     2.72388085E-03    2     1000022   1000025   # BR(H -> ~chi_10 ~chi_30)
     3.07575602E-02    2     1000022   1000035   # BR(H -> ~chi_10 ~chi_40)
     1.55330220E-02    2     1000023   1000025   # BR(H -> ~chi_20 ~chi_30)
     8.26733106E-02    2     1000023   1000035   # BR(H -> ~chi_20 ~chi_40)
     4.14858584E-02    2     1000025   1000035   # BR(H -> ~chi_30 ~chi_40)
     1.70524892E-03    2     1000006  -1000006   # BR(H -> ~t_1    ~t_1*  )
     3.99680788E-04    2     2000006  -2000006   # BR(H -> ~t_2    ~t_2*  )
     9.23543050E-03    2     1000006  -2000006   # BR(H -> ~t_1    ~t_2*  )
     9.23543050E-03    2     2000006  -1000006   # BR(H -> ~t_2    ~t_1*  )
     1.28535298E-07    2     1000005  -1000005   # BR(H -> ~b_1    ~b_1*  )
#
#         PDG            Width
DECAY        36     5.53359550E+01   # A decays
#          BR         NDA      ID1       ID2
     3.63875055E-01    2           5        -5   # BR(A -> b       bb     )
     5.99179599E-02    2         -15        15   # BR(A -> tau+    tau-   )
     2.11855227E-04    2         -13        13   # BR(A -> mu+     mu-    )
     2.50629075E-04    2           3        -3   # BR(A -> s       sb     )
     7.07390555E-08    2           4        -4   # BR(A -> c       cb     )
     7.05749021E-03    2           6        -6   # BR(A -> t       tb     )
     1.45013539E-05    2          21        21   # BR(A -> g       g      )
     6.71191749E-08    2          22        22   # BR(A -> gam     gam    )
     1.59427570E-08    2          23        22   # BR(A -> Z       gam    )
     1.66946050E-06    2          23        25   # BR(A -> Z       h      )
     1.90379490E-03    2     1000024  -1000024   # BR(A -> ~chi_1+ ~chi_1-)
     1.54354030E-01    2     1000024  -1000037   # BR(A -> ~chi_1+ ~chi_2-)
     1.54354030E-01    2     1000037  -1000024   # BR(A -> ~chi_2+ ~chi_1-)
     2.21812828E-02    2     1000022   1000022   # BR(A -> ~chi_10 ~chi_10)
     5.69407983E-04    2     1000023   1000023   # BR(A -> ~chi_20 ~chi_20)
     1.44411974E-02    2     1000025   1000025   # BR(A -> ~chi_30 ~chi_30)
     2.61062905E-02    2     1000022   1000023   # BR(A -> ~chi_10 ~chi_20)
     2.24003758E-03    2     1000022   1000025   # BR(A -> ~chi_10 ~chi_30)
     3.54217398E-02    2     1000022   1000035   # BR(A -> ~chi_10 ~chi_40)
     1.71447141E-02    2     1000023   1000025   # BR(A -> ~chi_20 ~chi_30)
     7.11940288E-02    2     1000023   1000035   # BR(A -> ~chi_20 ~chi_40)
     4.81978901E-02    2     1000025   1000035   # BR(A -> ~chi_30 ~chi_40)
     1.02811208E-02    2     1000006  -2000006   # BR(A -> ~t_1    ~t_2*  )
     1.02811208E-02    2    -1000006   2000006   # BR(A -> ~t_1*   ~t_2   )
#
#         PDG            Width
DECAY        37     5.55510640E+01   # H+ decays
#          BR         NDA      ID1       ID2
     5.85903905E-04    2           4        -5   # BR(H+ -> c       bb     )
     5.97018060E-02    2         -15        16   # BR(H+ -> tau+    nu_tau )
     2.11090960E-04    2         -13        14   # BR(H+ -> mu+     nu_mu  )
     3.74978182E-06    2           2        -5   # BR(H+ -> u       bb     )
     1.19586855E-05    2           2        -3   # BR(H+ -> u       sb     )
     2.46028616E-04    2           4        -3   # BR(H+ -> c       sb     )
     3.72841791E-01    2           6        -5   # BR(H+ -> t       bb     )
     1.66490483E-06    2          24        25   # BR(H+ -> W+      h      )
     3.21867190E-14    2          24        36   # BR(H+ -> W+      A      )
     4.71049077E-02    2     1000024   1000022   # BR(H+ -> ~chi_1+ ~chi_10)
     6.90797947E-05    2     1000024   1000023   # BR(H+ -> ~chi_1+ ~chi_20)
     3.57996873E-02    2     1000024   1000025   # BR(H+ -> ~chi_1+ ~chi_30)
     1.53986642E-01    2     1000024   1000035   # BR(H+ -> ~chi_1+ ~chi_40)
     6.60694754E-02    2     1000037   1000022   # BR(H+ -> ~chi_2+ ~chi_10)
     1.53277530E-01    2     1000037   1000023   # BR(H+ -> ~chi_2+ ~chi_20)
     8.95587345E-02    2     1000037   1000025   # BR(H+ -> ~chi_2+ ~chi_30)
     8.78404843E-04    2     1000006  -1000005   # BR(H+ -> ~t_1    ~b_1*  )
     1.96515440E-02    2     2000006  -1000005   # BR(H+ -> ~t_2    ~b_1*  )
