#
#                              ======================
#                              | THE SUSYHIT OUTPUT |
#                              ======================
#
#
#              ------------------------------------------------------
#              |     This is the output of the SUSY-HIT package     |
#              |  created by A.Djouadi, M.Muehlleitner and M.Spira. |
#              |  In case of problems with SUSY-HIT email to        |
#              |           margarete.muehlleitner@kit.edu           |
#              |           michael.spira@psi.ch                     |
#              |           abdelhak.djouadi@cern.ch                 |
#              ------------------------------------------------------
#
#              ------------------------------------------------------
#              |  SUSY Les Houches Accord - MSSM Spectrum + Decays  |
#              |              based on the decay programs           |
#              |                                                    |
#              |                     SDECAY 1.5                     |
#              |                                                    |
#              |  Authors: M.Muhlleitner, A.Djouadi and Y.Mambrini  |
#              |  Ref.:    Comput.Phys.Commun.168(2005)46           |
#              |           [hep-ph/0311167]                         |
#              |                                                    |
#              |                     HDECAY 3.4                     |
#              |                                                    |
#              |  By: A.Djouadi,J.Kalinowski,M.Muhlleitner,M.Spira  |
#              |  Ref.:    Comput.Phys.Commun.108(1998)56           |
#              |           [hep-ph/9704448]                         |
#              |                                                    |
#              |                                                    |
#              |  If not stated otherwise all DRbar couplings and   |
#              |  soft SUSY breaking masses are given at the scale  |
#              |  Q=  0.12071410E+04
#              |                                                    |
#              ------------------------------------------------------
#
#
BLOCK DCINFO  # Decay Program information
     1   SDECAY/HDECAY # decay calculator
     2   1.5  /3.4    # version number
#
BLOCK SPINFO  # Spectrum calculator information
     1    SOFTSUSY    # spectrum calculator                
     2    3.7.3       # version number                     
#
BLOCK MODSEL  # Model selection
     1     0   #  nonUniversal                                     
#
BLOCK SMINPUTS  # Standard Model inputs
         1     1.27934000E+02   # alpha_em^-1(M_Z)^MSbar
         2     1.16639000E-05   # G_F [GeV^-2]
         3     1.17200000E-01   # alpha_S(M_Z)^MSbar
         4     9.11870000E+01   # M_Z pole mass
         5     4.19000000E+00   # mb(mb)^MSbar
         6     1.72500000E+02   # mt pole mass
         7     1.77690000E+00   # mtau pole mass
#
BLOCK MINPAR  # Input parameters - minimal models
         3     2.00000000E+01   # tanb                
#
BLOCK EXTPAR  # Input parameters - non-minimal models
         0    -1.00000000E+00   # Set                 
         1     5.09990000E+02   # M_1(MX)             
         2     2.00000000E+03   # M_2(MX)             
         3     1.80000000E+03   # M_3(MX)             
        11     2.64959179E+03   # At(MX)              
        12     0.00000000E+00   # Ab(MX)              
        13     0.00000000E+00   # Atau(MX)            
        23    -5.25990000E+02   # mu(MX)              
        25     2.00000000E+01   # tan                 
        26     4.00000000E+03   # mA(pole)            
        31     4.00000000E+03   # meL(MX)             
        32     4.00000000E+03   # mmuL(MX)            
        33     4.00000000E+03   # mtauL(MX)           
        34     4.00000000E+03   # meR(MX)             
        35     4.00000000E+03   # mmuR(MX)            
        36     4.00000000E+03   # mtauR(MX)           
        41     4.00000000E+03   # mqL1(MX)            
        42     4.00000000E+03   # mqL2(MX)            
        43     6.59990000E+02   # mqL3(MX)            
        44     4.00000000E+03   # muR(MX)             
        45     4.00000000E+03   # mcR(MX)             
        46     2.23485961E+03   # mtR(MX)             
        47     4.00000000E+03   # mdR(MX)             
        48     4.00000000E+03   # msR(MX)             
        49     4.00000000E+03   # mbR(MX)             
#
BLOCK MASS  # Mass Spectrum
# PDG code           mass       particle
        24     8.04183779E+01   # W+
        25     1.25852860E+02   # h
        35     4.00001353E+03   # H
        36     3.99999759E+03   # A
        37     4.00098572E+03   # H+
         5     4.81337004E+00   # b-quark pole mass calculated from mb(mb)_Msbar
   1000001     4.02318359E+03   # ~d_L
   2000001     4.02032304E+03   # ~d_R
   1000002     4.02253017E+03   # ~u_L
   2000002     4.02150403E+03   # ~u_R
   1000003     4.02318359E+03   # ~s_L
   2000003     4.02032304E+03   # ~s_R
   1000004     4.02253017E+03   # ~c_L
   2000004     4.02150403E+03   # ~c_R
   1000005     7.36940491E+02   # ~b_1
   2000005     4.02395594E+03   # ~b_2
   1000006     7.23779467E+02   # ~t_1
   2000006     2.25018897E+03   # ~t_2
   1000011     4.00417780E+03   # ~e_L
   2000011     4.00288110E+03   # ~e_R
   1000012     4.00306432E+03   # ~nu_eL
   1000013     4.00417780E+03   # ~mu_L
   2000013     4.00288110E+03   # ~mu_R
   1000014     4.00306432E+03   # ~nu_muL
   1000015     4.00369609E+03   # ~tau_1
   2000015     4.00833823E+03   # ~tau_2
   1000016     4.00472456E+03   # ~nu_tauL
   1000021     1.97671999E+03   # ~g
   1000022     4.95829506E+02   # ~chi_10
   1000023    -5.37321909E+02   # ~chi_20
   1000025     5.55960841E+02   # ~chi_30
   1000035     2.05352755E+03   # ~chi_40
   1000024     5.35280272E+02   # ~chi_1+
   1000037     2.05369176E+03   # ~chi_2+
#
BLOCK NMIX  # Neutralino Mixing Matrix
  1  1     7.79819152E-01   # N_11
  1  2    -2.04942847E-02   # N_12
  1  3    -4.60638284E-01   # N_13
  1  4    -4.23408133E-01   # N_14
  2  1    -3.15256976E-02   # N_21
  2  2     2.27611648E-02   # N_22
  2  3    -7.05151090E-01   # N_23
  2  4     7.07990113E-01   # N_24
  3  1     6.25209399E-01   # N_31
  3  2     2.86200859E-02   # N_32
  3  3     5.38977229E-01   # N_33
  3  4     5.63735439E-01   # N_34
  4  1    -1.19520000E-03   # N_41
  4  2     9.99121016E-01   # N_42
  4  3    -8.82372244E-03   # N_43
  4  4    -4.09622883E-02   # N_44
#
BLOCK UMIX  # Chargino Mixing Matrix U
  1  1     1.24848366E-02   # U_11
  1  2     9.99922061E-01   # U_12
  2  1    -9.99922061E-01   # U_21
  2  2     1.24848366E-02   # U_22
#
BLOCK VMIX  # Chargino Mixing Matrix V
  1  1     5.79376668E-02   # V_11
  1  2    -9.98320203E-01   # V_12
  2  1    -9.98320203E-01   # V_21
  2  2    -5.79376668E-02   # V_22
#
BLOCK STOPMIX  # Stop Mixing Matrix
  1  1     9.96228201E-01   # cos(theta_t)
  1  2    -8.67719513E-02   # sin(theta_t)
  2  1     8.67719513E-02   # -sin(theta_t)
  2  2     9.96228201E-01   # cos(theta_t)
#
BLOCK SBOTMIX  # Sbottom Mixing Matrix
  1  1     9.99998592E-01   # cos(theta_b)
  1  2    -1.67809357E-03   # sin(theta_b)
  2  1     1.67809357E-03   # -sin(theta_b)
  2  2     9.99998592E-01   # cos(theta_b)
#
BLOCK STAUMIX  # Stau Mixing Matrix
  1  1    -7.06261281E-01   # cos(theta_tau)
  1  2     7.07951272E-01   # sin(theta_tau)
  2  1    -7.07951272E-01   # -sin(theta_tau)
  2  2    -7.06261281E-01   # cos(theta_tau)
#
BLOCK ALPHA  # Higgs mixing
          -5.00236216E-02   # Mixing angle in the neutral Higgs boson sector
#
BLOCK HMIX Q=  1.20714104E+03  # DRbar Higgs Parameters
         1    -5.25990000E+02   # mu(Q)MSSM           
         2     2.00000000E+01   # tan                 
         3     2.43907588E+02   # higgs               
         4     1.63041481E+07   # mA^2(Q)MSSM         
#
BLOCK GAUGE Q=  1.20714104E+03  # The gauge couplings
     1     3.61584419E-01   # gprime(Q) DRbar
     2     6.35684690E-01   # g(Q) DRbar
     3     1.03193117E+00   # g3(Q) DRbar
#
BLOCK AU Q=  1.20714104E+03  # The trilinear couplings
  1  1     0.00000000E+00   # A_u(Q) DRbar
  2  2     1.16170860E-06   # A_c(Q) DRbar
  3  3     2.64959179E+03   # A_t(Q) DRbar
#
BLOCK AD Q=  1.20714104E+03  # The trilinear couplings
  1  1     4.29106995E-07   # A_d(Q) DRbar
  2  2     4.29146876E-07   # A_s(Q) DRbar
  3  3     7.67386917E-07   # A_b(Q) DRbar
#
BLOCK AE Q=  1.20714104E+03  # The trilinear couplings
  1  1     0.00000000E+00   # A_e(Q) DRbar
  2  2     9.54611283E-08   # A_mu(Q) DRbar
  3  3     9.64221343E-08   # A_tau(Q) DRbar
#
BLOCK Yu Q=  1.20714104E+03  # The Yukawa couplings
  1  1     0.00000000E+00   # y_u(Q) DRbar
  2  2     0.00000000E+00   # y_c(Q) DRbar
  3  3     8.68346536E-01   # y_t(Q) DRbar
#
BLOCK Yd Q=  1.20714104E+03  # The Yukawa couplings
  1  1     0.00000000E+00   # y_d(Q) DRbar
  2  2     0.00000000E+00   # y_s(Q) DRbar
  3  3     2.88247945E-01   # y_b(Q) DRbar
#
BLOCK Ye Q=  1.20714104E+03  # The Yukawa couplings
  1  1     0.00000000E+00   # y_e(Q) DRbar
  2  2     0.00000000E+00   # y_mu(Q) DRbar
  3  3     2.02715015E-01   # y_tau(Q) DRbar
#
BLOCK MSOFT Q=  1.20714104E+03  # The soft SUSY breaking masses at the scale Q
         1     5.09990000E+02   # M_1(Q)              
         2     2.00000000E+03   # M_2(Q)              
         3     1.80000000E+03   # M_3(Q)              
        21     1.56118984E+07   # M^2_Hd              
        22    -2.97380097E+05   # M^2_Hu              
        31     4.00000000E+03   # M_eL                
        32     4.00000000E+03   # M_muL               
        33     4.00000000E+03   # M_tauL              
        34     4.00000000E+03   # M_eR                
        35     4.00000000E+03   # M_muR               
        36     4.00000000E+03   # M_tauR              
        41     4.00000000E+03   # M_q1L               
        42     4.00000000E+03   # M_q2L               
        43     6.59989996E+02   # M_q3L               
        44     4.00000000E+03   # M_uR                
        45     4.00000000E+03   # M_cR                
        46     2.23485961E+03   # M_tR                
        47     4.00000000E+03   # M_dR                
        48     4.00000000E+03   # M_sR                
        49     4.00000000E+03   # M_bR                
#
#
#
#                             =================
#                             |The decay table|
#                             =================
#
# - The QCD corrections to the decays gluino -> squark  + quark
#                                     squark -> gaugino + quark_prime
#                                     squark -> squark_prime + Higgs
#                                     squark -> gluino  + quark
#   are included.
#
# - The multi-body decays for the inos, stops and sbottoms are included.
#
# - The loop induced decays for the gluino, neutralinos and stops
#   are included.
#
# - The SUSY decays of the top quark are included.
#
#
#         PDG            Width
DECAY         6     1.40188855E+00   # top decays
#          BR         NDA      ID1       ID2
     1.00000000E+00    2           5        24   # BR(t ->  b    W+)
#
#         PDG            Width
DECAY   1000021     6.24440044E+01   # gluino decays
#          BR         NDA      ID1       ID2
     2.44976585E-01    2     1000005        -5   # BR(~g -> ~b_1  bb)
     2.44976585E-01    2    -1000005         5   # BR(~g -> ~b_1* b )
     2.55023415E-01    2     1000006        -6   # BR(~g -> ~t_1  tb)
     2.55023415E-01    2    -1000006         6   # BR(~g -> ~t_1* t )
#
#         PDG            Width
DECAY   1000006     9.71423530E-01   # stop1 decays
#          BR         NDA      ID1       ID2
     4.15038951E-01    2     1000022         6   # BR(~t_1 -> ~chi_10 t )
     3.35584306E-01    2     1000023         6   # BR(~t_1 -> ~chi_20 t )
     2.49376743E-01    2     1000024         5   # BR(~t_1 -> ~chi_1+ b )
#
#         PDG            Width
DECAY   2000006     1.31419712E+02   # stop2 decays
#          BR         NDA      ID1       ID2
     6.18216218E-02    2     1000022         6   # BR(~t_2 -> ~chi_10 t )
     1.11202209E-01    2     1000023         6   # BR(~t_2 -> ~chi_20 t )
     8.04839841E-02    2     1000025         6   # BR(~t_2 -> ~chi_30 t )
     2.14003174E-08    2     1000035         6   # BR(~t_2 -> ~chi_40 t )
     2.20884544E-01    2     1000024         5   # BR(~t_2 -> ~chi_1+ b )
    -1.06377754E-07    2     1000037         5   # BR(~t_2 -> ~chi_2+ b )
     6.30126152E-02    2     1000021         6   # BR(~t_2 -> ~g      t )
     1.50635471E-01    2     1000006        25   # BR(~t_2 -> ~t_1    h )
     9.90223540E-02    2     1000006        23   # BR(~t_2 -> ~t_1    Z )
     2.12937286E-01    2     1000005        24   # BR(~t_2 -> ~b_1    W+)
#
#         PDG            Width
DECAY   1000005     1.44010384E+00   # sbottom1 decays
#          BR         NDA      ID1       ID2
     7.18578431E-02    2     1000022         5   # BR(~b_1 -> ~chi_10 b )
     9.11232732E-02    2     1000023         5   # BR(~b_1 -> ~chi_20 b )
     4.74871646E-02    2     1000025         5   # BR(~b_1 -> ~chi_30 b )
     7.89531719E-01    2    -1000024         6   # BR(~b_1 -> ~chi_1- t )
#
#         PDG            Width
DECAY   2000005     1.67138817E+02   # sbottom2 decays
#          BR         NDA      ID1       ID2
     1.56345198E-02    2     1000022         5   # BR(~b_2 -> ~chi_10 b )
     1.80891480E-02    2     1000023         5   # BR(~b_2 -> ~chi_20 b )
     1.56065959E-02    2     1000025         5   # BR(~b_2 -> ~chi_30 b )
     2.60177701E-06    2     1000035         5   # BR(~b_2 -> ~chi_40 b )
     3.62425688E-02    2    -1000024         6   # BR(~b_2 -> ~chi_1- t )
     5.17031795E-06    2    -1000037         6   # BR(~b_2 -> ~chi_2- t )
     9.12964150E-01    2     1000021         5   # BR(~b_2 -> ~g      b )
     3.09931512E-04    2     1000005        25   # BR(~b_2 -> ~b_1    h )
     4.26735366E-04    2     1000005        23   # BR(~b_2 -> ~b_1    Z )
     7.17114593E-04    2     1000006       -24   # BR(~b_2 -> ~t_1    W-)
     1.46366030E-06    2     2000006       -24   # BR(~b_2 -> ~t_2    W-)
#
#         PDG            Width
DECAY   1000002     1.78776130E+02   # sup_L decays
#          BR         NDA      ID1       ID2
     1.37227522E-03    2     1000022         2   # BR(~u_L -> ~chi_10 u)
     2.37057692E-05    2     1000023         2   # BR(~u_L -> ~chi_20 u)
     1.81792534E-03    2     1000025         2   # BR(~u_L -> ~chi_30 u)
     4.77985589E-02    2     1000035         2   # BR(~u_L -> ~chi_40 u)
     5.65123871E-04    2     1000024         1   # BR(~u_L -> ~chi_1+ d)
     9.54765569E-02    2     1000037         1   # BR(~u_L -> ~chi_2+ d)
     8.52945854E-01    2     1000021         2   # BR(~u_L -> ~g      u)
#
#         PDG            Width
DECAY   2000002     1.61068411E+02   # sup_R decays
#          BR         NDA      ID1       ID2
     3.28352642E-02    2     1000022         2   # BR(~u_R -> ~chi_10 u)
     5.33821405E-05    2     1000023         2   # BR(~u_R -> ~chi_20 u)
     2.09424086E-02    2     1000025         2   # BR(~u_R -> ~chi_30 u)
     4.36618888E-08    2     1000035         2   # BR(~u_R -> ~chi_40 u)
     9.46168901E-01    2     1000021         2   # BR(~u_R -> ~g      u)
#
#         PDG            Width
DECAY   1000001     1.78796671E+02   # sdown_L decays
#          BR         NDA      ID1       ID2
     2.39781864E-03    2     1000022         1   # BR(~d_L -> ~chi_10 d)
     6.95074388E-05    2     1000023         1   # BR(~d_L -> ~chi_20 d)
     6.78800961E-04    2     1000025         1   # BR(~d_L -> ~chi_30 d)
     4.78551572E-02    2     1000035         1   # BR(~d_L -> ~chi_40 d)
     2.62430446E-05    2    -1000024         2   # BR(~d_L -> ~chi_1- u)
     9.58096556E-02    2    -1000037         2   # BR(~d_L -> ~chi_2- u)
     8.53162817E-01    2     1000021         1   # BR(~d_L -> ~g      d)
#
#         PDG            Width
DECAY   2000001     1.54463064E+02   # sdown_R decays
#          BR         NDA      ID1       ID2
     8.55714248E-03    2     1000022         1   # BR(~d_R -> ~chi_10 d)
     1.39117855E-05    2     1000023         1   # BR(~d_R -> ~chi_20 d)
     5.45774032E-03    2     1000025         1   # BR(~d_R -> ~chi_30 d)
     1.13742019E-08    2     1000035         1   # BR(~d_R -> ~chi_40 d)
     9.85971194E-01    2     1000021         1   # BR(~d_R -> ~g      d)
#
#         PDG            Width
DECAY   1000004     1.78776130E+02   # scharm_L decays
#          BR         NDA      ID1       ID2
     1.37227522E-03    2     1000022         4   # BR(~c_L -> ~chi_10 c)
     2.37057692E-05    2     1000023         4   # BR(~c_L -> ~chi_20 c)
     1.81792534E-03    2     1000025         4   # BR(~c_L -> ~chi_30 c)
     4.77985589E-02    2     1000035         4   # BR(~c_L -> ~chi_40 c)
     5.65123871E-04    2     1000024         3   # BR(~c_L -> ~chi_1+ s)
     9.54765569E-02    2     1000037         3   # BR(~c_L -> ~chi_2+ s)
     8.52945854E-01    2     1000021         4   # BR(~c_L -> ~g      c)
#
#         PDG            Width
DECAY   2000004     1.61068411E+02   # scharm_R decays
#          BR         NDA      ID1       ID2
     3.28352642E-02    2     1000022         4   # BR(~c_R -> ~chi_10 c)
     5.33821405E-05    2     1000023         4   # BR(~c_R -> ~chi_20 c)
     2.09424086E-02    2     1000025         4   # BR(~c_R -> ~chi_30 c)
     4.36618888E-08    2     1000035         4   # BR(~c_R -> ~chi_40 c)
     9.46168901E-01    2     1000021         4   # BR(~c_R -> ~g      c)
#
#         PDG            Width
DECAY   1000003     1.78796671E+02   # sstrange_L decays
#          BR         NDA      ID1       ID2
     2.39781864E-03    2     1000022         3   # BR(~s_L -> ~chi_10 s)
     6.95074388E-05    2     1000023         3   # BR(~s_L -> ~chi_20 s)
     6.78800961E-04    2     1000025         3   # BR(~s_L -> ~chi_30 s)
     4.78551572E-02    2     1000035         3   # BR(~s_L -> ~chi_40 s)
     2.62430446E-05    2    -1000024         4   # BR(~s_L -> ~chi_1- c)
     9.58096556E-02    2    -1000037         4   # BR(~s_L -> ~chi_2- c)
     8.53162817E-01    2     1000021         3   # BR(~s_L -> ~g      s)
#
#         PDG            Width
DECAY   2000003     1.54463064E+02   # sstrange_R decays
#          BR         NDA      ID1       ID2
     8.55714248E-03    2     1000022         3   # BR(~s_R -> ~chi_10 s)
     1.39117855E-05    2     1000023         3   # BR(~s_R -> ~chi_20 s)
     5.45774032E-03    2     1000025         3   # BR(~s_R -> ~chi_30 s)
     1.13742019E-08    2     1000035         3   # BR(~s_R -> ~chi_40 s)
     9.85971194E-01    2     1000021         3   # BR(~s_R -> ~g      s)
#
#         PDG            Width
DECAY   1000011     3.12786206E+01   # selectron_L decays
#          BR         NDA      ID1       ID2
     8.93024514E-02    2     1000022        11   # BR(~e_L -> ~chi_10 e-)
     1.15712697E-05    2     1000023        11   # BR(~e_L -> ~chi_20 e-)
     7.30735273E-02    2     1000025        11   # BR(~e_L -> ~chi_30 e-)
     2.78622426E-01    2     1000035        11   # BR(~e_L -> ~chi_40 e-)
     1.54732906E-04    2    -1000024        12   # BR(~e_L -> ~chi_1- nu_e)
     5.58835291E-01    2    -1000037        12   # BR(~e_L -> ~chi_2- nu_e)
#
#         PDG            Width
DECAY   2000011     2.01260647E+01   # selectron_R decays
#          BR         NDA      ID1       ID2
     6.10029504E-01    2     1000022        11   # BR(~e_R -> ~chi_10 e-)
     9.91583335E-04    2     1000023        11   # BR(~e_R -> ~chi_20 e-)
     3.88978110E-01    2     1000025        11   # BR(~e_R -> ~chi_30 e-)
     8.02408203E-07    2     1000035        11   # BR(~e_R -> ~chi_40 e-)
#
#         PDG            Width
DECAY   1000013     3.12786206E+01   # smuon_L decays
#          BR         NDA      ID1       ID2
     8.93024514E-02    2     1000022        13   # BR(~mu_L -> ~chi_10 mu-)
     1.15712697E-05    2     1000023        13   # BR(~mu_L -> ~chi_20 mu-)
     7.30735273E-02    2     1000025        13   # BR(~mu_L -> ~chi_30 mu-)
     2.78622426E-01    2     1000035        13   # BR(~mu_L -> ~chi_40 mu-)
     1.54732906E-04    2    -1000024        14   # BR(~mu_L -> ~chi_1- nu_mu)
     5.58835291E-01    2    -1000037        14   # BR(~mu_L -> ~chi_2- nu_mu)
#
#         PDG            Width
DECAY   2000013     2.01260647E+01   # smuon_R decays
#          BR         NDA      ID1       ID2
     6.10029504E-01    2     1000022        13   # BR(~mu_R -> ~chi_10 mu-)
     9.91583335E-04    2     1000023        13   # BR(~mu_R -> ~chi_20 mu-)
     3.88978110E-01    2     1000025        13   # BR(~mu_R -> ~chi_30 mu-)
     8.02408203E-07    2     1000035        13   # BR(~mu_R -> ~chi_40 mu-)
#
#         PDG            Width
DECAY   1000015     3.05179387E+01   # stau_1 decays
#          BR         NDA      ID1       ID2
     3.18667020E-01    2     1000022        15   # BR(~tau_1 -> ~chi_10  tau-)
     4.51739484E-02    2     1000023        15   # BR(~tau_1 -> ~chi_20  tau-)
     1.55583361E-01    2     1000025        15   # BR(~tau_1 -> ~chi_30  tau-)
     1.41265676E-01    2     1000035        15   # BR(~tau_1 -> ~chi_40  tau-)
     5.59708744E-02    2    -1000024        16   # BR(~tau_1 -> ~chi_1-  nu_tau)
     2.83339119E-01    2    -1000037        16   # BR(~tau_1 -> ~chi_2-  nu_tau)
#
#         PDG            Width
DECAY   2000015     3.04132023E+01   # stau_2 decays
#          BR         NDA      ID1       ID2
     2.20408105E-01    2     1000022        15   # BR(~tau_2 -> ~chi_10  tau-)
     5.86198877E-02    2     1000023        15   # BR(~tau_2 -> ~chi_20  tau-)
     2.36913407E-01    2     1000025        15   # BR(~tau_2 -> ~chi_30  tau-)
     1.45130267E-01    2     1000035        15   # BR(~tau_2 -> ~chi_40  tau-)
     4.78476697E-02    2    -1000024        16   # BR(~tau_2 -> ~chi_1-  nu_tau)
     2.91080665E-01    2    -1000037        16   # BR(~tau_2 -> ~chi_2-  nu_tau)
#
#         PDG            Width
DECAY   1000012     3.12891542E+01   # snu_eL decays
#          BR         NDA      ID1       ID2
     1.07376438E-01    2     1000022        12   # BR(~nu_eL -> ~chi_10 nu_e)
     8.21176818E-04    2     1000023        12   # BR(~nu_eL -> ~chi_20 nu_e)
     5.28902778E-02    2     1000025        12   # BR(~nu_eL -> ~chi_30 nu_e)
     2.79099215E-01    2     1000035        12   # BR(~nu_eL -> ~chi_40 nu_e)
     3.33014504E-03    2     1000024        11   # BR(~nu_eL -> ~chi_1+ e-)
     5.56482748E-01    2     1000037        11   # BR(~nu_eL -> ~chi_2+ e-)
#
#         PDG            Width
DECAY   1000014     3.12891542E+01   # snu_muL decays
#          BR         NDA      ID1       ID2
     1.07376438E-01    2     1000022        14   # BR(~nu_muL -> ~chi_10 nu_mu)
     8.21176818E-04    2     1000023        14   # BR(~nu_muL -> ~chi_20 nu_mu)
     5.28902778E-02    2     1000025        14   # BR(~nu_muL -> ~chi_30 nu_mu)
     2.79099215E-01    2     1000035        14   # BR(~nu_muL -> ~chi_40 nu_mu)
     3.33014504E-03    2     1000024        13   # BR(~nu_muL -> ~chi_1+ mu-)
     5.56482748E-01    2     1000037        13   # BR(~nu_muL -> ~chi_2+ mu-)
#
#         PDG            Width
DECAY   1000016     3.44756231E+01   # snu_tauL decays
#          BR         NDA      ID1       ID2
     9.74949214E-02    2     1000022        16   # BR(~nu_tauL -> ~chi_10 nu_tau)
     7.45609914E-04    2     1000023        16   # BR(~nu_tauL -> ~chi_20 nu_tau)
     4.80232770E-02    2     1000025        16   # BR(~nu_tauL -> ~chi_30 nu_tau)
     2.53558115E-01    2     1000035        16   # BR(~nu_tauL -> ~chi_40 nu_tau)
     9.46152743E-02    2     1000024        15   # BR(~nu_tauL -> ~chi_1+ tau-)
     5.05562803E-01    2     1000037        15   # BR(~nu_tauL -> ~chi_2+ tau-)
#
#         PDG            Width
DECAY   1000024     4.62352848E-05   # chargino1+ decays
#           BR         NDA      ID1       ID2       ID3
     3.33700920E-01    3     1000022         2        -1   # BR(~chi_1+ -> ~chi_10 u    db)
     3.33700920E-01    3     1000022         4        -3   # BR(~chi_1+ -> ~chi_10 c    sb)
     1.11235076E-01    3     1000022       -11        12   # BR(~chi_1+ -> ~chi_10 e+   nu_e)
     1.11235076E-01    3     1000022       -13        14   # BR(~chi_1+ -> ~chi_10 mu+  nu_mu)
     1.10128008E-01    3     1000022       -15        16   # BR(~chi_1+ -> ~chi_10 tau+ nu_tau)
#
#         PDG            Width
DECAY   1000037     5.90982519E+01   # chargino2+ decays
#          BR         NDA      ID1       ID2
     3.75919354E-01    2     1000006        -5   # BR(~chi_2+ -> ~t_1     bb)
     3.63065224E-01    2    -1000005         6   # BR(~chi_2+ -> ~b_1*    t )
     6.63683984E-02    2     1000024        23   # BR(~chi_2+ -> ~chi_1+  Z )
     2.12449089E-02    2     1000022        24   # BR(~chi_2+ -> ~chi_10  W+)
     6.46970689E-02    2     1000023        24   # BR(~chi_2+ -> ~chi_20  W+)
     4.33930281E-02    2     1000025        24   # BR(~chi_2+ -> ~chi_30  W+)
     6.53120170E-02    2     1000024        25   # BR(~chi_2+ -> ~chi_1+  h )
#
#         PDG            Width
DECAY   1000022     0.00000000E+00   # neutralino1 decays
#
#         PDG            Width
DECAY   1000023     4.78240596E-05   # neutralino2 decays
#          BR         NDA      ID1       ID2
     1.07458975E-03    2     1000022        22   # BR(~chi_20 -> ~chi_10 gam)
#           BR         NDA      ID1       ID2       ID3
     1.18609577E-01    3     1000022        -2         2   # BR(~chi_20 -> ~chi_10 ub      u)
     1.53853047E-01    3     1000022        -1         1   # BR(~chi_20 -> ~chi_10 db      d)
     1.18609577E-01    3     1000022        -4         4   # BR(~chi_20 -> ~chi_10 cb      c)
     1.53853047E-01    3     1000022        -3         3   # BR(~chi_20 -> ~chi_10 sb      s)
     1.37013266E-01    3     1000022        -5         5   # BR(~chi_20 -> ~chi_10 bb      b)
     3.52789084E-02    3     1000022       -11        11   # BR(~chi_20 -> ~chi_10 e+      e-)
     3.52789084E-02    3     1000022       -13        13   # BR(~chi_20 -> ~chi_10 mu+     mu-)
     3.48460936E-02    3     1000022       -15        15   # BR(~chi_20 -> ~chi_10 tau+    tau-)
     7.05271469E-02    3     1000022       -12        12   # BR(~chi_20 -> ~chi_10 nu_eb   nu_e)
     7.05271469E-02    3     1000022       -14        14   # BR(~chi_20 -> ~chi_10 nu_mub  nu_mu)
     7.05271456E-02    3     1000022       -16        16   # BR(~chi_20 -> ~chi_10 nu_taub nu_tau)
     2.89975606E-07    3     1000024        -2         1   # BR(~chi_20 -> ~chi_1+ ub      d)
     2.89975606E-07    3    -1000024        -1         2   # BR(~chi_20 -> ~chi_1- db      u)
     2.89975606E-07    3     1000024        -4         3   # BR(~chi_20 -> ~chi_1+ cb      s)
     2.89975606E-07    3    -1000024        -3         4   # BR(~chi_20 -> ~chi_1- sb      c)
     9.66586028E-08    3     1000024       -12        11   # BR(~chi_20 -> ~chi_1+ nu_eb   e-)
     9.66586028E-08    3    -1000024        12       -11   # BR(~chi_20 -> ~chi_1- nu_e    e+)
     9.66586028E-08    3     1000024       -14        13   # BR(~chi_20 -> ~chi_1+ nu_mub  mu-)
     9.66586028E-08    3    -1000024        14       -13   # BR(~chi_20 -> ~chi_1- nu_mu   mu+)
     4.23278811E-10    3     1000024       -16        15   # BR(~chi_20 -> ~chi_1+ nu_taub tau-)
     4.23278811E-10    3    -1000024        16       -15   # BR(~chi_20 -> ~chi_1- nu_tau  tau+)
#
#         PDG            Width
DECAY   1000025     7.88894347E-06   # neutralino3 decays
#          BR         NDA      ID1       ID2
     1.04873836E-01    2     1000022        22   # BR(~chi_30 -> ~chi_10 gam)
     2.19074377E-02    2     1000023        22   # BR(~chi_30 -> ~chi_20 gam)
#           BR         NDA      ID1       ID2       ID3
     4.65378214E-03    3     1000022        -2         2   # BR(~chi_30 -> ~chi_10 ub      u)
     5.95418518E-03    3     1000022        -1         1   # BR(~chi_30 -> ~chi_10 db      d)
     4.65378214E-03    3     1000022        -4         4   # BR(~chi_30 -> ~chi_10 cb      c)
     5.95418518E-03    3     1000022        -3         3   # BR(~chi_30 -> ~chi_10 sb      s)
     5.90725567E-03    3     1000022        -5         5   # BR(~chi_30 -> ~chi_10 bb      b)
     1.30168166E-03    3     1000022       -11        11   # BR(~chi_30 -> ~chi_10 e+      e-)
     1.30168166E-03    3     1000022       -13        13   # BR(~chi_30 -> ~chi_10 mu+     mu-)
     1.31219607E-03    3     1000022       -15        15   # BR(~chi_30 -> ~chi_10 tau+    tau-)
     2.76129976E-03    3     1000022       -12        12   # BR(~chi_30 -> ~chi_10 nu_eb   nu_e)
     2.76129976E-03    3     1000022       -14        14   # BR(~chi_30 -> ~chi_10 nu_mub  nu_mu)
     2.76127752E-03    3     1000022       -16        16   # BR(~chi_30 -> ~chi_10 nu_taub nu_tau)
     1.97087871E-02    3     1000023        -2         2   # BR(~chi_30 -> ~chi_20 ub      u)
     2.55655754E-02    3     1000023        -1         1   # BR(~chi_30 -> ~chi_20 db      d)
     1.97087871E-02    3     1000023        -4         4   # BR(~chi_30 -> ~chi_20 cb      c)
     2.55655754E-02    3     1000023        -3         3   # BR(~chi_30 -> ~chi_20 sb      s)
     1.37321052E-02    3     1000023        -5         5   # BR(~chi_30 -> ~chi_20 bb      b)
     5.86252849E-03    3     1000023       -11        11   # BR(~chi_30 -> ~chi_20 e+      e-)
     5.86252849E-03    3     1000023       -13        13   # BR(~chi_30 -> ~chi_20 mu+     mu-)
     5.56759352E-03    3     1000023       -15        15   # BR(~chi_30 -> ~chi_20 tau+    tau-)
     1.17188578E-02    3     1000023       -12        12   # BR(~chi_30 -> ~chi_20 nu_eb   nu_e)
     1.17188578E-02    3     1000023       -14        14   # BR(~chi_30 -> ~chi_20 nu_mub  nu_mu)
     1.17188579E-02    3     1000023       -16        16   # BR(~chi_30 -> ~chi_20 nu_taub nu_tau)
     1.13311294E-01    3     1000024        -2         1   # BR(~chi_30 -> ~chi_1+ ub      d)
     1.13311294E-01    3    -1000024        -1         2   # BR(~chi_30 -> ~chi_1- db      u)
     1.13311294E-01    3     1000024        -4         3   # BR(~chi_30 -> ~chi_1+ cb      s)
     1.13311294E-01    3    -1000024        -3         4   # BR(~chi_30 -> ~chi_1- sb      c)
     3.77699674E-02    3     1000024       -12        11   # BR(~chi_30 -> ~chi_1+ nu_eb   e-)
     3.77699674E-02    3    -1000024        12       -11   # BR(~chi_30 -> ~chi_1- nu_e    e+)
     3.77699674E-02    3     1000024       -14        13   # BR(~chi_30 -> ~chi_1+ nu_mub  mu-)
     3.77699674E-02    3    -1000024        14       -13   # BR(~chi_30 -> ~chi_1- nu_mu   mu+)
     3.64204995E-02    3     1000024       -16        15   # BR(~chi_30 -> ~chi_1+ nu_taub tau-)
     3.64204995E-02    3    -1000024        16       -15   # BR(~chi_30 -> ~chi_1- nu_tau  tau+)
#
#         PDG            Width
DECAY   1000035     5.90839387E+01   # neutralino4 decays
#          BR         NDA      ID1       ID2
     6.92675506E-03    2     1000022        23   # BR(~chi_40 -> ~chi_10   Z )
     4.68546912E-02    2     1000023        23   # BR(~chi_40 -> ~chi_20   Z )
     1.25921728E-02    2     1000025        23   # BR(~chi_40 -> ~chi_30   Z )
     6.47014340E-02    2     1000024       -24   # BR(~chi_40 -> ~chi_1+   W-)
     6.47014340E-02    2    -1000024        24   # BR(~chi_40 -> ~chi_1-   W+)
     1.46137667E-02    2     1000022        25   # BR(~chi_40 -> ~chi_10   h )
     1.92315219E-02    2     1000023        25   # BR(~chi_40 -> ~chi_20   h )
     3.13076879E-02    2     1000025        25   # BR(~chi_40 -> ~chi_30   h )
     1.84198351E-01    2     1000006        -6   # BR(~chi_40 -> ~t_1      tb)
     1.84198351E-01    2    -1000006         6   # BR(~chi_40 -> ~t_1*     t )
     1.85336917E-01    2     1000005        -5   # BR(~chi_40 -> ~b_1      bb)
     1.85336917E-01    2    -1000005         5   # BR(~chi_40 -> ~b_1*     b )
#
#         PDG            Width
DECAY        25     4.03830944E-03   # h decays
#          BR         NDA      ID1       ID2
     5.84687597E-01    2           5        -5   # BR(h -> b       bb     )
     6.46727157E-02    2         -15        15   # BR(h -> tau+    tau-   )
     2.28939591E-04    2         -13        13   # BR(h -> mu+     mu-    )
     4.85281980E-04    2           3        -3   # BR(h -> s       sb     )
     2.10790067E-02    2           4        -4   # BR(h -> c       cb     )
     6.92188496E-02    2          21        21   # BR(h -> g       g      )
     2.40130817E-03    2          22        22   # BR(h -> gam     gam    )
     1.66982323E-03    2          22        23   # BR(h -> Z       gam    )
     2.26748392E-01    2          24       -24   # BR(h -> W+      W-     )
     2.88080858E-02    2          23        23   # BR(h -> Z       Z      )
#
#         PDG            Width
DECAY        35     5.56238675E+01   # H decays
#          BR         NDA      ID1       ID2
     3.70412064E-01    2           5        -5   # BR(H -> b       bb     )
     5.96076254E-02    2         -15        15   # BR(H -> tau+    tau-   )
     2.10758126E-04    2         -13        13   # BR(H -> mu+     mu-    )
     2.49290473E-04    2           3        -3   # BR(H -> s       sb     )
     6.99123802E-08    2           4        -4   # BR(H -> c       cb     )
     7.00667621E-03    2           6        -6   # BR(H -> t       tb     )
     7.37222276E-07    2          21        21   # BR(H -> g       g      )
     3.67180696E-09    2          22        22   # BR(H -> gam     gam    )
     1.80443882E-09    2          23        22   # BR(H -> Z       gam    )
     1.60250269E-06    2          24       -24   # BR(H -> W+      W-     )
     8.00696289E-07    2          23        23   # BR(H -> Z       Z      )
     6.58076251E-06    2          25        25   # BR(H -> h       h      )
     1.83338375E-24    2          36        36   # BR(H -> A       A      )
     2.78163846E-20    2          23        36   # BR(H -> Z       A      )
     1.86772838E-03    2     1000024  -1000024   # BR(H -> ~chi_1+ ~chi_1-)
     1.51194391E-01    2     1000024  -1000037   # BR(H -> ~chi_1+ ~chi_2-)
     1.51194391E-01    2     1000037  -1000024   # BR(H -> ~chi_2+ ~chi_1-)
     2.45869776E-02    2     1000022   1000022   # BR(H -> ~chi_10 ~chi_10)
     3.83017777E-04    2     1000023   1000023   # BR(H -> ~chi_20 ~chi_20)
     1.62153513E-02    2     1000025   1000025   # BR(H -> ~chi_30 ~chi_30)
     2.20480771E-02    2     1000022   1000023   # BR(H -> ~chi_10 ~chi_20)
     2.77923474E-03    2     1000022   1000025   # BR(H -> ~chi_10 ~chi_30)
     2.91920383E-02    2     1000022   1000035   # BR(H -> ~chi_10 ~chi_40)
     1.51073088E-02    2     1000023   1000025   # BR(H -> ~chi_20 ~chi_30)
     8.25097962E-02    2     1000023   1000035   # BR(H -> ~chi_20 ~chi_40)
     3.99877344E-02    2     1000025   1000035   # BR(H -> ~chi_30 ~chi_40)
     8.27809974E-04    2     1000006  -1000006   # BR(H -> ~t_1    ~t_1*  )
     1.23048930E-02    2     1000006  -2000006   # BR(H -> ~t_1    ~t_2*  )
     1.23048930E-02    2     2000006  -1000006   # BR(H -> ~t_2    ~t_1*  )
     1.45534903E-07    2     1000005  -1000005   # BR(H -> ~b_1    ~b_1*  )
#
#         PDG            Width
DECAY        36     5.56191997E+01   # A decays
#          BR         NDA      ID1       ID2
     3.70468520E-01    2           5        -5   # BR(A -> b       bb     )
     5.96128265E-02    2         -15        15   # BR(A -> tau+    tau-   )
     2.10776350E-04    2         -13        13   # BR(A -> mu+     mu-    )
     2.49352739E-04    2           3        -3   # BR(A -> s       sb     )
     7.03788150E-08    2           4        -4   # BR(A -> c       cb     )
     7.02154976E-03    2           6        -6   # BR(A -> t       tb     )
     1.44275045E-05    2          21        21   # BR(A -> g       g      )
     6.95483112E-08    2          22        22   # BR(A -> gam     gam    )
     1.58629669E-08    2          23        22   # BR(A -> Z       gam    )
     1.59923966E-06    2          23        25   # BR(A -> Z       h      )
     1.92721679E-03    2     1000024  -1000024   # BR(A -> ~chi_1+ ~chi_1-)
     1.51168415E-01    2     1000024  -1000037   # BR(A -> ~chi_1+ ~chi_2-)
     1.51168415E-01    2     1000037  -1000024   # BR(A -> ~chi_2+ ~chi_1-)
     2.17944295E-02    2     1000022   1000022   # BR(A -> ~chi_10 ~chi_10)
     5.04816796E-04    2     1000023   1000023   # BR(A -> ~chi_20 ~chi_20)
     1.42528636E-02    2     1000025   1000025   # BR(A -> ~chi_30 ~chi_30)
     2.57843000E-02    2     1000022   1000023   # BR(A -> ~chi_10 ~chi_20)
     2.33135175E-03    2     1000022   1000025   # BR(A -> ~chi_10 ~chi_30)
     3.49163269E-02    2     1000022   1000035   # BR(A -> ~chi_10 ~chi_40)
     1.64725043E-02    2     1000023   1000025   # BR(A -> ~chi_20 ~chi_30)
     6.83567703E-02    2     1000023   1000035   # BR(A -> ~chi_20 ~chi_40)
     4.83729137E-02    2     1000025   1000035   # BR(A -> ~chi_30 ~chi_40)
     1.26852338E-02    2     1000006  -2000006   # BR(A -> ~t_1    ~t_2*  )
     1.26852338E-02    2    -1000006   2000006   # BR(A -> ~t_1*   ~t_2   )
#
#         PDG            Width
DECAY        37     5.59461632E+01   # H+ decays
#          BR         NDA      ID1       ID2
     5.98455868E-04    2           4        -5   # BR(H+ -> c       bb     )
     5.92790744E-02    2         -15        16   # BR(H+ -> tau+    nu_tau )
     2.09596284E-04    2         -13        14   # BR(H+ -> mu+     nu_mu  )
     3.83011434E-06    2           2        -5   # BR(H+ -> u       bb     )
     1.18740373E-05    2           2        -3   # BR(H+ -> u       sb     )
     2.44287131E-04    2           4        -3   # BR(H+ -> c       sb     )
     3.80632139E-01    2           6        -5   # BR(H+ -> t       bb     )
     1.59162844E-06    2          24        25   # BR(H+ -> W+      h      )
     2.21588454E-14    2          24        36   # BR(H+ -> W+      A      )
     4.62283264E-02    2     1000024   1000022   # BR(H+ -> ~chi_1+ ~chi_10)
     9.56925251E-05    2     1000024   1000023   # BR(H+ -> ~chi_1+ ~chi_20)
     3.49538954E-02    2     1000024   1000025   # BR(H+ -> ~chi_1+ ~chi_30)
     1.50517577E-01    2     1000024   1000035   # BR(H+ -> ~chi_1+ ~chi_40)
     6.38872132E-02    2     1000037   1000022   # BR(H+ -> ~chi_2+ ~chi_10)
     1.49959436E-01    2     1000037   1000023   # BR(H+ -> ~chi_2+ ~chi_20)
     8.80814569E-02    2     1000037   1000025   # BR(H+ -> ~chi_2+ ~chi_30)
     4.24155732E-04    2     1000006  -1000005   # BR(H+ -> ~t_1    ~b_1*  )
     2.48713987E-02    2     2000006  -1000005   # BR(H+ -> ~t_2    ~b_1*  )
