#  ISAJET SUSY parameters in SUSY Les Houches Accord 2 format
#  Created by ISALHA 2.0 Last revision: H Baer 27 May 2014
Block SPINFO   # Program information
     1   ISASUGRA/ISASUSY from ISAJET   # Spectrum Calculator
     2   7.87   18-JUL-2017 13:55:55    # Version number
Block MODSEL   # Model selection
     1    13   # Non-universal supergravity model                  
Block SMINPUTS   # Standard Model inputs
     1     1.28000000E+02   # alpha_em^(-1)
     2     1.16570000E-05   # G_Fermi
     3     1.19999997E-01   # alpha_s(M_Z)
     4     9.11699982E+01   # m_{Z}(pole)
     5     4.19999981E+00   # m_{b}(m_{b})
     6     1.72500000E+02   # m_{top}(pole)
     7     1.77699995E+00   # m_{tau}(pole)
Block MINPAR   # SUSY breaking input parameters
     1     5.00000000E+03   # m_0
     2     5.00000000E+02   # m_{1/2}
     3     1.50000000E+01   # tan(beta)
     4     1.00000000E+00   # sign(mu)
     5    -8.00000000E+03   # A_0
Block EXTPAR   # Non-universal SUSY breaking parameters
     0     1.96515348E+16   # Input scale
    21     2.99487550E+06   # Down type Higgs mass squared
    22     3.76866720E+07   #  Up  type Higgs mass squared
Block MASS   # Scalar and gaugino mass spectrum
#  PDG code   mass                 particle
         6     1.72500000E+02   #  top            
        24     8.04229965E+01   #  W^+
        25     1.24340637E+02   #  h^0            
        35     1.00666644E+03   #  H^0            
        36     1.00000000E+03   #  A^0            
        37     1.00322870E+03   #  H^+            
   1000001     5.03141943E+03   #  dnl            
   1000002     5.03077441E+03   #  upl            
   1000003     5.03141943E+03   #  stl            
   1000004     5.03077490E+03   #  chl            
   1000005     3.52812451E+03   #  b1             
   1000006     1.46343005E+03   #  t1             
   1000011     5.08895068E+03   #  el-            
   1000012     5.09367773E+03   #  nuel           
   1000013     5.08895068E+03   #  mul-           
   1000014     5.09367773E+03   #  numl           
   1000015     4.66124707E+03   #  tau1           
   1000016     5.01850879E+03   #  nutl           
   1000021     1.36117285E+03   #  glss           
   1000022     1.32284241E+02   #  z1ss           
   1000023    -1.60294281E+02   #  z2ss           
   1000024     1.51468048E+02   #  w1ss           
   1000025     2.35719879E+02   #  z3ss           
   1000035     4.58340851E+02   #  z4ss           
   1000037     4.49005676E+02   #  w2ss           
   1000039     1.00000002E+20   #  gvss
   2000001     5.01409473E+03   #  dnr            
   2000002     5.18495996E+03   #  upr            
   2000003     5.01409473E+03   #  str            
   2000004     5.18495996E+03   #  chr            
   2000005     4.85599951E+03   #  b2             
   2000006     3.50343164E+03   #  t2             
   2000011     4.82205371E+03   #  er-            
   2000013     4.82205371E+03   #  mur-           
   2000015     5.01237500E+03   #  tau2           
Block ALPHA   # Effective Higgs mixing parameter
         -6.81142509E-02   # alpha
Block STOPMIX   # stop mixing matrix
  1  1     4.96711843E-02   # O_{11}
  1  2     9.98765647E-01   # O_{12}
  2  1    -9.98765647E-01   # O_{21}
  2  2     4.96711843E-02   # O_{22}
Block SBOTMIX   # sbottom mixing matrix
  1  1     9.99994755E-01   # O_{11}
  1  2     3.23307537E-03   # O_{12}
  2  1    -3.23307537E-03   # O_{21}
  2  2     9.99994755E-01   # O_{22}
Block STAUMIX   # stau mixing matrix
  1  1     7.80856237E-03   # O_{11}
  1  2     9.99969542E-01   # O_{12}
  2  1    -9.99969542E-01   # O_{21}
  2  2     7.80856237E-03   # O_{22}
Block NMIX   # neutralino mixing matrix
  1  1     3.05200040E-01   #
  1  2    -1.75844193E-01   #
  1  3     7.02415645E-01   #
  1  4    -6.18501425E-01   #
  2  1     7.39625245E-02   #
  2  2    -8.30244198E-02   #
  2  3    -6.86040401E-01   #
  2  4    -7.19016612E-01   #
  3  1    -9.48608816E-01   #
  3  2    -1.03185065E-01   #
  3  3     1.68958232E-01   #
  3  4    -2.46874481E-01   #
  4  1     3.90314087E-02   #
  4  2    -9.75468278E-01   #
  4  3    -8.61036554E-02   #
  4  4     1.98806643E-01   #
Block UMIX   # chargino U mixing matrix
  1  1    -1.17381327E-01   # U_{11}
  1  2     9.93086934E-01   # U_{12}
  2  1    -9.93086934E-01   # U_{21}
  2  2    -1.17381327E-01   # U_{22}
Block VMIX   # chargino V mixing matrix
  1  1    -2.74873644E-01   # V_{11}
  1  2     9.61480379E-01   # V_{12}
  2  1    -9.61480379E-01   # V_{21}
  2  2    -2.74873644E-01   # V_{22}
Block GAUGE Q=  2.28599463E+03   #
     1     3.57524812E-01   # g`
     2     6.52378440E-01   # g_2
     3     1.21927667E+00   # g_3
Block YU Q=  2.28599463E+03   #
  3  3     8.34921241E-01   # y_t
Block YD Q=  2.28599463E+03   #
  3  3     1.94843993E-01   # y_b
Block YE Q=  2.28599463E+03   #
  3  3     1.51295036E-01   # y_tau
Block HMIX Q=  2.28599463E+03   # Higgs mixing parameters
     1     1.50000000E+02   # mu(Q)
     2     1.43663797E+01   # tan(beta)(Q)
     3     2.52221664E+02   # Higgs vev at Q
     4     1.00000000E+06   # m_A^2(Q)
Block MSOFT Q=  2.28599463E+03   # DRbar SUSY breaking parameters
     1     2.23431015E+02   # M_1(Q)          
     2     4.11322449E+02   # M_2(Q)          
     3     1.14165515E+03   # M_3(Q)          
    21     9.48078313E+05   # MHd^2(Q)        
    22    -4.30124453E+04   # MHu^2(Q)        
    31     5.07275830E+03   # MeL(Q)          
    32     5.07275830E+03   # MmuL(Q)         
    33     4.99961816E+03   # MtauL(Q)        
    34     4.81848779E+03   # MeR(Q)          
    35     4.81848779E+03   # MmuR(Q)         
    36     4.65825049E+03   # MtauR(Q)        
    41     4.95606836E+03   # MqL1(Q)         
    42     4.95606836E+03   # MqL2(Q)         
    43     3.48481299E+03   # MqL3(Q)         
    44     5.10843457E+03   # MuR(Q)          
    45     5.10843457E+03   # McR(Q)          
    46     1.49958447E+03   # MtR(Q)          
    47     4.93921484E+03   # MdR(Q)          
    48     4.93921484E+03   # MsR(Q)          
    49     4.80346289E+03   # MbR(Q)          
Block AU Q=  2.28599463E+03   #
  1  1    -3.73400195E+03   # A_u
  2  2    -3.73400195E+03   # A_c
  3  3    -3.73400195E+03   # A_t
Block AD Q=  2.28599463E+03   #
  1  1    -8.02473926E+03   # A_d
  2  2    -8.02473926E+03   # A_s
  3  3    -8.02473926E+03   # A_b
Block AE Q=  2.28599463E+03   #
  1  1    -7.93715723E+03   # A_e
  2  2    -7.93715723E+03   # A_mu
  3  3    -7.93715723E+03   # A_tau
#  ISAJET decay tables in SUSY Les Houches accord format
#  Created by ISALHD. Last revision: C. Balazs, 2005 May 25
Block DCINFO                           # Program information
     1   ISASUGRA from ISAJET          # Spectrum Calculator
     2   7.87   18-JUL-2017 13:55:55   # Version number
#         PDG         Width
DECAY         6  1.46776152E+00   # TP    decays
#          BR          NDA       ID1       ID2       ID3       ID4
      3.33333313E-01    3            2        -1         5             # TP     -->  UP     DB     BT          
      3.33333313E-01    3            4        -3         5             # TP     -->  CH     SB     BT          
      1.11111097E-01    3          -11        12         5             # TP     -->  E+     NUE    BT          
      1.11111097E-01    3          -13        14         5             # TP     -->  MU+    NUM    BT          
      1.11111097E-01    3          -15        16         5             # TP     -->  TAU+   NUT    BT          
#         PDG         Width
DECAY   1000021  3.63425463E-02   # GLSS  decays
#          BR          NDA       ID1       ID2       ID3       ID4
      4.90755483E-05    3      1000024         1        -2             # GLSS   -->  W1SS+  DN     UB          
      4.90755483E-05    3     -1000024         2        -1             # GLSS   -->  W1SS-  UP     DB          
      4.90755338E-05    3      1000024         3        -4             # GLSS   -->  W1SS+  ST     CB          
      4.90755338E-05    3     -1000024         4        -3             # GLSS   -->  W1SS-  CH     SB          
      2.26761982E-01    3      1000024         5        -6             # GLSS   -->  W1SS+  BT     TB          
      2.26761982E-01    3     -1000024         6        -5             # GLSS   -->  W1SS-  TP     BB          
      6.46593107E-04    3      1000037         1        -2             # GLSS   -->  W2SS+  DN     UB          
      6.46593107E-04    3     -1000037         2        -1             # GLSS   -->  W2SS-  UP     DB          
      6.46592991E-04    3      1000037         3        -4             # GLSS   -->  W2SS+  ST     CB          
      6.46592991E-04    3     -1000037         4        -3             # GLSS   -->  W2SS-  CH     SB          
      1.36531787E-02    3      1000037         5        -6             # GLSS   -->  W2SS+  BT     TB          
      1.36531787E-02    3     -1000037         6        -5             # GLSS   -->  W2SS-  TP     BB          
      3.05295899E-03    2      1000022        21                       # GLSS   -->  Z1SS   GL                 
      3.38173195E-05    3      1000022         2        -2             # GLSS   -->  Z1SS   UP     UB          
      3.83228398E-05    3      1000022         1        -1             # GLSS   -->  Z1SS   DN     DB          
      3.83228398E-05    3      1000022         3        -3             # GLSS   -->  Z1SS   ST     SB          
      3.38173159E-05    3      1000022         4        -4             # GLSS   -->  Z1SS   CH     CB          
      4.98871610E-04    3      1000022         5        -5             # GLSS   -->  Z1SS   BT     BB          
      1.62789881E-01    3      1000022         6        -6             # GLSS   -->  Z1SS   TP     TB          
      4.55864565E-03    2      1000023        21                       # GLSS   -->  Z2SS   GL                 
      2.85527540E-06    3      1000023         2        -2             # GLSS   -->  Z2SS   UP     UB          
      3.87370119E-06    3      1000023         1        -1             # GLSS   -->  Z2SS   DN     DB          
      3.87370119E-06    3      1000023         3        -3             # GLSS   -->  Z2SS   ST     SB          
      2.85527449E-06    3      1000023         4        -4             # GLSS   -->  Z2SS   CH     CB          
      3.49775335E-04    3      1000023         5        -5             # GLSS   -->  Z2SS   BT     BB          
      2.18594536E-01    3      1000023         6        -6             # GLSS   -->  Z2SS   TP     TB          
      1.42625323E-03    2      1000025        21                       # GLSS   -->  Z3SS   GL                 
      2.70468503E-04    3      1000025         2        -2             # GLSS   -->  Z3SS   UP     UB          
      6.84798724E-05    3      1000025         1        -1             # GLSS   -->  Z3SS   DN     DB          
      6.84798724E-05    3      1000025         3        -3             # GLSS   -->  Z3SS   ST     SB          
      2.70468474E-04    3      1000025         4        -4             # GLSS   -->  Z3SS   CH     CB          
      1.06153617E-04    3      1000025         5        -5             # GLSS   -->  Z3SS   BT     BB          
      1.09781414E-01    3      1000025         6        -6             # GLSS   -->  Z3SS   TP     TB          
      2.48076918E-04    2      1000035        21                       # GLSS   -->  Z4SS   GL                 
      3.08498042E-04    3      1000035         2        -2             # GLSS   -->  Z4SS   UP     UB          
      3.17333150E-04    3      1000035         1        -1             # GLSS   -->  Z4SS   DN     DB          
      3.17333150E-04    3      1000035         3        -3             # GLSS   -->  Z4SS   ST     SB          
      3.08497954E-04    3      1000035         4        -4             # GLSS   -->  Z4SS   CH     CB          
      1.42302329E-03    3      1000035         5        -5             # GLSS   -->  Z4SS   BT     BB          
      1.14696724E-02    3      1000035         6        -6             # GLSS   -->  Z4SS   TP     TB          
#         PDG         Width
DECAY   1000002  2.90885132E+02   # UPL   decays
#          BR          NDA       ID1       ID2       ID3       ID4
      1.04562531E-03    2      1000022         2                       # UPL    -->  Z1SS   UP                 
      3.50660877E-04    2      1000023         2                       # UPL    -->  Z2SS   UP                 
      5.56036551E-03    2      1000025         2                       # UPL    -->  Z3SS   UP                 
      6.71306849E-02    2      1000035         2                       # UPL    -->  Z4SS   UP                 
      7.82470405E-01    2      1000021         2                       # UPL    -->  GLSS   UP                 
      1.09807961E-02    2      1000024         1                       # UPL    -->  W1SS+  DN                 
      1.32461458E-01    2      1000037         1                       # UPL    -->  W2SS+  DN                 
#         PDG         Width
DECAY   1000001  2.90888123E+02   # DNL   decays
#          BR          NDA       ID1       ID2       ID3       ID4
      3.90525302E-03    2      1000022         1                       # DNL    -->  Z1SS   DN                 
      6.77677221E-04    2      1000023         1                       # DNL    -->  Z2SS   DN                 
      3.61376617E-04    2      1000025         1                       # DNL    -->  Z3SS   DN                 
      6.91367611E-02    2      1000035         1                       # DNL    -->  Z4SS   DN                 
      7.82585561E-01    2      1000021         1                       # DNL    -->  GLSS   DN                 
      2.00270535E-03    2     -1000024         2                       # DNL    -->  W1SS-  UP                 
      1.41330585E-01    2     -1000037         2                       # DNL    -->  W2SS-  UP                 
#         PDG         Width
DECAY   1000003  2.90888092E+02   # STL   decays
#          BR          NDA       ID1       ID2       ID3       ID4
      3.90525325E-03    2      1000022         3                       # STL    -->  Z1SS   ST                 
      6.77677279E-04    2      1000023         3                       # STL    -->  Z2SS   ST                 
      3.61376646E-04    2      1000025         3                       # STL    -->  Z3SS   ST                 
      6.91367686E-02    2      1000035         3                       # STL    -->  Z4SS   ST                 
      7.82585680E-01    2      1000021         3                       # STL    -->  GLSS   ST                 
      2.00270559E-03    2     -1000024         4                       # STL    -->  W1SS-  CH                 
      1.41330585E-01    2     -1000037         4                       # STL    -->  W2SS-  CH                 
#         PDG         Width
DECAY   1000004  2.90885132E+02   # CHL   decays
#          BR          NDA       ID1       ID2       ID3       ID4
      1.04562531E-03    2      1000022         4                       # CHL    -->  Z1SS   CH                 
      3.50660877E-04    2      1000023         4                       # CHL    -->  Z2SS   CH                 
      5.56036551E-03    2      1000025         4                       # CHL    -->  Z3SS   CH                 
      6.71306849E-02    2      1000035         4                       # CHL    -->  Z4SS   CH                 
      7.82470405E-01    2      1000021         4                       # CHL    -->  GLSS   CH                 
      1.09807970E-02    2      1000024         3                       # CHL    -->  W1SS+  ST                 
      1.32461458E-01    2      1000037         3                       # CHL    -->  W2SS+  ST                 
#         PDG         Width
DECAY   1000005  2.71958984E+02   # BT1   decays
#          BR          NDA       ID1       ID2       ID3       ID4
      8.01456999E-03    2      1000022         5                       # BT1    -->  Z1SS   BT                 
      5.30834310E-03    2      1000023         5                       # BT1    -->  Z2SS   BT                 
      5.49870019E-04    2      1000025         5                       # BT1    -->  Z3SS   BT                 
      5.10227121E-02    2      1000035         5                       # BT1    -->  Z4SS   BT                 
      5.11007428E-01    2      1000021         5                       # BT1    -->  GLSS   BT                 
      1.59971967E-01    2     -1000024         6                       # BT1    -->  W1SS-  TP                 
      1.17215581E-01    2     -1000037         6                       # BT1    -->  W2SS-  TP                 
      1.46770135E-01    2          -24   1000006                       # BT1    -->  W-     TP1                
      1.39361888E-04    2          -37   1000006                       # BT1    -->  H-     TP1                
#         PDG         Width
DECAY   1000006  4.05340347E+01   # TP1   decays
#          BR          NDA       ID1       ID2       ID3       ID4
      1.86873436E-01    2      1000022         6                       # TP1    -->  Z1SS   TP                 
      2.39958242E-01    2      1000023         6                       # TP1    -->  Z2SS   TP                 
      9.53639299E-02    2      1000025         6                       # TP1    -->  Z3SS   TP                 
      1.12150488E-02    2      1000035         6                       # TP1    -->  Z4SS   TP                 
      4.44473833E-01    2      1000024         5                       # TP1    -->  W1SS+  BT                 
      2.21154988E-02    2      1000037         5                       # TP1    -->  W2SS+  BT                 
#         PDG         Width
DECAY   2000002  2.47809341E+02   # UPR   decays
#          BR          NDA       ID1       ID2       ID3       ID4
      4.39994922E-03    2      1000022         2                       # UPR    -->  Z1SS   UP                 
      2.58247950E-04    2      1000023         2                       # UPR    -->  Z2SS   UP                 
      4.23858874E-02    2      1000025         2                       # UPR    -->  Z3SS   UP                 
      7.09346423E-05    2      1000035         2                       # UPR    -->  Z4SS   UP                 
      9.52884972E-01    2      1000021         2                       # UPR    -->  GLSS   UP                 
#         PDG         Width
DECAY   2000001  2.29503799E+02   # DNR   decays
#          BR          NDA       ID1       ID2       ID3       ID4
      1.14847976E-03    2      1000022         1                       # DNR    -->  Z1SS   DN                 
      6.74053372E-05    2      1000023         1                       # DNR    -->  Z2SS   DN                 
      1.10614346E-02    2      1000025         1                       # DNR    -->  Z3SS   DN                 
      1.84969031E-05    2      1000035         1                       # DNR    -->  Z4SS   DN                 
      9.87704217E-01    2      1000021         1                       # DNR    -->  GLSS   DN                 
#         PDG         Width
DECAY   2000003  2.29503799E+02   # STR   decays
#          BR          NDA       ID1       ID2       ID3       ID4
      1.14847976E-03    2      1000022         3                       # STR    -->  Z1SS   ST                 
      6.74053372E-05    2      1000023         3                       # STR    -->  Z2SS   ST                 
      1.10614346E-02    2      1000025         3                       # STR    -->  Z3SS   ST                 
      1.84969031E-05    2      1000035         3                       # STR    -->  Z4SS   ST                 
      9.87704217E-01    2      1000021         3                       # STR    -->  GLSS   ST                 
#         PDG         Width
DECAY   2000004  2.47809311E+02   # CHR   decays
#          BR          NDA       ID1       ID2       ID3       ID4
      4.39994968E-03    2      1000022         4                       # CHR    -->  Z1SS   CH                 
      2.58247979E-04    2      1000023         4                       # CHR    -->  Z2SS   CH                 
      4.23858874E-02    2      1000025         4                       # CHR    -->  Z3SS   CH                 
      7.09346496E-05    2      1000035         4                       # CHR    -->  Z4SS   CH                 
      9.52884972E-01    2      1000021         4                       # CHR    -->  GLSS   CH                 
#         PDG         Width
DECAY   2000005  2.58808380E+02   # BT2   decays
#          BR          NDA       ID1       ID2       ID3       ID4
      8.25154874E-03    2      1000022         5                       # BT2    -->  Z1SS   BT                 
      7.05337618E-03    2      1000023         5                       # BT2    -->  Z2SS   BT                 
      9.93486214E-03    2      1000025         5                       # BT2    -->  Z3SS   BT                 
      1.43530400E-04    2      1000035         5                       # BT2    -->  Z4SS   BT                 
      8.41712236E-01    2      1000021         5                       # BT2    -->  GLSS   BT                 
      1.45527693E-02    2     -1000024         6                       # BT2    -->  W1SS-  TP                 
      2.38370310E-04    2     -1000037         6                       # BT2    -->  W2SS-  TP                 
      5.57476096E-06    2          -24   1000006                       # BT2    -->  W-     TP1                
      3.29182076E-04    2          -24   2000006                       # BT2    -->  W-     TP2                
      1.59301286E-04    2           23   1000005                       # BT2    -->  Z0     BT1                
      3.33123957E-04    2           25   1000005                       # BT2    -->  HL0    BT1                
      2.88528632E-02    2           36   1000005                       # BT2    -->  HA0    BT1                
      2.85870284E-02    2           35   1000005                       # BT2    -->  HH0    BT1                
      1.25682127E-04    2          -37   1000006                       # BT2    -->  H-     TP1                
      5.97206578E-02    2          -37   2000006                       # BT2    -->  H-     TP2                
#         PDG         Width
DECAY   2000006  2.79461853E+02   # TP2   decays
#          BR          NDA       ID1       ID2       ID3       ID4
      4.86186922E-01    2      1000021         6                       # TP2    -->  GLSS   TP                 
      1.45612843E-02    2      1000024         5                       # TP2    -->  W1SS+  BT                 
      9.76874903E-02    2      1000037         5                       # TP2    -->  W2SS+  BT                 
      6.99947625E-02    2           23   1000006                       # TP2    -->  Z0     TP1                
      1.13114119E-01    2           25   1000006                       # TP2    -->  HL0    TP1                
      7.56858353E-05    2           35   1000006                       # TP2    -->  HH0    TP1                
      6.82234095E-05    2           36   1000006                       # TP2    -->  HA0    TP1                
      6.22298829E-02    2      1000022         6                       # TP2    -->  Z1SS   TP                 
      8.50883573E-02    2      1000023         6                       # TP2    -->  Z2SS   TP                 
      1.49575891E-02    2      1000025         6                       # TP2    -->  Z3SS   TP                 
      5.60356304E-02    2      1000035         6                       # TP2    -->  Z4SS   TP                 
#         PDG         Width
DECAY   1000011  6.97267761E+01   # EL-   decays
#          BR          NDA       ID1       ID2       ID3       ID4
      2.01282764E-05    2      1000022        11                       # EL-    -->  Z1SS   E-                 
      5.50501049E-04    2      1000023        11                       # EL-    -->  Z2SS   E-                 
      1.19322985E-01    2      1000025        11                       # EL-    -->  Z3SS   E-                 
      2.75091588E-01    2      1000035        11                       # EL-    -->  Z4SS   E-                 
      8.45082104E-03    2     -1000024        12                       # EL-    -->  W1SS-  NUE                
      5.96563935E-01    2     -1000037        12                       # EL-    -->  W2SS-  NUE                
#         PDG         Width
DECAY   1000013  6.97267761E+01   # MUL-  decays
#          BR          NDA       ID1       ID2       ID3       ID4
      2.01282764E-05    2      1000022        13                       # MUL-   -->  Z1SS   MU-                
      5.50501049E-04    2      1000023        13                       # MUL-   -->  Z2SS   MU-                
      1.19322985E-01    2      1000025        13                       # MUL-   -->  Z3SS   MU-                
      2.75091588E-01    2      1000035        13                       # MUL-   -->  Z4SS   MU-                
      8.45082104E-03    2     -1000024        14                       # MUL-   -->  W1SS-  NUM                
      5.96563935E-01    2     -1000037        14                       # MUL-   -->  W2SS-  NUM                
#         PDG         Width
DECAY   1000015  2.80380325E+01   # TAU1- decays
#          BR          NDA       ID1       ID2       ID3       ID4
      1.18611075E-01    2      1000022        15                       # TAU1-  -->  Z1SS   TAU-               
      4.15678844E-02    2      1000023        15                       # TAU1-  -->  Z2SS   TAU-               
      7.58982599E-01    2      1000025        15                       # TAU1-  -->  Z3SS   TAU-               
      1.56875991E-03    2      1000035        15                       # TAU1-  -->  Z4SS   TAU-               
      7.87093714E-02    2     -1000024        16                       # TAU1-  -->  W1SS-  NUT                
      5.60364453E-04    2     -1000037        16                       # TAU1-  -->  W2SS-  NUT                
#         PDG         Width
DECAY   1000012  6.98165436E+01   # NUEL  decays
#          BR          NDA       ID1       ID2       ID3       ID4
      3.62056717E-02    2      1000022        12                       # NUEL   -->  Z1SS   NUE                
      4.68806783E-03    2      1000023        12                       # NUEL   -->  Z2SS   NUE                
      5.34774922E-02    2      1000025        12                       # NUEL   -->  Z3SS   NUE                
      3.00292939E-01    2      1000035        12                       # NUEL   -->  Z4SS   NUE                
      4.63247448E-02    2      1000024        11                       # NUEL   -->  W1SS+  E-                 
      5.59011102E-01    2      1000037        11                       # NUEL   -->  W2SS+  E-                 
#         PDG         Width
DECAY   1000014  6.98165436E+01   # NUML  decays
#          BR          NDA       ID1       ID2       ID3       ID4
      3.62056717E-02    2      1000022        14                       # NUML   -->  Z1SS   NUM                
      4.68806783E-03    2      1000023        14                       # NUML   -->  Z2SS   NUM                
      5.34774922E-02    2      1000025        14                       # NUML   -->  Z3SS   NUM                
      3.00292939E-01    2      1000035        14                       # NUML   -->  Z4SS   NUM                
      4.63247448E-02    2      1000024        13                       # NUML   -->  W1SS+  MU-                
      5.59011102E-01    2      1000037        13                       # NUML   -->  W2SS+  MU-                
#         PDG         Width
DECAY   1000016  7.11601410E+01   # NUTL  decays
#          BR          NDA       ID1       ID2       ID3       ID4
      3.49964201E-02    2      1000022        16                       # NUTL   -->  Z1SS   NUT                
      4.53140261E-03    2      1000023        16                       # NUTL   -->  Z2SS   NUT                
      5.16867824E-02    2      1000025        16                       # NUTL   -->  Z3SS   NUT                
      2.90132135E-01    2      1000035        16                       # NUTL   -->  Z4SS   NUT                
      7.79190809E-02    2      1000024        15                       # NUTL   -->  W1SS+  TAU-               
      5.40565372E-01    2      1000037        15                       # NUTL   -->  W2SS+  TAU-               
      1.68757644E-04    2           24   1000015                       # NUTL   -->  W+     TAU1-              
#         PDG         Width
DECAY   2000011  2.44164658E+01   # ER-   decays
#          BR          NDA       ID1       ID2       ID3       ID4
      9.34250429E-02    2      1000022        11                       # ER-    -->  Z1SS   E-                 
      5.48291113E-03    2      1000023        11                       # ER-    -->  Z2SS   E-                 
      8.99589360E-01    2      1000025        11                       # ER-    -->  Z3SS   E-                 
      1.50277326E-03    2      1000035        11                       # ER-    -->  Z4SS   E-                 
#         PDG         Width
DECAY   2000013  2.44164658E+01   # MUR-  decays
#          BR          NDA       ID1       ID2       ID3       ID4
      9.34250429E-02    2      1000022        13                       # MUR-   -->  Z1SS   MU-                
      5.48291113E-03    2      1000023        13                       # MUR-   -->  Z2SS   MU-                
      8.99589360E-01    2      1000025        13                       # MUR-   -->  Z3SS   MU-                
      1.50277326E-03    2      1000035        13                       # MUR-   -->  Z4SS   MU-                
#         PDG         Width
DECAY   2000015  7.10409927E+01   # TAU2- decays
#          BR          NDA       ID1       ID2       ID3       ID4
      1.62408650E-02    2      1000022        15                       # TAU2-  -->  Z1SS   TAU-               
      1.64850820E-02    2      1000023        15                       # TAU2-  -->  Z2SS   TAU-               
      1.16416954E-01    2      1000025        15                       # TAU2-  -->  Z3SS   TAU-               
      2.66168058E-01    2      1000035        15                       # TAU2-  -->  Z4SS   TAU-               
      7.91372918E-03    2     -1000024        16                       # TAU2-  -->  W1SS-  NUT                
      5.76656878E-01    2     -1000037        16                       # TAU2-  -->  W2SS-  NUT                
      7.92920910E-05    2           23   1000015                       # TAU2-  -->  Z0     TAU1-              
      3.92096263E-05    2           25   1000015                       # TAU2-  -->  HL0    TAU1-              
#         PDG         Width
DECAY   1000023  1.23949685E-05   # Z2SS  decays
#          BR          NDA       ID1       ID2       ID3       ID4
      2.15828838E-03    2      1000022        22                       # Z2SS   -->  Z1SS   GM                 
      1.67836796E-03    3     -1000024         2        -1             # Z2SS   -->  W1SS-  UP     DB          
      5.59456006E-04    3     -1000024        12       -11             # Z2SS   -->  W1SS-  NUE    E+          
      5.59456006E-04    3     -1000024        14       -13             # Z2SS   -->  W1SS-  NUM    MU+         
      1.67836796E-03    3      1000024         1        -2             # Z2SS   -->  W1SS+  DN     UB          
      5.59456006E-04    3      1000024        11       -12             # Z2SS   -->  W1SS+  E-     ANUE        
      5.59456006E-04    3      1000024        13       -14             # Z2SS   -->  W1SS+  MU-    ANUM        
      1.67836796E-03    3     -1000024         4        -3             # Z2SS   -->  W1SS-  CH     SB          
      5.59456006E-04    3     -1000024        16       -15             # Z2SS   -->  W1SS-  NUT    TAU+        
      1.67836796E-03    3      1000024         3        -4             # Z2SS   -->  W1SS+  ST     CB          
      5.59456006E-04    3      1000024        15       -16             # Z2SS   -->  W1SS+  TAU-   ANUT        
      1.22155510E-01    3      1000022         2        -2             # Z2SS   -->  Z1SS   UP     UB          
      1.57516792E-01    3      1000022         1        -1             # Z2SS   -->  Z1SS   DN     DB          
      1.57516792E-01    3      1000022         3        -3             # Z2SS   -->  Z1SS   ST     SB          
      1.22155510E-01    3      1000022         4        -4             # Z2SS   -->  Z1SS   CH     CB          
      1.09960057E-01    3      1000022         5        -5             # Z2SS   -->  Z1SS   BT     BB          
      3.57325785E-02    3      1000022        11       -11             # Z2SS   -->  Z1SS   E-     E+          
      3.57325785E-02    3      1000022        13       -13             # Z2SS   -->  Z1SS   MU-    MU+         
      3.37041318E-02    3      1000022        15       -15             # Z2SS   -->  Z1SS   TAU-   TAU+        
      7.10991994E-02    3      1000022        12       -12             # Z2SS   -->  Z1SS   NUE    ANUE        
      7.10991994E-02    3      1000022        14       -14             # Z2SS   -->  Z1SS   NUM    ANUM        
      7.10992441E-02    3      1000022        16       -16             # Z2SS   -->  Z1SS   NUT    ANUT        
#         PDG         Width
DECAY   1000025  1.30066071E-02   # Z3SS  decays
#          BR          NDA       ID1       ID2       ID3       ID4
      4.17517697E-07    2      1000022        22                       # Z3SS   -->  Z1SS   GM                 
      3.01189971E-08    2      1000023        22                       # Z3SS   -->  Z2SS   GM                 
      4.23025668E-01    2      1000024       -24                       # Z3SS   -->  W1SS+  W-                 
      4.23025668E-01    2     -1000024        24                       # Z3SS   -->  W1SS-  W+                 
      1.35458693E-01    2      1000022        23                       # Z3SS   -->  Z1SS   Z0                 
      3.90282417E-10    3      1000022         2        -2             # Z3SS   -->  Z1SS   UP     UB          
      3.11671383E-11    3      1000022         1        -1             # Z3SS   -->  Z1SS   DN     DB          
      3.11671383E-11    3      1000022         3        -3             # Z3SS   -->  Z1SS   ST     SB          
      3.90282417E-10    3      1000022         4        -4             # Z3SS   -->  Z1SS   CH     CB          
      4.14687111E-06    3      1000022         5        -5             # Z3SS   -->  Z1SS   BT     BB          
      8.37742098E-10    3      1000022        11       -11             # Z3SS   -->  Z1SS   E-     E+          
      8.37742098E-10    3      1000022        13       -13             # Z3SS   -->  Z1SS   MU-    MU+         
      8.49424282E-07    3      1000022        15       -15             # Z3SS   -->  Z1SS   TAU-   TAU+        
      1.13452435E-10    3      1000022        12       -12             # Z3SS   -->  Z1SS   NUE    ANUE        
      1.13452435E-10    3      1000022        14       -14             # Z3SS   -->  Z1SS   NUM    ANUM        
      1.20413693E-10    3      1000022        16       -16             # Z3SS   -->  Z1SS   NUT    ANUT        
      2.18601921E-03    3      1000023         2        -2             # Z3SS   -->  Z2SS   UP     UB          
      2.81890645E-03    3      1000023         1        -1             # Z3SS   -->  Z2SS   DN     DB          
      2.81890645E-03    3      1000023         3        -3             # Z3SS   -->  Z2SS   ST     SB          
      2.18601921E-03    3      1000023         4        -4             # Z3SS   -->  Z2SS   CH     CB          
      2.74248072E-03    3      1000023         5        -5             # Z3SS   -->  Z2SS   BT     BB          
      6.39506092E-04    3      1000023        11       -11             # Z3SS   -->  Z2SS   E-     E+          
      6.39506092E-04    3      1000023        13       -13             # Z3SS   -->  Z2SS   MU-    MU+         
      6.36396115E-04    3      1000023        15       -15             # Z3SS   -->  Z2SS   TAU-   TAU+        
      1.27224275E-03    3      1000023        12       -12             # Z3SS   -->  Z2SS   NUE    ANUE        
      1.27224275E-03    3      1000023        14       -14             # Z3SS   -->  Z2SS   NUM    ANUM        
      1.27224030E-03    3      1000023        16       -16             # Z3SS   -->  Z2SS   NUT    ANUT        
#         PDG         Width
DECAY   1000035  3.32841873E+00   # Z4SS  decays
#          BR          NDA       ID1       ID2       ID3       ID4
      1.57233410E-06    2      1000022        22                       # Z4SS   -->  Z1SS   GM                 
      3.70349994E-06    2      1000023        22                       # Z4SS   -->  Z2SS   GM                 
      3.30407772E-07    2      1000025        22                       # Z4SS   -->  Z3SS   GM                 
      2.58840293E-01    2      1000024       -24                       # Z4SS   -->  W1SS+  W-                 
      2.58840293E-01    2     -1000024        24                       # Z4SS   -->  W1SS-  W+                 
      3.41895827E-08    3     -1000037         2        -1             # Z4SS   -->  W2SS-  UP     DB          
      1.13965264E-08    3     -1000037        12       -11             # Z4SS   -->  W2SS-  NUE    E+          
      1.13965264E-08    3     -1000037        14       -13             # Z4SS   -->  W2SS-  NUM    MU+         
      3.41895827E-08    3      1000037         1        -2             # Z4SS   -->  W2SS+  DN     UB          
      1.13965264E-08    3      1000037        11       -12             # Z4SS   -->  W2SS+  E-     ANUE        
      1.13965264E-08    3      1000037        13       -14             # Z4SS   -->  W2SS+  MU-    ANUM        
      3.41895827E-08    3     -1000037         4        -3             # Z4SS   -->  W2SS-  CH     SB          
      1.13965264E-08    3     -1000037        16       -15             # Z4SS   -->  W2SS-  NUT    TAU+        
      3.41895827E-08    3      1000037         3        -4             # Z4SS   -->  W2SS+  ST     CB          
      1.13965264E-08    3      1000037        15       -16             # Z4SS   -->  W2SS+  TAU-   ANUT        
      3.07143107E-02    2      1000022        23                       # Z4SS   -->  Z1SS   Z0                 
      2.34390602E-01    2      1000023        23                       # Z4SS   -->  Z2SS   Z0                 
      5.37124649E-03    2      1000025        23                       # Z4SS   -->  Z3SS   Z0                 
      1.35244080E-10    3      1000022         2        -2             # Z4SS   -->  Z1SS   UP     UB          
      5.18450172E-10    3      1000022         1        -1             # Z4SS   -->  Z1SS   DN     DB          
      5.18450172E-10    3      1000022         3        -3             # Z4SS   -->  Z1SS   ST     SB          
      1.35243983E-10    3      1000022         4        -4             # Z4SS   -->  Z1SS   CH     CB          
      4.32064525E-07    3      1000022         5        -5             # Z4SS   -->  Z1SS   BT     BB          
      1.00896591E-12    3      1000022        11       -11             # Z4SS   -->  Z1SS   E-     E+          
      1.00896591E-12    3      1000022        13       -13             # Z4SS   -->  Z1SS   MU-    MU+         
      8.29207281E-08    3      1000022        15       -15             # Z4SS   -->  Z1SS   TAU-   TAU+        
      3.72113396E-10    3      1000022        12       -12             # Z4SS   -->  Z1SS   NUE    ANUE        
      3.72113396E-10    3      1000022        14       -14             # Z4SS   -->  Z1SS   NUM    ANUM        
      3.95002170E-10    3      1000022        16       -16             # Z4SS   -->  Z1SS   NUT    ANUT        
      1.52591672E-11    3      1000023         2        -2             # Z4SS   -->  Z2SS   UP     UB          
      3.03339645E-11    3      1000023         1        -1             # Z4SS   -->  Z2SS   DN     DB          
      3.03339645E-11    3      1000023         3        -3             # Z4SS   -->  Z2SS   ST     SB          
      1.52591620E-11    3      1000023         4        -4             # Z4SS   -->  Z2SS   CH     CB          
      3.41646597E-07    3      1000023         5        -5             # Z4SS   -->  Z2SS   BT     BB          
      1.76908997E-12    3      1000023        11       -11             # Z4SS   -->  Z2SS   E-     E+          
      1.76908997E-12    3      1000023        13       -13             # Z4SS   -->  Z2SS   MU-    MU+         
      6.59592345E-08    3      1000023        15       -15             # Z4SS   -->  Z2SS   TAU-   TAU+        
      1.62454841E-11    3      1000023        12       -12             # Z4SS   -->  Z2SS   NUE    ANUE        
      1.62454841E-11    3      1000023        14       -14             # Z4SS   -->  Z2SS   NUM    ANUM        
      1.72455175E-11    3      1000023        16       -16             # Z4SS   -->  Z2SS   NUT    ANUT        
      2.04081058E-10    3      1000025         2        -2             # Z4SS   -->  Z3SS   UP     UB          
      1.36541377E-11    3      1000025         1        -1             # Z4SS   -->  Z3SS   DN     DB          
      1.36541377E-11    3      1000025         3        -3             # Z4SS   -->  Z3SS   ST     SB          
      2.04080988E-10    3      1000025         4        -4             # Z4SS   -->  Z3SS   CH     CB          
      8.74427108E-09    3      1000025         5        -5             # Z4SS   -->  Z3SS   BT     BB          
      3.21269289E-10    3      1000025        11       -11             # Z4SS   -->  Z3SS   E-     E+          
      3.21269289E-10    3      1000025        13       -13             # Z4SS   -->  Z3SS   MU-    MU+         
      2.03249884E-09    3      1000025        15       -15             # Z4SS   -->  Z3SS   TAU-   TAU+        
      1.55606472E-10    3      1000025        12       -12             # Z4SS   -->  Z3SS   NUE    ANUE        
      1.55606472E-10    3      1000025        14       -14             # Z4SS   -->  Z3SS   NUM    ANUM        
      1.65188724E-10    3      1000025        16       -16             # Z4SS   -->  Z3SS   NUT    ANUT        
      1.33834690E-01    2      1000022        25                       # Z4SS   -->  Z1SS   HL0                
      3.27357389E-02    2      1000023        25                       # Z4SS   -->  Z2SS   HL0                
      4.52661738E-02    2      1000025        25                       # Z4SS   -->  Z3SS   HL0                
#         PDG         Width
DECAY   1000024  2.78239395E-06   # W1SS+ decays
#          BR          NDA       ID1       ID2       ID3       ID4
      3.33332032E-01    3      1000022         2        -1             # W1SS+  -->  Z1SS   UP     DB          
      3.33332032E-01    3      1000022         4        -3             # W1SS+  -->  Z1SS   CH     SB          
      1.11111268E-01    3      1000022       -11        12             # W1SS+  -->  Z1SS   E+     NUE         
      1.11111268E-01    3      1000022       -13        14             # W1SS+  -->  Z1SS   MU+    NUM         
      1.11113422E-01    3      1000022       -15        16             # W1SS+  -->  Z1SS   TAU+   NUT         
#         PDG         Width
DECAY   1000037  3.23793602E+00   # W2SS+ decays
#          BR          NDA       ID1       ID2       ID3       ID4
      3.11785819E-10    3      1000022         2        -1             # W2SS+  -->  Z1SS   UP     DB          
      3.11785792E-10    3      1000022         4        -3             # W2SS+  -->  Z1SS   CH     SB          
      2.26116958E-10    3      1000022       -11        12             # W2SS+  -->  Z1SS   E+     NUE         
      2.26116958E-10    3      1000022       -13        14             # W2SS+  -->  Z1SS   MU+    NUM         
      8.16770935E-08    3      1000022       -15        16             # W2SS+  -->  Z1SS   TAU+   NUT         
      2.09344596E-01    2      1000022        24                       # W2SS+  -->  Z1SS   W+                 
      9.34753455E-11    3      1000023         2        -1             # W2SS+  -->  Z2SS   UP     DB          
      9.34753386E-11    3      1000023         4        -3             # W2SS+  -->  Z2SS   CH     SB          
      3.14611392E-11    3      1000023       -11        12             # W2SS+  -->  Z2SS   E+     NUE         
      3.14611392E-11    3      1000023       -13        14             # W2SS+  -->  Z2SS   MU+    NUM         
      5.50472343E-08    3      1000023       -15        16             # W2SS+  -->  Z2SS   TAU+   NUT         
      2.59421527E-01    2      1000023        24                       # W2SS+  -->  Z2SS   W+                 
      1.53164134E-10    3      1000025         2        -1             # W2SS+  -->  Z3SS   UP     DB          
      1.53164093E-10    3      1000025         4        -3             # W2SS+  -->  Z3SS   CH     SB          
      4.05828593E-10    3      1000025       -11        12             # W2SS+  -->  Z3SS   E+     NUE         
      4.05828593E-10    3      1000025       -13        14             # W2SS+  -->  Z3SS   MU+    NUM         
      2.10327800E-09    3      1000025       -15        16             # W2SS+  -->  Z3SS   TAU+   NUT         
      6.02789521E-02    2      1000025        24                       # W2SS+  -->  Z3SS   W+                 
      2.45670095E-01    2      1000024        23                       # W2SS+  -->  W1SS+  Z0                 
      7.66889885E-10    3      1000024         1        -1             # W2SS+  -->  W1SS+  DN     DB          
      7.66889663E-10    3      1000024         3        -3             # W2SS+  -->  W1SS+  ST     SB          
      1.49119647E-10    3      1000024         2        -2             # W2SS+  -->  W1SS+  UP     UB          
      1.49119647E-10    3      1000024         4        -4             # W2SS+  -->  W1SS+  CH     CB          
      4.74881107E-11    3      1000024        12       -12             # W2SS+  -->  W1SS+  NUE    ANUE        
      4.74881107E-11    3      1000024        14       -14             # W2SS+  -->  W1SS+  NUM    ANUM        
      6.75677500E-11    3      1000024        16       -16             # W2SS+  -->  W1SS+  NUT    ANUT        
      2.43186943E-10    3      1000024        11       -11             # W2SS+  -->  W1SS+  E-     E+          
      2.43186943E-10    3      1000024        13       -13             # W2SS+  -->  W1SS+  MU-    MU+         
      2.58148308E-10    3      1000024        15       -15             # W2SS+  -->  W1SS+  TAU-   TAU+        
      2.25284666E-01    2      1000024        25                       # W2SS+  -->  W1SS+  HL0                
#         PDG         Width
DECAY        25  3.83242755E-03   # HL0   decays
#          BR          NDA       ID1       ID2       ID3       ID4
      5.77224135E-09    2           11       -11                       # HL0    -->  E-     E+                 
      2.43713395E-04    2           13       -13                       # HL0    -->  MU-    MU+                
      6.97180256E-02    2           15       -15                       # HL0    -->  TAU-   TAU+               
      7.23634321E-06    2            1        -1                       # HL0    -->  DN     DB                 
      2.92384601E-03    2            3        -3                       # HL0    -->  ST     SB                 
      6.26422465E-01    2            5        -5                       # HL0    -->  BT     BB                 
      2.21117057E-06    2            2        -2                       # HL0    -->  UP     UB                 
      4.11315262E-02    2            4        -4                       # HL0    -->  CH     CB                 
      2.69209198E-03    2           22        22                       # HL0    -->  GM     GM                 
      5.25832325E-02    2           21        21                       # HL0    -->  GL     GL                 
      1.02311214E-02    3           24        11       -12             # HL0    -->  W+     E-     ANUE        
      1.02311214E-02    3           24        13       -14             # HL0    -->  W+     MU-    ANUM        
      1.02311214E-02    3           24        15       -16             # HL0    -->  W+     TAU-   ANUT        
      3.06933615E-02    3           24        -2         1             # HL0    -->  W+     UB     DN          
      3.06933615E-02    3           24        -4         3             # HL0    -->  W+     CB     ST          
      1.02311214E-02    3          -24       -11        12             # HL0    -->  W-     E+     NUE         
      1.02311214E-02    3          -24       -13        14             # HL0    -->  W-     MU+    NUM         
      1.02311214E-02    3          -24       -15        16             # HL0    -->  W-     TAU+   NUT         
      3.06933615E-02    3          -24         2        -1             # HL0    -->  W-     UP     DB          
      3.06933615E-02    3          -24         4        -3             # HL0    -->  W-     CH     SB          
      1.37571001E-03    3           23        12       -12             # HL0    -->  Z0     NUE    ANUE        
      1.37571001E-03    3           23        14       -14             # HL0    -->  Z0     NUM    ANUM        
      1.37571001E-03    3           23        16       -16             # HL0    -->  Z0     NUT    ANUT        
      6.92381058E-04    3           23        11       -11             # HL0    -->  Z0     E-     E+          
      6.92381058E-04    3           23        13       -13             # HL0    -->  Z0     MU-    MU+         
      6.92381058E-04    3           23        15       -15             # HL0    -->  Z0     TAU-   TAU+        
      2.37203855E-03    3           23         2        -2             # HL0    -->  Z0     UP     UB          
      2.37203855E-03    3           23         4        -4             # HL0    -->  Z0     CH     CB          
      3.05577018E-03    3           23         1        -1             # HL0    -->  Z0     DN     DB          
      3.05577018E-03    3           23         3        -3             # HL0    -->  Z0     ST     SB          
      3.05577018E-03    3           23         5        -5             # HL0    -->  Z0     BT     BB          
#         PDG         Width
DECAY        35  1.25655499E+01   # HH0   decays
#          BR          NDA       ID1       ID2       ID3       ID4
      3.06258952E-09    2           11       -11                       # HH0    -->  E-     E+                 
      1.29308042E-04    2           13       -13                       # HH0    -->  MU-    MU+                
      3.70351151E-02    2           15       -15                       # HH0    -->  TAU-   TAU+               
      3.75168611E-06    2            1        -1                       # HH0    -->  DN     DB                 
      1.51587091E-03    2            3        -3                       # HH0    -->  ST     SB                 
      2.27830902E-01    2            5        -5                       # HH0    -->  BT     BB                 
      2.48296678E-11    2            2        -2                       # HH0    -->  UP     UB                 
      3.49676043E-07    2            4        -4                       # HH0    -->  CH     CB                 
      1.59513839E-02    2            6        -6                       # HH0    -->  TP     TB                 
      3.88024716E-07    2           22        22                       # HH0    -->  GM     GM                 
      7.91137882E-06    2           21        21                       # HH0    -->  GL     GL                 
      6.07726397E-05    2           24       -24                       # HH0    -->  W+     W-                 
      3.08552480E-05    2           23        23                       # HH0    -->  Z0     Z0                 
      3.10284700E-02    2      1000022   1000022                       # HH0    -->  Z1SS   Z1SS               
      9.37118381E-03    2      1000022   1000023                       # HH0    -->  Z1SS   Z2SS               
      1.34893330E-02    2      1000022   1000025                       # HH0    -->  Z1SS   Z3SS               
      6.76281452E-02    2      1000022   1000035                       # HH0    -->  Z1SS   Z4SS               
      4.72625066E-03    2      1000023   1000023                       # HH0    -->  Z2SS   Z2SS               
      3.25647444E-02    2      1000023   1000025                       # HH0    -->  Z2SS   Z3SS               
      1.26976505E-01    2      1000023   1000035                       # HH0    -->  Z2SS   Z4SS               
      1.87386654E-03    2      1000025   1000025                       # HH0    -->  Z3SS   Z3SS               
      4.11973102E-03    2      1000025   1000035                       # HH0    -->  Z3SS   Z4SS               
      2.47800810E-04    2      1000035   1000035                       # HH0    -->  Z4SS   Z4SS               
      4.09714505E-02    2      1000024  -1000024                       # HH0    -->  W1SS+  W1SS-              
      5.50211000E-04    2      1000037  -1000037                       # HH0    -->  W2SS+  W2SS-              
      1.91835985E-01    2      1000024  -1000037                       # HH0    -->  W1SS+  W2SS-              
      1.91835985E-01    2     -1000024   1000037                       # HH0    -->  W1SS-  W2SS+              
      2.13713050E-04    2           25        25                       # HH0    -->  HL0    HL0                
#         PDG         Width
DECAY        36  1.24001474E+01   # HA0   decays
#          BR          NDA       ID1       ID2       ID3       ID4
      3.08353143E-09    2           11       -11                       # HA0    -->  E-     E+                 
      1.30192260E-04    2           13       -13                       # HA0    -->  MU-    MU+                
      3.72888260E-02    2           15       -15                       # HA0    -->  TAU-   TAU+               
      3.77754805E-06    2            1        -1                       # HA0    -->  DN     DB                 
      1.52632070E-03    2            3        -3                       # HA0    -->  ST     SB                 
      2.29411736E-01    2            5        -5                       # HA0    -->  BT     BB                 
      2.38754676E-11    2            2        -2                       # HA0    -->  UP     UB                 
      3.36502609E-07    2            4        -4                       # HA0    -->  CH     CB                 
      1.70503389E-02    2            6        -6                       # HA0    -->  TP     TB                 
      8.31026284E-07    2           22        22                       # HA0    -->  GM     GM                 
      2.50313315E-05    2           21        21                       # HA0    -->  GL     GL                 
      4.25544605E-02    2      1000022   1000022                       # HA0    -->  Z1SS   Z1SS               
      4.78491839E-03    2      1000022   1000023                       # HA0    -->  Z1SS   Z2SS               
      1.89073365E-02    2      1000022   1000025                       # HA0    -->  Z1SS   Z3SS               
      1.15237154E-01    2      1000022   1000035                       # HA0    -->  Z1SS   Z4SS               
      3.98744224E-03    2      1000023   1000023                       # HA0    -->  Z2SS   Z2SS               
      2.19096709E-02    2      1000023   1000025                       # HA0    -->  Z2SS   Z3SS               
      6.57836720E-02    2      1000023   1000035                       # HA0    -->  Z2SS   Z4SS               
      3.58387385E-03    2      1000025   1000025                       # HA0    -->  Z3SS   Z3SS               
      1.15548838E-02    2      1000025   1000035                       # HA0    -->  Z3SS   Z4SS               
      2.65006511E-03    2      1000035   1000035                       # HA0    -->  Z4SS   Z4SS               
      5.06809577E-02    2      1000024  -1000024                       # HA0    -->  W1SS+  W1SS-              
      5.10789827E-03    2      1000037  -1000037                       # HA0    -->  W2SS+  W2SS-              
      1.83880597E-01    2      1000024  -1000037                       # HA0    -->  W1SS+  W2SS-              
      1.83880597E-01    2     -1000024   1000037                       # HA0    -->  W1SS-  W2SS+              
      5.90788914E-05    2           25        23                       # HA0    -->  HL0    Z0                 
#         PDG         Width
DECAY        37  1.19770670E+01   # H+    decays
#          BR          NDA       ID1       ID2       ID3       ID4
      3.20276228E-09    2           12       -11                       # H+     -->  NUE    E+                 
      1.35226408E-04    2           14       -13                       # H+     -->  NUM    MU+                
      3.87306735E-02    2           16       -15                       # H+     -->  NUT    TAU+               
      3.60642844E-06    2            2        -1                       # H+     -->  UP     DB                 
      1.45748607E-03    2            4        -3                       # H+     -->  CH     SB                 
      2.21709698E-01    2            6        -5                       # H+     -->  TP     BB                 
      3.93061247E-03    2      1000024   1000022                       # H+     -->  W1SS+  Z1SS               
      7.88371731E-03    2      1000024   1000023                       # H+     -->  W1SS+  Z2SS               
      1.05585076E-01    2      1000024   1000025                       # H+     -->  W1SS+  Z3SS               
      1.94181010E-01    2      1000024   1000035                       # H+     -->  W1SS+  Z4SS               
      2.11297154E-01    2      1000037   1000022                       # H+     -->  W2SS+  Z1SS               
      1.95690274E-01    2      1000037   1000023                       # H+     -->  W2SS+  Z2SS               
      1.93264186E-02    2      1000037   1000025                       # H+     -->  W2SS+  Z3SS               
      7.69519374E-06    2      1000037   1000035                       # H+     -->  W2SS+  Z4SS               
      6.13397933E-05    2           25        24                       # H+     -->  HL0    W+                 
