#  ISAJET SUSY parameters in SUSY Les Houches Accord 2 format
#  Created by ISALHA 2.0 Last revision: H Baer 27 May 2014
Block SPINFO   # Program information
     1   ISASUGRA/ISASUSY from ISAJET   # Spectrum Calculator
     2   7.87   18-JUL-2017 13:55:55    # Version number
Block MODSEL   # Model selection
     1    13   # Non-universal supergravity model                  
Block SMINPUTS   # Standard Model inputs
     1     1.28000000E+02   # alpha_em^(-1)
     2     1.16570000E-05   # G_Fermi
     3     1.19999997E-01   # alpha_s(M_Z)
     4     9.11699982E+01   # m_{Z}(pole)
     5     4.19999981E+00   # m_{b}(m_{b})
     6     1.72500000E+02   # m_{top}(pole)
     7     1.77699995E+00   # m_{tau}(pole)
Block MINPAR   # SUSY breaking input parameters
     1     5.00000000E+03   # m_0
     2     8.00000000E+03   # m_{1/2}
     3     1.50000000E+01   # tan(beta)
     4     1.00000000E+00   # sign(mu)
     5    -8.00000000E+03   # A_0
Block EXTPAR   # Non-universal SUSY breaking parameters
     0     9.33082719E+15   # Input scale
    21    -1.97149200E+07   # Down type Higgs mass squared
    22     1.32406600E+08   #  Up  type Higgs mass squared
Block MASS   # Scalar and gaugino mass spectrum
#  PDG code   mass                 particle
         6     1.72500000E+02   #  top            
        24     8.04229965E+01   #  W^+
        25     1.25940590E+02   #  h^0            
        35     1.00666949E+03   #  H^0            
        36     1.00000000E+03   #  A^0            
        37     1.00322870E+03   #  H^+            
   1000001     1.45883545E+04   #  dnl            
   1000002     1.45881191E+04   #  upl            
   1000003     1.45883545E+04   #  stl            
   1000004     1.45881191E+04   #  chl            
   1000005     1.25641172E+04   #  b1             
   1000006     9.49363867E+03   #  t1             
   1000011     7.40692236E+03   #  el-            
   1000012     7.39453125E+03   #  nuel           
   1000013     7.40692236E+03   #  mul-           
   1000014     7.39453125E+03   #  numl           
   1000015     4.91637598E+03   #  tau1           
   1000016     7.30642627E+03   #  nutl           
   1000021     1.54354648E+04   #  glss           
   1000022     1.04617851E+02   #  z1ss           
   1000023    -1.05922913E+02   #  z2ss           
   1000024     1.10616455E+02   #  w1ss           
   1000025     3.67729639E+03   #  z3ss           
   1000035     6.67978125E+03   #  z4ss           
   1000037     6.59948584E+03   #  w2ss           
   1000039     1.00000002E+20   #  gvss
   2000001     1.38036699E+04   #  dnr            
   2000002     1.41612529E+04   #  upr            
   2000003     1.38036699E+04   #  str            
   2000004     1.41612529E+04   #  chr            
   2000005     1.35455479E+04   #  b2             
   2000006     1.26094951E+04   #  t2             
   2000011     5.10758594E+03   #  er-            
   2000013     5.10758594E+03   #  mur-           
   2000015     7.32332910E+03   #  tau2           
Block ALPHA   # Effective Higgs mixing parameter
         -6.81700259E-02   # alpha
Block STOPMIX   # stop mixing matrix
  1  1     3.03886384E-02   # O_{11}
  1  2     9.99538183E-01   # O_{12}
  2  1    -9.99538183E-01   # O_{21}
  2  2     3.03886384E-02   # O_{22}
Block SBOTMIX   # sbottom mixing matrix
  1  1     9.99981165E-01   # O_{11}
  1  2     6.14065072E-03   # O_{12}
  2  1    -6.14065072E-03   # O_{21}
  2  2     9.99981165E-01   # O_{22}
Block STAUMIX   # stau mixing matrix
  1  1     1.84638798E-03   # O_{11}
  1  2    -9.99998271E-01   # O_{12}
  2  1     9.99998271E-01   # O_{21}
  2  2     1.84638798E-03   # O_{22}
Block NMIX   # neutralino mixing matrix
  1  1    -8.55771545E-03   #
  1  2     8.53761099E-03   #
  1  3    -7.09247053E-01   #
  1  4     7.04856634E-01   #
  2  1    -7.02944957E-03   #
  2  2     6.72436738E-03   #
  2  3     7.04958022E-01   #
  2  4     7.09182382E-01   #
  3  1     9.99932528E-01   #
  3  2     3.65019590E-03   #
  3  3    -1.10948505E-03   #
  3  4     1.09796440E-02   #
  4  1     3.52984667E-03   #
  4  2    -9.99934375E-01   #
  4  3    -1.31896045E-03   #
  4  4     1.08274147E-02   #
Block UMIX   # chargino U mixing matrix
  1  1    -1.47548458E-03   # U_{11}
  1  2     9.99998927E-01   # U_{12}
  2  1    -9.99998927E-01   # U_{21}
  2  2    -1.47548458E-03   # U_{22}
Block VMIX   # chargino V mixing matrix
  1  1    -1.65721066E-02   # V_{11}
  1  2     9.99862671E-01   # V_{12}
  2  1    -9.99862671E-01   # V_{21}
  2  2    -1.65721066E-02   # V_{22}
Block GAUGE Q=  1.06336816E+04   #
     1     3.57525021E-01   # g`
     2     6.52371645E-01   # g_2
     3     1.21922135E+00   # g_3
Block YU Q=  1.06336816E+04   #
  3  3     7.83782184E-01   # y_t
Block YD Q=  1.06336816E+04   #
  3  3     1.70706630E-01   # y_b
Block YE Q=  1.06336816E+04   #
  3  3     1.47030622E-01   # y_tau
Block HMIX Q=  1.06336816E+04   # Higgs mixing parameters
     1     1.00000000E+02   # mu(Q)
     2     1.41390705E+01   # tan(beta)(Q)
     3     2.53292801E+02   # Higgs vev at Q
     4     1.00000000E+06   # m_A^2(Q)
Block MSOFT Q=  1.06336816E+04   # DRbar SUSY breaking parameters
     1     3.71706860E+03   # M_1(Q)          
     2     6.52336865E+03   # M_2(Q)          
     3     1.48815107E+04   # M_3(Q)          
    21     1.02776031E+06   # MHd^2(Q)        
    22     1.00362625E+06   # MHu^2(Q)        
    31     7.35029883E+03   # MeL(Q)          
    32     7.35029883E+03   # MmuL(Q)         
    33     7.26472070E+03   # MtauL(Q)        
    34     5.09943213E+03   # MeR(Q)          
    35     5.09943213E+03   # MmuR(Q)         
    36     4.89986768E+03   # MtauR(Q)        
    41     1.38599258E+04   # MqL1(Q)         
    42     1.38599258E+04   # MqL2(Q)         
    43     1.20938057E+04   # MqL3(Q)         
    44     1.34465576E+04   # MuR(Q)          
    45     1.34465576E+04   # McR(Q)          
    46     9.34984277E+03   # MtR(Q)          
    47     1.31023018E+04   # MdR(Q)          
    48     1.31023018E+04   # MsR(Q)          
    49     1.30404443E+04   # MbR(Q)          
Block AU Q=  1.06336816E+04   #
  1  1    -1.46192637E+04   # A_u
  2  2    -1.46192637E+04   # A_c
  3  3    -1.46192637E+04   # A_t
Block AD Q=  1.06336816E+04   #
  1  1    -2.24313301E+04   # A_d
  2  2    -2.24313301E+04   # A_s
  3  3    -2.24313301E+04   # A_b
Block AE Q=  1.06336816E+04   #
  1  1    -1.18699375E+04   # A_e
  2  2    -1.18699375E+04   # A_mu
  3  3    -1.18699375E+04   # A_tau
#  ISAJET decay tables in SUSY Les Houches accord format
#  Created by ISALHD. Last revision: C. Balazs, 2005 May 25
Block DCINFO                           # Program information
     1   ISASUGRA from ISAJET          # Spectrum Calculator
     2   7.87   18-JUL-2017 13:55:55   # Version number
#         PDG         Width
DECAY         6  1.46776152E+00   # TP    decays
#          BR          NDA       ID1       ID2       ID3       ID4
      3.33333313E-01    3            2        -1         5             # TP     -->  UP     DB     BT          
      3.33333313E-01    3            4        -3         5             # TP     -->  CH     SB     BT          
      1.11111097E-01    3          -11        12         5             # TP     -->  E+     NUE    BT          
      1.11111097E-01    3          -13        14         5             # TP     -->  MU+    NUM    BT          
      1.11111097E-01    3          -15        16         5             # TP     -->  TAU+   NUT    BT          
#         PDG         Width
DECAY   1000021  2.32865936E+02   # GLSS  decays
#          BR          NDA       ID1       ID2       ID3       ID4
      6.79359585E-03    2     -1000002         2                       # GLSS   -->  UBL    UP                 
      6.79359585E-03    2      1000002        -2                       # GLSS   -->  UPL    UB                 
      6.78993296E-03    2     -1000001         1                       # GLSS   -->  DBL    DN                 
      6.78993296E-03    2      1000001        -1                       # GLSS   -->  DNL    DB                 
      1.49287665E-02    2     -2000002         2                       # GLSS   -->  UBR    UP                 
      1.49287665E-02    2      2000002        -2                       # GLSS   -->  UPR    UB                 
      2.38953792E-02    2     -2000001         1                       # GLSS   -->  DBR    DN                 
      2.38953792E-02    2      2000001        -1                       # GLSS   -->  DNR    DB                 
      6.78993296E-03    2     -1000003         3                       # GLSS   -->  SBL    ST                 
      6.78993296E-03    2      1000003        -3                       # GLSS   -->  STL    SB                 
      2.38953792E-02    2     -2000003         3                       # GLSS   -->  SBR    ST                 
      2.38953792E-02    2      2000003        -3                       # GLSS   -->  STR    SB                 
      6.79358747E-03    2     -1000004         4                       # GLSS   -->  CBL    CH                 
      6.79358747E-03    2      1000004        -4                       # GLSS   -->  CHL    CB                 
      1.49287581E-02    2     -2000004         4                       # GLSS   -->  CBR    CH                 
      1.49287581E-02    2      2000004        -4                       # GLSS   -->  CHR    CB                 
      6.78449422E-02    2     -1000005         5                       # GLSS   -->  BB1    BT                 
      6.78449422E-02    2      1000005        -5                       # GLSS   -->  BT1    BB                 
      3.14905159E-02    2     -2000005         5                       # GLSS   -->  BB2    BT                 
      3.14905159E-02    2      2000005        -5                       # GLSS   -->  BT2    BB                 
      2.29747772E-01    2     -1000006         6                       # GLSS   -->  TB1    TP                 
      2.29747772E-01    2      1000006        -6                       # GLSS   -->  TP1    TB                 
      6.61014766E-02    2     -2000006         6                       # GLSS   -->  TB2    TP                 
      6.61014766E-02    2      2000006        -6                       # GLSS   -->  TP2    TB                 
#         PDG         Width
DECAY   1000002  1.17886398E+02   # UPL   decays
#          BR          NDA       ID1       ID2       ID3       ID4
      2.53011876E-05    2      1000022         2                       # UPL    -->  Z1SS   UP                 
      1.53937472E-05    2      1000023         2                       # UPL    -->  Z2SS   UP                 
      1.59472898E-02    2      1000025         2                       # UPL    -->  Z3SS   UP                 
      3.24901193E-01    2      1000035         2                       # UPL    -->  Z4SS   UP                 
      2.86077149E-04    2      1000024         1                       # UPL    -->  W1SS+  DN                 
      6.58824801E-01    2      1000037         1                       # UPL    -->  W2SS+  DN                 
#         PDG         Width
DECAY   1000001  1.17838547E+02   # DNL   decays
#          BR          NDA       ID1       ID2       ID3       ID4
      5.32104787E-05    2      1000022         1                       # DNL    -->  Z1SS   DN                 
      3.34495344E-05    2      1000023         1                       # DNL    -->  Z2SS   DN                 
      1.47317313E-02    2      1000025         1                       # DNL    -->  Z3SS   DN                 
      3.25885832E-01    2      1000035         1                       # DNL    -->  Z4SS   DN                 
      2.26871748E-06    2     -1000024         2                       # DNL    -->  W1SS-  UP                 
      6.59293532E-01    2     -1000037         2                       # DNL    -->  W2SS-  UP                 
#         PDG         Width
DECAY   1000003  1.17838562E+02   # STL   decays
#          BR          NDA       ID1       ID2       ID3       ID4
      5.32104750E-05    2      1000022         3                       # STL    -->  Z1SS   ST                 
      3.34495307E-05    2      1000023         3                       # STL    -->  Z2SS   ST                 
      1.47317294E-02    2      1000025         3                       # STL    -->  Z3SS   ST                 
      3.25885803E-01    2      1000035         3                       # STL    -->  Z4SS   ST                 
      2.26871725E-06    2     -1000024         4                       # STL    -->  W1SS-  CH                 
      6.59293532E-01    2     -1000037         4                       # STL    -->  W2SS-  CH                 
#         PDG         Width
DECAY   1000004  1.17886398E+02   # CHL   decays
#          BR          NDA       ID1       ID2       ID3       ID4
      2.53011840E-05    2      1000022         4                       # CHL    -->  Z1SS   CH                 
      1.53937472E-05    2      1000023         4                       # CHL    -->  Z2SS   CH                 
      1.59472898E-02    2      1000025         4                       # CHL    -->  Z3SS   CH                 
      3.24901134E-01    2      1000035         4                       # CHL    -->  Z4SS   CH                 
      2.86077149E-04    2      1000024         3                       # CHL    -->  W1SS+  ST                 
      6.58824801E-01    2      1000037         3                       # CHL    -->  W2SS+  ST                 
#         PDG         Width
DECAY   1000005  3.31130829E+02   # BT1   decays
#          BR          NDA       ID1       ID2       ID3       ID4
      1.17692146E-02    2      1000022         5                       # BT1    -->  Z1SS   BT                 
      1.16088502E-02    2      1000023         5                       # BT1    -->  Z2SS   BT                 
      4.30441834E-03    2      1000025         5                       # BT1    -->  Z3SS   BT                 
      8.22779015E-02    2      1000035         5                       # BT1    -->  Z4SS   BT                 
      4.37055051E-01    2     -1000024         6                       # BT1    -->  W1SS-  TP                 
      1.67546302E-01    2     -1000037         6                       # BT1    -->  W2SS-  TP                 
      2.83993691E-01    2          -24   1000006                       # BT1    -->  W-     TP1                
      1.44457840E-03    2          -37   1000006                       # BT1    -->  H-     TP1                
#         PDG         Width
DECAY   1000006  2.34263763E+02   # TP1   decays
#          BR          NDA       ID1       ID2       ID3       ID4
      2.32062086E-01    2      1000022         6                       # TP1    -->  Z1SS   TP                 
      2.34895647E-01    2      1000023         6                       # TP1    -->  Z2SS   TP                 
      6.60941154E-02    2      1000025         6                       # TP1    -->  Z3SS   TP                 
      6.80023231E-06    2      1000035         6                       # TP1    -->  Z4SS   TP                 
      4.66930300E-01    2      1000024         5                       # TP1    -->  W1SS+  BT                 
      1.10254759E-05    2      1000037         5                       # TP1    -->  W2SS+  BT                 
#         PDG         Width
DECAY   2000002  2.78411484E+01   # UPR   decays
#          BR          NDA       ID1       ID2       ID3       ID4
      8.41974761E-05    2      1000022         2                       # UPR    -->  Z1SS   UP                 
      5.68100004E-05    2      1000023         2                       # UPR    -->  Z2SS   UP                 
      9.99850392E-01    2      1000025         2                       # UPR    -->  Z3SS   UP                 
      8.66060782E-06    2      1000035         2                       # UPR    -->  Z4SS   UP                 
#         PDG         Width
DECAY   2000001  6.73314810E+00   # DNR   decays
#          BR          NDA       ID1       ID2       ID3       ID4
      8.48395721E-05    2      1000022         1                       # DNR    -->  Z1SS   DN                 
      5.72432364E-05    2      1000023         1                       # DNR    -->  Z2SS   DN                 
      9.99849439E-01    2      1000025         1                       # DNR    -->  Z3SS   DN                 
      8.46655257E-06    2      1000035         1                       # DNR    -->  Z4SS   DN                 
#         PDG         Width
DECAY   2000003  6.73314810E+00   # STR   decays
#          BR          NDA       ID1       ID2       ID3       ID4
      8.48395721E-05    2      1000022         3                       # STR    -->  Z1SS   ST                 
      5.72432364E-05    2      1000023         3                       # STR    -->  Z2SS   ST                 
      9.99849439E-01    2      1000025         3                       # STR    -->  Z3SS   ST                 
      8.46655257E-06    2      1000035         3                       # STR    -->  Z4SS   ST                 
#         PDG         Width
DECAY   2000004  2.78411484E+01   # CHR   decays
#          BR          NDA       ID1       ID2       ID3       ID4
      8.41974688E-05    2      1000022         4                       # CHR    -->  Z1SS   CH                 
      5.68100077E-05    2      1000023         4                       # CHR    -->  Z2SS   CH                 
      9.99850392E-01    2      1000025         4                       # CHR    -->  Z3SS   CH                 
      8.66060782E-06    2      1000035         4                       # CHR    -->  Z4SS   CH                 
#         PDG         Width
DECAY   2000005  2.35628395E+01   # BT2   decays
#          BR          NDA       ID1       ID2       ID3       ID4
      1.77880287E-01    2      1000022         5                       # BT2    -->  Z1SS   BT                 
      1.75917640E-01    2      1000023         5                       # BT2    -->  Z2SS   BT                 
      2.78720289E-01    2      1000025         5                       # BT2    -->  Z3SS   BT                 
      6.36070617E-05    2      1000035         5                       # BT2    -->  Z4SS   BT                 
      3.53877753E-01    2     -1000024         6                       # BT2    -->  W1SS-  TP                 
      1.20419878E-04    2     -1000037         6                       # BT2    -->  W2SS-  TP                 
      3.14631063E-04    2          -24   1000006                       # BT2    -->  W-     TP1                
      6.07571192E-03    2          -24   2000006                       # BT2    -->  W-     TP2                
      3.52567015E-03    2           23   1000005                       # BT2    -->  Z0     BT1                
      2.11471529E-03    2           25   1000005                       # BT2    -->  HL0    BT1                
      1.38915260E-03    2          -37   1000006                       # BT2    -->  H-     TP1                
#         PDG         Width
DECAY   2000006  3.58785309E+02   # TP2   decays
#          BR          NDA       ID1       ID2       ID3       ID4
      2.17145961E-02    2      1000024         5                       # TP2    -->  W1SS+  BT                 
      1.55978531E-01    2      1000037         5                       # TP2    -->  W2SS+  BT                 
      1.37954339E-01    2           23   1000006                       # TP2    -->  Z0     TP1                
      1.97392866E-01    2           25   1000006                       # TP2    -->  HL0    TP1                
      7.04333943E-04    2           35   1000006                       # TP2    -->  HH0    TP1                
      6.70950743E-04    2           36   1000006                       # TP2    -->  HA0    TP1                
      2.01062426E-01    2      1000022         6                       # TP2    -->  Z1SS   TP                 
      2.03558430E-01    2      1000023         6                       # TP2    -->  Z2SS   TP                 
      4.47815889E-03    2      1000025         6                       # TP2    -->  Z3SS   TP                 
      7.64853582E-02    2      1000035         6                       # TP2    -->  Z4SS   TP                 
#         PDG         Width
DECAY   1000011  9.15124893E+00   # EL-   decays
#          BR          NDA       ID1       ID2       ID3       ID4
      5.00639981E-05    2      1000022        11                       # EL-    -->  Z1SS   E-                 
      2.78725820E-05    2      1000023        11                       # EL-    -->  Z2SS   E-                 
      5.92075586E-01    2      1000025        11                       # EL-    -->  Z3SS   E-                 
      1.18285306E-01    2      1000035        11                       # EL-    -->  Z4SS   E-                 
      1.48277441E-05    2     -1000024        12                       # EL-    -->  W1SS-  NUE                
      2.89546281E-01    2     -1000037        12                       # EL-    -->  W2SS-  NUE                
#         PDG         Width
DECAY   1000013  9.15124893E+00   # MUL-  decays
#          BR          NDA       ID1       ID2       ID3       ID4
      5.00639981E-05    2      1000022        13                       # MUL-   -->  Z1SS   MU-                
      2.78725820E-05    2      1000023        13                       # MUL-   -->  Z2SS   MU-                
      5.92075586E-01    2      1000025        13                       # MUL-   -->  Z3SS   MU-                
      1.18285306E-01    2      1000035        13                       # MUL-   -->  Z4SS   MU-                
      1.48277441E-05    2     -1000024        14                       # MUL-   -->  W1SS-  NUM                
      2.89546281E-01    2     -1000037        14                       # MUL-   -->  W2SS-  NUM                
#         PDG         Width
DECAY   1000015  9.34064007E+00   # TAU1- decays
#          BR          NDA       ID1       ID2       ID3       ID4
      1.20952666E-01    2      1000022        15                       # TAU1-  -->  Z1SS   TAU-               
      1.19475223E-01    2      1000023        15                       # TAU1-  -->  Z2SS   TAU-               
      5.19496024E-01    2      1000025        15                       # TAU1-  -->  Z3SS   TAU-               
      2.40076080E-01    2     -1000024        16                       # TAU1-  -->  W1SS-  NUT                
#         PDG         Width
DECAY   1000012  8.91597843E+00   # NUEL  decays
#          BR          NDA       ID1       ID2       ID3       ID4
      6.11827301E-04    2      1000022        12                       # NUEL   -->  Z1SS   NUE                
      3.91196721E-04    2      1000023        12                       # NUEL   -->  Z2SS   NUE                
      5.89480758E-01    2      1000025        12                       # NUEL   -->  Z3SS   NUE                
      1.18604355E-01    2      1000035        12                       # NUEL   -->  Z4SS   NUE                
      1.91665872E-03    2      1000024        11                       # NUEL   -->  W1SS+  E-                 
      2.88995147E-01    2      1000037        11                       # NUEL   -->  W2SS+  E-                 
#         PDG         Width
DECAY   1000014  8.91597843E+00   # NUML  decays
#          BR          NDA       ID1       ID2       ID3       ID4
      6.11827301E-04    2      1000022        14                       # NUML   -->  Z1SS   NUM                
      3.91196721E-04    2      1000023        14                       # NUML   -->  Z2SS   NUM                
      5.89480758E-01    2      1000025        14                       # NUML   -->  Z3SS   NUM                
      1.18604355E-01    2      1000035        14                       # NUML   -->  Z4SS   NUM                
      1.91665872E-03    2      1000024        13                       # NUML   -->  W1SS+  MU-                
      2.88995147E-01    2      1000037        13                       # NUML   -->  W2SS+  MU-                
#         PDG         Width
DECAY   1000016  1.59387398E+01   # NUTL  decays
#          BR          NDA       ID1       ID2       ID3       ID4
      3.38169135E-04    2      1000022        16                       # NUTL   -->  Z1SS   NUT                
      2.16222179E-04    2      1000023        16                       # NUTL   -->  Z2SS   NUT                
      3.20646971E-01    2      1000025        16                       # NUTL   -->  Z3SS   NUT                
      5.22050820E-02    2      1000035        16                       # NUTL   -->  Z4SS   NUT                
      2.10269839E-01    2      1000024        15                       # NUTL   -->  W1SS+  TAU-               
      1.30833119E-01    2      1000037        15                       # NUTL   -->  W2SS+  TAU-               
      8.88169371E-03    2           24   1000015                       # NUTL   -->  W+     TAU1-              
      2.76608884E-01    2           37   1000015                       # NUTL   -->  H+     TAU1-              
#         PDG         Width
DECAY   2000011  6.02895880E+00   # ER-   decays
#          BR          NDA       ID1       ID2       ID3       ID4
      3.15299607E-04    2      1000022        11                       # ER-    -->  Z1SS   E-                 
      2.12736064E-04    2      1000023        11                       # ER-    -->  Z2SS   E-                 
      9.99471962E-01    2      1000025        11                       # ER-    -->  Z3SS   E-                 
      1.13304615E-19    3      1000015        11       -15             # ER-    -->  TAU1-  E-     TAU+        
      1.49874503E-19    3     -1000015        11        15             # ER-    -->  TAU1+  E-     TAU-        
      6.48245149E-29    3      1000015        12       -16             # ER-    -->  TAU1-  NUE    ANUT        
#         PDG         Width
DECAY   2000013  6.02895880E+00   # MUR-  decays
#          BR          NDA       ID1       ID2       ID3       ID4
      3.15299607E-04    2      1000022        13                       # MUR-   -->  Z1SS   MU-                
      2.12736064E-04    2      1000023        13                       # MUR-   -->  Z2SS   MU-                
      9.99471962E-01    2      1000025        13                       # MUR-   -->  Z3SS   MU-                
      1.13304615E-19    3      1000015        13       -15             # MUR-   -->  TAU1-  MU-    TAU+        
      1.49874503E-19    3     -1000015        13        15             # MUR-   -->  TAU1+  MU-    TAU-        
      5.23227260E-24    3      1000015        14       -16             # MUR-   -->  TAU1-  NUM    ANUT        
#         PDG         Width
DECAY   2000015  1.61730251E+01   # TAU2- decays
#          BR          NDA       ID1       ID2       ID3       ID4
      1.04010142E-01    2      1000022        15                       # TAU2-  -->  Z1SS   TAU-               
      1.02704085E-01    2      1000023        15                       # TAU2-  -->  Z2SS   TAU-               
      3.26282114E-01    2      1000025        15                       # TAU2-  -->  Z3SS   TAU-               
      5.35992794E-02    2      1000035        15                       # TAU2-  -->  Z4SS   TAU-               
      1.38347268E-05    2     -1000024        16                       # TAU2-  -->  W1SS-  NUT                
      1.34606302E-01    2     -1000037        16                       # TAU2-  -->  W2SS-  NUT                
      4.51428350E-03    2           23   1000015                       # TAU2-  -->  Z0     TAU1-              
      8.87389819E-04    2           25   1000015                       # TAU2-  -->  HL0    TAU1-              
      1.36807635E-01    2           36   1000015                       # TAU2-  -->  HA0    TAU1-              
      1.36574984E-01    2           35   1000015                       # TAU2-  -->  HH0    TAU1-              
#         PDG         Width
DECAY   1000023  7.75108623E-12   # Z2SS  decays
#          BR          NDA       ID1       ID2       ID3       ID4
      7.18965828E-01    2      1000022        22                       # Z2SS   -->  Z1SS   GM                 
      6.08213879E-02    3      1000022         2        -2             # Z2SS   -->  Z1SS   UP     UB          
      7.84295872E-02    3      1000022         1        -1             # Z2SS   -->  Z1SS   DN     DB          
      1.77917108E-02    3      1000022        11       -11             # Z2SS   -->  Z1SS   E-     E+          
      1.77917108E-02    3      1000022        13       -13             # Z2SS   -->  Z1SS   MU-    MU+         
      3.53999138E-02    3      1000022        12       -12             # Z2SS   -->  Z1SS   NUE    ANUE        
      3.53999138E-02    3      1000022        14       -14             # Z2SS   -->  Z1SS   NUM    ANUM        
      3.53999138E-02    3      1000022        16       -16             # Z2SS   -->  Z1SS   NUT    ANUT        
#         PDG         Width
DECAY   1000025  1.62391376E+01   # Z3SS  decays
#          BR          NDA       ID1       ID2       ID3       ID4
      1.57564646E-08    2      1000022        22                       # Z3SS   -->  Z1SS   GM                 
      1.69434955E-08    2      1000023        22                       # Z3SS   -->  Z2SS   GM                 
      1.22874610E-01    2      1000024       -24                       # Z3SS   -->  W1SS+  W-                 
      1.22874610E-01    2     -1000024        24                       # Z3SS   -->  W1SS-  W+                 
      1.23865969E-01    2      1000024       -37                       # Z3SS   -->  W1SS+  H-                 
      1.23865969E-01    2     -1000024        37                       # Z3SS   -->  W1SS-  H+                 
      4.86823618E-02    2      1000022        23                       # Z3SS   -->  Z1SS   Z0                 
      7.39337653E-02    2      1000023        23                       # Z3SS   -->  Z2SS   Z0                 
      3.63676242E-11    3      1000022         2        -2             # Z3SS   -->  Z1SS   UP     UB          
      7.04218801E-12    3      1000022         1        -1             # Z3SS   -->  Z1SS   DN     DB          
      7.04218801E-12    3      1000022         3        -3             # Z3SS   -->  Z1SS   ST     SB          
      3.63676242E-11    3      1000022         4        -4             # Z3SS   -->  Z1SS   CH     CB          
      1.36681519E-08    3      1000022         5        -5             # Z3SS   -->  Z1SS   BT     BB          
      5.38954037E-09    3      1000022        11       -11             # Z3SS   -->  Z1SS   E-     E+          
      5.38954037E-09    3      1000022        13       -13             # Z3SS   -->  Z1SS   MU-    MU+         
      4.75804245E-06    3      1000022        15       -15             # Z3SS   -->  Z1SS   TAU-   TAU+        
      4.41876813E-10    3      1000022        12       -12             # Z3SS   -->  Z1SS   NUE    ANUE        
      4.41876813E-10    3      1000022        14       -14             # Z3SS   -->  Z1SS   NUM    ANUM        
      4.66252925E-10    3      1000022        16       -16             # Z3SS   -->  Z1SS   NUT    ANUT        
      2.18360243E-11    3      1000023         2        -2             # Z3SS   -->  Z2SS   UP     UB          
      4.06248776E-12    3      1000023         1        -1             # Z3SS   -->  Z2SS   DN     DB          
      4.06248776E-12    3      1000023         3        -3             # Z3SS   -->  Z2SS   ST     SB          
      2.18360243E-11    3      1000023         4        -4             # Z3SS   -->  Z2SS   CH     CB          
      1.34982736E-08    3      1000023         5        -5             # Z3SS   -->  Z2SS   BT     BB          
      3.31683880E-09    3      1000023        11       -11             # Z3SS   -->  Z2SS   E-     E+          
      3.31683880E-09    3      1000023        13       -13             # Z3SS   -->  Z2SS   MU-    MU+         
      4.69872657E-06    3      1000023        15       -15             # Z3SS   -->  Z2SS   TAU-   TAU+        
      2.54781696E-10    3      1000023        12       -12             # Z3SS   -->  Z2SS   NUE    ANUE        
      2.54781696E-10    3      1000023        14       -14             # Z3SS   -->  Z2SS   NUM    ANUM        
      2.68902123E-10    3      1000023        16       -16             # Z3SS   -->  Z2SS   NUT    ANUT        
      8.45345855E-02    2      1000022        25                       # Z3SS   -->  Z1SS   HL0                
      5.61227687E-02    2      1000022        35                       # Z3SS   -->  Z1SS   HH0                
      6.50817752E-02    2      1000022        36                       # Z3SS   -->  Z1SS   HA0                
      5.80493435E-02    2      1000023        25                       # Z3SS   -->  Z2SS   HL0                
      6.43900260E-02    2      1000023        35                       # Z3SS   -->  Z2SS   HH0                
      5.57147339E-02    2      1000023        36                       # Z3SS   -->  Z2SS   HA0                
#         PDG         Width
DECAY   1000035  1.10385414E+02   # Z4SS  decays
#          BR          NDA       ID1       ID2       ID3       ID4
      2.02154695E-07    2      1000022        22                       # Z4SS   -->  Z1SS   GM                 
      2.89205502E-07    2      1000023        22                       # Z4SS   -->  Z2SS   GM                 
      2.65684919E-09    2      1000025        22                       # Z4SS   -->  Z3SS   GM                 
      1.40090391E-01    2      1000024       -24                       # Z4SS   -->  W1SS+  W-                 
      1.40090391E-01    2     -1000024        24                       # Z4SS   -->  W1SS-  W+                 
      1.20645389E-01    2      1000024       -37                       # Z4SS   -->  W1SS+  H-                 
      1.20645389E-01    2     -1000024        37                       # Z4SS   -->  W1SS-  H+                 
      2.07851757E-04    3     -1000037         2        -1             # Z4SS   -->  W2SS-  UP     DB          
      6.92839167E-05    3     -1000037        12       -11             # Z4SS   -->  W2SS-  NUE    E+          
      6.92839167E-05    3     -1000037        14       -13             # Z4SS   -->  W2SS-  NUM    MU+         
      2.07851757E-04    3      1000037         1        -2             # Z4SS   -->  W2SS+  DN     UB          
      6.92839167E-05    3      1000037        11       -12             # Z4SS   -->  W2SS+  E-     ANUE        
      6.92839167E-05    3      1000037        13       -14             # Z4SS   -->  W2SS+  MU-    ANUM        
      2.07851757E-04    3     -1000037         4        -3             # Z4SS   -->  W2SS-  CH     SB          
      6.92839167E-05    3     -1000037        16       -15             # Z4SS   -->  W2SS-  NUT    TAU+        
      2.07851757E-04    3      1000037         3        -4             # Z4SS   -->  W2SS+  ST     CB          
      6.92839167E-05    3      1000037        15       -16             # Z4SS   -->  W2SS+  TAU-   ANUT        
      3.98887619E-02    2      1000022        23                       # Z4SS   -->  Z1SS   Z0                 
      6.59179688E-02    2      1000023        23                       # Z4SS   -->  Z2SS   Z0                 
      4.15996692E-06    2      1000025        23                       # Z4SS   -->  Z3SS   Z0                 
      2.24103264E-10    3      1000022         2        -2             # Z4SS   -->  Z1SS   UP     UB          
      4.72292705E-10    3      1000022         1        -1             # Z4SS   -->  Z1SS   DN     DB          
      4.72292705E-10    3      1000022         3        -3             # Z4SS   -->  Z1SS   ST     SB          
      2.24103264E-10    3      1000022         4        -4             # Z4SS   -->  Z1SS   CH     CB          
      6.45329180E-07    3      1000022         5        -5             # Z4SS   -->  Z1SS   BT     BB          
      7.77439446E-10    3      1000022        11       -11             # Z4SS   -->  Z1SS   E-     E+          
      7.77439446E-10    3      1000022        13       -13             # Z4SS   -->  Z1SS   MU-    MU+         
      3.09821257E-06    3      1000022        15       -15             # Z4SS   -->  Z1SS   TAU-   TAU+        
      9.46618162E-09    3      1000022        12       -12             # Z4SS   -->  Z1SS   NUE    ANUE        
      9.46618162E-09    3      1000022        14       -14             # Z4SS   -->  Z1SS   NUM    ANUM        
      1.04080344E-08    3      1000022        16       -16             # Z4SS   -->  Z1SS   NUT    ANUT        
      1.28606625E-10    3      1000023         2        -2             # Z4SS   -->  Z2SS   UP     UB          
      2.80037021E-10    3      1000023         1        -1             # Z4SS   -->  Z2SS   DN     DB          
      2.80037021E-10    3      1000023         3        -3             # Z4SS   -->  Z2SS   ST     SB          
      1.28606625E-10    3      1000023         4        -4             # Z4SS   -->  Z2SS   CH     CB          
      6.37075118E-07    3      1000023         5        -5             # Z4SS   -->  Z2SS   BT     BB          
      4.16343127E-10    3      1000023        11       -11             # Z4SS   -->  Z2SS   E-     E+          
      4.16343127E-10    3      1000023        13       -13             # Z4SS   -->  Z2SS   MU-    MU+         
      3.05918093E-06    3      1000023        15       -15             # Z4SS   -->  Z2SS   TAU-   TAU+        
      5.82286575E-09    3      1000023        12       -12             # Z4SS   -->  Z2SS   NUE    ANUE        
      5.82286575E-09    3      1000023        14       -14             # Z4SS   -->  Z2SS   NUM    ANUM        
      6.40909947E-09    3      1000023        16       -16             # Z4SS   -->  Z2SS   NUT    ANUT        
      2.66689870E-08    3      1000025         2        -2             # Z4SS   -->  Z3SS   UP     UB          
      2.46849332E-08    3      1000025         1        -1             # Z4SS   -->  Z3SS   DN     DB          
      2.46849332E-08    3      1000025         3        -3             # Z4SS   -->  Z3SS   ST     SB          
      2.66689870E-08    3      1000025         4        -4             # Z4SS   -->  Z3SS   CH     CB          
      4.99926180E-08    3      1000025         5        -5             # Z4SS   -->  Z3SS   BT     BB          
      4.06642130E-06    3      1000025        11       -11             # Z4SS   -->  Z3SS   E-     E+          
      4.06642130E-06    3      1000025        13       -13             # Z4SS   -->  Z3SS   MU-    MU+         
      4.53276198E-06    3      1000025        15       -15             # Z4SS   -->  Z3SS   TAU-   TAU+        
      4.05388710E-06    3      1000025        12       -12             # Z4SS   -->  Z3SS   NUE    ANUE        
      4.05388710E-06    3      1000025        14       -14             # Z4SS   -->  Z3SS   NUM    ANUM        
      4.55054533E-06    3      1000025        16       -16             # Z4SS   -->  Z3SS   NUT    ANUT        
      7.43831694E-02    2      1000022        25                       # Z4SS   -->  Z1SS   HL0                
      5.48190549E-02    2      1000022        35                       # Z4SS   -->  Z1SS   HH0                
      6.73264861E-02    2      1000022        36                       # Z4SS   -->  Z1SS   HA0                
      5.37836961E-02    2      1000023        25                       # Z4SS   -->  Z2SS   HL0                
      6.67404532E-02    2      1000023        35                       # Z4SS   -->  Z2SS   HH0                
      5.43198809E-02    2      1000023        36                       # Z4SS   -->  Z2SS   HA0                
      6.15786121E-05    2      1000025        25                       # Z4SS   -->  Z3SS   HL0                
      9.04178350E-08    2      1000025        35                       # Z4SS   -->  Z3SS   HH0                
      1.30440881E-07    2      1000025        36                       # Z4SS   -->  Z3SS   HA0                
      3.30771940E-07    2      2000011       -11                       # Z4SS   -->  ER-    E+                 
      3.30771940E-07    2     -2000011        11                       # Z4SS   -->  ER+    E-                 
      3.30771940E-07    2      2000013       -13                       # Z4SS   -->  MUR-   MU+                
      3.30771940E-07    2     -2000013        13                       # Z4SS   -->  MUR+   MU-                
      5.41046120E-07    2      1000015       -15                       # Z4SS   -->  TAU1-  TAU+               
      5.41046120E-07    2     -1000015        15                       # Z4SS   -->  TAU1+  TAU-               
#         PDG         Width
DECAY   1000024  1.20595036E-08   # W1SS+ decays
#          BR          NDA       ID1       ID2       ID3       ID4
      2.56755382E-01    3      1000022         2        -1             # W1SS+  -->  Z1SS   UP     DB          
      2.56755382E-01    3      1000022         4        -3             # W1SS+  -->  Z1SS   CH     SB          
      8.55851173E-02    3      1000022       -11        12             # W1SS+  -->  Z1SS   E+     NUE         
      8.55851173E-02    3      1000022       -13        14             # W1SS+  -->  Z1SS   MU+    NUM         
      8.55856836E-02    3      1000022       -15        16             # W1SS+  -->  Z1SS   TAU+   NUT         
      7.65776485E-02    3      1000023         2        -1             # W1SS+  -->  Z2SS   UP     DB          
      7.65776485E-02    3      1000023         4        -3             # W1SS+  -->  Z2SS   CH     SB          
      2.55258828E-02    3      1000023       -11        12             # W1SS+  -->  Z2SS   E+     NUE         
      2.55258828E-02    3      1000023       -13        14             # W1SS+  -->  Z2SS   MU+    NUM         
      2.55262498E-02    3      1000023       -15        16             # W1SS+  -->  Z2SS   TAU+   NUT         
#         PDG         Width
DECAY   1000037  1.03645477E+02   # W2SS+ decays
#          BR          NDA       ID1       ID2       ID3       ID4
      6.56429855E-10    3      1000022         2        -1             # W2SS+  -->  Z1SS   UP     DB          
      6.56429855E-10    3      1000022         4        -3             # W2SS+  -->  Z1SS   CH     SB          
      9.50743928E-09    3      1000022       -11        12             # W2SS+  -->  Z1SS   E+     NUE         
      9.50743928E-09    3      1000022       -13        14             # W2SS+  -->  Z1SS   MU+    NUM         
      2.98467080E-06    3      1000022       -15        16             # W2SS+  -->  Z1SS   TAU+   NUT         
      1.09793149E-01    2      1000022        24                       # W2SS+  -->  Z1SS   W+                 
      1.28106415E-01    2      1000022        37                       # W2SS+  -->  Z1SS   H+                 
      4.31484848E-10    3      1000023         2        -1             # W2SS+  -->  Z2SS   UP     DB          
      4.31484848E-10    3      1000023         4        -3             # W2SS+  -->  Z2SS   CH     SB          
      6.14486462E-09    3      1000023       -11        12             # W2SS+  -->  Z2SS   E+     NUE         
      6.14486462E-09    3      1000023       -13        14             # W2SS+  -->  Z2SS   MU+    NUM         
      2.94400070E-06    3      1000023       -15        16             # W2SS+  -->  Z2SS   TAU+   NUT         
      1.04900241E-01    2      1000023        24                       # W2SS+  -->  Z2SS   W+                 
      1.26559317E-01    2      1000023        37                       # W2SS+  -->  Z2SS   H+                 
      4.82416560E-08    3      1000025         2        -1             # W2SS+  -->  Z3SS   UP     DB          
      4.82416560E-08    3      1000025         4        -3             # W2SS+  -->  Z3SS   CH     SB          
      7.30029387E-06    3      1000025       -11        12             # W2SS+  -->  Z3SS   E+     NUE         
      7.30029387E-06    3      1000025       -13        14             # W2SS+  -->  Z3SS   MU+    NUM         
      8.13082443E-06    3      1000025       -15        16             # W2SS+  -->  Z3SS   TAU+   NUT         
      1.51973851E-02    2      1000025        24                       # W2SS+  -->  Z3SS   W+                 
      1.77274487E-07    2      1000025        37                       # W2SS+  -->  Z3SS   H+                 
      2.54589310E-07    2     -1000015        16                       # W2SS+  -->  TAU1+  NUT                
      1.26405373E-01    2      1000024        23                       # W2SS+  -->  W1SS+  Z0                 
      2.45924348E-09    3      1000024         1        -1             # W2SS+  -->  W1SS+  DN     DB          
      2.45924348E-09    3      1000024         3        -3             # W2SS+  -->  W1SS+  ST     SB          
      1.94985850E-11    3      1000024         2        -2             # W2SS+  -->  W1SS+  UP     UB          
      1.94985850E-11    3      1000024         4        -4             # W2SS+  -->  W1SS+  CH     CB          
      2.17670354E-10    3      1000024        12       -12             # W2SS+  -->  W1SS+  NUE    ANUE        
      2.17670354E-10    3      1000024        14       -14             # W2SS+  -->  W1SS+  NUM    ANUM        
      2.77973999E-08    3      1000024        11       -11             # W2SS+  -->  W1SS+  E-     E+          
      2.77973999E-08    3      1000024        13       -13             # W2SS+  -->  W1SS+  MU-    MU+         
      3.04623988E-08    3      1000024        15       -15             # W2SS+  -->  W1SS+  TAU-   TAU+        
      1.34485662E-01    2      1000024        25                       # W2SS+  -->  W1SS+  HL0                
      1.27215117E-01    2      1000024        35                       # W2SS+  -->  W1SS+  HH0                
      1.27308056E-01    2      1000024        36                       # W2SS+  -->  W1SS+  HA0                
#         PDG         Width
DECAY        25  4.04638471E-03   # HL0   decays
#          BR          NDA       ID1       ID2       ID3       ID4
      5.54643309E-09    2           11       -11                       # HL0    -->  E-     E+                 
      2.34179432E-04    2           13       -13                       # HL0    -->  MU-    MU+                
      6.69927523E-02    2           15       -15                       # HL0    -->  TAU-   TAU+               
      6.95195240E-06    2            1        -1                       # HL0    -->  DN     DB                 
      2.80893757E-03    2            3        -3                       # HL0    -->  ST     SB                 
      6.01884365E-01    2            5        -5                       # HL0    -->  BT     BB                 
      2.12078498E-06    2            2        -2                       # HL0    -->  UP     UB                 
      3.93737070E-02    2            4        -4                       # HL0    -->  CH     CB                 
      2.64829397E-03    2           22        22                       # HL0    -->  GM     GM                 
      5.32260537E-02    2           21        21                       # HL0    -->  GL     GL                 
      1.16114048E-02    3           24        11       -12             # HL0    -->  W+     E-     ANUE        
      1.16114048E-02    3           24        13       -14             # HL0    -->  W+     MU-    ANUM        
      1.16114048E-02    3           24        15       -16             # HL0    -->  W+     TAU-   ANUT        
      3.48342136E-02    3           24        -2         1             # HL0    -->  W+     UB     DN          
      3.48342136E-02    3           24        -4         3             # HL0    -->  W+     CB     ST          
      1.16114048E-02    3          -24       -11        12             # HL0    -->  W-     E+     NUE         
      1.16114048E-02    3          -24       -13        14             # HL0    -->  W-     MU+    NUM         
      1.16114048E-02    3          -24       -15        16             # HL0    -->  W-     TAU+   NUT         
      3.48342136E-02    3          -24         2        -1             # HL0    -->  W-     UP     DB          
      3.48342136E-02    3          -24         4        -3             # HL0    -->  W-     CH     SB          
      1.62885536E-03    3           23        12       -12             # HL0    -->  Z0     NUE    ANUE        
      1.62885536E-03    3           23        14       -14             # HL0    -->  Z0     NUM    ANUM        
      1.62885536E-03    3           23        16       -16             # HL0    -->  Z0     NUT    ANUT        
      8.19786568E-04    3           23        11       -11             # HL0    -->  Z0     E-     E+          
      8.19786568E-04    3           23        13       -13             # HL0    -->  Z0     MU-    MU+         
      8.19786568E-04    3           23        15       -15             # HL0    -->  Z0     TAU-   TAU+        
      2.80851917E-03    3           23         2        -2             # HL0    -->  Z0     UP     UB          
      2.80851917E-03    3           23         4        -4             # HL0    -->  Z0     CH     CB          
      3.61806480E-03    3           23         1        -1             # HL0    -->  Z0     DN     DB          
      3.61806480E-03    3           23         3        -3             # HL0    -->  Z0     ST     SB          
      3.61806480E-03    3           23         5        -5             # HL0    -->  Z0     BT     BB          
#         PDG         Width
DECAY        35  3.53178978E+00   # HH0   decays
#          BR          NDA       ID1       ID2       ID3       ID4
      1.08961595E-08    2           11       -11                       # HH0    -->  E-     E+                 
      4.60055482E-04    2           13       -13                       # HH0    -->  MU-    MU+                
      1.31764486E-01    2           15       -15                       # HH0    -->  TAU-   TAU+               
      1.33478443E-05    2            1        -1                       # HH0    -->  DN     DB                 
      5.39320428E-03    2            3        -3                       # HH0    -->  ST     SB                 
      8.03351760E-01    2            5        -5                       # HH0    -->  BT     BB                 
      8.84848167E-11    2            2        -2                       # HH0    -->  UP     UB                 
      1.24613052E-06    2            4        -4                       # HH0    -->  CH     CB                 
      5.68455458E-02    2            6        -6                       # HH0    -->  TP     TB                 
      1.50244659E-07    2           22        22                       # HH0    -->  GM     GM                 
      2.31403174E-05    2           21        21                       # HH0    -->  GL     GL                 
      2.32103688E-04    2           24       -24                       # HH0    -->  W+     W-                 
      1.17842792E-04    2           23        23                       # HH0    -->  Z0     Z0                 
      1.71300169E-04    2      1000022   1000022                       # HH0    -->  Z1SS   Z1SS               
      1.03404309E-05    2      1000022   1000023                       # HH0    -->  Z1SS   Z2SS               
      1.41988086E-04    2      1000023   1000023                       # HH0    -->  Z2SS   Z2SS               
      6.01623964E-04    2      1000024  -1000024                       # HH0    -->  W1SS+  W1SS-              
      8.71828932E-04    2           25        25                       # HH0    -->  HL0    HL0                
#         PDG         Width
DECAY        36  3.51829767E+00   # HA0   decays
#          BR          NDA       ID1       ID2       ID3       ID4
      1.08678249E-08    2           11       -11                       # HA0    -->  E-     E+                 
      4.58859198E-04    2           13       -13                       # HA0    -->  MU-    MU+                
      1.31423488E-01    2           15       -15                       # HA0    -->  TAU-   TAU+               
      1.33138683E-05    2            1        -1                       # HA0    -->  DN     DB                 
      5.37947705E-03    2            3        -3                       # HA0    -->  ST     SB                 
      8.01342845E-01    2            5        -5                       # HA0    -->  BT     BB                 
      8.41484590E-11    2            2        -2                       # HA0    -->  UP     UB                 
      1.18599462E-06    2            4        -4                       # HA0    -->  CH     CB                 
      6.00934699E-02    2            6        -6                       # HA0    -->  TP     TB                 
      3.29700839E-07    2           22        22                       # HA0    -->  GM     GM                 
      7.11383109E-05    2           21        21                       # HA0    -->  GL     GL                 
      2.33575833E-04    2      1000022   1000022                       # HA0    -->  Z1SS   Z1SS               
      5.47509956E-07    2      1000022   1000023                       # HA0    -->  Z1SS   Z2SS               
      1.12891372E-04    2      1000023   1000023                       # HA0    -->  Z2SS   Z2SS               
      6.45625638E-04    2      1000024  -1000024                       # HA0    -->  W1SS+  W1SS-              
      2.23236857E-04    2           25        23                       # HA0    -->  HL0    Z0                 
#         PDG         Width
DECAY        37  3.11728668E+00   # H+    decays
#          BR          NDA       ID1       ID2       ID3       ID4
      1.23054766E-08    2           12       -11                       # H+     -->  NUE    E+                 
      5.19559428E-04    2           14       -13                       # H+     -->  NUM    MU+                
      1.48808852E-01    2           16       -15                       # H+     -->  NUT    TAU+               
      1.38564210E-05    2            2        -1                       # H+     -->  UP     DB                 
      5.59987267E-03    2            4        -3                       # H+     -->  CH     SB                 
      8.44771743E-01    2            6        -5                       # H+     -->  TP     BB                 
      7.93197796E-06    2      1000024   1000022                       # H+     -->  W1SS+  Z1SS               
      2.54610441E-05    2      1000024   1000023                       # H+     -->  W1SS+  Z2SS               
      2.52674887E-04    2           25        24                       # H+     -->  HL0    W+                 
