#  ISAJET SUSY parameters in SUSY Les Houches Accord 2 format
#  Created by ISALHA 2.0 Last revision: H Baer 27 May 2014
Block SPINFO   # Program information
     1   ISASUGRA/ISASUSY from ISAJET   # Spectrum Calculator
     2   7.87   18-JUL-2017 13:55:55    # Version number
Block MODSEL   # Model selection
     1    13   # Non-universal supergravity model                  
Block SMINPUTS   # Standard Model inputs
     1     1.28000000E+02   # alpha_em^(-1)
     2     1.16570000E-05   # G_Fermi
     3     1.19999997E-01   # alpha_s(M_Z)
     4     9.11699982E+01   # m_{Z}(pole)
     5     4.19999981E+00   # m_{b}(m_{b})
     6     1.72500000E+02   # m_{top}(pole)
     7     1.77699995E+00   # m_{tau}(pole)
Block MINPAR   # SUSY breaking input parameters
     1     5.00000000E+03   # m_0
     2     8.00000000E+02   # m_{1/2}
     3     1.50000000E+01   # tan(beta)
     4     1.00000000E+00   # sign(mu)
     5    -8.00000000E+03   # A_0
Block EXTPAR   # Non-universal SUSY breaking parameters
     0     1.76865819E+16   # Input scale
    21     2.91087925E+06   # Down type Higgs mass squared
    22     3.91270240E+07   #  Up  type Higgs mass squared
Block MASS   # Scalar and gaugino mass spectrum
#  PDG code   mass                 particle
         6     1.72500000E+02   #  top            
        24     8.04229965E+01   #  W^+
        25     1.24599731E+02   #  h^0            
        35     1.00666711E+03   #  H^0            
        36     1.00000000E+03   #  A^0            
        37     1.00322870E+03   #  H^+            
   1000001     5.17195313E+03   #  dnl            
   1000002     5.17132617E+03   #  upl            
   1000003     5.17195313E+03   #  stl            
   1000004     5.17132617E+03   #  chl            
   1000005     3.65652930E+03   #  b1             
   1000006     1.58999023E+03   #  t1             
   1000011     5.10885547E+03   #  el-            
   1000012     5.11355176E+03   #  nuel           
   1000013     5.10885547E+03   #  mul-           
   1000014     5.11355176E+03   #  numl           
   1000015     4.65819678E+03   #  tau1           
   1000016     5.03843750E+03   #  nutl           
   1000021     2.00960681E+03   #  glss           
   1000022     1.23440025E+02   #  z1ss           
   1000023    -1.38439346E+02   #  z2ss           
   1000024     1.35388275E+02   #  w1ss           
   1000025     3.62292053E+02   #  z3ss           
   1000035     7.02123352E+02   #  z4ss           
   1000037     6.90873474E+02   #  w2ss           
   1000039     1.00000002E+20   #  gvss
   2000001     5.14095166E+03   #  dnr            
   2000002     5.31512842E+03   #  upr            
   2000003     5.14095166E+03   #  str            
   2000004     5.31512891E+03   #  chr            
   2000005     4.97318164E+03   #  b2             
   2000006     3.63162354E+03   #  t2             
   2000011     4.82047217E+03   #  er-            
   2000013     4.82047217E+03   #  mur-           
   2000015     5.03229492E+03   #  tau2           
Block ALPHA   # Effective Higgs mixing parameter
         -6.81241825E-02   # alpha
Block STOPMIX   # stop mixing matrix
  1  1     5.41463383E-02   # O_{11}
  1  2     9.98533010E-01   # O_{12}
  2  1    -9.98533010E-01   # O_{21}
  2  2     5.41463383E-02   # O_{22}
Block SBOTMIX   # sbottom mixing matrix
  1  1     9.99994457E-01   # O_{11}
  1  2     3.33430874E-03   # O_{12}
  2  1    -3.33430874E-03   # O_{21}
  2  2     9.99994457E-01   # O_{22}
Block STAUMIX   # stau mixing matrix
  1  1     7.62295909E-03   # O_{11}
  1  2     9.99970973E-01   # O_{12}
  2  1    -9.99970973E-01   # O_{21}
  2  2     7.62295909E-03   # O_{22}
Block NMIX   # neutralino mixing matrix
  1  1     1.30447671E-01   #
  1  2    -1.02997310E-01   #
  1  3     7.20420063E-01   #
  1  4    -6.73327982E-01   #
  2  1     5.72505593E-02   #
  2  2    -6.04082048E-02   #
  2  3    -6.90533280E-01   #
  2  4    -7.18496561E-01   #
  3  1    -9.89649653E-01   #
  3  2    -3.44164819E-02   #
  3  3     5.44076562E-02   #
  3  4    -1.28252983E-01   #
  4  1     1.73001941E-02   #
  4  2    -9.92248952E-01   #
  4  3    -3.46284434E-02   #
  4  4     1.18083276E-01   #
Block UMIX   # chargino U mixing matrix
  1  1    -4.60599102E-02   # U_{11}
  1  2     9.98938680E-01   # U_{12}
  2  1    -9.98938680E-01   # U_{21}
  2  2    -4.60599102E-02   # U_{22}
Block VMIX   # chargino V mixing matrix
  1  1    -1.64111331E-01   # V_{11}
  1  2     9.86441851E-01   # V_{12}
  2  1    -9.86441851E-01   # V_{21}
  2  2    -1.64111331E-01   # V_{22}
Block GAUGE Q=  2.39960791E+03   #
     1     3.57524991E-01   # g`
     2     6.52379155E-01   # g_2
     3     1.21927845E+00   # g_3
Block YU Q=  2.39960791E+03   #
  3  3     8.27117980E-01   # y_t
Block YD Q=  2.39960791E+03   #
  3  3     1.92826733E-01   # y_b
Block YE Q=  2.39960791E+03   #
  3  3     1.50901735E-01   # y_tau
Block HMIX Q=  2.39960791E+03   # Higgs mixing parameters
     1     1.30000000E+02   # mu(Q)
     2     1.43599730E+01   # tan(beta)(Q)
     3     2.52247894E+02   # Higgs vev at Q
     4     1.00000000E+06   # m_A^2(Q)
Block MSOFT Q=  2.39960791E+03   # DRbar SUSY breaking parameters
     1     3.55436646E+02   # M_1(Q)          
     2     6.50916870E+02   # M_2(Q)          
     3     1.74710266E+03   # M_3(Q)          
    21     9.52477750E+05   # MHd^2(Q)        
    22    -4.81502109E+04   # MHu^2(Q)        
    31     5.09243701E+03   # MeL(Q)          
    32     5.09243701E+03   # MmuL(Q)         
    33     5.01935303E+03   # MtauL(Q)        
    34     4.81687402E+03   # MeR(Q)          
    35     4.81687402E+03   # MmuR(Q)         
    36     4.65550537E+03   # MtauR(Q)        
    41     5.08181738E+03   # MqL1(Q)         
    42     5.08181738E+03   # MqL2(Q)         
    43     3.60272388E+03   # MqL3(Q)         
    44     5.22440576E+03   # MuR(Q)          
    45     5.22440576E+03   # McR(Q)          
    46     1.59826782E+03   # MtR(Q)          
    47     5.05131543E+03   # MdR(Q)          
    48     5.05131543E+03   # MsR(Q)          
    49     4.92017578E+03   # MbR(Q)          
Block AU Q=  2.39960791E+03   #
  1  1    -4.27874414E+03   # A_u
  2  2    -4.27874414E+03   # A_c
  3  3    -4.27874414E+03   # A_t
Block AD Q=  2.39960791E+03   #
  1  1    -8.71063379E+03   # A_d
  2  2    -8.71063379E+03   # A_s
  3  3    -8.71063379E+03   # A_b
Block AE Q=  2.39960791E+03   #
  1  1    -8.10593701E+03   # A_e
  2  2    -8.10593701E+03   # A_mu
  3  3    -8.10593701E+03   # A_tau
#  ISAJET decay tables in SUSY Les Houches accord format
#  Created by ISALHD. Last revision: C. Balazs, 2005 May 25
Block DCINFO                           # Program information
     1   ISASUGRA from ISAJET          # Spectrum Calculator
     2   7.87   18-JUL-2017 13:55:55   # Version number
#         PDG         Width
DECAY         6  1.46776152E+00   # TP    decays
#          BR          NDA       ID1       ID2       ID3       ID4
      3.33333313E-01    3            2        -1         5             # TP     -->  UP     DB     BT          
      3.33333313E-01    3            4        -3         5             # TP     -->  CH     SB     BT          
      1.11111097E-01    3          -11        12         5             # TP     -->  E+     NUE    BT          
      1.11111097E-01    3          -13        14         5             # TP     -->  MU+    NUM    BT          
      1.11111097E-01    3          -15        16         5             # TP     -->  TAU+   NUT    BT          
#         PDG         Width
DECAY   1000021  5.34243584E+00   # GLSS  decays
#          BR          NDA       ID1       ID2       ID3       ID4
      6.97498933E-07    3      1000024         1        -2             # GLSS   -->  W1SS+  DN     UB          
      6.97498933E-07    3     -1000024         2        -1             # GLSS   -->  W1SS-  UP     DB          
      6.97498933E-07    3      1000024         3        -4             # GLSS   -->  W1SS+  ST     CB          
      6.97498933E-07    3     -1000024         4        -3             # GLSS   -->  W1SS-  CH     SB          
      1.63229488E-04    3      1000024         5        -6             # GLSS   -->  W1SS+  BT     TB          
      1.63229488E-04    3     -1000024         6        -5             # GLSS   -->  W1SS-  TP     BB          
      2.80199274E-05    3      1000037         1        -2             # GLSS   -->  W2SS+  DN     UB          
      2.80199274E-05    3     -1000037         2        -1             # GLSS   -->  W2SS-  UP     DB          
      2.80199274E-05    3      1000037         3        -4             # GLSS   -->  W2SS+  ST     CB          
      2.80199274E-05    3     -1000037         4        -3             # GLSS   -->  W2SS-  CH     SB          
      1.35659735E-04    3      1000037         5        -6             # GLSS   -->  W2SS+  BT     TB          
      1.35659735E-04    3     -1000037         6        -5             # GLSS   -->  W2SS-  TP     BB          
      2.82200995E-06    2      1000022        21                       # GLSS   -->  Z1SS   GL                 
      3.62991898E-07    3      1000022         2        -2             # GLSS   -->  Z1SS   UP     UB          
      4.65136594E-07    3      1000022         1        -1             # GLSS   -->  Z1SS   DN     DB          
      4.65136594E-07    3      1000022         3        -3             # GLSS   -->  Z1SS   ST     SB          
      3.62991813E-07    3      1000022         4        -4             # GLSS   -->  Z1SS   CH     CB          
      1.95552402E-05    3      1000022         5        -5             # GLSS   -->  Z1SS   BT     BB          
      1.37987096E-04    3      1000022         6        -6             # GLSS   -->  Z1SS   TP     TB          
      3.16004093E-06    2      1000023        21                       # GLSS   -->  Z2SS   GL                 
      8.04351146E-08    3      1000023         2        -2             # GLSS   -->  Z2SS   UP     UB          
      1.08543780E-07    3      1000023         1        -1             # GLSS   -->  Z2SS   DN     DB          
      1.08543780E-07    3      1000023         3        -3             # GLSS   -->  Z2SS   ST     SB          
      8.04351004E-08    3      1000023         4        -4             # GLSS   -->  Z2SS   CH     CB          
      1.66506961E-05    3      1000023         5        -5             # GLSS   -->  Z2SS   BT     BB          
      1.55910442E-04    3      1000023         6        -6             # GLSS   -->  Z2SS   TP     TB          
      2.72611100E-10    2      1000025        21                       # GLSS   -->  Z3SS   GL                 
      1.20365748E-05    3      1000025         2        -2             # GLSS   -->  Z3SS   UP     UB          
      3.65993651E-06    3      1000025         1        -1             # GLSS   -->  Z3SS   DN     DB          
      3.65993651E-06    3      1000025         3        -3             # GLSS   -->  Z3SS   ST     SB          
      1.20365721E-05    3      1000025         4        -4             # GLSS   -->  Z3SS   CH     CB          
      6.07340689E-06    3      1000025         5        -5             # GLSS   -->  Z3SS   BT     BB          
      7.44895942E-06    3      1000025         6        -6             # GLSS   -->  Z3SS   TP     TB          
      8.17192998E-08    2      1000035        21                       # GLSS   -->  Z4SS   GL                 
      1.35745504E-05    3      1000035         2        -2             # GLSS   -->  Z4SS   UP     UB          
      1.37404650E-05    3      1000035         1        -1             # GLSS   -->  Z4SS   DN     DB          
      1.37404650E-05    3      1000035         3        -3             # GLSS   -->  Z4SS   ST     SB          
      1.35745504E-05    3      1000035         4        -4             # GLSS   -->  Z4SS   CH     CB          
      6.53993338E-05    3      1000035         5        -5             # GLSS   -->  Z4SS   BT     BB          
      6.68360153E-05    3      1000035         6        -6             # GLSS   -->  Z4SS   TP     TB          
      4.99358714E-01    2     -1000006         6                       # GLSS   -->  TB1    TP                 
      4.99358714E-01    2      1000006        -6                       # GLSS   -->  TP1    TB                 
#         PDG         Width
DECAY   1000002  2.59603180E+02   # UPL   decays
#          BR          NDA       ID1       ID2       ID3       ID4
      5.24015573E-04    2      1000022         2                       # UPL    -->  Z1SS   UP                 
      2.08651662E-04    2      1000023         2                       # UPL    -->  Z2SS   UP                 
      3.86402896E-03    2      1000025         2                       # UPL    -->  Z3SS   UP                 
      7.90324211E-02    2      1000035         2                       # UPL    -->  Z4SS   UP                 
      7.54449725E-01    2      1000021         2                       # UPL    -->  GLSS   UP                 
      4.51040594E-03    2      1000024         1                       # UPL    -->  W1SS+  DN                 
      1.57410711E-01    2      1000037         1                       # UPL    -->  W2SS+  DN                 
#         PDG         Width
DECAY   1000001  2.59608246E+02   # DNL   decays
#          BR          NDA       ID1       ID2       ID3       ID4
      1.34880969E-03    2      1000022         1                       # DNL    -->  Z1SS   DN                 
      4.20901284E-04    2      1000023         1                       # DNL    -->  Z2SS   DN                 
      1.79178221E-03    2      1000025         1                       # DNL    -->  Z3SS   DN                 
      8.00575688E-02    2      1000035         1                       # DNL    -->  Z4SS   DN                 
      7.54583538E-01    2      1000021         1                       # DNL    -->  GLSS   DN                 
      3.55327589E-04    2     -1000024         2                       # DNL    -->  W1SS-  UP                 
      1.61442131E-01    2     -1000037         2                       # DNL    -->  W2SS-  UP                 
#         PDG         Width
DECAY   1000003  2.59608246E+02   # STL   decays
#          BR          NDA       ID1       ID2       ID3       ID4
      1.34880969E-03    2      1000022         3                       # STL    -->  Z1SS   ST                 
      4.20901284E-04    2      1000023         3                       # STL    -->  Z2SS   ST                 
      1.79178221E-03    2      1000025         3                       # STL    -->  Z3SS   ST                 
      8.00575688E-02    2      1000035         3                       # STL    -->  Z4SS   ST                 
      7.54583538E-01    2      1000021         3                       # STL    -->  GLSS   ST                 
      3.55327531E-04    2     -1000024         4                       # STL    -->  W1SS-  CH                 
      1.61442131E-01    2     -1000037         4                       # STL    -->  W2SS-  CH                 
#         PDG         Width
DECAY   1000004  2.59603119E+02   # CHL   decays
#          BR          NDA       ID1       ID2       ID3       ID4
      5.24015573E-04    2      1000022         4                       # CHL    -->  Z1SS   CH                 
      2.08651662E-04    2      1000023         4                       # CHL    -->  Z2SS   CH                 
      3.86402896E-03    2      1000025         4                       # CHL    -->  Z3SS   CH                 
      7.90324137E-02    2      1000035         4                       # CHL    -->  Z4SS   CH                 
      7.54449785E-01    2      1000021         4                       # CHL    -->  GLSS   CH                 
      4.51040687E-03    2      1000024         3                       # CHL    -->  W1SS+  ST                 
      1.57410756E-01    2      1000037         3                       # CHL    -->  W2SS+  ST                 
#         PDG         Width
DECAY   1000005  2.39953766E+02   # BT1   decays
#          BR          NDA       ID1       ID2       ID3       ID4
      7.17422785E-03    2      1000022         5                       # BT1    -->  Z1SS   BT                 
      5.93006844E-03    2      1000023         5                       # BT1    -->  Z2SS   BT                 
      1.38654560E-03    2      1000025         5                       # BT1    -->  Z3SS   BT                 
      5.89640811E-02    2      1000035         5                       # BT1    -->  Z4SS   BT                 
      4.02299881E-01    2      1000021         5                       # BT1    -->  GLSS   BT                 
      1.92798182E-01    2     -1000024         6                       # BT1    -->  W1SS-  TP                 
      1.24323793E-01    2     -1000037         6                       # BT1    -->  W2SS-  TP                 
      2.06754267E-01    2          -24   1000006                       # BT1    -->  W-     TP1                
      3.68914043E-04    2          -37   1000006                       # BT1    -->  H-     TP1                
#         PDG         Width
DECAY   1000006  4.35915604E+01   # TP1   decays
#          BR          NDA       ID1       ID2       ID3       ID4
      2.12358028E-01    2      1000022         6                       # TP1    -->  Z1SS   TP                 
      2.39737004E-01    2      1000023         6                       # TP1    -->  Z2SS   TP                 
      7.81045109E-02    2      1000025         6                       # TP1    -->  Z3SS   TP                 
      2.28836038E-03    2      1000035         6                       # TP1    -->  Z4SS   TP                 
      4.62913930E-01    2      1000024         5                       # TP1    -->  W1SS+  BT                 
      4.59820032E-03    2      1000037         5                       # TP1    -->  W2SS+  BT                 
#         PDG         Width
DECAY   2000002  2.16557480E+02   # UPR   decays
#          BR          NDA       ID1       ID2       ID3       ID4
      9.43106948E-04    2      1000022         2                       # UPR    -->  Z1SS   UP                 
      1.81604584E-04    2      1000023         2                       # UPR    -->  Z2SS   UP                 
      5.38362488E-02    2      1000025         2                       # UPR    -->  Z3SS   UP                 
      1.60312720E-05    2      1000035         2                       # UPR    -->  Z4SS   UP                 
      9.45023000E-01    2      1000021         2                       # UPR    -->  GLSS   UP                 
#         PDG         Width
DECAY   2000001  1.96864502E+02   # DNR   decays
#          BR          NDA       ID1       ID2       ID3       ID4
      2.50844285E-04    2      1000022         1                       # DNR    -->  Z1SS   DN                 
      4.83016229E-05    2      1000023         1                       # DNR    -->  Z2SS   DN                 
      1.43110342E-02    2      1000025         1                       # DNR    -->  Z3SS   DN                 
      4.25382723E-06    2      1000035         1                       # DNR    -->  Z4SS   DN                 
      9.85385597E-01    2      1000021         1                       # DNR    -->  GLSS   DN                 
#         PDG         Width
DECAY   2000003  1.96864502E+02   # STR   decays
#          BR          NDA       ID1       ID2       ID3       ID4
      2.50844285E-04    2      1000022         3                       # STR    -->  Z1SS   ST                 
      4.83016229E-05    2      1000023         3                       # STR    -->  Z2SS   ST                 
      1.43110342E-02    2      1000025         3                       # STR    -->  Z3SS   ST                 
      4.25382723E-06    2      1000035         3                       # STR    -->  Z4SS   ST                 
      9.85385597E-01    2      1000021         3                       # STR    -->  GLSS   ST                 
#         PDG         Width
DECAY   2000004  2.16557480E+02   # CHR   decays
#          BR          NDA       ID1       ID2       ID3       ID4
      9.43106948E-04    2      1000022         4                       # CHR    -->  Z1SS   CH                 
      1.81604584E-04    2      1000023         4                       # CHR    -->  Z2SS   CH                 
      5.38362488E-02    2      1000025         4                       # CHR    -->  Z3SS   CH                 
      1.60312738E-05    2      1000035         4                       # CHR    -->  Z4SS   CH                 
      9.45023000E-01    2      1000021         4                       # CHR    -->  GLSS   CH                 
#         PDG         Width
DECAY   2000005  2.27939362E+02   # BT2   decays
#          BR          NDA       ID1       ID2       ID3       ID4
      8.94964486E-03    2      1000022         5                       # BT2    -->  Z1SS   BT                 
      8.11481103E-03    2      1000023         5                       # BT2    -->  Z2SS   BT                 
      1.20053496E-02    2      1000025         5                       # BT2    -->  Z3SS   BT                 
      3.27767084E-05    2      1000035         5                       # BT2    -->  Z4SS   BT                 
      8.05366218E-01    2      1000021         5                       # BT2    -->  GLSS   BT                 
      1.68100335E-02    2     -1000024         6                       # BT2    -->  W1SS-  TP                 
      5.29373865E-05    2     -1000037         6                       # BT2    -->  W2SS-  TP                 
      8.27435542E-06    2          -24   1000006                       # BT2    -->  W-     TP1                
      3.93654540E-04    2          -24   2000006                       # BT2    -->  W-     TP2                
      1.90370672E-04    2           23   1000005                       # BT2    -->  Z0     BT1                
      3.87572538E-04    2           25   1000005                       # BT2    -->  HL0    BT1                
      3.62943634E-02    2           36   1000005                       # BT2    -->  HA0    BT1                
      3.59474458E-02    2           35   1000005                       # BT2    -->  HH0    BT1                
      2.41338726E-04    2          -37   1000006                       # BT2    -->  H-     TP1                
      7.52051771E-02    2          -37   2000006                       # BT2    -->  H-     TP2                
#         PDG         Width
DECAY   2000006  2.49640610E+02   # TP2   decays
#          BR          NDA       ID1       ID2       ID3       ID4
      3.73077035E-01    2      1000021         6                       # TP2    -->  GLSS   TP                 
      1.23519506E-02    2      1000024         5                       # TP2    -->  W1SS+  BT                 
      1.12896636E-01    2      1000037         5                       # TP2    -->  W2SS+  BT                 
      9.73219499E-02    2           23   1000006                       # TP2    -->  Z0     TP1                
      1.56554669E-01    2           25   1000006                       # TP2    -->  HL0    TP1                
      1.91284562E-04    2           35   1000006                       # TP2    -->  HH0    TP1                
      1.78051210E-04    2           36   1000006                       # TP2    -->  HA0    TP1                
      8.46954063E-02    2      1000022         6                       # TP2    -->  Z1SS   TP                 
      9.68840644E-02    2      1000023         6                       # TP2    -->  Z2SS   TP                 
      6.60093874E-03    2      1000025         6                       # TP2    -->  Z3SS   TP                 
      5.92479482E-02    2      1000035         6                       # TP2    -->  Z4SS   TP                 
#         PDG         Width
DECAY   1000011  6.86058350E+01   # EL-   decays
#          BR          NDA       ID1       ID2       ID3       ID4
      3.06740083E-04    2      1000022        11                       # EL-    -->  Z1SS   E-                 
      2.62178160E-04    2      1000023        11                       # EL-    -->  Z2SS   E-                 
      1.03794701E-01    2      1000025        11                       # EL-    -->  Z3SS   E-                 
      2.91400105E-01    2      1000035        11                       # EL-    -->  Z4SS   E-                 
      1.32813002E-03    2     -1000024        12                       # EL-    -->  W1SS-  NUE                
      6.02908134E-01    2     -1000037        12                       # EL-    -->  W2SS-  NUE                
#         PDG         Width
DECAY   1000013  6.86058350E+01   # MUL-  decays
#          BR          NDA       ID1       ID2       ID3       ID4
      3.06740083E-04    2      1000022        13                       # MUL-   -->  Z1SS   MU-                
      2.62178160E-04    2      1000023        13                       # MUL-   -->  Z2SS   MU-                
      1.03794701E-01    2      1000025        13                       # MUL-   -->  Z3SS   MU-                
      2.91400105E-01    2      1000035        13                       # MUL-   -->  Z4SS   MU-                
      1.32813002E-03    2     -1000024        14                       # MUL-   -->  W1SS-  NUM                
      6.02908134E-01    2     -1000037        14                       # MUL-   -->  W2SS-  NUM                
#         PDG         Width
DECAY   1000015  2.78328972E+01   # TAU1- decays
#          BR          NDA       ID1       ID2       ID3       ID4
      5.61250411E-02    2      1000022        15                       # TAU1-  -->  Z1SS   TAU-               
      4.04025204E-02    2      1000023        15                       # TAU1-  -->  Z2SS   TAU-               
      8.23767245E-01    2      1000025        15                       # TAU1-  -->  Z3SS   TAU-               
      2.52607831E-04    2      1000035        15                       # TAU1-  -->  Z4SS   TAU-               
      7.94376060E-02    2     -1000024        16                       # TAU1-  -->  W1SS-  NUT                
      1.49126763E-05    2     -1000037        16                       # TAU1-  -->  W2SS-  NUT                
#         PDG         Width
DECAY   1000012  6.86952362E+01   # NUEL  decays
#          BR          NDA       ID1       ID2       ID3       ID4
      9.55120753E-03    2      1000022        12                       # NUEL   -->  Z1SS   NUE                
      2.64094584E-03    2      1000023        12                       # NUEL   -->  Z2SS   NUE                
      8.05290267E-02    2      1000025        12                       # NUEL   -->  Z3SS   NUE                
      3.02692354E-01    2      1000035        12                       # NUEL   -->  Z4SS   NUE                
      1.68541241E-02    2      1000024        11                       # NUEL   -->  W1SS+  E-                 
      5.87732375E-01    2      1000037        11                       # NUEL   -->  W2SS+  E-                 
#         PDG         Width
DECAY   1000014  6.86952362E+01   # NUML  decays
#          BR          NDA       ID1       ID2       ID3       ID4
      9.55120753E-03    2      1000022        14                       # NUML   -->  Z1SS   NUM                
      2.64094584E-03    2      1000023        14                       # NUML   -->  Z2SS   NUM                
      8.05290267E-02    2      1000025        14                       # NUML   -->  Z3SS   NUM                
      3.02692354E-01    2      1000035        14                       # NUML   -->  Z4SS   NUM                
      1.68541241E-02    2      1000024        13                       # NUML   -->  W1SS+  MU-                
      5.87732375E-01    2      1000037        13                       # NUML   -->  W2SS+  MU-                
#         PDG         Width
DECAY   1000016  7.00202103E+01   # NUTL  decays
#          BR          NDA       ID1       ID2       ID3       ID4
      9.23250336E-03    2      1000022        16                       # NUTL   -->  Z1SS   NUT                
      2.55280011E-03    2      1000023        16                       # NUTL   -->  Z2SS   NUT                
      7.78210759E-02    2      1000025        16                       # NUTL   -->  Z3SS   NUT                
      2.92264760E-01    2      1000035        16                       # NUTL   -->  Z4SS   NUT                
      5.03540114E-02    2      1000024        15                       # NUTL   -->  W1SS+  TAU-               
      5.67577243E-01    2      1000037        15                       # NUTL   -->  W2SS+  TAU-               
      1.97591173E-04    2           24   1000015                       # NUTL   -->  W+     TAU1-              
#         PDG         Width
DECAY   2000011  2.42466831E+01   # ER-   decays
#          BR          NDA       ID1       ID2       ID3       ID4
      1.71845797E-02    2      1000022        11                       # ER-    -->  Z1SS   E-                 
      3.30886268E-03    2      1000023        11                       # ER-    -->  Z2SS   E-                 
      9.79216576E-01    2      1000025        11                       # ER-    -->  Z3SS   E-                 
      2.89942836E-04    2      1000035        11                       # ER-    -->  Z4SS   E-                 
#         PDG         Width
DECAY   2000013  2.42466831E+01   # MUR-  decays
#          BR          NDA       ID1       ID2       ID3       ID4
      1.71845797E-02    2      1000022        13                       # MUR-   -->  Z1SS   MU-                
      3.30886268E-03    2      1000023        13                       # MUR-   -->  Z2SS   MU-                
      9.79216576E-01    2      1000025        13                       # MUR-   -->  Z3SS   MU-                
      2.89942836E-04    2      1000035        13                       # MUR-   -->  Z4SS   MU-                
#         PDG         Width
DECAY   2000015  6.98997879E+01   # TAU2- decays
#          BR          NDA       ID1       ID2       ID3       ID4
      1.78314708E-02    2      1000022        15                       # TAU2-  -->  Z1SS   TAU-               
      1.66359209E-02    2      1000023        15                       # TAU2-  -->  Z2SS   TAU-               
      1.00472629E-01    2      1000025        15                       # TAU2-  -->  Z3SS   TAU-               
      2.81462759E-01    2      1000035        15                       # TAU2-  -->  Z4SS   TAU-               
      1.18501205E-03    2     -1000024        16                       # TAU2-  -->  W1SS-  NUT                
      5.82277358E-01    2     -1000037        16                       # TAU2-  -->  W2SS-  NUT                
      9.34573400E-05    2           23   1000015                       # TAU2-  -->  Z0     TAU1-              
      4.13505441E-05    2           25   1000015                       # TAU2-  -->  HL0    TAU1-              
#         PDG         Width
DECAY   1000023  6.03339515E-07   # Z2SS  decays
#          BR          NDA       ID1       ID2       ID3       ID4
      9.81779583E-03    2      1000022        22                       # Z2SS   -->  Z1SS   GM                 
      1.81915340E-04    3     -1000024         2        -1             # Z2SS   -->  W1SS-  UP     DB          
      6.06384456E-05    3     -1000024        12       -11             # Z2SS   -->  W1SS-  NUE    E+          
      6.06384456E-05    3     -1000024        14       -13             # Z2SS   -->  W1SS-  NUM    MU+         
      1.81915340E-04    3      1000024         1        -2             # Z2SS   -->  W1SS+  DN     UB          
      6.06384456E-05    3      1000024        11       -12             # Z2SS   -->  W1SS+  E-     ANUE        
      6.06384456E-05    3      1000024        13       -14             # Z2SS   -->  W1SS+  MU-    ANUM        
      1.81915340E-04    3     -1000024         4        -3             # Z2SS   -->  W1SS-  CH     SB          
      6.06384456E-05    3     -1000024        16       -15             # Z2SS   -->  W1SS-  NUT    TAU+        
      1.81915340E-04    3      1000024         3        -4             # Z2SS   -->  W1SS+  ST     CB          
      6.06384456E-05    3      1000024        15       -16             # Z2SS   -->  W1SS+  TAU-   ANUT        
      1.32148162E-01    3      1000022         2        -2             # Z2SS   -->  Z1SS   UP     UB          
      1.70404524E-01    3      1000022         1        -1             # Z2SS   -->  Z1SS   DN     DB          
      1.70404524E-01    3      1000022         3        -3             # Z2SS   -->  Z1SS   ST     SB          
      1.32148162E-01    3      1000022         4        -4             # Z2SS   -->  Z1SS   CH     CB          
      4.36775945E-02    3      1000022         5        -5             # Z2SS   -->  Z1SS   BT     BB          
      3.86561789E-02    3      1000022        11       -11             # Z2SS   -->  Z1SS   E-     E+          
      3.86561789E-02    3      1000022        13       -13             # Z2SS   -->  Z1SS   MU-    MU+         
      3.22514698E-02    3      1000022        15       -15             # Z2SS   -->  Z1SS   TAU-   TAU+        
      7.69146383E-02    3      1000022        12       -12             # Z2SS   -->  Z1SS   NUE    ANUE        
      7.69146383E-02    3      1000022        14       -14             # Z2SS   -->  Z1SS   NUM    ANUM        
      7.69146532E-02    3      1000022        16       -16             # Z2SS   -->  Z1SS   NUT    ANUT        
#         PDG         Width
DECAY   1000025  6.56814754E-01   # Z3SS  decays
#          BR          NDA       ID1       ID2       ID3       ID4
      5.92095972E-08    2      1000022        22                       # Z3SS   -->  Z1SS   GM                 
      2.94574498E-08    2      1000023        22                       # Z3SS   -->  Z2SS   GM                 
      2.83770889E-01    2      1000024       -24                       # Z3SS   -->  W1SS+  W-                 
      2.83770889E-01    2     -1000024        24                       # Z3SS   -->  W1SS-  W+                 
      4.14687917E-02    2      1000022        23                       # Z3SS   -->  Z1SS   Z0                 
      1.99809968E-01    2      1000023        23                       # Z3SS   -->  Z2SS   Z0                 
      5.19931841E-11    3      1000022         2        -2             # Z3SS   -->  Z1SS   UP     UB          
      7.40648862E-12    3      1000022         1        -1             # Z3SS   -->  Z1SS   DN     DB          
      7.40648862E-12    3      1000022         3        -3             # Z3SS   -->  Z1SS   ST     SB          
      5.19931702E-11    3      1000022         4        -4             # Z3SS   -->  Z1SS   CH     CB          
      1.33505694E-07    3      1000022         5        -5             # Z3SS   -->  Z1SS   BT     BB          
      1.22885480E-10    3      1000022        11       -11             # Z3SS   -->  Z1SS   E-     E+          
      1.22885480E-10    3      1000022        13       -13             # Z3SS   -->  Z1SS   MU-    MU+         
      2.80658128E-08    3      1000022        15       -15             # Z3SS   -->  Z1SS   TAU-   TAU+        
      3.12434141E-11    3      1000022        12       -12             # Z3SS   -->  Z1SS   NUE    ANUE        
      3.12434141E-11    3      1000022        14       -14             # Z3SS   -->  Z1SS   NUM    ANUM        
      3.31534626E-11    3      1000022        16       -16             # Z3SS   -->  Z1SS   NUT    ANUT        
      3.65779238E-12    3      1000023         2        -2             # Z3SS   -->  Z2SS   UP     UB          
      6.48690682E-13    3      1000023         1        -1             # Z3SS   -->  Z2SS   DN     DB          
      6.48690682E-13    3      1000023         3        -3             # Z3SS   -->  Z2SS   ST     SB          
      3.65779108E-12    3      1000023         4        -4             # Z3SS   -->  Z2SS   CH     CB          
      1.07420661E-07    3      1000023         5        -5             # Z3SS   -->  Z2SS   BT     BB          
      8.39268932E-12    3      1000023        11       -11             # Z3SS   -->  Z2SS   E-     E+          
      8.39268932E-12    3      1000023        13       -13             # Z3SS   -->  Z2SS   MU-    MU+         
      2.24399290E-08    3      1000023        15       -15             # Z3SS   -->  Z2SS   TAU-   TAU+        
      2.95650180E-12    3      1000023        12       -12             # Z3SS   -->  Z2SS   NUE    ANUE        
      2.95650180E-12    3      1000023        14       -14             # Z3SS   -->  Z2SS   NUM    ANUM        
      3.13732048E-12    3      1000023        16       -16             # Z3SS   -->  Z2SS   NUT    ANUT        
      1.68401405E-01    2      1000022        25                       # Z3SS   -->  Z1SS   HL0                
      2.27777846E-02    2      1000023        25                       # Z3SS   -->  Z2SS   HL0                
#         PDG         Width
DECAY   1000035  5.62538767E+00   # Z4SS  decays
#          BR          NDA       ID1       ID2       ID3       ID4
      1.80737220E-06    2      1000022        22                       # Z4SS   -->  Z1SS   GM                 
      3.26504460E-06    2      1000023        22                       # Z4SS   -->  Z2SS   GM                 
      6.69135716E-08    2      1000025        22                       # Z4SS   -->  Z3SS   GM                 
      2.45472357E-01    2      1000024       -24                       # Z4SS   -->  W1SS+  W-                 
      2.45472357E-01    2     -1000024        24                       # Z4SS   -->  W1SS-  W+                 
      5.37717852E-08    3     -1000037         2        -1             # Z4SS   -->  W2SS-  UP     DB          
      1.79239290E-08    3     -1000037        12       -11             # Z4SS   -->  W2SS-  NUE    E+          
      1.79239290E-08    3     -1000037        14       -13             # Z4SS   -->  W2SS-  NUM    MU+         
      5.37717852E-08    3      1000037         1        -2             # Z4SS   -->  W2SS+  DN     UB          
      1.79239290E-08    3      1000037        11       -12             # Z4SS   -->  W2SS+  E-     ANUE        
      1.79239290E-08    3      1000037        13       -14             # Z4SS   -->  W2SS+  MU-    ANUM        
      5.37717852E-08    3     -1000037         4        -3             # Z4SS   -->  W2SS-  CH     SB          
      1.79239290E-08    3     -1000037        16       -15             # Z4SS   -->  W2SS-  NUT    TAU+        
      5.37717852E-08    3      1000037         3        -4             # Z4SS   -->  W2SS+  ST     CB          
      1.79239290E-08    3      1000037        15       -16             # Z4SS   -->  W2SS+  TAU-   ANUT        
      5.59325777E-02    2      1000022        23                       # Z4SS   -->  Z1SS   Z0                 
      2.08304316E-01    2      1000023        23                       # Z4SS   -->  Z2SS   Z0                 
      1.53587537E-03    2      1000025        23                       # Z4SS   -->  Z3SS   Z0                 
      3.73755998E-10    3      1000022         2        -2             # Z4SS   -->  Z1SS   UP     UB          
      9.73635950E-10    3      1000022         1        -1             # Z4SS   -->  Z1SS   DN     DB          
      9.73635950E-10    3      1000022         3        -3             # Z4SS   -->  Z1SS   ST     SB          
      3.73755998E-10    3      1000022         4        -4             # Z4SS   -->  Z1SS   CH     CB          
      4.56278667E-06    3      1000022         5        -5             # Z4SS   -->  Z1SS   BT     BB          
      2.04233297E-11    3      1000022        11       -11             # Z4SS   -->  Z1SS   E-     E+          
      2.04233297E-11    3      1000022        13       -13             # Z4SS   -->  Z1SS   MU-    MU+         
      9.01596934E-07    3      1000022        15       -15             # Z4SS   -->  Z1SS   TAU-   TAU+        
      6.52117194E-10    3      1000022        12       -12             # Z4SS   -->  Z1SS   NUE    ANUE        
      6.52117194E-10    3      1000022        14       -14             # Z4SS   -->  Z1SS   NUM    ANUM        
      6.92208013E-10    3      1000022        16       -16             # Z4SS   -->  Z1SS   NUT    ANUT        
      7.89221605E-11    3      1000023         2        -2             # Z4SS   -->  Z2SS   UP     UB          
      1.61141073E-10    3      1000023         1        -1             # Z4SS   -->  Z2SS   DN     DB          
      1.61141073E-10    3      1000023         3        -3             # Z4SS   -->  Z2SS   ST     SB          
      7.89221605E-11    3      1000023         4        -4             # Z4SS   -->  Z2SS   CH     CB          
      4.01227499E-06    3      1000023         5        -5             # Z4SS   -->  Z2SS   BT     BB          
      9.18845902E-12    3      1000023        11       -11             # Z4SS   -->  Z2SS   E-     E+          
      9.18845902E-12    3      1000023        13       -13             # Z4SS   -->  Z2SS   MU-    MU+         
      7.93385368E-07    3      1000023        15       -15             # Z4SS   -->  Z2SS   TAU-   TAU+        
      9.56393714E-11    3      1000023        12       -12             # Z4SS   -->  Z2SS   NUE    ANUE        
      9.56393714E-11    3      1000023        14       -14             # Z4SS   -->  Z2SS   NUM    ANUM        
      1.01527169E-10    3      1000023        16       -16             # Z4SS   -->  Z2SS   NUT    ANUT        
      5.74763903E-10    3      1000025         2        -2             # Z4SS   -->  Z3SS   UP     UB          
      2.69410244E-10    3      1000025         1        -1             # Z4SS   -->  Z3SS   DN     DB          
      2.69410244E-10    3      1000025         3        -3             # Z4SS   -->  Z3SS   ST     SB          
      5.74763903E-10    3      1000025         4        -4             # Z4SS   -->  Z3SS   CH     CB          
      5.99728978E-09    3      1000025         5        -5             # Z4SS   -->  Z3SS   BT     BB          
      1.42793366E-09    3      1000025        11       -11             # Z4SS   -->  Z3SS   E-     E+          
      1.42793366E-09    3      1000025        13       -13             # Z4SS   -->  Z3SS   MU-    MU+         
      2.48872190E-09    3      1000025        15       -15             # Z4SS   -->  Z3SS   TAU-   TAU+        
      1.14538035E-09    3      1000025        12       -12             # Z4SS   -->  Z3SS   NUE    ANUE        
      1.14538035E-09    3      1000025        14       -14             # Z4SS   -->  Z3SS   NUM    ANUM        
      1.21604837E-09    3      1000025        16       -16             # Z4SS   -->  Z3SS   NUT    ANUT        
      1.63192004E-01    2      1000022        25                       # Z4SS   -->  Z1SS   HL0                
      6.50196970E-02    2      1000023        25                       # Z4SS   -->  Z2SS   HL0                
      1.50553323E-02    2      1000025        25                       # Z4SS   -->  Z3SS   HL0                
#         PDG         Width
DECAY   1000024  2.79740249E-07   # W1SS+ decays
#          BR          NDA       ID1       ID2       ID3       ID4
      3.33332390E-01    3      1000022         2        -1             # W1SS+  -->  Z1SS   UP     DB          
      3.33332390E-01    3      1000022         4        -3             # W1SS+  -->  Z1SS   CH     SB          
      1.11111082E-01    3      1000022       -11        12             # W1SS+  -->  Z1SS   E+     NUE         
      1.11111082E-01    3      1000022       -13        14             # W1SS+  -->  Z1SS   MU+    NUM         
      1.11113138E-01    3      1000022       -15        16             # W1SS+  -->  Z1SS   TAU+   NUT         
#         PDG         Width
DECAY   1000037  5.55436707E+00   # W2SS+ decays
#          BR          NDA       ID1       ID2       ID3       ID4
      7.50434770E-10    3      1000022         2        -1             # W2SS+  -->  Z1SS   UP     DB          
      7.50434770E-10    3      1000022         4        -3             # W2SS+  -->  Z1SS   CH     SB          
      4.32366143E-10    3      1000022       -11        12             # W2SS+  -->  Z1SS   E+     NUE         
      4.32366143E-10    3      1000022       -13        14             # W2SS+  -->  Z1SS   MU+    NUM         
      8.42221084E-07    3      1000022       -15        16             # W2SS+  -->  Z1SS   TAU+   NUT         
      2.38287330E-01    2      1000022        24                       # W2SS+  -->  Z1SS   W+                 
      3.98562794E-10    3      1000023         2        -1             # W2SS+  -->  Z2SS   UP     DB          
      3.98562794E-10    3      1000023         4        -3             # W2SS+  -->  Z2SS   CH     SB          
      1.55334967E-10    3      1000023       -11        12             # W2SS+  -->  Z2SS   E+     NUE         
      1.55334967E-10    3      1000023       -13        14             # W2SS+  -->  Z2SS   MU+    NUM         
      7.03143655E-07    3      1000023       -15        16             # W2SS+  -->  Z2SS   TAU+   NUT         
      2.51270026E-01    2      1000023        24                       # W2SS+  -->  Z2SS   W+                 
      7.19782123E-10    3      1000025         2        -1             # W2SS+  -->  Z3SS   UP     DB          
      7.19782123E-10    3      1000025         4        -3             # W2SS+  -->  Z3SS   CH     SB          
      2.24776353E-09    3      1000025       -11        12             # W2SS+  -->  Z3SS   E+     NUE         
      2.24776353E-09    3      1000025       -13        14             # W2SS+  -->  Z3SS   MU+    NUM         
      3.26448601E-09    3      1000025       -15        16             # W2SS+  -->  Z3SS   TAU+   NUT         
      1.95283927E-02    2      1000025        24                       # W2SS+  -->  Z3SS   W+                 
      2.43407518E-01    2      1000024        23                       # W2SS+  -->  W1SS+  Z0                 
      2.23375873E-09    3      1000024         1        -1             # W2SS+  -->  W1SS+  DN     DB          
      2.23375873E-09    3      1000024         3        -3             # W2SS+  -->  W1SS+  ST     SB          
      1.80354787E-10    3      1000024         2        -2             # W2SS+  -->  W1SS+  UP     UB          
      1.80354787E-10    3      1000024         4        -4             # W2SS+  -->  W1SS+  CH     CB          
      6.31685676E-11    3      1000024        12       -12             # W2SS+  -->  W1SS+  NUE    ANUE        
      6.31685676E-11    3      1000024        14       -14             # W2SS+  -->  W1SS+  NUM    ANUM        
      9.16969695E-11    3      1000024        16       -16             # W2SS+  -->  W1SS+  NUT    ANUT        
      7.79091125E-10    3      1000024        11       -11             # W2SS+  -->  W1SS+  E-     E+          
      7.79091125E-10    3      1000024        13       -13             # W2SS+  -->  W1SS+  MU-    MU+         
      8.27002078E-10    3      1000024        15       -15             # W2SS+  -->  W1SS+  TAU-   TAU+        
      2.47505188E-01    2      1000024        25                       # W2SS+  -->  W1SS+  HL0                
#         PDG         Width
DECAY        25  3.86513956E-03   # HL0   decays
#          BR          NDA       ID1       ID2       ID3       ID4
      5.73698511E-09    2           11       -11                       # HL0    -->  E-     E+                 
      2.42224822E-04    2           13       -13                       # HL0    -->  MU-    MU+                
      6.92925528E-02    2           15       -15                       # HL0    -->  TAU-   TAU+               
      7.19192440E-06    2            1        -1                       # HL0    -->  DN     DB                 
      2.90589826E-03    2            3        -3                       # HL0    -->  ST     SB                 
      6.22590959E-01    2            5        -5                       # HL0    -->  BT     BB                 
      2.19695471E-06    2            2        -2                       # HL0    -->  UP     UB                 
      4.08541635E-02    2            4        -4                       # HL0    -->  CH     CB                 
      2.68173753E-03    2           22        22                       # HL0    -->  GM     GM                 
      5.26441857E-02    2           21        21                       # HL0    -->  GL     GL                 
      1.04491999E-02    3           24        11       -12             # HL0    -->  W+     E-     ANUE        
      1.04491999E-02    3           24        13       -14             # HL0    -->  W+     MU-    ANUM        
      1.04491999E-02    3           24        15       -16             # HL0    -->  W+     TAU-   ANUT        
      3.13475989E-02    3           24        -2         1             # HL0    -->  W+     UB     DN          
      3.13475989E-02    3           24        -4         3             # HL0    -->  W+     CB     ST          
      1.04491999E-02    3          -24       -11        12             # HL0    -->  W-     E+     NUE         
      1.04491999E-02    3          -24       -13        14             # HL0    -->  W-     MU+    NUM         
      1.04491999E-02    3          -24       -15        16             # HL0    -->  W-     TAU+   NUT         
      3.13475989E-02    3          -24         2        -1             # HL0    -->  W-     UP     DB          
      3.13475989E-02    3          -24         4        -3             # HL0    -->  W-     CH     SB          
      1.41524279E-03    3           23        12       -12             # HL0    -->  Z0     NUE    ANUE        
      1.41524279E-03    3           23        14       -14             # HL0    -->  Z0     NUM    ANUM        
      1.41524279E-03    3           23        16       -16             # HL0    -->  Z0     NUT    ANUT        
      7.12277484E-04    3           23        11       -11             # HL0    -->  Z0     E-     E+          
      7.12277484E-04    3           23        13       -13             # HL0    -->  Z0     MU-    MU+         
      7.12277484E-04    3           23        15       -15             # HL0    -->  Z0     TAU-   TAU+        
      2.44020228E-03    3           23         2        -2             # HL0    -->  Z0     UP     UB          
      2.44020228E-03    3           23         4        -4             # HL0    -->  Z0     CH     CB          
      3.14358156E-03    3           23         1        -1             # HL0    -->  Z0     DN     DB          
      3.14358156E-03    3           23         3        -3             # HL0    -->  Z0     ST     SB          
      3.14358156E-03    3           23         5        -5             # HL0    -->  Z0     BT     BB          
#         PDG         Width
DECAY        35  7.83772755E+00   # HH0   decays
#          BR          NDA       ID1       ID2       ID3       ID4
      4.90998042E-09    2           11       -11                       # HH0    -->  E-     E+                 
      2.07308229E-04    2           13       -13                       # HH0    -->  MU-    MU+                
      5.93751483E-02    2           15       -15                       # HH0    -->  TAU-   TAU+               
      6.01474903E-06    2            1        -1                       # HH0    -->  DN     DB                 
      2.43026298E-03    2            3        -3                       # HH0    -->  ST     SB                 
      3.63799483E-01    2            5        -5                       # HH0    -->  BT     BB                 
      3.98188704E-11    2            2        -2                       # HH0    -->  UP     UB                 
      5.60768854E-07    2            4        -4                       # HH0    -->  CH     CB                 
      2.55809389E-02    2            6        -6                       # HH0    -->  TP     TB                 
      2.02071675E-07    2           22        22                       # HH0    -->  GM     GM                 
      1.23292111E-05    2           21        21                       # HH0    -->  GL     GL                 
      9.86875093E-05    2           24       -24                       # HH0    -->  W+     W-                 
      5.01052418E-05    2           23        23                       # HH0    -->  Z0     Z0                 
      1.36146136E-02    2      1000022   1000022                       # HH0    -->  Z1SS   Z1SS               
      2.34768703E-03    2      1000022   1000023                       # HH0    -->  Z1SS   Z2SS               
      3.95830274E-02    2      1000022   1000025                       # HH0    -->  Z1SS   Z3SS               
      3.71500142E-02    2      1000022   1000035                       # HH0    -->  Z1SS   Z4SS               
      4.41576634E-03    2      1000023   1000023                       # HH0    -->  Z2SS   Z2SS               
      6.28063232E-02    2      1000023   1000025                       # HH0    -->  Z2SS   Z3SS               
      9.30463001E-02    2      1000023   1000035                       # HH0    -->  Z2SS   Z4SS               
      1.94849097E-04    2      1000025   1000025                       # HH0    -->  Z3SS   Z3SS               
      2.48752832E-02    2      1000024  -1000024                       # HH0    -->  W1SS+  W1SS-              
      1.35024577E-01    2      1000024  -1000037                       # HH0    -->  W1SS+  W2SS-              
      1.35024577E-01    2     -1000024   1000037                       # HH0    -->  W1SS-  W2SS+              
      3.55973374E-04    2           25        25                       # HH0    -->  HL0    HL0                
#         PDG         Width
DECAY        36  7.69698954E+00   # HA0   decays
#          BR          NDA       ID1       ID2       ID3       ID4
      4.96768804E-09    2           11       -11                       # HA0    -->  E-     E+                 
      2.09744758E-04    2           13       -13                       # HA0    -->  MU-    MU+                
      6.00737371E-02    2           15       -15                       # HA0    -->  TAU-   TAU+               
      6.08577602E-06    2            1        -1                       # HA0    -->  DN     DB                 
      2.45896168E-03    2            3        -3                       # HA0    -->  ST     SB                 
      3.68112028E-01    2            5        -5                       # HA0    -->  BT     BB                 
      3.84643012E-11    2            2        -2                       # HA0    -->  UP     UB                 
      5.42118698E-07    2            4        -4                       # HA0    -->  CH     CB                 
      2.74687558E-02    2            6        -6                       # HA0    -->  TP     TB                 
      7.37421217E-08    2           22        22                       # HA0    -->  GM     GM                 
      3.93793453E-05    2           21        21                       # HA0    -->  GL     GL                 
      1.88612025E-02    2      1000022   1000022                       # HA0    -->  Z1SS   Z1SS               
      8.61273147E-04    2      1000022   1000023                       # HA0    -->  Z1SS   Z2SS               
      6.25749379E-02    2      1000022   1000025                       # HA0    -->  Z1SS   Z3SS               
      9.60690901E-02    2      1000022   1000035                       # HA0    -->  Z1SS   Z4SS               
      3.64746060E-03    2      1000023   1000023                       # HA0    -->  Z2SS   Z2SS               
      3.82128768E-02    2      1000023   1000025                       # HA0    -->  Z2SS   Z3SS               
      2.99885534E-02    2      1000023   1000035                       # HA0    -->  Z2SS   Z4SS               
      7.72230967E-04    2      1000025   1000025                       # HA0    -->  Z3SS   Z3SS               
      2.92224865E-02    2      1000024  -1000024                       # HA0    -->  W1SS+  W1SS-              
      1.30662099E-01    2      1000024  -1000037                       # HA0    -->  W1SS+  W2SS-              
      1.30662099E-01    2     -1000024   1000037                       # HA0    -->  W1SS-  W2SS+              
      9.63856874E-05    2           25        23                       # HA0    -->  HL0    Z0                 
#         PDG         Width
DECAY        37  7.25533962E+00   # H+    decays
#          BR          NDA       ID1       ID2       ID3       ID4
      5.28709876E-09    2           12       -11                       # H+     -->  NUE    E+                 
      2.23230862E-04    2           14       -13                       # H+     -->  NUM    MU+                
      6.39363378E-02    2           16       -15                       # H+     -->  NUT    TAU+               
      5.95346864E-06    2            2        -1                       # H+     -->  UP     DB                 
      2.40600854E-03    2            4        -3                       # H+     -->  CH     SB                 
      3.64634305E-01    2            6        -5                       # H+     -->  TP     BB                 
      1.75388355E-04    2      1000024   1000022                       # H+     -->  W1SS+  Z1SS               
      3.00416886E-03    2      1000024   1000023                       # H+     -->  W1SS+  Z2SS               
      1.40088245E-01    2      1000024   1000025                       # H+     -->  W1SS+  Z3SS               
      1.32457227E-01    2      1000024   1000035                       # H+     -->  W1SS+  Z4SS               
      1.54681176E-01    2      1000037   1000022                       # H+     -->  W2SS+  Z1SS               
      1.38285458E-01    2      1000037   1000023                       # H+     -->  W2SS+  Z2SS               
      1.02544036E-04    2           25        24                       # H+     -->  HL0    W+                 
