#  ISAJET SUSY parameters in SUSY Les Houches Accord 2 format
#  Created by ISALHA 2.0 Last revision: C. Balazs 21 Apr 2009
Block SPINFO   # Program information
     1   ISASUGRA from ISAJET          # Spectrum Calculator
     2   7.80   29-OCT-2009 12:50:36   # Version number
Block MODSEL   # Model selection
     1     3   # Minimal anomaly mediated (AMSB) model             
Block SMINPUTS   # Standard Model inputs
     1     1.27840523E+02   # alpha_em^(-1)
     2     1.16570000E-05   # G_Fermi
     3     1.17200002E-01   # alpha_s(M_Z)
     4     9.11699982E+01   # m_{Z}(pole)
     5     4.19999981E+00   # m_{b}(m_{b})
     6     1.72500000E+02   # m_{top}(pole)
     7     1.77699995E+00   # m_{tau}(pole)
Block MINPAR   # SUSY breaking input parameters
     1     5.00000000E+03   # m_0
     2     2.43800000E+05   # m_{3/2}
     3     5.00000000E+00   # tan(beta)
     4     1.00000000E+00   # sign(mu)
Block EXTPAR   # Non-universal SUSY breaking parameters
     0     8.56622530E+15   # Input scale
Block MASS   # Scalar and gaugino mass spectrum
#  PDG code   mass                 particle
         5     4.80000000E+00   # b-quark pole mass calculated from mb(mb)_Msbar
         6     1.72500000E+02   # t-quark pole mass (not read by ME)
        15     1.77682000E+00   # tau pole mass (not read by ME)
        23     9.11876000E+01   # Z pole mass (not read by ME)
        24     8.04229965E+01   #  W^+
        25     1.16696190E+02   #  h^0            
        35     6.34188672E+03   #  H^0            
        36     6.30031787E+03   #  A^0            
        37     6.34226416E+03   #  H^+            
   1000001     6.58953809E+03   #  dnl            
   1000002     6.58908203E+03   #  upl            
   1000003     6.58953809E+03   #  stl            
   1000004     6.58908203E+03   #  chl            
   1000005     5.61548633E+03   #  b1             
   1000006     4.41669580E+03   #  t1             
   1000011     4.89931299E+03   #  el-            
   1000012     4.89869336E+03   #  nuel           
   1000013     4.89931299E+03   #  mul-           
   1000014     4.89869336E+03   #  numl           
   1000015     4.86509033E+03   #  tau1           
   1000016     4.89201514E+03   #  nutl           
   1000021     4.85124316E+03   #  glss           
   1000022     6.99891296E+02   #  z1ss           
   1000023     2.27006689E+03   #  z2ss           
   1000024     7.00064819E+02   #  w1ss           
   1000025    -3.80531226E+03   #  z3ss           
   1000035     3.80676709E+03   #  z4ss           
   1000037     3.81065259E+03   #  w2ss           
   2000001     6.65305859E+03   #  dnr            
   2000002     6.62040186E+03   #  upr            
   2000003     6.65305859E+03   #  str            
   2000004     6.62040186E+03   #  chr            
   2000005     6.61153467E+03   #  b2             
   2000006     5.65001172E+03   #  t2             
   2000011     4.87906104E+03   #  er-            
   2000013     4.87906104E+03   #  mur-           
   2000015     4.89324219E+03   #  tau2           
Block ALPHA   # Effective Higgs mixing parameter
         -1.97506040E-01   # alpha
Block STOPMIX   # stop mixing matrix
  1  1     3.09827365E-02   # O_{11}
  1  2    -9.99519944E-01   # O_{12}
  2  1     9.99519944E-01   # O_{21}
  2  2     3.09827365E-02   # O_{22}
Block SBOTMIX   # sbottom mixing matrix
  1  1     9.99996364E-01   # O_{11}
  1  2     2.69571692E-03   # O_{12}
  2  1    -2.69571692E-03   # O_{21}
  2  2     9.99996364E-01   # O_{22}
Block STAUMIX   # stau mixing matrix
  1  1     1.39728978E-01   # O_{11}
  1  2     9.90189791E-01   # O_{12}
  2  1    -9.90189791E-01   # O_{21}
  2  2     1.39728978E-01   # O_{22}
Block NMIX   # neutralino mixing matrix
  1  1    -3.87065695E-04   #
  1  2     9.99765694E-01   #
  1  3    -2.07384210E-02   #
  1  4     6.17707148E-03   #
  2  1     9.99779224E-01   #
  2  2     8.21040012E-04   #
  2  3     1.74464583E-02   #
  2  4    -1.16647482E-02   #
  3  1    -4.09483910E-03   #
  3  2     1.02941506E-02   #
  3  3     7.06974626E-01   #
  3  4     7.07152128E-01   #
  4  1     2.05961186E-02   #
  4  2    -1.90196615E-02   #
  4  3    -7.06719518E-01   #
  4  4     7.06938148E-01   #
Block UMIX   # chargino U mixing matrix
  1  1    -9.99547362E-01   # U_{11}
  1  2     3.00850011E-02   # U_{12}
  2  1    -3.00850011E-02   # U_{21}
  2  2    -9.99547362E-01   # U_{22}
Block VMIX   # chargino V mixing matrix
  1  1    -9.99932349E-01   # V_{11}
  1  2     1.16312699E-02   # V_{12}
  2  1    -1.16312699E-02   # V_{21}
  2  2    -9.99932349E-01   # V_{22}
Block GAUGE Q=  4.80108594E+03   #
     1     3.57506156E-01   # g`
     2     6.52445793E-01   # g_2
     3     1.22026002E+00   # g_3
Block YU Q=  4.80108594E+03   #
  3  3     8.27488184E-01   # y_t
Block YD Q=  4.80108594E+03   #
  3  3     6.35810345E-02   # y_b
Block YE Q=  4.80108594E+03   #
  3  3     5.14744967E-02   # y_tau
Block HMIX Q=  4.80108594E+03   # Higgs mixing parameters
     1     3.78374121E+03   # mu(Q)
     2     5.00000000E+00   # tan(beta)(M_GUT)
     3     2.52300018E+02   # Higgs vev at Q
     4     3.96940040E+07   # m_A^2(Q)
Block MSOFT Q=  4.80108594E+03   # DRbar SUSY breaking parameters
     1     2.27956421E+03   # M_1(Q)          
     2     6.52881531E+02   # M_2(Q)          
     3    -4.44996387E+03   # M_3(Q)          
    21     3.23374943E+04   # mH1^2(Q)            
    22    -1.28800134E+05   # mH2^2(Q)            
    31     4.88164893E+03   # MeL(Q)          
    32     4.88164893E+03   # MmuL(Q)         
    33     4.87517334E+03   # MtauL(Q)        
    34     4.87193555E+03   # MeR(Q)          
    35     4.87193555E+03   # MmuR(Q)         
    36     4.85890479E+03   # MtauR(Q)        
    41     6.37194287E+03   # MqL1(Q)         
    42     6.37194287E+03   # MqL2(Q)         
    43     5.41643848E+03   # MqL3(Q)         
    44     6.40355127E+03   # MuR(Q)          
    45     6.40355127E+03   # McR(Q)          
    46     4.25564307E+03   # MtR(Q)          
    47     6.43648438E+03   # MdR(Q)          
    48     6.43648438E+03   # MsR(Q)          
    49     6.44725391E+03   # MbR(Q)          
Block AU Q=  4.80108594E+03   #
  1  1     3.78056689E+03   # A_u
  2  2     3.78056689E+03   # A_c
  3  3     3.78056689E+03   # A_t
Block AD Q=  4.80108594E+03   #
  1  1     8.96982715E+03   # A_d
  2  2     8.96982715E+03   # A_s
  3  3     8.96982715E+03   # A_b
Block AE Q=  4.80108594E+03   #
  1  1     2.53724438E+03   # A_e
  2  2     2.53724438E+03   # A_mu
  3  3     2.53724438E+03   # A_tau
#
#  ISAJET decay tables in SUSY Les Houches accord format
#  Created by ISALHD. Last revision: C. Balazs, 2005 May 25
Block DCINFO                           # Program information
     1   ISASUGRA from ISAJET          # Spectrum Calculator
     2   7.80   29-OCT-2009 12:50:36   # Version number
#         PDG         Width
DECAY        23     2.49520000E+00   # Z width (SM calculation)
DECAY        24     2.08500000E+00   # W width (SM calculation)
#
#         PDG            Width  
DECAY         6  1.14680779E+00   # TP    decays
#          BR          NDA       ID1       ID2       ID3       ID4
      3.33333343E-01    3            2        -1         5             # TP     -->  UP     DB     BT          
      3.33333343E-01    3            4        -3         5             # TP     -->  CH     SB     BT          
      1.11111112E-01    3          -11        12         5             # TP     -->  E+     NUE    BT          
      1.11111112E-01    3          -13        14         5             # TP     -->  MU+    NUM    BT          
      1.11111112E-01    3          -15        16         5             # TP     -->  TAU+   NUT    BT          
#         PDG         Width
DECAY   1000021  2.64681911E+00   # GLSS  decays
#          BR          NDA       ID1       ID2       ID3       ID4
      2.93157063E-03    3      1000024         1        -2             # GLSS   -->  W1SS+  DN     UB          
      2.93157063E-03    3     -1000024         2        -1             # GLSS   -->  W1SS-  UP     DB          
      2.93157063E-03    3      1000024         3        -4             # GLSS   -->  W1SS+  ST     CB          
      2.93157063E-03    3     -1000024         4        -3             # GLSS   -->  W1SS-  CH     SB          
      7.80362170E-03    3      1000024         5        -6             # GLSS   -->  W1SS+  BT     TB          
      7.80362170E-03    3     -1000024         6        -5             # GLSS   -->  W1SS-  TP     BB          
      1.09207665E-08    3      1000037         1        -2             # GLSS   -->  W2SS+  DN     UB          
      1.09207665E-08    3     -1000037         2        -1             # GLSS   -->  W2SS-  UP     DB          
      1.09207665E-08    3      1000037         3        -4             # GLSS   -->  W2SS+  ST     CB          
      1.09207665E-08    3     -1000037         4        -3             # GLSS   -->  W2SS-  CH     SB          
      8.72687815E-05    3      1000037         5        -6             # GLSS   -->  W2SS+  BT     TB          
      8.72687815E-05    3     -1000037         6        -5             # GLSS   -->  W2SS-  TP     BB          
      7.39908268E-09    2      1000022        21                       # GLSS   -->  Z1SS   GL                 
      1.46610232E-03    3      1000022         2        -2             # GLSS   -->  Z1SS   UP     UB          
      1.46594306E-03    3      1000022         1        -1             # GLSS   -->  Z1SS   DN     DB          
      1.46594306E-03    3      1000022         3        -3             # GLSS   -->  Z1SS   ST     SB          
      1.46610232E-03    3      1000022         4        -4             # GLSS   -->  Z1SS   CH     CB          
      4.03751433E-03    3      1000022         5        -5             # GLSS   -->  Z1SS   BT     BB          
      3.76527780E-03    3      1000022         6        -6             # GLSS   -->  Z1SS   TP     TB          
      8.66364098E-06    2      1000023        21                       # GLSS   -->  Z2SS   GL                 
      1.76140631E-04    3      1000023         2        -2             # GLSS   -->  Z2SS   UP     UB          
      5.06480392E-05    3      1000023         1        -1             # GLSS   -->  Z2SS   DN     DB          
      5.06480392E-05    3      1000023         3        -3             # GLSS   -->  Z2SS   ST     SB          
      1.76140631E-04    3      1000023         4        -4             # GLSS   -->  Z2SS   CH     CB          
      7.53842614E-05    3      1000023         5        -5             # GLSS   -->  Z2SS   BT     BB          
      3.31448682E-05    3      1000023         6        -6             # GLSS   -->  Z2SS   TP     TB          
      2.58224713E-06    2      1000025        21                       # GLSS   -->  Z3SS   GL                 
      2.35261899E-09    3      1000025         2        -2             # GLSS   -->  Z3SS   UP     UB          
      2.92375968E-09    3      1000025         1        -1             # GLSS   -->  Z3SS   DN     DB          
      2.92375968E-09    3      1000025         3        -3             # GLSS   -->  Z3SS   ST     SB          
      2.35261899E-09    3      1000025         4        -4             # GLSS   -->  Z3SS   CH     CB          
      1.10041242E-06    3      1000025         5        -5             # GLSS   -->  Z3SS   BT     BB          
      7.51510233E-05    3      1000025         6        -6             # GLSS   -->  Z3SS   TP     TB          
      3.18540765E-06    2      1000035        21                       # GLSS   -->  Z4SS   GL                 
      3.69997588E-09    3      1000035         2        -2             # GLSS   -->  Z4SS   UP     UB          
      4.67956163E-09    3      1000035         1        -1             # GLSS   -->  Z4SS   DN     DB          
      4.67956163E-09    3      1000035         3        -3             # GLSS   -->  Z4SS   ST     SB          
      3.69997588E-09    3      1000035         4        -4             # GLSS   -->  Z4SS   CH     CB          
      1.10263386E-06    3      1000035         5        -5             # GLSS   -->  Z4SS   BT     BB          
      6.23239393E-05    3      1000035         6        -6             # GLSS   -->  Z4SS   TP     TB          
      4.79054362E-01    2     -1000006         6                       # GLSS   -->  TB1    TP                 
      4.79054362E-01    2      1000006        -6                       # GLSS   -->  TP1    TB                 
#         PDG         Width
DECAY   1000002  1.53142975E+02   # UPL   decays
#          BR          NDA       ID1       ID2       ID3       ID4
      1.76937163E-01    2      1000022         2                       # UPL    -->  Z1SS   UP                 
      4.76179644E-03    2      1000023         2                       # UPL    -->  Z2SS   UP                 
      7.32759418E-06    2      1000025         2                       # UPL    -->  Z3SS   UP                 
      1.86853886E-05    2      1000035         2                       # UPL    -->  Z4SS   UP                 
      4.64214683E-01    2      1000021         2                       # UPL    -->  GLSS   UP                 
      3.54038596E-01    2      1000024         1                       # UPL    -->  W1SS+  DN                 
      2.17054021E-05    2      1000037         1                       # UPL    -->  W2SS+  DN                 
#         PDG         Width
DECAY   1000001  1.53152557E+02   # DNL   decays
#          BR          NDA       ID1       ID2       ID3       ID4
      1.76989153E-01    2      1000022         1                       # DNL    -->  Z1SS   DN                 
      4.67738416E-03    2      1000023         1                       # DNL    -->  Z2SS   DN                 
      9.81406629E-06    2      1000025         1                       # DNL    -->  Z3SS   DN                 
      4.17675910E-05    2      1000035         1                       # DNL    -->  Z4SS   DN                 
      4.64367151E-01    2      1000021         1                       # DNL    -->  GLSS   DN                 
      3.53769422E-01    2     -1000024         2                       # DNL    -->  W1SS-  UP                 
      1.45236874E-04    2     -1000037         2                       # DNL    -->  W2SS-  UP                 
#         PDG         Width
DECAY   1000003  1.53152557E+02   # STL   decays
#          BR          NDA       ID1       ID2       ID3       ID4
      1.76989153E-01    2      1000022         3                       # STL    -->  Z1SS   ST                 
      4.67738416E-03    2      1000023         3                       # STL    -->  Z2SS   ST                 
      9.81406629E-06    2      1000025         3                       # STL    -->  Z3SS   ST                 
      4.17675910E-05    2      1000035         3                       # STL    -->  Z4SS   ST                 
      4.64367151E-01    2      1000021         3                       # STL    -->  GLSS   ST                 
      3.53769392E-01    2     -1000024         4                       # STL    -->  W1SS-  CH                 
      1.45236831E-04    2     -1000037         4                       # STL    -->  W2SS-  CH                 
#         PDG         Width
DECAY   1000004  1.53142944E+02   # CHL   decays
#          BR          NDA       ID1       ID2       ID3       ID4
      1.76937193E-01    2      1000022         4                       # CHL    -->  Z1SS   CH                 
      4.76179691E-03    2      1000023         4                       # CHL    -->  Z2SS   CH                 
      7.32759418E-06    2      1000025         4                       # CHL    -->  Z3SS   CH                 
      1.86853867E-05    2      1000035         4                       # CHL    -->  Z4SS   CH                 
      4.64214623E-01    2      1000021         4                       # CHL    -->  GLSS   CH                 
      3.54038686E-01    2      1000024         3                       # CHL    -->  W1SS+  ST                 
      2.17054057E-05    2      1000037         3                       # CHL    -->  W2SS+  ST                 
#         PDG         Width
DECAY   1000005  1.15217697E+02   # BT1   decays
#          BR          NDA       ID1       ID2       ID3       ID4
      1.98767796E-01    2      1000022         5                       # BT1    -->  Z1SS   BT                 
      4.77592042E-03    2      1000023         5                       # BT1    -->  Z2SS   BT                 
      6.12957054E-04    2      1000025         5                       # BT1    -->  Z3SS   BT                 
      6.35863224E-04    2      1000035         5                       # BT1    -->  Z4SS   BT                 
      1.63600877E-01    2      1000021         5                       # BT1    -->  GLSS   BT                 
      3.96517098E-01    2     -1000024         6                       # BT1    -->  W1SS-  TP                 
      1.82191148E-01    2     -1000037         6                       # BT1    -->  W2SS-  TP                 
      5.28983772E-02    2          -24   1000006                       # BT1    -->  W-     TP1                
#         PDG         Width
DECAY   1000006  1.26808472E+01   # TP1   decays
#          BR          NDA       ID1       ID2       ID3       ID4
      5.65360649E-04    2      1000022         6                       # TP1    -->  Z1SS   TP                 
      4.21470582E-01    2      1000023         6                       # TP1    -->  Z2SS   TP                 
      1.39742851E-01    2      1000025         6                       # TP1    -->  Z3SS   TP                 
      1.44666627E-01    2      1000035         6                       # TP1    -->  Z4SS   TP                 
      7.68346887E-04    2      1000024         5                       # TP1    -->  W1SS+  BT                 
      2.92786181E-01    2      1000037         5                       # TP1    -->  W2SS+  BT                 
#         PDG         Width
DECAY   2000002  8.46558838E+01   # UPR   decays
#          BR          NDA       ID1       ID2       ID3       ID4
      2.58970747E-08    2      1000022         2                       # UPR    -->  Z1SS   UP                 
      1.37597010E-01    2      1000023         2                       # UPR    -->  Z2SS   UP                 
      1.32915557E-06    2      1000025         2                       # UPR    -->  Z3SS   UP                 
      3.36004559E-05    2      1000035         2                       # UPR    -->  Z4SS   UP                 
      8.62367988E-01    2      1000021         2                       # UPR    -->  GLSS   UP                 
#         PDG         Width
DECAY   2000001  7.79434967E+01   # DNR   decays
#          BR          NDA       ID1       ID2       ID3       ID4
      7.06807368E-09    2      1000022         1                       # DNR    -->  Z1SS   DN                 
      3.76440100E-02    2      1000023         1                       # DNR    -->  Z2SS   DN                 
      3.66198663E-07    2      1000025         1                       # DNR    -->  Z3SS   DN                 
      9.25743734E-06    2      1000035         1                       # DNR    -->  Z4SS   DN                 
      9.62346435E-01    2      1000021         1                       # DNR    -->  GLSS   DN                 
#         PDG         Width
DECAY   2000003  7.79434967E+01   # STR   decays
#          BR          NDA       ID1       ID2       ID3       ID4
      7.06807368E-09    2      1000022         3                       # STR    -->  Z1SS   ST                 
      3.76440100E-02    2      1000023         3                       # STR    -->  Z2SS   ST                 
      3.66198663E-07    2      1000025         3                       # STR    -->  Z3SS   ST                 
      9.25743734E-06    2      1000035         3                       # STR    -->  Z4SS   ST                 
      9.62346435E-01    2      1000021         3                       # STR    -->  GLSS   ST                 
#         PDG         Width
DECAY   2000004  8.46558533E+01   # CHR   decays
#          BR          NDA       ID1       ID2       ID3       ID4
      2.58970783E-08    2      1000022         4                       # CHR    -->  Z1SS   CH                 
      1.37597039E-01    2      1000023         4                       # CHR    -->  Z2SS   CH                 
      1.32915579E-06    2      1000025         4                       # CHR    -->  Z3SS   CH                 
      3.36004559E-05    2      1000035         4                       # CHR    -->  Z4SS   CH                 
      8.62368047E-01    2      1000021         4                       # CHR    -->  GLSS   CH                 
#         PDG         Width
DECAY   2000005  7.59475555E+01   # BT2   decays
#          BR          NDA       ID1       ID2       ID3       ID4
      2.94566966E-08    2      1000022         5                       # BT2    -->  Z1SS   BT                 
      3.82639617E-02    2      1000023         5                       # BT2    -->  Z2SS   BT                 
      1.65746815E-03    2      1000025         5                       # BT2    -->  Z3SS   BT                 
      1.66596577E-03    2      1000035         5                       # BT2    -->  Z4SS   BT                 
      9.54112589E-01    2      1000021         5                       # BT2    -->  GLSS   BT                 
      7.93012731E-08    2     -1000024         6                       # BT2    -->  W1SS-  TP                 
      3.30984802E-03    2     -1000037         6                       # BT2    -->  W2SS-  TP                 
      2.92708023E-06    2          -24   1000006                       # BT2    -->  W-     TP1                
      3.49040522E-04    2          -24   2000006                       # BT2    -->  W-     TP2                
      1.94683045E-04    2           23   1000005                       # BT2    -->  Z0     BT1                
      4.43445693E-04    2           25   1000005                       # BT2    -->  HL0    BT1                
#         PDG         Width
DECAY   2000006  1.20348831E+02   # TP2   decays
#          BR          NDA       ID1       ID2       ID3       ID4
      1.62373930E-01    2      1000021         6                       # TP2    -->  GLSS   TP                 
      3.83111566E-01    2      1000024         5                       # TP2    -->  W1SS+  BT                 
      1.26732560E-03    2      1000037         5                       # TP2    -->  W2SS+  BT                 
      2.76446939E-02    2           23   1000006                       # TP2    -->  Z0     TP1                
      5.02158701E-02    2           25   1000006                       # TP2    -->  HL0    TP1                
      1.91046730E-01    2      1000022         6                       # TP2    -->  Z1SS   TP                 
      4.97641787E-03    2      1000023         6                       # TP2    -->  Z2SS   TP                 
      9.02455747E-02    2      1000025         6                       # TP2    -->  Z3SS   TP                 
      8.91179964E-02    2      1000035         6                       # TP2    -->  Z4SS   TP                 
#         PDG         Width
DECAY   1000011  6.31726494E+01   # EL-   decays
#          BR          NDA       ID1       ID2       ID3       ID4
      3.12982976E-01    2      1000022        11                       # EL-    -->  Z1SS   E-                 
      6.09726161E-02    2      1000023        11                       # EL-    -->  Z2SS   E-                 
      3.32435525E-06    2      1000025        11                       # EL-    -->  Z3SS   E-                 
      3.03905472E-06    2      1000035        11                       # EL-    -->  Z4SS   E-                 
      6.25945866E-01    2     -1000024        12                       # EL-    -->  W1SS-  NUE                
      9.22200197E-05    2     -1000037        12                       # EL-    -->  W2SS-  NUE                
#         PDG         Width
DECAY   1000013  6.31726494E+01   # MUL-  decays
#          BR          NDA       ID1       ID2       ID3       ID4
      3.12982976E-01    2      1000022        13                       # MUL-   -->  Z1SS   MU-                
      6.09726161E-02    2      1000023        13                       # MUL-   -->  Z2SS   MU-                
      3.32435525E-06    2      1000025        13                       # MUL-   -->  Z3SS   MU-                
      3.03905472E-06    2      1000035        13                       # MUL-   -->  Z4SS   MU-                
      6.25945866E-01    2     -1000024        14                       # MUL-   -->  W1SS-  NUM                
      9.22200197E-05    2     -1000037        14                       # MUL-   -->  W2SS-  NUM                
#         PDG         Width
DECAY   1000015  1.61841602E+01   # TAU1- decays
#          BR          NDA       ID1       ID2       ID3       ID4
      2.44806465E-02    2      1000022        15                       # TAU1-  -->  Z1SS   TAU-               
      9.21875298E-01    2      1000023        15                       # TAU1-  -->  Z2SS   TAU-               
      1.21361099E-03    2      1000025        15                       # TAU1-  -->  Z3SS   TAU-               
      1.22557965E-03    2      1000035        15                       # TAU1-  -->  Z4SS   TAU-               
      4.90004532E-02    2     -1000024        16                       # TAU1-  -->  W1SS-  NUT                
      2.20441143E-03    2     -1000037        16                       # TAU1-  -->  W2SS-  NUT                
#         PDG         Width
DECAY   1000012  6.31859970E+01   # NUEL  decays
#          BR          NDA       ID1       ID2       ID3       ID4
      3.13140422E-01    2      1000022        12                       # NUEL   -->  Z1SS   NUE                
      6.05804585E-02    2      1000023        12                       # NUEL   -->  Z2SS   NUE                
      8.07712240E-06    2      1000025        12                       # NUEL   -->  Z3SS   NUE                
      4.71350249E-05    2      1000035        12                       # NUEL   -->  Z4SS   NUE                
      6.26210093E-01    2      1000024        11                       # NUEL   -->  W1SS+  E-                 
      1.37688012E-05    2      1000037        11                       # NUEL   -->  W2SS+  E-                 
#         PDG         Width
DECAY   1000014  6.31859970E+01   # NUML  decays
#          BR          NDA       ID1       ID2       ID3       ID4
      3.13140422E-01    2      1000022        14                       # NUML   -->  Z1SS   NUM                
      6.05804585E-02    2      1000023        14                       # NUML   -->  Z2SS   NUM                
      8.07712240E-06    2      1000025        14                       # NUML   -->  Z3SS   NUM                
      4.71350249E-05    2      1000035        14                       # NUML   -->  Z4SS   NUM                
      6.26210093E-01    2      1000024        13                       # NUML   -->  W1SS+  MU-                
      1.37688012E-05    2      1000037        13                       # NUML   -->  W2SS+  MU-                
#         PDG         Width
DECAY   1000016  6.31297379E+01   # NUTL  decays
#          BR          NDA       ID1       ID2       ID3       ID4
      3.12956542E-01    2      1000022        16                       # NUTL   -->  Z1SS   NUT                
      6.04613386E-02    2      1000023        16                       # NUTL   -->  Z2SS   NUT                
      8.00631642E-06    2      1000025        16                       # NUTL   -->  Z3SS   NUT                
      4.67210775E-05    2      1000035        16                       # NUTL   -->  Z4SS   NUT                
      6.25845671E-01    2      1000024        15                       # NUTL   -->  W1SS+  TAU-               
      6.81741047E-04    2      1000037        15                       # NUTL   -->  W2SS+  TAU-               
      1.33944034E-09    3      1000015        16       -15             # NUTL   -->  TAU1-  NUT    TAU+        
      1.33944034E-09    3      1000015        12       -11             # NUTL   -->  TAU1-  NUE    E+          
      1.33944034E-09    3      1000015        14       -13             # NUTL   -->  TAU1-  NUM    MU+         
      4.01832079E-09    3      1000015         2        -1             # NUTL   -->  TAU1-  UP     DB          
      4.01832079E-09    3      1000015         4        -3             # NUTL   -->  TAU1-  CH     SB          
#         PDG         Width
DECAY   2000011  1.52299480E+01   # ER-   decays
#          BR          NDA       ID1       ID2       ID3       ID4
      2.34178117E-07    2      1000022        11                       # ER-    -->  Z1SS   E-                 
      9.99889731E-01    2      1000023        11                       # ER-    -->  Z2SS   E-                 
      4.19225535E-06    2      1000025        11                       # ER-    -->  Z3SS   E-                 
      1.05806546E-04    2      1000035        11                       # ER-    -->  Z4SS   E-                 
#         PDG         Width
DECAY   2000013  1.52299480E+01   # MUR-  decays
#          BR          NDA       ID1       ID2       ID3       ID4
      2.34178117E-07    2      1000022        13                       # MUR-   -->  Z1SS   MU-                
      9.99889731E-01    2      1000023        13                       # MUR-   -->  Z2SS   MU-                
      4.19225535E-06    2      1000025        13                       # MUR-   -->  Z3SS   MU-                
      1.05806546E-04    2      1000035        13                       # MUR-   -->  Z4SS   MU-                
#         PDG         Width
DECAY   2000015  6.21568642E+01   # TAU2- decays
#          BR          NDA       ID1       ID2       ID3       ID4
      3.11260045E-01    2      1000022        15                       # TAU2-  -->  Z1SS   TAU-               
      6.53382242E-02    2      1000023        15                       # TAU2-  -->  Z2SS   TAU-               
      3.60563688E-04    2      1000025        15                       # TAU2-  -->  Z3SS   TAU-               
      3.80846061E-04    2      1000035        15                       # TAU2-  -->  Z4SS   TAU-               
      6.22486472E-01    2     -1000024        16                       # TAU2-  -->  W1SS-  NUT                
      1.73877517E-04    2     -1000037        16                       # TAU2-  -->  W2SS-  NUT                
#         PDG         Width
DECAY   1000023  1.15832984E-02   # Z2SS  decays
#          BR          NDA       ID1       ID2       ID3       ID4
      1.34553457E-09    2      1000022        22                       # Z2SS   -->  Z1SS   GM                 
      3.53522390E-01    2      1000024       -24                       # Z2SS   -->  W1SS+  W-                 
      3.53522390E-01    2     -1000024        24                       # Z2SS   -->  W1SS-  W+                 
      2.07924824E-02    2      1000022        23                       # Z2SS   -->  Z1SS   Z0                 
      1.01730846E-04    3      1000022         2        -2             # Z2SS   -->  Z1SS   UP     UB          
      9.99219919E-05    3      1000022         1        -1             # Z2SS   -->  Z1SS   DN     DB          
      9.99219919E-05    3      1000022         3        -3             # Z2SS   -->  Z1SS   ST     SB          
      1.01730846E-04    3      1000022         4        -4             # Z2SS   -->  Z1SS   CH     CB          
      1.98461683E-04    3      1000022         5        -5             # Z2SS   -->  Z1SS   BT     BB          
      1.09674176E-03    3      1000022        11       -11             # Z2SS   -->  Z1SS   E-     E+          
      1.09674176E-03    3      1000022        13       -13             # Z2SS   -->  Z1SS   MU-    MU+         
      1.10352528E-03    3      1000022        15       -15             # Z2SS   -->  Z1SS   TAU-   TAU+        
      1.09175092E-03    3      1000022        12       -12             # Z2SS   -->  Z1SS   NUE    ANUE        
      1.09175092E-03    3      1000022        14       -14             # Z2SS   -->  Z1SS   NUM    ANUM        
      1.09842152E-03    3      1000022        16       -16             # Z2SS   -->  Z1SS   NUT    ANUT        
      2.64981866E-01    2      1000022        25                       # Z2SS   -->  Z1SS   HL0                
#         PDG         Width
DECAY   1000025  2.78763256E+01   # Z3SS  decays
#          BR          NDA       ID1       ID2       ID3       ID4
      5.77573438E-08    2      1000022        22                       # Z3SS   -->  Z1SS   GM                 
      1.96051548E-08    2      1000023        22                       # Z3SS   -->  Z2SS   GM                 
      3.27169925E-01    2      1000024       -24                       # Z3SS   -->  W1SS+  W-                 
      3.27169925E-01    2     -1000024        24                       # Z3SS   -->  W1SS-  W+                 
      2.12707326E-01    2      1000022        23                       # Z3SS   -->  Z1SS   Z0                 
      7.34217763E-02    2      1000023        23                       # Z3SS   -->  Z2SS   Z0                 
      1.57085556E-09    3      1000022         2        -2             # Z3SS   -->  Z1SS   UP     UB          
      2.10348183E-09    3      1000022         1        -1             # Z3SS   -->  Z1SS   DN     DB          
      2.10348183E-09    3      1000022         3        -3             # Z3SS   -->  Z1SS   ST     SB          
      1.57085556E-09    3      1000022         4        -4             # Z3SS   -->  Z1SS   CH     CB          
      1.02641923E-06    3      1000022         5        -5             # Z3SS   -->  Z1SS   BT     BB          
      1.80964943E-09    3      1000022        11       -11             # Z3SS   -->  Z1SS   E-     E+          
      1.80964943E-09    3      1000022        13       -13             # Z3SS   -->  Z1SS   MU-    MU+         
      3.83428556E-07    3      1000022        15       -15             # Z3SS   -->  Z1SS   TAU-   TAU+        
      4.40890258E-09    3      1000022        12       -12             # Z3SS   -->  Z1SS   NUE    ANUE        
      4.40890258E-09    3      1000022        14       -14             # Z3SS   -->  Z1SS   NUM    ANUM        
      4.44589565E-09    3      1000022        16       -16             # Z3SS   -->  Z1SS   NUT    ANUT        
      1.00715582E-11    3      1000023         2        -2             # Z3SS   -->  Z2SS   UP     UB          
      5.60661500E-12    3      1000023         1        -1             # Z3SS   -->  Z2SS   DN     DB          
      5.60661500E-12    3      1000023         3        -3             # Z3SS   -->  Z2SS   ST     SB          
      1.00715582E-11    3      1000023         4        -4             # Z3SS   -->  Z2SS   CH     CB          
      1.19811929E-08    3      1000023         5        -5             # Z3SS   -->  Z2SS   BT     BB          
      1.14356358E-10    3      1000023        11       -11             # Z3SS   -->  Z2SS   E-     E+          
      1.14356358E-10    3      1000023        13       -13             # Z3SS   -->  Z2SS   MU-    MU+         
      6.88313975E-08    3      1000023        15       -15             # Z3SS   -->  Z2SS   TAU-   TAU+        
      1.21009411E-10    3      1000023        12       -12             # Z3SS   -->  Z2SS   NUE    ANUE        
      1.21009411E-10    3      1000023        14       -14             # Z3SS   -->  Z2SS   NUM    ANUM        
      1.22211186E-10    3      1000023        16       -16             # Z3SS   -->  Z2SS   NUT    ANUT        
      5.67607842E-02    2      1000022        25                       # Z3SS   -->  Z1SS   HL0                
      2.76871654E-03    2      1000023        25                       # Z3SS   -->  Z2SS   HL0                
#         PDG         Width
DECAY   1000035  2.43466873E+01   # Z4SS  decays
#          BR          NDA       ID1       ID2       ID3       ID4
      3.22139027E-09    2      1000022        22                       # Z4SS   -->  Z1SS   GM                 
      3.98009448E-08    2      1000023        22                       # Z4SS   -->  Z2SS   GM                 
      9.91801042E-15    2      1000025        22                       # Z4SS   -->  Z3SS   GM                 
      2.52846420E-01    2      1000024       -24                       # Z4SS   -->  W1SS+  W-                 
      2.52846420E-01    2     -1000024        24                       # Z4SS   -->  W1SS-  W+                 
      7.13872835E-02    2      1000022        23                       # Z4SS   -->  Z1SS   Z0                 
      3.34970490E-03    2      1000023        23                       # Z4SS   -->  Z2SS   Z0                 
      7.72168907E-09    3      1000022         2        -2             # Z4SS   -->  Z1SS   UP     UB          
      1.72571131E-08    3      1000022         1        -1             # Z4SS   -->  Z1SS   DN     DB          
      1.72571131E-08    3      1000022         3        -3             # Z4SS   -->  Z1SS   ST     SB          
      7.72168907E-09    3      1000022         4        -4             # Z4SS   -->  Z1SS   CH     CB          
      1.20454092E-06    3      1000022         5        -5             # Z4SS   -->  Z1SS   BT     BB          
      3.00291858E-09    3      1000022        11       -11             # Z4SS   -->  Z1SS   E-     E+          
      3.00291858E-09    3      1000022        13       -13             # Z4SS   -->  Z1SS   MU-    MU+         
      4.38884172E-07    3      1000022        15       -15             # Z4SS   -->  Z1SS   TAU-   TAU+        
      4.66999666E-08    3      1000022        12       -12             # Z4SS   -->  Z1SS   NUE    ANUE        
      4.66999666E-08    3      1000022        14       -14             # Z4SS   -->  Z1SS   NUM    ANUM        
      4.70695838E-08    3      1000022        16       -16             # Z4SS   -->  Z1SS   NUT    ANUT        
      5.11440779E-10    3      1000023         2        -2             # Z4SS   -->  Z2SS   UP     UB          
      9.86623214E-11    3      1000023         1        -1             # Z4SS   -->  Z2SS   DN     DB          
      9.86623214E-11    3      1000023         3        -3             # Z4SS   -->  Z2SS   ST     SB          
      5.11440779E-10    3      1000023         4        -4             # Z4SS   -->  Z2SS   CH     CB          
      1.37280605E-08    3      1000023         5        -5             # Z4SS   -->  Z2SS   BT     BB          
      4.90671148E-09    3      1000023        11       -11             # Z4SS   -->  Z2SS   E-     E+          
      4.90671148E-09    3      1000023        13       -13             # Z4SS   -->  Z2SS   MU-    MU+         
      8.38254834E-08    3      1000023        15       -15             # Z4SS   -->  Z2SS   TAU-   TAU+        
      2.07810857E-09    3      1000023        12       -12             # Z4SS   -->  Z2SS   NUE    ANUE        
      2.07810857E-09    3      1000023        14       -14             # Z4SS   -->  Z2SS   NUM    ANUM        
      2.09759365E-09    3      1000023        16       -16             # Z4SS   -->  Z2SS   NUT    ANUT        
      7.11885385E-14    3      1000025         2        -2             # Z4SS   -->  Z3SS   UP     UB          
      9.17981172E-14    3      1000025         1        -1             # Z4SS   -->  Z3SS   DN     DB          
      9.17981172E-14    3      1000025         3        -3             # Z4SS   -->  Z3SS   ST     SB          
      2.08243575E-14    3      1000025        11       -11             # Z4SS   -->  Z3SS   E-     E+          
      2.08243575E-14    3      1000025        13       -13             # Z4SS   -->  Z3SS   MU-    MU+         
      4.14339041E-14    3      1000025        12       -12             # Z4SS   -->  Z3SS   NUE    ANUE        
      4.14339041E-14    3      1000025        14       -14             # Z4SS   -->  Z3SS   NUM    ANUM        
      4.14339041E-14    3      1000025        16       -16             # Z4SS   -->  Z3SS   NUT    ANUT        
      3.07602018E-01    2      1000022        25                       # Z4SS   -->  Z1SS   HL0                
      1.11966260E-01    2      1000023        25                       # Z4SS   -->  Z2SS   HL0                
#         PDG         Width
DECAY   1000024  4.54248396E-15   # W1SS+ decays
#          BR          NDA       ID1       ID2       ID3       ID4
      1.00000000E+00    2      1000022         0                       # W1SS+  -->  Z1SS   PI+                
#         PDG         Width
DECAY   1000037  2.91894875E+01   # W2SS+ decays
#          BR          NDA       ID1       ID2       ID3       ID4
      1.92083842E-08    3      1000022         2        -1             # W2SS+  -->  Z1SS   UP     DB          
      1.92083842E-08    3      1000022         4        -3             # W2SS+  -->  Z1SS   CH     SB          
      3.07454755E-08    3      1000022       -11        12             # W2SS+  -->  Z1SS   E+     NUE         
      3.07454755E-08    3      1000022       -13        14             # W2SS+  -->  Z1SS   MU+    NUM         
      3.97256429E-07    3      1000022       -15        16             # W2SS+  -->  Z1SS   TAU+   NUT         
      3.23218226E-01    2      1000022        24                       # W2SS+  -->  Z1SS   W+                 
      1.05680770E-10    3      1000023         2        -1             # W2SS+  -->  Z2SS   UP     DB          
      1.05680770E-10    3      1000023         4        -3             # W2SS+  -->  Z2SS   CH     SB          
      1.79521609E-09    3      1000023       -11        12             # W2SS+  -->  Z2SS   E+     NUE         
      1.79521609E-09    3      1000023       -13        14             # W2SS+  -->  Z2SS   MU+    NUM         
      6.84027697E-08    3      1000023       -15        16             # W2SS+  -->  Z2SS   TAU+   NUT         
      7.28947595E-02    2      1000023        24                       # W2SS+  -->  Z2SS   W+                 
      6.10887521E-11    3      1000025         2        -1             # W2SS+  -->  Z3SS   UP     DB          
      6.10887521E-11    3      1000025         4        -3             # W2SS+  -->  Z3SS   CH     SB          
      2.03629179E-11    3      1000025       -11        12             # W2SS+  -->  Z3SS   E+     NUE         
      2.03629179E-11    3      1000025       -13        14             # W2SS+  -->  Z3SS   MU+    NUM         
      2.03630168E-11    3      1000025       -15        16             # W2SS+  -->  Z3SS   TAU+   NUT         
      1.28042143E-11    3      1000035         2        -1             # W2SS+  -->  Z4SS   UP     DB          
      1.28042143E-11    3      1000035         4        -3             # W2SS+  -->  Z4SS   CH     SB          
      4.26807244E-12    3      1000035       -11        12             # W2SS+  -->  Z4SS   E+     NUE         
      4.26807244E-12    3      1000035       -13        14             # W2SS+  -->  Z4SS   MU+    NUM         
      4.26809282E-12    3      1000035       -15        16             # W2SS+  -->  Z4SS   TAU+   NUT         
      2.92938739E-01    2      1000024        23                       # W2SS+  -->  W1SS+  Z0                 
      6.02233374E-09    3      1000024         1        -1             # W2SS+  -->  W1SS+  DN     DB          
      6.02233374E-09    3      1000024         3        -3             # W2SS+  -->  W1SS+  ST     SB          
      4.02469524E-08    3      1000024         2        -2             # W2SS+  -->  W1SS+  UP     UB          
      4.02469524E-08    3      1000024         4        -4             # W2SS+  -->  W1SS+  CH     CB          
      6.29499866E-08    3      1000024        12       -12             # W2SS+  -->  W1SS+  NUE    ANUE        
      6.29499866E-08    3      1000024        14       -14             # W2SS+  -->  W1SS+  NUM    ANUM        
      6.56273897E-08    3      1000024        16       -16             # W2SS+  -->  W1SS+  NUT    ANUT        
      9.42343625E-09    3      1000024        11       -11             # W2SS+  -->  W1SS+  E-     E+          
      9.42343625E-09    3      1000024        13       -13             # W2SS+  -->  W1SS+  MU-    MU+         
      9.49987022E-09    3      1000024        15       -15             # W2SS+  -->  W1SS+  TAU-   TAU+        
      3.10947388E-01    2      1000024        25                       # W2SS+  -->  W1SS+  HL0                
#         PDG         Width
DECAY        25  4.16818075E-03   # HL0   decays
#          BR          NDA       ID1       ID2       ID3       ID4
      4.76302997E-09    2           11       -11                       # HL0    -->  E-     E+                 
      2.01102754E-04    2           13       -13                       # HL0    -->  MU-    MU+                
      5.75190708E-02    2           15       -15                       # HL0    -->  TAU-   TAU+               
      5.97678718E-06    2            1        -1                       # HL0    -->  DN     DB                 
      2.41492153E-03    2            3        -3                       # HL0    -->  ST     SB                 
      7.90020585E-01    2            5        -5                       # HL0    -->  BT     BB                 
      1.91018057E-06    2            2        -2                       # HL0    -->  UP     UB                 
      3.58783491E-02    2            4        -4                       # HL0    -->  CH     CB                 
      1.89222186E-03    2           22        22                       # HL0    -->  GM     GM                 
      4.05043922E-02    2           21        21                       # HL0    -->  GL     GL                 
      3.67680937E-03    3           24        11       -12             # HL0    -->  W+     E-     ANUE        
      3.67680937E-03    3           24        13       -14             # HL0    -->  W+     MU-    ANUM        
      3.67680937E-03    3           24        15       -16             # HL0    -->  W+     TAU-   ANUT        
      1.10304281E-02    3           24        -2         1             # HL0    -->  W+     UB     DN          
      1.10304281E-02    3           24        -4         3             # HL0    -->  W+     CB     ST          
      3.67680937E-03    3          -24       -11        12             # HL0    -->  W-     E+     NUE         
      3.67680937E-03    3          -24       -13        14             # HL0    -->  W-     MU+    NUM         
      3.67680937E-03    3          -24       -15        16             # HL0    -->  W-     TAU+   NUT         
      1.10304281E-02    3          -24         2        -1             # HL0    -->  W-     UP     DB          
      1.10304281E-02    3          -24         4        -3             # HL0    -->  W-     CH     SB          
      3.67908069E-04    3           23        12       -12             # HL0    -->  Z0     NUE    ANUE        
      3.67908069E-04    3           23        14       -14             # HL0    -->  Z0     NUM    ANUM        
      3.67908069E-04    3           23        16       -16             # HL0    -->  Z0     NUT    ANUT        
      1.85164434E-04    3           23        11       -11             # HL0    -->  Z0     E-     E+          
      1.85164434E-04    3           23        13       -13             # HL0    -->  Z0     MU-    MU+         
      1.85164434E-04    3           23        15       -15             # HL0    -->  Z0     TAU-   TAU+        
      6.34357624E-04    3           23         2        -2             # HL0    -->  Z0     UP     UB          
      6.34357624E-04    3           23         4        -4             # HL0    -->  Z0     CH     CB          
      8.17208958E-04    3           23         1        -1             # HL0    -->  Z0     DN     DB          
      8.17208958E-04    3           23         3        -3             # HL0    -->  Z0     ST     SB          
      8.17208958E-04    3           23         5        -5             # HL0    -->  Z0     BT     BB          
#         PDG         Width
DECAY        35  4.69130135E+01   # HH0   decays
#          BR          NDA       ID1       ID2       ID3       ID4
      5.74300885E-10    2           11       -11                       # HH0    -->  E-     E+                 
      2.42480201E-05    2           13       -13                       # HH0    -->  MU-    MU+                
      6.94500143E-03    2           15       -15                       # HH0    -->  TAU-   TAU+               
      6.94496407E-07    2            1        -1                       # HH0    -->  DN     DB                 
      2.80611654E-04    2            3        -3                       # HH0    -->  ST     SB                 
      3.42739858E-02    2            5        -5                       # HH0    -->  BT     BB                 
      3.55954044E-10    2            2        -2                       # HH0    -->  UP     UB                 
      4.10903431E-06    2            4        -4                       # HH0    -->  CH     CB                 
      2.15819731E-01    2            6        -6                       # HH0    -->  TP     TB                 
      2.43904594E-07    2           22        22                       # HH0    -->  GM     GM                 
      1.95700341E-05    2           21        21                       # HH0    -->  GL     GL                 
      2.15900491E-05    2           24       -24                       # HH0    -->  W+     W-                 
      1.10788569E-05    2           23        23                       # HH0    -->  Z0     Z0                 
      3.86128464E-04    2      1000022   1000022                       # HH0    -->  Z1SS   Z1SS               
      2.43623115E-04    2      1000022   1000023                       # HH0    -->  Z1SS   Z2SS               
      1.83642656E-01    2      1000022   1000025                       # HH0    -->  Z1SS   Z3SS               
      5.29641733E-02    2      1000022   1000035                       # HH0    -->  Z1SS   Z4SS               
      2.56068488E-05    2      1000023   1000023                       # HH0    -->  Z2SS   Z2SS               
      3.10431216E-02    2      1000023   1000025                       # HH0    -->  Z2SS   Z3SS               
      1.19189243E-03    2      1000023   1000035                       # HH0    -->  Z2SS   Z4SS               
      7.82149204E-04    2      1000024  -1000024                       # HH0    -->  W1SS+  W1SS-              
      2.36114040E-01    2      1000024  -1000037                       # HH0    -->  W1SS+  W2SS-              
      2.36114040E-01    2     -1000024   1000037                       # HH0    -->  W1SS-  W2SS+              
      9.17332654E-05    2           25        25                       # HH0    -->  HL0    HL0                
#         PDG         Width
DECAY        36  4.59888268E+01   # HA0   decays
#          BR          NDA       ID1       ID2       ID3       ID4
      5.82027704E-10    2           11       -11                       # HA0    -->  E-     E+                 
      2.45742613E-05    2           13       -13                       # HA0    -->  MU-    MU+                
      7.03844428E-03    2           15       -15                       # HA0    -->  TAU-   TAU+               
      7.03867727E-07    2            1        -1                       # HA0    -->  DN     DB                 
      2.84398207E-04    2            3        -3                       # HA0    -->  ST     SB                 
      3.47365104E-02    2            5        -5                       # HA0    -->  BT     BB                 
      3.60343033E-10    2            2        -2                       # HA0    -->  UP     UB                 
      4.16241301E-06    2            4        -4                       # HA0    -->  CH     CB                 
      2.19070196E-01    2            6        -6                       # HA0    -->  TP     TB                 
      1.41748785E-07    2           22        22                       # HA0    -->  GM     GM                 
      2.25653530E-05    2           21        21                       # HA0    -->  GL     GL                 
      5.22058748E-04    2      1000022   1000022                       # HA0    -->  Z1SS   Z1SS               
      4.50163294E-04    2      1000022   1000023                       # HA0    -->  Z1SS   Z2SS               
      5.26576638E-02    2      1000022   1000025                       # HA0    -->  Z1SS   Z3SS               
      1.83205888E-01    2      1000022   1000035                       # HA0    -->  Z1SS   Z4SS               
      9.05569686E-05    2      1000023   1000023                       # HA0    -->  Z2SS   Z2SS               
      9.60139267E-04    2      1000023   1000025                       # HA0    -->  Z2SS   Z3SS               
      2.88350601E-02    2      1000023   1000035                       # HA0    -->  Z2SS   Z4SS               
      1.13561121E-03    2      1000024  -1000024                       # HA0    -->  W1SS+  W1SS-              
      2.35469654E-01    2      1000024  -1000037                       # HA0    -->  W1SS+  W2SS-              
      2.35469654E-01    2     -1000024   1000037                       # HA0    -->  W1SS-  W2SS+              
      2.18635578E-05    2           25        23                       # HA0    -->  HL0    Z0                 
#         PDG         Width
DECAY        37  4.60930214E+01   # H+    decays
#          BR          NDA       ID1       ID2       ID3       ID4
      5.84578275E-10    2           12       -11                       # H+     -->  NUE    E+                 
      2.46819509E-05    2           14       -13                       # H+     -->  NUM    MU+                
      7.06928829E-03    2           16       -15                       # H+     -->  NUT    TAU+               
      6.58589499E-07    2            2        -1                       # H+     -->  UP     DB                 
      2.69857439E-04    2            4        -3                       # H+     -->  CH     SB                 
      2.37008676E-01    2            6        -5                       # H+     -->  TP     BB                 
      4.91835237E-07    2      1000024   1000022                       # H+     -->  W1SS+  Z1SS               
      7.19158445E-04    2      1000024   1000023                       # H+     -->  W1SS+  Z2SS               
      2.41084099E-01    2      1000024   1000025                       # H+     -->  W1SS+  Z3SS               
      2.40708441E-01    2      1000024   1000035                       # H+     -->  W1SS+  Z4SS               
      2.40490049E-01    2      1000037   1000022                       # H+     -->  W2SS+  Z1SS               
      3.26026045E-02    2      1000037   1000023                       # H+     -->  W2SS+  Z2SS               
      2.19663289E-05    2           25        24                       # H+     -->  HL0    W+                 
