#  ISAJET SUSY parameters in SUSY Les Houches Accord 2 format
#  Created by ISALHA 2.0 Last revision: C. Balazs 21 Apr 2009
Block SPINFO   # Program information
     1    ISASUSY from ISAJET          # Spectrum Calculator
     2   7.80   29-OCT-2009 12:50:36   # Version number
Block MODSEL   # Model selection
     1     0   # general MSSM-24 model                             
BLOCK SMINPUTS  # Standard Model inputs
     1     1.27934000E+02   # alpha_em^-1(M_Z)^MSbar
     2     1.16637000E-05   # G_F [GeV^-2]
     3     1.18000000E-01   # alpha_S(M_Z)^MSbar
     4     9.11876000E+01   # M_Z pole mass
     5     4.25000000E+00   # mb(mb)^MSbar
     6     1.72500000E+02   # mt pole mass
     7     1.77682000E+00   # mtau pole mass
#
Block MINPAR   # SUSY breaking input parameters.
     3     1.00000000E+01   # tan(beta)
     4     2.50000000E+03   # mu
Block MSOFT   # Non-universal SUSY breaking parameters 
     1     2.00000000E+01   # M_1(Q)          
     2     2.50000000E+03   # M_2(Q)          
     3     2.50000000E+03   # M_3(Q)          
    11     0.00000000E+00   #     At          
    12     0.00000000E+00   #     Ab          
    13     2.50000000E+04   #   Atau          
    23     2.50000000E+03   #    MUE          
    25     1.00000000E+01   #    TB           
    26     2.50000000E+03   #    MA0          
    31     2.50000000E+03   # MeL(Q)          
    32     2.50000000E+03   # MmuL(Q)         
    33     1.00000000E+02   # MtauL(Q)        
    34     2.50000000E+03   # MeR(Q)          
    35     2.50000000E+03   # MmuR(Q)         
    36     1.00000000E+02   # MtauR(Q)        
    41     2.50000000E+03   # MqL1(Q)         
    42     2.50000000E+03   # MqL2(Q)         
    43     2.50000000E+03   # MqL3(Q)         
    44     2.50000000E+03   # MuR(Q)          
    45     2.50000000E+03   # McR(Q)          
    46     2.50000000E+03   # MtR(Q)          
    47     2.50000000E+03   # MdR(Q)          
    48     2.50000000E+03   # MsR(Q)          
    49     2.50000000E+03   # MbR(Q)          
Block MASS   # Scalar and gaugino mass spectrum
#  PDG code   mass                 particle
         5     4.80000000E+00   # b-quark pole mass calculated from mb(mb)_Msbar
         6     1.72500000E+02   # t-quark pole mass (not read by ME)
        15     1.77682000E+00   # tau pole mass (not read by ME)
        23     9.11876000E+01   # Z pole mass (not read by ME)
        24     8.03990000E+01   # W+
        25     1.13288651E+02   #  h^0            
        35     2.51651904E+03   #  H^0            
        36     2.50000000E+03   #  A^0            
        37     2.51772192E+03   #  H^+            
   1000001     2.50068872E+03   #  dnl            
   1000002     2.49943726E+03   #  upl            
   1000003     2.50068872E+03   #  stl            
   1000004     2.49943726E+03   #  chl            
   1000005     2.48715918E+03   #  b1             
   1000006     2.49648804E+03   #  t1             
   1000011     2.50043677E+03   #  el-            
   1000012     2.50000000E+03   #  nuel
   1000013     2.50043677E+03   #  mul-           
   1000014     2.50000000E+03   #  numl
   1000015     1.08676781E+02   #  tau1           
   1000016     2.50000000E+03   #  nutl
   1000021     2.50000000E+03   #  glss           
   1000022     1.98388672E+01   #  z1ss           
   1000023     2.43825635E+03   #  z2ss           
   1000024     2.43827466E+03   #  w1ss           
   1000025    -2.50083008E+03   #  z3ss           
   1000035     2.56273389E+03   #  z4ss           
   1000037     2.56276270E+03   #  w2ss           
   2000001     2.50012598E+03   #  dnr            
   2000002     2.49974805E+03   #  upr            
   2000003     2.50012598E+03   #  str            
   2000004     2.49974829E+03   #  chr            
   2000005     2.51358838E+03   #  b2             
   2000006     2.51009106E+03   #  t2             
   2000011     2.50037793E+03   #  er-            
   2000013     2.50037793E+03   #  mur-           
   2000015     1.10766167E+02   #  tau2           
Block ALPHA   # Effective Higgs mixing parameter
         -9.99947041E-02   # alpha
Block STOPMIX   # stop mixing matrix
  1  1     7.15110242E-01   # O_{11}
  1  2     6.99011683E-01   # O_{12}
  2  1    -6.99011683E-01   # O_{21}
  2  2     7.15110242E-01   # O_{22}
Block SBOTMIX   # sbottom mixing matrix
  1  1     6.99534595E-01   # O_{11}
  1  2     7.14598715E-01   # O_{12}
  2  1    -7.14598715E-01   # O_{21}
  2  2     6.99534595E-01   # O_{22}
Block STAUMIX   # stau mixing matrix
  1  1     5.03818192E-05   # O_{11}
  1  2    -1.00000000E+00   # O_{12}
  2  1     1.00000000E+00   # O_{21}
  2  2     5.03818192E-05   # O_{22}
Block NMIX   # neutralino mixing matrix
  1  1     9.99843121E-01   #
  1  2    -1.18095100E-04   #
  1  3     1.76092144E-02   #
  1  4    -1.89915800E-03   #
  2  1     9.92048066E-03   #
  2  2     7.06935525E-01   #
  2  3    -5.05161047E-01   #
  2  4     4.94930267E-01   #
  3  1    -1.11051500E-02   #
  3  2     1.01850377E-02   #
  3  3     7.06883311E-01   #
  3  4     7.07169890E-01   #
  4  1     9.58981086E-03   #
  4  2    -7.07204640E-01   #
  4  3    -4.94791418E-01   #
  4  4     5.04926860E-01   #
Block UMIX   # chargino U mixing matrix
  1  1    -6.99869037E-01   # U_{11}
  1  2     7.14271188E-01   # U_{12}
  2  1    -7.14271188E-01   # U_{21}
  2  2    -6.99869037E-01   # U_{22}
Block VMIX   # chargino V mixing matrix
  1  1    -7.14271009E-01   # V_{11}
  1  2     6.99869215E-01   # V_{12}
  2  1    -6.99869215E-01   # V_{21}
  2  2    -7.14271009E-01   # V_{22}
Block HMIX Q=  9.11699982E+01   # Higgs mixing parameters
     1     2.50000000E+03   # mu(Q)
     2     1.00000000E+01   # tan(beta)
Block AU   #
  3  3     0.00000000E+00   # A_t
Block AD   #
  3  3     0.00000000E+00   # A_b
Block AE   #
  3  3     2.50000000E+04   # A_tau
BLOCK YU Q=  4.67034192E+02  # The Yukawa couplings
  3  3     8.92844550E-01   # y_t(Q) DRbar
#
BLOCK YD Q=  4.67034192E+02  # The Yukawa couplings
  3  3     1.38840206E-01   # y_b(Q) DRbar
#
BLOCK YE Q=  4.67034192E+02  # The Yukawa couplings
  3  3     1.00890810E-01   # y_tau(Q) DRbar
#
#  ISAJET decay tables in SUSY Les Houches accord format 
#  Created by ISALHD. Last revision: C. Balazs, 2005 May 25
#  isajet_helpers.f
Block DCINFO                           # Program information
     1   ISASUGRA from ISAJET          # Spectrum Calculator
     2   7.80   29-OCT-2009 12:50:36   # Version number
#         PDG         Width
DECAY         6  1.14680767E+00   # TP    decays
#          BR          NDA       ID1       ID2       ID3       ID4
      3.33333343E-01    3            2        -1         5             # TP     -->  UP     DB     BT          
      3.33333343E-01    3            4        -3         5             # TP     -->  CH     SB     BT          
      1.11111112E-01    3          -11        12         5             # TP     -->  E+     NUE    BT          
      1.11111112E-01    3          -13        14         5             # TP     -->  MU+    NUM    BT          
      1.11111112E-01    3          -15        16         5             # TP     -->  TAU+   NUT    BT          
#         PDG         Width
DECAY   1000021  3.06098051E-02   # GLSS  decays
#          BR          NDA       ID1       ID2       ID3       ID4
      3.63628096E-05    3      1000024         1        -2             # GLSS   -->  W1SS+  DN     UB          
      3.63628096E-05    3     -1000024         2        -1             # GLSS   -->  W1SS-  UP     DB          
      3.63628096E-05    3      1000024         3        -4             # GLSS   -->  W1SS+  ST     CB          
      3.63628096E-05    3     -1000024         4        -3             # GLSS   -->  W1SS-  CH     SB          
      1.44934212E-03    2      1000022        21                       # GLSS   -->  Z1SS   GL                 
      1.93312839E-01    3      1000022         1        -1             # GLSS   -->  Z1SS   DN     DB          
      1.93312839E-01    3      1000022         3        -3             # GLSS   -->  Z1SS   ST     SB          
      9.16411281E-02    3      1000022         5        -5             # GLSS   -->  Z1SS   BT     BB          
      4.18206125E-01    3      1000022         6        -6             # GLSS   -->  Z1SS   TP     TB          
      4.74341614E-05    3      1000023         1        -1             # GLSS   -->  Z2SS   DN     DB          
      4.74341614E-05    3      1000023         3        -3             # GLSS   -->  Z2SS   ST     SB          
      1.74156477E-04    2     -1000002         2                       # GLSS   -->  UBL    UP                 
      1.74156477E-04    2      1000002        -2                       # GLSS   -->  UPL    UB                 
      3.49038055E-05    2     -2000002         2                       # GLSS   -->  UBR    UP                 
      3.49038055E-05    2      2000002        -2                       # GLSS   -->  UPR    UB                 
      5.07096499E-02    2     -1000005         5                       # GLSS   -->  BB1    BT                 
      5.07096499E-02    2      1000005        -5                       # GLSS   -->  BT1    BB                 
#         PDG         Width
DECAY   1000002  3.89969081E-01   # UPL   decays
#          BR          NDA       ID1       ID2       ID3       ID4
      9.03976679E-01    2      1000022         2                       # UPL    -->  Z1SS   UP                 
      3.16902138E-02    2      1000023         2                       # UPL    -->  Z2SS   UP                 
      6.43331110E-02    2      1000024         1                       # UPL    -->  W1SS+  DN                 
#         PDG         Width
DECAY   1000001  3.91434669E-01   # DNL   decays
#          BR          NDA       ID1       ID2       ID3       ID4
      9.03369725E-01    2      1000022         1                       # DNL    -->  Z1SS   DN                 
      3.25076543E-02    2      1000023         1                       # DNL    -->  Z2SS   DN                 
      1.08761895E-04    2      1000021         1                       # DNL    -->  GLSS   DN                 
      6.40138462E-02    2     -1000024         2                       # DNL    -->  W1SS-  UP                 
#         PDG         Width
DECAY   1000003  3.91428649E-01   # STL   decays
#          BR          NDA       ID1       ID2       ID3       ID4
      9.03383672E-01    2      1000022         3                       # STL    -->  Z1SS   ST                 
      3.25081535E-02    2      1000023         3                       # STL    -->  Z2SS   ST                 
      1.08763576E-04    2      1000021         3                       # STL    -->  GLSS   ST                 
      6.39994070E-02    2     -1000024         4                       # STL    -->  W1SS-  CH                 
#         PDG         Width
DECAY   1000004  3.89966160E-01   # CHL   decays
#          BR          NDA       ID1       ID2       ID3       ID4
      9.03983116E-01    2      1000022         4                       # CHL    -->  Z1SS   CH                 
      3.16827931E-02    2      1000023         4                       # CHL    -->  Z2SS   CH                 
      6.43341020E-02    2      1000024         3                       # CHL    -->  W1SS+  ST                 
#         PDG         Width
DECAY   1000005  9.29233134E-01   # BT1   decays
#          BR          NDA       ID1       ID2       ID3       ID4
      9.93645847E-01    2      1000022         5                       # BT1    -->  Z1SS   BT                 
      6.35412335E-03    2      1000023         5                       # BT1    -->  Z2SS   BT                 
#         PDG         Width
DECAY   1000006  2.98188567E+00   # TP1   decays
#          BR          NDA       ID1       ID2       ID3       ID4
      9.82088983E-01    2      1000022         6                       # TP1    -->  Z1SS   TP                 
      1.79110095E-02    2      1000024         5                       # TP1    -->  W1SS+  BT                 
#         PDG         Width
DECAY   2000002  5.64835119E+00   # UPR   decays
#          BR          NDA       ID1       ID2       ID3       ID4
      1.00000000E+00    2      1000022         2                       # UPR    -->  Z1SS   UP                 
#         PDG         Width
DECAY   2000001  1.41230285E+00   # DNR   decays
#          BR          NDA       ID1       ID2       ID3       ID4
      1.00000000E+00    2      1000022         1                       # DNR    -->  Z1SS   DN                 
#         PDG         Width
DECAY   2000003  1.41230285E+00   # STR   decays
#          BR          NDA       ID1       ID2       ID3       ID4
      1.00000000E+00    2      1000022         3                       # STR    -->  Z1SS   ST                 
#         PDG         Width
DECAY   2000004  5.64834881E+00   # CHR   decays
#          BR          NDA       ID1       ID2       ID3       ID4
      1.00000000E+00    2      1000022         4                       # CHR    -->  Z1SS   CH                 
#         PDG         Width
DECAY   2000005  8.58415127E-01   # BT2   decays
#          BR          NDA       ID1       ID2       ID3       ID4
      9.81923997E-01    2      1000022         5                       # BT2    -->  Z1SS   BT                 
      6.79756096E-03    2      1000023         5                       # BT2    -->  Z2SS   BT                 
      4.13185298E-05    2      1000025         5                       # BT2    -->  Z3SS   BT                 
      1.12371230E-02    2      1000021         5                       # BT2    -->  GLSS   BT                 
#         PDG         Width
DECAY   2000006  3.02614522E+00   # TP2   decays
#          BR          NDA       ID1       ID2       ID3       ID4
      5.72364661E-04    2      1000024         5                       # TP2    -->  W1SS+  BT                 
      9.99427617E-01    2      1000022         6                       # TP2    -->  Z1SS   TP                 
#         PDG         Width
DECAY   1000011  3.21449614E+00   # EL-   decays
#          BR          NDA       ID1       ID2       ID3       ID4
      9.88257229E-01    2      1000022        11                       # EL-    -->  Z1SS   E-                 
      4.00887011E-03    2      1000023        11                       # EL-    -->  Z2SS   E-                 
      7.73392199E-03    2     -1000024        12                       # EL-    -->  W1SS-  NUE                
#         PDG         Width
DECAY   1000013  3.21449614E+00   # MUL-  decays
#          BR          NDA       ID1       ID2       ID3       ID4
      9.88257229E-01    2      1000022        13                       # MUL-   -->  Z1SS   MU-                
      4.00886452E-03    2      1000023        13                       # MUL-   -->  Z2SS   MU-                
      7.73392199E-03    2     -1000024        14                       # MUL-   -->  W1SS-  NUM                
#         PDG         Width
DECAY   1000015  5.16058207E-01   # TAU1- decays
#          BR          NDA       ID1       ID2       ID3       ID4
      1.00000000E+00    2      1000022        15                       # TAU1-  -->  Z1SS   TAU-               
#         PDG         Width
DECAY   1000012  3.21491194E+00   # NUEL  decays
#          BR          NDA       ID1       ID2       ID3       ID4
      9.88484204E-01    2      1000022        12                       # NUEL   -->  Z1SS   NUE                
      3.73539003E-03    2      1000023        12                       # NUEL   -->  Z2SS   NUE                
      7.74104055E-03    2      1000024        11                       # NUEL   -->  W1SS+  E-                 
      3.94000053E-05    3     -1000015        11        16             # NUEL   -->  TAU1+  E-     NUT         
#         PDG         Width
DECAY   1000014  3.21491194E+00   # NUML  decays
#          BR          NDA       ID1       ID2       ID3       ID4
      9.88484204E-01    2      1000022        14                       # NUML   -->  Z1SS   NUM                
      3.73539003E-03    2      1000023        14                       # NUML   -->  Z2SS   NUM                
      7.74102937E-03    2      1000024        13                       # NUML   -->  W1SS+  MU-                
      3.94013223E-05    3     -1000015        13        16             # NUML   -->  TAU1+  MU-    NUT         
#         PDG         Width
DECAY   1000016  8.53280053E-02   # NUTL  decays
#          BR          NDA       ID1       ID2       ID3       ID4
      1.00000000E+00    2      1000022        16                       # NUTL   -->  Z1SS   NUT                
#         PDG         Width
DECAY   2000011  1.27119923E+01   # ER-   decays
#          BR          NDA       ID1       ID2       ID3       ID4
      1.00000000E+00    2      1000022        11                       # ER-    -->  Z1SS   E-                 
#         PDG         Width
DECAY   2000013  1.27119923E+01   # MUR-  decays
#          BR          NDA       ID1       ID2       ID3       ID4
      1.00000000E+00    2      1000022        13                       # MUR-   -->  Z1SS   MU-                
#         PDG         Width
DECAY   2000015  1.31802097E-01   # TAU2- decays
#          BR          NDA       ID1       ID2       ID3       ID4
      1.00000000E+00    2      1000022        15                       # TAU2-  -->  Z1SS   TAU-               
#         PDG         Width
DECAY   1000023  1.12563572E+01   # Z2SS  decays
#          BR          NDA       ID1       ID2       ID3       ID4
      2.68681832E-02    2      1000022        23                       # Z2SS   -->  Z1SS   Z0                 
      1.99906845E-05    3      1000022         2        -2             # Z2SS   -->  Z1SS   UP     UB          
      1.96818401E-05    3      1000022         1        -1             # Z2SS   -->  Z1SS   DN     DB          
      1.96818401E-05    3      1000022         3        -3             # Z2SS   -->  Z1SS   ST     SB          
      1.99906608E-05    3      1000022         4        -4             # Z2SS   -->  Z1SS   CH     CB          
      4.42684068E-05    3      1000022         5        -5             # Z2SS   -->  Z1SS   BT     BB          
      6.02919426E-05    3      1000022        11       -11             # Z2SS   -->  Z1SS   E-     E+          
      6.02919426E-05    3      1000022        13       -13             # Z2SS   -->  Z1SS   MU-    MU+         
      5.88251132E-05    3      1000022        12       -12             # Z2SS   -->  Z1SS   NUE    ANUE        
      5.88251132E-05    3      1000022        14       -14             # Z2SS   -->  Z1SS   NUM    ANUM        
      4.17854451E-02    2      1000022        25                       # Z2SS   -->  Z1SS   HL0                
      5.56704123E-03    2      1000015       -15                       # Z2SS   -->  TAU1-  TAU+               
      5.56704123E-03    2     -1000015        15                       # Z2SS   -->  TAU1+  TAU-               
      2.36036181E-01    2      2000015       -15                       # Z2SS   -->  TAU2-  TAU+               
      2.36036181E-01    2     -2000015        15                       # Z2SS   -->  TAU2+  TAU-               
      2.23889023E-01    2      1000016       -16                       # Z2SS   -->  NUTL   ANUT               
      2.23889023E-01    2     -1000016        16                       # Z2SS   -->  ANUTL  NUT                
#         PDG         Width
DECAY   1000025  2.11217594E+00   # Z3SS  decays
#          BR          NDA       ID1       ID2       ID3       ID4
      1.50948923E-04    3     -1000024         2        -1             # Z3SS   -->  W1SS-  UP     DB          
      5.03163101E-05    3     -1000024        12       -11             # Z3SS   -->  W1SS-  NUE    E+          
      5.03163101E-05    3     -1000024        14       -13             # Z3SS   -->  W1SS-  NUM    MU+         
      1.50948923E-04    3      1000024         1        -2             # Z3SS   -->  W1SS+  DN     UB          
      5.03163101E-05    3      1000024        11       -12             # Z3SS   -->  W1SS+  E-     ANUE        
      5.03163101E-05    3      1000024        13       -14             # Z3SS   -->  W1SS+  MU-    ANUM        
      1.50948923E-04    3     -1000024         4        -3             # Z3SS   -->  W1SS-  CH     SB          
      5.03163101E-05    3     -1000024        16       -15             # Z3SS   -->  W1SS-  NUT    TAU+        
      1.50948923E-04    3      1000024         3        -4             # Z3SS   -->  W1SS+  ST     CB          
      5.03163101E-05    3      1000024        15       -16             # Z3SS   -->  W1SS+  TAU-   ANUT        
      4.64197159E-01    2      1000022        23                       # Z3SS   -->  Z1SS   Z0                 
      2.25162657E-04    3      1000022         5        -5             # Z3SS   -->  Z1SS   BT     BB          
      2.09809677E-05    3      1000022        15       -15             # Z3SS   -->  Z1SS   TAU-   TAU+        
      3.87656546E-05    3      1000023         2        -2             # Z3SS   -->  Z2SS   UP     UB          
      4.99885718E-05    3      1000023         1        -1             # Z3SS   -->  Z2SS   DN     DB          
      4.99885718E-05    3      1000023         3        -3             # Z3SS   -->  Z2SS   ST     SB          
      3.87656546E-05    3      1000023         4        -4             # Z3SS   -->  Z2SS   CH     CB          
      4.69500046E-05    3      1000023         5        -5             # Z3SS   -->  Z2SS   BT     BB          
      1.13398819E-05    3      1000023        11       -11             # Z3SS   -->  Z2SS   E-     E+          
      1.13398819E-05    3      1000023        13       -13             # Z3SS   -->  Z2SS   MU-    MU+         
      1.12305652E-05    3      1000023        15       -15             # Z3SS   -->  Z2SS   TAU-   TAU+        
      2.25627955E-05    3      1000023        12       -12             # Z3SS   -->  Z2SS   NUE    ANUE        
      2.25627955E-05    3      1000023        14       -14             # Z3SS   -->  Z2SS   NUM    ANUM        
      2.25627955E-05    3      1000023        16       -16             # Z3SS   -->  Z2SS   NUT    ANUT        
      2.95818090E-01    2      1000022        25                       # Z3SS   -->  Z1SS   HL0                
      2.66119750E-05    2      1000005        -5                       # Z3SS   -->  BT1    BB                 
      2.66119750E-05    2     -1000005         5                       # Z3SS   -->  BB1    BT                 
      5.94571568E-02    2      1000015       -15                       # Z3SS   -->  TAU1-  TAU+               
      5.94571568E-02    2     -1000015        15                       # Z3SS   -->  TAU1+  TAU-               
      5.91097474E-02    2      2000015       -15                       # Z3SS   -->  TAU2-  TAU+               
      5.91097474E-02    2     -2000015        15                       # Z3SS   -->  TAU2+  TAU-               
      6.59912766E-04    2      1000016       -16                       # Z3SS   -->  NUTL   ANUT               
      6.59912766E-04    2     -1000016        16                       # Z3SS   -->  ANUTL  NUT                
#         PDG         Width
DECAY   1000035  1.31148338E+01   # Z4SS  decays
#          BR          NDA       ID1       ID2       ID3       ID4
      3.96206044E-02    2      1000024       -24                       # Z4SS   -->  W1SS+  W-                 
      3.96206044E-02    2     -1000024        24                       # Z4SS   -->  W1SS-  W+                 
      2.54377350E-02    2      1000022        23                       # Z4SS   -->  Z1SS   Z0                 
      3.76179181E-02    2      1000022        25                       # Z4SS   -->  Z1SS   HL0                
      3.61920902E-05    2      1000022        35                       # Z4SS   -->  Z1SS   HH0                
      5.06969300E-05    2      1000022        36                       # Z4SS   -->  Z1SS   HA0                
      1.46156107E-03    2      1000002        -2                       # Z4SS   -->  UPL    UB                 
      1.46156107E-03    2     -1000002         2                       # Z4SS   -->  UBL    UP                 
      1.41906459E-03    2      1000001        -1                       # Z4SS   -->  DNL    DB                 
      1.41906459E-03    2     -1000001         1                       # Z4SS   -->  DBL    DN                 
      1.41905749E-03    2      1000003        -3                       # Z4SS   -->  STL    SB                 
      1.41905749E-03    2     -1000003         3                       # Z4SS   -->  SBL    ST                 
      1.46122335E-03    2      1000004        -4                       # Z4SS   -->  CHL    CB                 
      1.46122335E-03    2     -1000004         4                       # Z4SS   -->  CBL    CH                 
      6.26061170E-04    2      1000005        -5                       # Z4SS   -->  BT1    BB                 
      6.26061170E-04    2     -1000005         5                       # Z4SS   -->  BB1    BT                 
      6.81179226E-04    2      2000005        -5                       # Z4SS   -->  BT2    BB                 
      6.81179226E-04    2     -2000005         5                       # Z4SS   -->  BB2    BT                 
      4.67417034E-04    2      1000011       -11                       # Z4SS   -->  EL-    E+                 
      4.67417034E-04    2     -1000011        11                       # Z4SS   -->  EL+    E-                 
      4.67416365E-04    2      1000013       -13                       # Z4SS   -->  MUL-   MU+                
      4.67416365E-04    2     -1000013        13                       # Z4SS   -->  MUL+   MU-                
      4.82517667E-03    2      1000015       -15                       # Z4SS   -->  TAU1-  TAU+               
      4.82517667E-03    2     -1000015        15                       # Z4SS   -->  TAU1+  TAU-               
      2.06576869E-01    2      2000015       -15                       # Z4SS   -->  TAU2-  TAU+               
      2.06576869E-01    2     -2000015        15                       # Z4SS   -->  TAU2+  TAU-               
      5.00859809E-04    2      1000012       -12                       # Z4SS   -->  NUEL   ANUE               
      5.00859809E-04    2     -1000012        12                       # Z4SS   -->  ANUEL  NUE                
      5.00859809E-04    2      1000014       -14                       # Z4SS   -->  NUML   ANUM               
      5.00859809E-04    2     -1000014        14                       # Z4SS   -->  ANUML  NUM                
      2.08401382E-01    2      1000016       -16                       # Z4SS   -->  NUTL   ANUT               
      2.08401382E-01    2     -1000016        16                       # Z4SS   -->  ANUTL  NUT                
#         PDG         Width
DECAY   1000024  1.12567749E+01   # W1SS+ decays
#          BR          NDA       ID1       ID2       ID3       ID4
      3.96592186E-05    3      1000022         2        -1             # W1SS+  -->  Z1SS   UP     DB          
      3.96591931E-05    3      1000022         4        -3             # W1SS+  -->  Z1SS   CH     SB          
      1.19133365E-04    3      1000022       -11        12             # W1SS+  -->  Z1SS   E+     NUE         
      1.19133365E-04    3      1000022       -13        14             # W1SS+  -->  Z1SS   MU+    NUM         
      6.83945492E-02    2      1000022        24                       # W1SS+  -->  Z1SS   W+                 
      4.75501299E-01    2      1000016       -15                       # W1SS+  -->  NUTL   TAU+               
      1.10248001E-02    2     -1000015        16                       # W1SS+  -->  TAU1+  NUT                
      4.44761753E-01    2     -2000015        16                       # W1SS+  -->  TAU2+  NUT                
#         PDG         Width
DECAY   1000037  1.29943419E+01   # W2SS+ decays
#          BR          NDA       ID1       ID2       ID3       ID4
      6.34224042E-02    2      1000022        24                       # W2SS+  -->  Z1SS   W+                 
      5.53228456E-05    2      1000022        37                       # W2SS+  -->  Z1SS   H+                 
      3.99728417E-02    2      1000023        24                       # W2SS+  -->  Z2SS   W+                 
      2.30756395E-05    3      1000025         2        -1             # W2SS+  -->  Z3SS   UP     DB          
      2.30756395E-05    3      1000025         4        -3             # W2SS+  -->  Z3SS   CH     SB          
      2.90625542E-03    2      1000002        -1                       # W2SS+  -->  UPL    DB                 
      2.91007152E-03    2     -1000001         2                       # W2SS+  -->  DBL    UP                 
      2.90621677E-03    2      1000004        -3                       # W2SS+  -->  CHL    SB                 
      3.02639976E-03    2     -1000003         4                       # W2SS+  -->  SBL    CH                 
      1.65079895E-04    2      1000006        -5                       # W2SS+  -->  TP1    BB                 
      4.95437067E-03    2      2000006        -5                       # W2SS+  -->  TP2    BB                 
      9.76385607E-04    2      1000012       -11                       # W2SS+  -->  NUEL   E+                 
      9.76384385E-04    2      1000014       -13                       # W2SS+  -->  NUML   MU+                
      4.15398449E-01    2      1000016       -15                       # W2SS+  -->  NUTL   TAU+               
      9.77816992E-04    2     -1000011        12                       # W2SS+  -->  EL+    NUE                
      9.77816992E-04    2     -1000013        14                       # W2SS+  -->  MUL+   NUM                
      9.65395290E-03    2     -1000015        16                       # W2SS+  -->  TAU1+  NUT                
      4.21961516E-01    2     -2000015        16                       # W2SS+  -->  TAU2+  NUT                
      2.87125837E-02    2      1000024        23                       # W2SS+  -->  W1SS+  Z0                 
#         PDG         Width
DECAY        25  3.96627560E-03   # HL0   decays
#          BR          NDA       ID1       ID2       ID3       ID4
      2.06282421E-04    2           13       -13                       # HL0    -->  MU-    MU+                
      5.89955524E-02    2           15       -15                       # HL0    -->  TAU-   TAU+               
      2.47822772E-03    2            3        -3                       # HL0    -->  ST     SB                 
      8.14140022E-01    2            5        -5                       # HL0    -->  BT     BB                 
      3.67867127E-02    2            4        -4                       # HL0    -->  CH     CB                 
      1.77655602E-03    2           22        22                       # HL0    -->  GM     GM                 
      3.86096388E-02    2           21        21                       # HL0    -->  GL     GL                 
      2.40738736E-03    3           24        11       -12             # HL0    -->  W+     E-     ANUE        
      2.40738736E-03    3           24        13       -14             # HL0    -->  W+     MU-    ANUM        
      2.40738736E-03    3           24        15       -16             # HL0    -->  W+     TAU-   ANUT        
      7.22216209E-03    3           24        -2         1             # HL0    -->  W+     UB     DN          
      7.22216209E-03    3           24        -4         3             # HL0    -->  W+     CB     ST          
      2.40738736E-03    3          -24       -11        12             # HL0    -->  W-     E+     NUE         
      2.40738736E-03    3          -24       -13        14             # HL0    -->  W-     MU+    NUM         
      2.40738736E-03    3          -24       -15        16             # HL0    -->  W-     TAU+   NUT         
      7.22216209E-03    3          -24         2        -1             # HL0    -->  W-     UP     DB          
      7.22216209E-03    3          -24         4        -3             # HL0    -->  W-     CH     SB          
      1.96944136E-04    3           23        12       -12             # HL0    -->  Z0     NUE    ANUE        
      1.96944136E-04    3           23        14       -14             # HL0    -->  Z0     NUM    ANUM        
      1.96944136E-04    3           23        16       -16             # HL0    -->  Z0     NUT    ANUT        
      9.91200068E-05    3           23        11       -11             # HL0    -->  Z0     E-     E+          
      9.91200068E-05    3           23        13       -13             # HL0    -->  Z0     MU-    MU+         
      9.91200068E-05    3           23        15       -15             # HL0    -->  Z0     TAU-   TAU+        
      3.39576742E-04    3           23         2        -2             # HL0    -->  Z0     UP     UB          
      3.39576742E-04    3           23         4        -4             # HL0    -->  Z0     CH     CB          
      4.37458511E-04    3           23         1        -1             # HL0    -->  Z0     DN     DB          
      4.37458511E-04    3           23         3        -3             # HL0    -->  Z0     ST     SB          
      4.37458511E-04    3           23         5        -5             # HL0    -->  Z0     BT     BB          
      7.94292777E-04    2      1000022   1000022                       # HL0    -->  Z1SS   Z1SS               
#         PDG         Width
DECAY        35  5.81883011E+01   # HH0   decays
#          BR          NDA       ID1       ID2       ID3       ID4
      3.10297582E-05    2           13       -13                       # HH0    -->  MU-    MU+                
      8.88737105E-03    2           15       -15                       # HH0    -->  TAU-   TAU+               
      3.61235871E-04    2            3        -3                       # HH0    -->  ST     SB                 
      8.03421289E-02    2            5        -5                       # HH0    -->  BT     BB                 
      1.88864190E-02    2            6        -6                       # HH0    -->  TP     TB                 
      3.30304320E-05    2      1000022   1000022                       # HH0    -->  Z1SS   Z1SS               
      3.37825622E-05    2      1000022   1000023                       # HH0    -->  Z1SS   Z2SS               
      3.60289305E-05    2           25        25                       # HH0    -->  HL0    HL0                
      4.45694476E-01    2      1000015  -2000015                       # HH0    -->  TAU1-  TAU2+              
      4.45694476E-01    2      2000015  -1000015                       # HH0    -->  TAU2-  TAU1+              
#         PDG         Width
DECAY        36  5.84988098E+01   # HA0   decays
#          BR          NDA       ID1       ID2       ID3       ID4
      3.06641268E-05    2           13       -13                       # HA0    -->  MU-    MU+                
      8.78266618E-03    2           15       -15                       # HA0    -->  TAU-   TAU+               
      3.56995733E-04    2            3        -3                       # HA0    -->  ST     SB                 
      7.94560164E-02    2            5        -5                       # HA0    -->  BT     BB                 
      1.88240446E-02    2            6        -6                       # HA0    -->  TP     TB                 
      3.40911065E-05    2      1000022   1000022                       # HA0    -->  Z1SS   Z1SS               
      5.32034028E-05    2      1000022   1000023                       # HA0    -->  Z1SS   Z2SS               
      4.46231157E-01    2      1000015  -2000015                       # HA0    -->  TAU1-  TAU2+              
      4.46231157E-01    2      2000015  -1000015                       # HA0    -->  TAU2-  TAU1+              
#         PDG         Width
DECAY        37  5.77493057E+01   # H+    decays
#          BR          NDA       ID1       ID2       ID3       ID4
      3.12822885E-05    2           14       -13                       # H+     -->  NUM    MU+                
      8.95971898E-03    2           16       -15                       # H+     -->  NUT    TAU+               
      3.37429985E-04    2            4        -3                       # H+     -->  CH     SB                 
      9.19155329E-02    2            6        -5                       # H+     -->  TP     BB                 
      1.20217257E-04    2      1000024   1000022                       # H+     -->  W1SS+  Z1SS               
      8.98635864E-01    2     -1000015   1000016                       # H+     -->  TAU1+  NUTL               
