#
#                              ======================
#                              | THE SUSYHIT OUTPUT |
#                              ======================
#
#
#              ------------------------------------------------------
#              |     This is the output of the SUSY-HIT package     |
#              |  created by A.Djouadi, M.Muehlleitner and M.Spira. |
#              |  In case of problems with SUSY-HIT email to        |
#              |           margarete.muehlleitner@kit.edu           |
#              |           michael.spira@psi.ch                     |
#              |           abdelhak.djouadi@cern.ch                 |
#              ------------------------------------------------------
#
#              ------------------------------------------------------
#              |  SUSY Les Houches Accord - MSSM Spectrum + Decays  |
#              |              based on the decay programs           |
#              |                                                    |
#              |                     SDECAY 1.5a                    |
#              |                                                    |
#              |  Authors: M.Muhlleitner, A.Djouadi and Y.Mambrini  |
#              |  Ref.:    Comput.Phys.Commun.168(2005)46           |
#              |           [hep-ph/0311167]                         |
#              |                                                    |
#              |                     HDECAY 3.4                     |
#              |                                                    |
#              |  By: A.Djouadi,J.Kalinowski,M.Muhlleitner,M.Spira  |
#              |  Ref.:    Comput.Phys.Commun.108(1998)56           |
#              |           [hep-ph/9704448]                         |
#              |                                                    |
#              |                                                    |
#              |  If not stated otherwise all DRbar couplings and   |
#              |  soft SUSY breaking masses are given at the scale  |
#              |  Q=  0.91187600E+02
#              |                                                    |
#              ------------------------------------------------------
#
#
BLOCK DCINFO  # Decay Program information
     1   SDECAY/HDECAY # decay calculator
     2   1.5a /3.4    # version number
#
BLOCK SPINFO  # Spectrum calculator information
     1   SuSpect     # RGE +Spectrum calculator            
     2   2.43         # version number                     
#
BLOCK MODSEL  # Model selection
     1     2   # GMSB                                              
#
BLOCK SMINPUTS  # Standard Model inputs
         1     1.27932904E+02   # alpha_em^-1(M_Z)^MSbar
         2     1.16639000E-05   # G_F [GeV^-2]
         3     1.17200000E-01   # alpha_S(M_Z)^MSbar
         4     9.11870000E+01   # M_Z pole mass
         5     4.25000000E+00   # mb(mb)^MSbar
         6     1.72900000E+02   # mt pole mass
         7     1.77700000E+00   # mtau pole mass
#
BLOCK MINPAR  # Input parameters - minimal models
#
BLOCK EXTPAR  # Input parameters - non-minimal models
         0     9.11876000E+01   # EWSB                
         1     2.36958918E+02   # M_1                 
         2     3.00000000E+03   # M_2                 
         3     2.80000000E+03   # M_3                 
        11     0.00000000E+00   # A_t                 
        12     0.00000000E+00   # A_b                 
        13     0.00000000E+00   # A_tau               
        14     0.00000000E+00   # A_u                 
        15     0.00000000E+00   # A_d                 
        16     0.00000000E+00   # A_e                 
        23    -1.50000000E+02   # mu(EWSB)            
        25     1.50000000E+00   # tanbeta(in)         
        26     2.00000000E+03   # MA_pole             
        31     5.00000000E+03   # M_eL                
        32     5.00000000E+03   # M_muL               
        33     5.00000000E+03   # M_tauL              
        34     5.00000000E+03   # M_eR                
        35     5.00000000E+03   # M_muR               
        36     5.00000000E+03   # M_tauR              
        41     5.00000000E+03   # M_q1L               
        42     5.00000000E+03   # M_q2L               
        43     5.00000000E+03   # M_q3L               
        44     5.00000000E+03   # M_uR                
        45     5.00000000E+03   # M_cR                
        46     5.00000000E+03   # M_tR                
        47     5.00000000E+03   # M_dR                
        48     5.00000000E+03   # M_sR                
        49     5.00000000E+03   # M_bR                
#
BLOCK MASS  # Mass Spectrum
# PDG code           mass       particle
        24     8.05368951E+01   # W+
        25     1.25000000E+02   # h
        35     2.00415613E+03   # H
        36     2.00000000E+03   # A
        37     2.00200622E+03   # H+
         5     4.87877839E+00   # b-quark pole mass calculated from mb(mb)_Msbar
   1000001     5.00013334E+03   # ~d_L
   2000001     5.00002532E+03   # ~d_R
   1000002     4.99989198E+03   # ~u_L
   2000002     4.99994936E+03   # ~u_R
   1000003     5.00013334E+03   # ~s_L
   2000003     5.00002532E+03   # ~s_R
   1000004     4.99989198E+03   # ~c_L
   2000004     4.99994936E+03   # ~c_R
   1000005     4.99999892E+03   # ~b_1
   2000005     5.00016118E+03   # ~b_2
   1000006     5.00071468E+03   # ~t_1
   2000006     5.00375771E+03   # ~t_2
   1000011     5.00008270E+03   # ~e_L
   2000011     5.00007595E+03   # ~e_R
   1000012     4.99984134E+03   # ~nu_eL
   1000013     5.00008270E+03   # ~mu_L
   2000013     5.00007595E+03   # ~mu_R
   1000014     4.99984134E+03   # ~nu_muL
   1000015     5.00003952E+03   # ~tau_1
   2000015     5.00011976E+03   # ~tau_2
   1000016     4.99984134E+03   # ~nu_tauL
   1000021     2.80000000E+03   # ~g
   1000022     1.49120443E+02   # ~chi_10
   1000023    -1.56740367E+02   # ~chi_20
   1000025     2.42579449E+02   # ~chi_30
   1000035     3.00199939E+03   # ~chi_40
   1000024     1.51829678E+02   # ~chi_1+
   1000037     3.00199905E+03   # ~chi_2+
   1000039     1.00000000E-09   # ~gravitino
#
BLOCK NMIX  # Neutralino Mixing Matrix
  1  1     9.15265648E-02   # N_11
  1  2    -5.02702272E-03   # N_12
  1  3    -7.14405007E-01   # N_13
  1  4    -6.93702460E-01   # N_14
  2  1     1.10071676E-01   # N_21
  2  2    -2.44714167E-02   # N_22
  2  3     6.99502549E-01   # N_23
  2  4    -7.05678085E-01   # N_24
  3  1     9.89700434E-01   # N_31
  3  2     3.59613432E-03   # N_32
  3  3    -1.17236264E-02   # N_33
  3  4     1.42627749E-01   # N_34
  4  1     4.05508896E-04   # N_41
  4  2    -9.99681423E-01   # N_42
  4  3    -1.35729720E-02   # N_43
  4  4     2.12758871E-02   # N_44
#
BLOCK UMIX  # Chargino Mixing Matrix U
  1  1    -1.91877239E-02   # U_11
  1  2     9.99815899E-01   # U_12
  2  1     9.99815899E-01   # U_21
  2  2     1.91877239E-02   # U_22
#
BLOCK VMIX  # Chargino Mixing Matrix V
  1  1     3.00861313E-02   # V_11
  1  2    -9.99547310E-01   # V_12
  2  1     9.99547310E-01   # V_21
  2  2     3.00861313E-02   # V_22
#
BLOCK STOPMIX  # Stop Mixing Matrix
  1  1     7.13739860E-01   # cos(theta_t)
  1  2    -7.00410888E-01   # sin(theta_t)
  2  1     7.00410888E-01   # -sin(theta_t)
  2  2     7.13739860E-01   # cos(theta_t)
#
BLOCK SBOTMIX  # Sbottom Mixing Matrix
  1  1    -4.08813549E-01   # cos(theta_b)
  1  2     9.12617928E-01   # sin(theta_b)
  2  1    -9.12617928E-01   # -sin(theta_b)
  2  2    -4.08813549E-01   # cos(theta_b)
#
BLOCK STAUMIX  # Stau Mixing Matrix
  1  1    -6.76715067E-01   # cos(theta_tau)
  1  2     7.36245012E-01   # sin(theta_tau)
  2  1    -7.36245012E-01   # -sin(theta_tau)
  2  2    -6.76715067E-01   # cos(theta_tau)
#
BLOCK ALPHA  # Higgs mixing
          -5.90209908E-01   # Mixing angle in the neutral Higgs boson sector
#
BLOCK HMIX Q=  9.11876000E+01  # DRbar Higgs Parameters
         1    -1.50000000E+02   # mu(Q)               
         2     1.49999979E+00   # tanbeta(Q)          
         3     2.51672474E+02   # vev(Q)              
         4     4.00175162E+06   # MA^2(Q)             
#
BLOCK GAUGE Q=  9.11876000E+01  # The gauge couplings
     1     3.53144484E-01   # gprime(Q) DRbar
     2     6.29520963E-01   # g(Q) DRbar
     3     1.07510983E+00   # g3(Q) DRbar
#
BLOCK AU Q=  9.11876000E+01  # The trilinear couplings
  1  1     0.00000000E+00   # A_u(Q) DRbar
  2  2     0.00000000E+00   # A_c(Q) DRbar
  3  3     0.00000000E+00   # A_t(Q) DRbar
#
BLOCK AD Q=  9.11876000E+01  # The trilinear couplings
  1  1     0.00000000E+00   # A_d(Q) DRbar
  2  2     0.00000000E+00   # A_s(Q) DRbar
  3  3     0.00000000E+00   # A_b(Q) DRbar
#
BLOCK AE Q=  9.11876000E+01  # The trilinear couplings
  1  1     0.00000000E+00   # A_e(Q) DRbar
  2  2     0.00000000E+00   # A_mu(Q) DRbar
  3  3     0.00000000E+00   # A_tau(Q) DRbar
#
BLOCK Yu Q=  9.11876000E+01  # The Yukawa couplings
  1  1     0.00000000E+00   # y_u(Q) DRbar
  2  2     0.00000000E+00   # y_c(Q) DRbar
  3  3     1.02783307E+00   # y_t(Q) DRbar
#
BLOCK Yd Q=  9.11876000E+01  # The Yukawa couplings
  1  1     0.00000000E+00   # y_d(Q) DRbar
  2  2     0.00000000E+00   # y_s(Q) DRbar
  3  3     2.72550832E-02   # y_b(Q) DRbar
#
BLOCK Ye Q=  9.11876000E+01  # The Yukawa couplings
  1  1     0.00000000E+00   # y_e(Q) DRbar
  2  2     0.00000000E+00   # y_mu(Q) DRbar
  3  3     1.79990203E-02   # y_tau(Q) DRbar
#
BLOCK MSOFT Q=  9.11876000E+01  # The soft SUSY breaking masses at the scale Q
         1     2.36958918E+02   # M_1                 
         2     3.00000000E+03   # M_2                 
         3     2.80000000E+03   # M_3                 
        14     0.00000000E+00   # A_u                 
        15     0.00000000E+00   # A_d                 
        16     0.00000000E+00   # A_e                 
        21     3.04116887E+06   # M^2_Hd              
        22    -5.30312065E+06   # M^2_Hu              
        31     5.00000000E+03   # M_eL                
        32     5.00000000E+03   # M_muL               
        33     5.00000000E+03   # M_tauL              
        34     5.00000000E+03   # M_eR                
        35     5.00000000E+03   # M_muR               
        36     5.00000000E+03   # M_tauR              
        41     5.00000000E+03   # M_q1L               
        42     5.00000000E+03   # M_q2L               
        43     5.00000000E+03   # M_q3L               
        44     5.00000000E+03   # M_uR                
        45     5.00000000E+03   # M_cR                
        46     5.00000000E+03   # M_tR                
        47     5.00000000E+03   # M_dR                
        48     5.00000000E+03   # M_sR                
        49     5.00000000E+03   # M_bR                
#
#
#
#                             =================
#                             |The decay table|
#                             =================
#
# - The QCD corrections to the decays gluino -> squark  + quark
#                                     squark -> gaugino + quark_prime
#                                     squark -> squark_prime + Higgs
#                                     squark -> gluino  + quark
#   are included.
#
# - The multi-body decays for the inos, stops and sbottoms are included.
#
# - The loop induced decays for the gluino, neutralinos and stops
#   are included.
#
# - The SUSY decays of the top quark are included.
#
# - Possible decays of the NLSP in GMSB models are included.
#
#
#         PDG            Width
DECAY         6     1.38093590E+00   # top decays
#          BR         NDA      ID1       ID2
     1.00000000E+00    2           5        24   # BR(t ->  b    W+)
#
#         PDG            Width
DECAY   1000021     2.85780699E-02   # gluino decays
#          BR         NDA      ID1       ID2
     3.40635651E-03    2     1000022        21   # BR(~g -> ~chi_10 g)
     3.49885646E-03    2     1000023        21   # BR(~g -> ~chi_20 g)
     1.38974086E-04    2     1000025        21   # BR(~g -> ~chi_30 g)
#          BR         NDA      ID1       ID2
     0.00000000E+00    2     1000039        21   # BR(~g -> ~G      g)
#           BR         NDA      ID1       ID2       ID3
     5.46748771E-05    3     1000022         1        -1   # BR(~g -> ~chi_10 d  db)
     1.01466098E-04    3     1000023         1        -1   # BR(~g -> ~chi_20 d  db)
     5.65886309E-03    3     1000025         1        -1   # BR(~g -> ~chi_30 d  db)
     1.59007049E-04    3     1000022         2        -2   # BR(~g -> ~chi_10 u  ub)
     1.85097826E-04    3     1000023         2        -2   # BR(~g -> ~chi_20 u  ub)
     1.94359414E-02    3     1000025         2        -2   # BR(~g -> ~chi_30 u  ub)
     5.46748771E-05    3     1000022         3        -3   # BR(~g -> ~chi_10 s  sb)
     1.01466098E-04    3     1000023         3        -3   # BR(~g -> ~chi_20 s  sb)
     5.65886309E-03    3     1000025         3        -3   # BR(~g -> ~chi_30 s  sb)
     1.59007049E-04    3     1000022         4        -4   # BR(~g -> ~chi_10 c  cb)
     1.85097826E-04    3     1000023         4        -4   # BR(~g -> ~chi_20 c  cb)
     1.94359414E-02    3     1000025         4        -4   # BR(~g -> ~chi_30 c  cb)
     2.29015632E-04    3     1000022         5        -5   # BR(~g -> ~chi_10 b  bb)
     2.64267540E-04    3     1000023         5        -5   # BR(~g -> ~chi_20 b  bb)
     5.65895829E-03    3     1000025         5        -5   # BR(~g -> ~chi_30 b  bb)
     2.15078012E-01    3     1000022         6        -6   # BR(~g -> ~chi_10 t  tb)
     2.20008675E-01    3     1000023         6        -6   # BR(~g -> ~chi_20 t  tb)
     3.07388566E-02    3     1000025         6        -6   # BR(~g -> ~chi_30 t  tb)
     3.51785928E-05    3     1000024         1        -2   # BR(~g -> ~chi_1+ d  ub)
     3.51785928E-05    3    -1000024         2        -1   # BR(~g -> ~chi_1- u  db)
     3.51785928E-05    3     1000024         3        -4   # BR(~g -> ~chi_1+ s  cb)
     3.51785928E-05    3    -1000024         4        -3   # BR(~g -> ~chi_1- c  sb)
     2.31356927E-01    3     1000024         5        -6   # BR(~g -> ~chi_1+ b  tb)
     2.31356927E-01    3    -1000024         6        -5   # BR(~g -> ~chi_1- t  bb)
#
#         PDG            Width
DECAY   1000006     2.50185762E+02   # stop1 decays
#          BR         NDA      ID1       ID2
     1.32135969E-01    2     1000022         6   # BR(~t_1 -> ~chi_10 t )
     1.33312961E-01    2     1000023         6   # BR(~t_1 -> ~chi_20 t )
     4.14566270E-02    2     1000025         6   # BR(~t_1 -> ~chi_30 t )
     1.52474157E-02    2     1000035         6   # BR(~t_1 -> ~chi_40 t )
     1.59783982E-01    2     1000024         5   # BR(~t_1 -> ~chi_1+ b )
     3.04351720E-02    2     1000037         5   # BR(~t_1 -> ~chi_2+ b )
     4.87627873E-01    2     1000021         6   # BR(~t_1 -> ~g      t )
#
#         PDG            Width
DECAY   2000006     2.55380280E+02   # stop2 decays
#          BR         NDA      ID1       ID2
     1.41345211E-01    2     1000022         6   # BR(~t_2 -> ~chi_10 t )
     1.49766797E-01    2     1000023         6   # BR(~t_2 -> ~chi_20 t )
     1.36672555E-02    2     1000025         6   # BR(~t_2 -> ~chi_30 t )
     1.57411883E-02    2     1000035         6   # BR(~t_2 -> ~chi_40 t )
     1.24880471E-01    2     1000024         5   # BR(~t_2 -> ~chi_1+ b )
     3.13977282E-02    2     1000037         5   # BR(~t_2 -> ~chi_2+ b )
     5.23201350E-01    2     1000021         6   # BR(~t_2 -> ~g      t )
#
#         PDG            Width
DECAY   1000005     2.53412820E+02   # sbottom1 decays
#          BR         NDA      ID1       ID2
     5.43102620E-04    2     1000022         5   # BR(~b_1 -> ~chi_10 b )
    -3.60962624E-04    2     1000023         5   # BR(~b_1 -> ~chi_20 b )
     2.07856223E-03    2     1000025         5   # BR(~b_1 -> ~chi_30 b )
     3.22382472E-02    2     1000035         5   # BR(~b_1 -> ~chi_40 b )
     3.97792333E-01    2    -1000024         6   # BR(~b_1 -> ~chi_1- t )
     6.46639209E-02    2    -1000037         6   # BR(~b_1 -> ~chi_2- t )
     5.03044797E-01    2     1000021         5   # BR(~b_1 -> ~g      b )
#
#         PDG            Width
DECAY   2000005     1.00969097E+02   # sbottom2 decays
#          BR         NDA      ID1       ID2
    -5.42645184E-04    2     1000022         5   # BR(~b_2 -> ~chi_10 b )
     2.08886892E-03    2     1000023         5   # BR(~b_2 -> ~chi_20 b )
     2.63903949E-02    2     1000025         5   # BR(~b_2 -> ~chi_30 b )
    -3.69556627E-03    2     1000035         5   # BR(~b_2 -> ~chi_40 b )
    -2.87963389E-01    2    -1000024         6   # BR(~b_2 -> ~chi_1- t )
    -7.49985946E-03    2    -1000037         6   # BR(~b_2 -> ~chi_2- t )
     1.27122220E+00    2     1000021         5   # BR(~b_2 -> ~g      b )
#
#         PDG            Width
DECAY   1000002     1.51987821E+02   # sup_L decays
#          BR         NDA      ID1       ID2
     1.80994011E-05    2     1000022         2   # BR(~u_L -> ~chi_10 u)
     1.87322044E-06    2     1000023         2   # BR(~u_L -> ~chi_20 u)
     4.39789427E-03    2     1000025         2   # BR(~u_L -> ~chi_30 u)
     5.12776984E-02    2     1000035         2   # BR(~u_L -> ~chi_40 u)
     2.24244179E-04    2     1000024         1   # BR(~u_L -> ~chi_1+ d)
     1.02543463E-01    2     1000037         1   # BR(~u_L -> ~chi_2+ d)
     8.41536727E-01    2     1000021         2   # BR(~u_L -> ~g      u)
#
#         PDG            Width
DECAY   2000002     1.38414435E+02   # sup_R decays
#          BR         NDA      ID1       ID2
     6.37485862E-04    2     1000022         2   # BR(~u_R -> ~chi_10 u)
     9.21850795E-04    2     1000023         2   # BR(~u_R -> ~chi_20 u)
     7.43500136E-02    2     1000025         2   # BR(~u_R -> ~chi_30 u)
     5.18414847E-09    2     1000035         2   # BR(~u_R -> ~chi_40 u)
     9.24090645E-01    2     1000021         2   # BR(~u_R -> ~g      u)
#
#         PDG            Width
DECAY   1000001     1.51993908E+02   # sdown_L decays
#          BR         NDA      ID1       ID2
     6.07305205E-05    2     1000022         1   # BR(~d_L -> ~chi_10 d)
     2.51410197E-04    2     1000023         1   # BR(~d_L -> ~chi_20 d)
     4.06900764E-03    2     1000025         1   # BR(~d_L -> ~chi_30 d)
     5.12992290E-02    2     1000035         1   # BR(~d_L -> ~chi_40 d)
     9.12094052E-05    2    -1000024         2   # BR(~d_L -> ~chi_1- u)
     1.02610522E-01    2    -1000037         2   # BR(~d_L -> ~chi_2- u)
     8.41617891E-01    2     1000021         1   # BR(~d_L -> ~g      d)
#
#         PDG            Width
DECAY   2000001     1.30539758E+02   # sdown_R decays
#          BR         NDA      ID1       ID2
     1.68988032E-04    2     1000022         1   # BR(~d_R -> ~chi_10 d)
     2.44368952E-04    2     1000023         1   # BR(~d_R -> ~chi_20 d)
     1.97090856E-02    2     1000025         1   # BR(~d_R -> ~chi_30 d)
     1.37428689E-09    2     1000035         1   # BR(~d_R -> ~chi_40 d)
     9.79877556E-01    2     1000021         1   # BR(~d_R -> ~g      d)
#
#         PDG            Width
DECAY   1000004     1.51987821E+02   # scharm_L decays
#          BR         NDA      ID1       ID2
     1.80994011E-05    2     1000022         4   # BR(~c_L -> ~chi_10 c)
     1.87322044E-06    2     1000023         4   # BR(~c_L -> ~chi_20 c)
     4.39789427E-03    2     1000025         4   # BR(~c_L -> ~chi_30 c)
     5.12776984E-02    2     1000035         4   # BR(~c_L -> ~chi_40 c)
     2.24244179E-04    2     1000024         3   # BR(~c_L -> ~chi_1+ s)
     1.02543463E-01    2     1000037         3   # BR(~c_L -> ~chi_2+ s)
     8.41536727E-01    2     1000021         4   # BR(~c_L -> ~g      c)
#
#         PDG            Width
DECAY   2000004     1.38414435E+02   # scharm_R decays
#          BR         NDA      ID1       ID2
     6.37485862E-04    2     1000022         4   # BR(~c_R -> ~chi_10 c)
     9.21850795E-04    2     1000023         4   # BR(~c_R -> ~chi_20 c)
     7.43500136E-02    2     1000025         4   # BR(~c_R -> ~chi_30 c)
     5.18414847E-09    2     1000035         4   # BR(~c_R -> ~chi_40 c)
     9.24090645E-01    2     1000021         4   # BR(~c_R -> ~g      c)
#
#         PDG            Width
DECAY   1000003     1.51993908E+02   # sstrange_L decays
#          BR         NDA      ID1       ID2
     6.07305205E-05    2     1000022         3   # BR(~s_L -> ~chi_10 s)
     2.51410197E-04    2     1000023         3   # BR(~s_L -> ~chi_20 s)
     4.06900764E-03    2     1000025         3   # BR(~s_L -> ~chi_30 s)
     5.12992290E-02    2     1000035         3   # BR(~s_L -> ~chi_40 s)
     9.12094052E-05    2    -1000024         4   # BR(~s_L -> ~chi_1- c)
     1.02610522E-01    2    -1000037         4   # BR(~s_L -> ~chi_2- c)
     8.41617891E-01    2     1000021         3   # BR(~s_L -> ~g      s)
#
#         PDG            Width
DECAY   2000003     1.30539758E+02   # sstrange_R decays
#          BR         NDA      ID1       ID2
     1.68988032E-04    2     1000022         3   # BR(~s_R -> ~chi_10 s)
     2.44368952E-04    2     1000023         3   # BR(~s_R -> ~chi_20 s)
     1.97090856E-02    2     1000025         3   # BR(~s_R -> ~chi_30 s)
     1.37428689E-09    2     1000035         3   # BR(~s_R -> ~chi_40 s)
     9.79877556E-01    2     1000021         3   # BR(~s_R -> ~g      s)
#
#         PDG            Width
DECAY   1000011     3.03797779E+01   # selectron_L decays
#          BR         NDA      ID1       ID2
     1.38937656E-03    2     1000022        11   # BR(~e_L -> ~chi_10 e-)
     8.99734823E-04    2     1000023        11   # BR(~e_L -> ~chi_20 e-)
     2.01635137E-01    2     1000025        11   # BR(~e_L -> ~chi_30 e-)
     2.65071568E-01    2     1000035        11   # BR(~e_L -> ~chi_40 e-)
     4.76857692E-04    2    -1000024        12   # BR(~e_L -> ~chi_1- nu_e)
     5.30527326E-01    2    -1000037        12   # BR(~e_L -> ~chi_2- nu_e)
#
#         PDG            Width
DECAY   2000011     2.46956174E+01   # selectron_R decays
#          BR         NDA      ID1       ID2
     8.40123482E-03    2     1000022        11   # BR(~e_R -> ~chi_10 e-)
     1.21483951E-02    2     1000023        11   # BR(~e_R -> ~chi_20 e-)
     9.79450302E-01    2     1000025        11   # BR(~e_R -> ~chi_30 e-)
     6.75687053E-08    2     1000035        11   # BR(~e_R -> ~chi_40 e-)
#
#         PDG            Width
DECAY   1000013     3.03797779E+01   # smuon_L decays
#          BR         NDA      ID1       ID2
     1.38937656E-03    2     1000022        13   # BR(~mu_L -> ~chi_10 mu-)
     8.99734823E-04    2     1000023        13   # BR(~mu_L -> ~chi_20 mu-)
     2.01635137E-01    2     1000025        13   # BR(~mu_L -> ~chi_30 mu-)
     2.65071568E-01    2     1000035        13   # BR(~mu_L -> ~chi_40 mu-)
     4.76857692E-04    2    -1000024        14   # BR(~mu_L -> ~chi_1- nu_mu)
     5.30527326E-01    2    -1000037        14   # BR(~mu_L -> ~chi_2- nu_mu)
#
#         PDG            Width
DECAY   2000013     2.46956174E+01   # smuon_R decays
#          BR         NDA      ID1       ID2
     8.40123482E-03    2     1000022        13   # BR(~mu_R -> ~chi_10 mu-)
     1.21483951E-02    2     1000023        13   # BR(~mu_R -> ~chi_20 mu-)
     9.79450302E-01    2     1000025        13   # BR(~mu_R -> ~chi_30 mu-)
     6.75687053E-08    2     1000035        13   # BR(~mu_R -> ~chi_40 mu-)
#
#         PDG            Width
DECAY   1000015     2.73319290E+01   # stau_1 decays
#          BR         NDA      ID1       ID2
     6.59057111E-03    2     1000022        15   # BR(~tau_1 -> ~chi_10  tau-)
     5.23482916E-03    2     1000023        15   # BR(~tau_1 -> ~chi_20  tau-)
     5.82509256E-01    2     1000025        15   # BR(~tau_1 -> ~chi_30  tau-)
     1.35081698E-01    2     1000035        15   # BR(~tau_1 -> ~chi_40  tau-)
     9.35688069E-05    2    -1000024        16   # BR(~tau_1 -> ~chi_1-  nu_tau)
     2.70358438E-01    2    -1000037        16   # BR(~tau_1 -> ~chi_2-  nu_tau)
     1.31638616E-04    2     1000039        15   # BR(~tau_1 -> ~G       tau-)
#
#         PDG            Width
DECAY   2000015     2.78435516E+01   # stau_2 decays
#          BR         NDA      ID1       ID2
     3.67720499E-03    2     1000022        15   # BR(~tau_2 -> ~chi_10  tau-)
     7.74848231E-03    2     1000023        15   # BR(~tau_2 -> ~chi_20  tau-)
     5.16911868E-01    2     1000025        15   # BR(~tau_2 -> ~chi_30  tau-)
     1.56617262E-01    2     1000035        15   # BR(~tau_2 -> ~chi_40  tau-)
     1.58328860E-03    2    -1000024        16   # BR(~tau_2 -> ~chi_1-  nu_tau)
     3.13461893E-01    2    -1000037        16   # BR(~tau_2 -> ~chi_2-  nu_tau)
#
#         PDG            Width
DECAY   1000012     3.03780240E+01   # snu_eL decays
#          BR         NDA      ID1       ID2
     2.05804815E-03    2     1000022        12   # BR(~nu_eL -> ~chi_10 nu_e)
     4.81355660E-03    2     1000023        12   # BR(~nu_eL -> ~chi_20 nu_e)
     1.96479775E-01    2     1000025        12   # BR(~nu_eL -> ~chi_30 nu_e)
     2.65286582E-01    2     1000035        12   # BR(~nu_eL -> ~chi_40 nu_e)
     1.17240752E-03    2     1000024        11   # BR(~nu_eL -> ~chi_1+ e-)
     5.30189631E-01    2     1000037        11   # BR(~nu_eL -> ~chi_2+ e-)
#
#         PDG            Width
DECAY   1000014     3.03780240E+01   # snu_muL decays
#          BR         NDA      ID1       ID2
     2.05804815E-03    2     1000022        14   # BR(~nu_muL -> ~chi_10 nu_mu)
     4.81355660E-03    2     1000023        14   # BR(~nu_muL -> ~chi_20 nu_mu)
     1.96479775E-01    2     1000025        14   # BR(~nu_muL -> ~chi_30 nu_mu)
     2.65286582E-01    2     1000035        14   # BR(~nu_muL -> ~chi_40 nu_mu)
     1.17240752E-03    2     1000024        13   # BR(~nu_muL -> ~chi_1+ mu-)
     5.30189631E-01    2     1000037        13   # BR(~nu_muL -> ~chi_2+ mu-)
#
#         PDG            Width
DECAY   1000016     3.04101852E+01   # snu_tauL decays
#          BR         NDA      ID1       ID2
     2.05587160E-03    2     1000022        16   # BR(~nu_tauL -> ~chi_10 nu_tau)
     4.80846587E-03    2     1000023        16   # BR(~nu_tauL -> ~chi_20 nu_tau)
     1.96271981E-01    2     1000025        16   # BR(~nu_tauL -> ~chi_30 nu_tau)
     2.65006020E-01    2     1000035        16   # BR(~nu_tauL -> ~chi_40 nu_tau)
     2.22852862E-03    2     1000024        15   # BR(~nu_tauL -> ~chi_1+ tau-)
     5.29629133E-01    2     1000037        15   # BR(~nu_tauL -> ~chi_2+ tau-)
#
#         PDG            Width
DECAY   1000024     1.16455772E-10   # chargino1+ decays
#          BR         NDA      ID1       ID2
     1.11947164E-01    2     1000039        24   # BR(~chi_1+ -> ~G       W+)
#           BR         NDA      ID1       ID2       ID3
     4.55454834E-01    3     1000022         2        -1   # BR(~chi_1+ -> ~chi_10 u    db)
     1.14816112E-01    3     1000022         4        -3   # BR(~chi_1+ -> ~chi_10 c    sb)
     1.51818410E-01    3     1000022       -11        12   # BR(~chi_1+ -> ~chi_10 e+   nu_e)
     1.50673604E-01    3     1000022       -13        14   # BR(~chi_1+ -> ~chi_10 mu+  nu_mu)
     1.52898758E-02    3     1000022       -15        16   # BR(~chi_1+ -> ~chi_10 tau+ nu_tau)
#
#         PDG            Width
DECAY   1000037     2.94914605E+01   # chargino2+ decays
#          BR         NDA      ID1       ID2
     1.80527032E-01    2     1000024        23   # BR(~chi_2+ -> ~chi_1+  Z )
     1.72354656E-01    2     1000022        24   # BR(~chi_2+ -> ~chi_10  W+)
     1.73418039E-01    2     1000023        24   # BR(~chi_2+ -> ~chi_20  W+)
     6.62641974E-03    2     1000025        24   # BR(~chi_2+ -> ~chi_30  W+)
     1.80826449E-01    2     1000024        25   # BR(~chi_2+ -> ~chi_1+  h )
     7.14435164E-02    2     1000024        35   # BR(~chi_2+ -> ~chi_1+  H )
     7.17161733E-02    2     1000024        36   # BR(~chi_2+ -> ~chi_1+  A )
     7.15711114E-02    2     1000022        37   # BR(~chi_2+ -> ~chi_10  H+)
     7.06815970E-02    2     1000023        37   # BR(~chi_2+ -> ~chi_20  H+)
     8.25516415E-04    2     1000025        37   # BR(~chi_2+ -> ~chi_30  H+)
     9.48883419E-06    2     1000039        24   # BR(~chi_2+ -> ~G       W+)
     2.41288832E-10    2     1000039        37   # BR(~chi_2+ -> ~G       H+)
#
#         PDG            Width
DECAY   1000022     1.0E-05   # neutralino1 decays
#          BR         NDA      ID1       ID2
     4.75854313E-01    2     1000039        22   # BR(~chi_10 -> ~G        gam)
     2.29413965E-01    2     1000039        23   # BR(~chi_10 -> ~G        Z)
     2.94731721E-01    2     1000039        25   # BR(~chi_10 -> ~G        h)
#
#         PDG            Width
DECAY   1000023     1.0E-05   # neutralino2 decays
#          BR         NDA      ID1       ID2
     2.46395965E-02    2     1000022        22   # BR(~chi_20 -> ~chi_10 gam)
#          BR         NDA      ID1       ID2
     3.21796067E-05    2     1000039        22   # BR(~chi_20 -> ~G        gam)
     4.20006020E-04    2     1000039        23   # BR(~chi_20 -> ~G        Z)
     1.55252808E-06    2     1000039        25   # BR(~chi_20 -> ~G        h)
#           BR         NDA      ID1       ID2       ID3
     1.09779876E-01    3     1000022        -2         2   # BR(~chi_20 -> ~chi_10 ub      u)
     1.42080889E-01    3     1000022        -1         1   # BR(~chi_20 -> ~chi_10 db      d)
     8.64543030E-02    3     1000022        -4         4   # BR(~chi_20 -> ~chi_10 cb      c)
     1.41358185E-01    3     1000022        -3         3   # BR(~chi_20 -> ~chi_10 sb      s)
     3.24181827E-02    3     1000022       -11        11   # BR(~chi_20 -> ~chi_10 e+      e-)
     3.23863739E-02    3     1000022       -13        13   # BR(~chi_20 -> ~chi_10 mu+     mu-)
     2.24142252E-02    3     1000022       -15        15   # BR(~chi_20 -> ~chi_10 tau+    tau-)
     6.47198682E-02    3     1000022       -12        12   # BR(~chi_20 -> ~chi_10 nu_eb   nu_e)
     6.47198682E-02    3     1000022       -14        14   # BR(~chi_20 -> ~chi_10 nu_mub  nu_mu)
     6.47198682E-02    3     1000022       -16        16   # BR(~chi_20 -> ~chi_10 nu_taub nu_tau)
     4.25086304E-02    3     1000024        -2         1   # BR(~chi_20 -> ~chi_1+ ub      d)
     4.25086304E-02    3    -1000024        -1         2   # BR(~chi_20 -> ~chi_1- db      u)
     2.85423024E-02    3     1000024        -4         3   # BR(~chi_20 -> ~chi_1+ cb      s)
     2.85423024E-02    3    -1000024        -3         4   # BR(~chi_20 -> ~chi_1- sb      c)
     1.41695470E-02    3     1000024       -12        11   # BR(~chi_20 -> ~chi_1+ nu_eb   e-)
     1.41695470E-02    3    -1000024        12       -11   # BR(~chi_20 -> ~chi_1- nu_e    e+)
     1.41368416E-02    3     1000024       -14        13   # BR(~chi_20 -> ~chi_1+ nu_mub  mu-)
     1.41368416E-02    3    -1000024        14       -13   # BR(~chi_20 -> ~chi_1- nu_mu   mu+)
     7.57019146E-03    3     1000024       -16        15   # BR(~chi_20 -> ~chi_1+ nu_taub tau-)
     7.57019146E-03    3    -1000024        16       -15   # BR(~chi_20 -> ~chi_1- nu_tau  tau+)
#
#         PDG            Width
DECAY   1000025     3.49125114E-02   # neutralino3 decays
#          BR         NDA      ID1       ID2
     2.06826904E-01    2     1000022        23   # BR(~chi_30 -> ~chi_10   Z )
     3.96586536E-01    2     1000024       -24   # BR(~chi_30 -> ~chi_1+   W-)
     3.96586536E-01    2    -1000024        24   # BR(~chi_30 -> ~chi_1-   W+)
     2.07218153E-08    2     1000039        22   # BR(~chi_30 -> ~G        gam)
     3.60340758E-09    2     1000039        23   # BR(~chi_30 -> ~G        Z)
     5.05333018E-11    2     1000039        25   # BR(~chi_30 -> ~G        h)
#
#         PDG            Width
DECAY   1000035     2.94918139E+01   # neutralino4 decays
#          BR         NDA      ID1       ID2
     1.69760243E-01    2     1000022        23   # BR(~chi_40 -> ~chi_10   Z )
     8.63586317E-03    2     1000023        23   # BR(~chi_40 -> ~chi_20   Z )
     2.31864176E-03    2     1000025        23   # BR(~chi_40 -> ~chi_30   Z )
     1.76001269E-01    2     1000024       -24   # BR(~chi_40 -> ~chi_1+   W-)
     1.76001269E-01    2    -1000024        24   # BR(~chi_40 -> ~chi_1-   W+)
     6.90996265E-03    2     1000022        25   # BR(~chi_40 -> ~chi_10   h )
     6.91874593E-02    2     1000022        35   # BR(~chi_40 -> ~chi_10   H )
     2.25307392E-03    2     1000022        36   # BR(~chi_40 -> ~chi_10   A )
     1.69649247E-01    2     1000023        25   # BR(~chi_40 -> ~chi_20   h )
     1.76465071E-03    2     1000023        35   # BR(~chi_40 -> ~chi_20   H )
     6.89414170E-02    2     1000023        36   # BR(~chi_40 -> ~chi_20   A )
     4.47936983E-03    2     1000025        25   # BR(~chi_40 -> ~chi_30   h )
     3.80785566E-04    2     1000025        35   # BR(~chi_40 -> ~chi_30   H )
     4.47686094E-04    2     1000025        36   # BR(~chi_40 -> ~chi_30   A )
     7.16297869E-02    2     1000024       -37   # BR(~chi_40 -> ~chi_1+   H-)
     7.16297869E-02    2    -1000024        37   # BR(~chi_40 -> ~chi_1-   H+)
     2.27347131E-06    2     1000039        22   # BR(~chi_40 -> ~G        gam)
     7.21454775E-06    2     1000039        23   # BR(~chi_40 -> ~G        Z)
     4.84261421E-10    2     1000039        25   # BR(~chi_40 -> ~G        h)
     2.40087023E-10    2     1000039        35   # BR(~chi_40 -> ~G        H)
     1.17646914E-13    2     1000039        36   # BR(~chi_40 -> ~G        A)
#
#         PDG            Width
DECAY        25     4.08159918E-03   # h decays
#          BR         NDA      ID1       ID2
     6.17282783E-01    2           5        -5   # BR(h -> b       bb     )
     6.38139356E-02    2         -15        15   # BR(h -> tau+    tau-   )
     2.25877830E-04    2         -13        13   # BR(h -> mu+     mu-    )
     4.78655294E-04    2           3        -3   # BR(h -> s       sb     )
     2.06495267E-02    2           4        -4   # BR(h -> c       cb     )
     6.70503644E-02    2          21        21   # BR(h -> g       g      )
     2.27855834E-03    2          22        22   # BR(h -> gam     gam    )
     1.53881147E-03    2          22        23   # BR(h -> Z       gam    )
     2.01038683E-01    2          24       -24   # BR(h -> W+      W-     )
     2.56428038E-02    2          23        23   # BR(h -> Z       Z      )
#
#         PDG            Width
DECAY        35     4.00915464E+01   # H decays
#          BR         NDA      ID1       ID2
     1.39278551E-03    2           5        -5   # BR(H -> b       bb     )
     2.32419033E-04    2         -15        15   # BR(H -> tau+    tau-   )
     8.21687812E-07    2         -13        13   # BR(H -> mu+     mu-    )
     1.05204975E-06    2           3        -3   # BR(H -> s       sb     )
     9.49477955E-06    2           4        -4   # BR(H -> c       cb     )
     9.39468317E-01    2           6        -6   # BR(H -> t       tb     )
     7.52322797E-04    2          21        21   # BR(H -> g       g      )
     2.50779823E-06    2          22        22   # BR(H -> gam     gam    )
     1.09288753E-06    2          23        22   # BR(H -> Z       gam    )
     3.17922513E-04    2          24       -24   # BR(H -> W+      W-     )
     1.58527587E-04    2          23        23   # BR(H -> Z       Z      )
     8.53915372E-04    2          25        25   # BR(H -> h       h      )
     8.41477012E-24    2          36        36   # BR(H -> A       A      )
     3.33718816E-11    2          23        36   # BR(H -> Z       A      )
     3.01240723E-12    2          24       -37   # BR(H -> W+      H-     )
     3.01240723E-12    2         -24        37   # BR(H -> W-      H+     )
     8.42644441E-05    2     1000024  -1000024   # BR(H -> ~chi_1+ ~chi_1-)
     1.13585355E-03    2     1000022   1000022   # BR(H -> ~chi_10 ~chi_10)
     1.00113322E-04    2     1000023   1000023   # BR(H -> ~chi_20 ~chi_20)
     5.13568152E-04    2     1000025   1000025   # BR(H -> ~chi_30 ~chi_30)
     1.06389541E-03    2     1000022   1000023   # BR(H -> ~chi_10 ~chi_20)
     5.16564547E-02    2     1000022   1000025   # BR(H -> ~chi_10 ~chi_30)
     2.25467128E-03    2     1000023   1000025   # BR(H -> ~chi_20 ~chi_30)
#
#         PDG            Width
DECAY        36     4.05320773E+01   # A decays
#          BR         NDA      ID1       ID2
     1.39586235E-03    2           5        -5   # BR(A -> b       bb     )
     2.30094706E-04    2         -15        15   # BR(A -> tau+    tau-   )
     8.13467905E-07    2         -13        13   # BR(A -> mu+     mu-    )
     1.07243999E-06    2           3        -3   # BR(A -> s       sb     )
     9.39799414E-06    2           4        -4   # BR(A -> c       cb     )
     9.40572544E-01    2           6        -6   # BR(A -> t       tb     )
     8.90269782E-04    2          21        21   # BR(A -> g       g      )
     3.07014620E-06    2          22        22   # BR(A -> gam     gam    )
     1.27471739E-06    2          23        22   # BR(A -> Z       gam    )
     3.09910134E-04    2          23        25   # BR(A -> Z       h      )
     5.28254345E-04    2     1000024  -1000024   # BR(A -> ~chi_1+ ~chi_1-)
     5.24989795E-05    2     1000022   1000022   # BR(A -> ~chi_10 ~chi_10)
     2.70347783E-03    2     1000023   1000023   # BR(A -> ~chi_20 ~chi_20)
     8.76903967E-04    2     1000025   1000025   # BR(A -> ~chi_30 ~chi_30)
     2.45836149E-04    2     1000022   1000023   # BR(A -> ~chi_10 ~chi_20)
     2.67656383E-03    2     1000022   1000025   # BR(A -> ~chi_10 ~chi_30)
     4.95021552E-02    2     1000023   1000025   # BR(A -> ~chi_20 ~chi_30)
#
#         PDG            Width
DECAY        37     3.97306336E+01   # H+ decays
#          BR         NDA      ID1       ID2
     2.24062575E-06    2           4        -5   # BR(H+ -> c       bb     )
     2.34971628E-04    2         -15        16   # BR(H+ -> tau+    nu_tau )
     8.30709583E-07    2         -13        14   # BR(H+ -> mu+     nu_mu  )
     1.42458388E-08    2           2        -5   # BR(H+ -> u       bb     )
     5.14442348E-08    2           2        -3   # BR(H+ -> u       sb     )
     1.02504578E-05    2           4        -3   # BR(H+ -> c       sb     )
     9.42179401E-01    2           6        -5   # BR(H+ -> t       bb     )
     3.17565915E-04    2          24        25   # BR(H+ -> W+      h      )
     1.07554255E-12    2          24        36   # BR(H+ -> W+      A      )
     4.25429091E-04    2     1000024   1000022   # BR(H+ -> ~chi_1+ ~chi_10)
     6.78247833E-04    2     1000024   1000023   # BR(H+ -> ~chi_1+ ~chi_20)
     5.61509967E-02    2     1000024   1000025   # BR(H+ -> ~chi_1+ ~chi_30)
