#
#                              ======================
#                              | THE SUSYHIT OUTPUT |
#                              ======================
#
#
#              ------------------------------------------------------
#              |     This is the output of the SUSY-HIT package     |
#              |  created by A.Djouadi, M.Muehlleitner and M.Spira. |
#              |  In case of problems with SUSY-HIT email to        |
#              |           margarete.muehlleitner@kit.edu           |
#              |           michael.spira@psi.ch                     |
#              |           abdelhak.djouadi@cern.ch                 |
#              ------------------------------------------------------
#
#              ------------------------------------------------------
#              |  SUSY Les Houches Accord - MSSM Spectrum + Decays  |
#              |              based on the decay programs           |
#              |                                                    |
#              |                     SDECAY 1.5a                    |
#              |                                                    |
#              |  Authors: M.Muhlleitner, A.Djouadi and Y.Mambrini  |
#              |  Ref.:    Comput.Phys.Commun.168(2005)46           |
#              |           [hep-ph/0311167]                         |
#              |                                                    |
#              |                     HDECAY 3.4                     |
#              |                                                    |
#              |  By: A.Djouadi,J.Kalinowski,M.Muhlleitner,M.Spira  |
#              |  Ref.:    Comput.Phys.Commun.108(1998)56           |
#              |           [hep-ph/9704448]                         |
#              |                                                    |
#              |                                                    |
#              |  If not stated otherwise all DRbar couplings and   |
#              |  soft SUSY breaking masses are given at the scale  |
#              |  Q=  0.91187600E+02
#              |                                                    |
#              ------------------------------------------------------
#
#
BLOCK DCINFO  # Decay Program information
     1   SDECAY/HDECAY # decay calculator
     2   1.5a /3.4    # version number
#
BLOCK SPINFO  # Spectrum calculator information
     1   SuSpect     # RGE +Spectrum calculator            
     2   2.43         # version number                     
#
BLOCK MODSEL  # Model selection
     1     2   # GMSB                                              
#
BLOCK SMINPUTS  # Standard Model inputs
         1     1.27932904E+02   # alpha_em^-1(M_Z)^MSbar
         2     1.16639000E-05   # G_F [GeV^-2]
         3     1.17200000E-01   # alpha_S(M_Z)^MSbar
         4     9.11870000E+01   # M_Z pole mass
         5     4.25000000E+00   # mb(mb)^MSbar
         6     1.72900000E+02   # mt pole mass
         7     1.77700000E+00   # mtau pole mass
#
BLOCK MINPAR  # Input parameters - minimal models
#
BLOCK EXTPAR  # Input parameters - non-minimal models
         0     9.11876000E+01   # EWSB                
         1     4.55832221E+02   # M_1                 
         2     3.00000000E+03   # M_2                 
         3     2.20000000E+03   # M_3                 
        11     0.00000000E+00   # A_t                 
        12     0.00000000E+00   # A_b                 
        13     0.00000000E+00   # A_tau               
        14     0.00000000E+00   # A_u                 
        15     0.00000000E+00   # A_d                 
        16     0.00000000E+00   # A_e                 
        23    -4.50000000E+02   # mu(EWSB)            
        25     1.50000000E+00   # tanbeta(in)         
        26     2.00000000E+03   # MA_pole             
        31     5.00000000E+03   # M_eL                
        32     5.00000000E+03   # M_muL               
        33     5.00000000E+03   # M_tauL              
        34     5.00000000E+03   # M_eR                
        35     5.00000000E+03   # M_muR               
        36     5.00000000E+03   # M_tauR              
        41     5.00000000E+03   # M_q1L               
        42     5.00000000E+03   # M_q2L               
        43     5.00000000E+03   # M_q3L               
        44     5.00000000E+03   # M_uR                
        45     5.00000000E+03   # M_cR                
        46     5.00000000E+03   # M_tR                
        47     5.00000000E+03   # M_dR                
        48     5.00000000E+03   # M_sR                
        49     5.00000000E+03   # M_bR                
#
BLOCK MASS  # Mass Spectrum
# PDG code           mass       particle
        24     8.05387982E+01   # W+
        25     1.25000000E+02   # h
        35     2.00414829E+03   # H
        36     2.00000000E+03   # A
        37     2.00187365E+03   # H+
         5     4.87877839E+00   # b-quark pole mass calculated from mb(mb)_Msbar
   1000001     5.00013292E+03   # ~d_L
   2000001     5.00002530E+03   # ~d_R
   1000002     4.99989238E+03   # ~u_L
   2000002     4.99994939E+03   # ~u_R
   1000003     5.00013292E+03   # ~s_L
   2000003     5.00002530E+03   # ~s_R
   1000004     4.99989238E+03   # ~c_L
   2000004     4.99994939E+03   # ~c_R
   1000005     4.99989033E+03   # ~b_1
   2000005     5.00026934E+03   # ~b_2
   1000006     4.99767074E+03   # ~t_1
   2000006     5.00679856E+03   # ~t_2
   1000011     5.00008231E+03   # ~e_L
   2000011     5.00007591E+03   # ~e_R
   1000012     4.99984177E+03   # ~nu_eL
   1000013     5.00008231E+03   # ~mu_L
   2000013     5.00007591E+03   # ~mu_R
   1000014     4.99984177E+03   # ~nu_muL
   1000015     4.99995948E+03   # ~tau_1
   2000015     5.00019938E+03   # ~tau_2
   1000016     4.99984177E+03   # ~nu_tauL
   1000021     2.20000000E+03   # ~g
   1000022     4.44352058E+02   # ~chi_10
   1000023    -4.53828136E+02   # ~chi_20
   1000025     4.63471472E+02   # ~chi_30
   1000035     3.00183683E+03   # ~chi_40
   1000024     4.51647866E+02   # ~chi_1+
   1000037     3.00183652E+03   # ~chi_2+
   1000039     4.25622875E-09   # ~gravitino
#
BLOCK NMIX  # Neutralino Mixing Matrix
  1  1     5.38338362E-01   # N_11
  1  2    -4.30464025E-03   # N_12
  1  3    -6.14400899E-01   # N_13
  1  4    -5.76788361E-01   # N_14
  2  1     4.78321719E-02   # N_21
  2  2    -2.24250366E-02   # N_22
  2  3     7.05520993E-01   # N_23
  2  4    -7.06717291E-01   # N_24
  3  1     8.41370149E-01   # N_31
  3  2     4.51058267E-03   # N_32
  3  3     3.53011891E-01   # N_33
  3  4     4.09216975E-01   # N_34
  4  1     4.05188194E-04   # N_41
  4  2    -9.99729085E-01   # N_42
  4  3    -1.15874091E-02   # N_43
  4  4     2.01823022E-02   # N_44
#
BLOCK UMIX  # Chargino Mixing Matrix U
  1  1    -1.63798073E-02   # U_11
  1  2     9.99865842E-01   # U_12
  2  1     9.99865842E-01   # U_21
  2  2     1.63798073E-02   # U_22
#
BLOCK VMIX  # Chargino Mixing Matrix V
  1  1     2.85403604E-02   # V_11
  1  2    -9.99592641E-01   # V_12
  2  1     9.99592641E-01   # V_21
  2  2     2.85403604E-02   # V_22
#
BLOCK STOPMIX  # Stop Mixing Matrix
  1  1     7.09310555E-01   # cos(theta_t)
  1  2    -7.04896118E-01   # sin(theta_t)
  2  1     7.04896118E-01   # -sin(theta_t)
  2  2     7.09310555E-01   # cos(theta_t)
#
BLOCK SBOTMIX  # Sbottom Mixing Matrix
  1  1    -5.98351541E-01   # cos(theta_b)
  1  2     8.01233695E-01   # sin(theta_b)
  2  1    -8.01233695E-01   # -sin(theta_b)
  2  2    -5.98351541E-01   # cos(theta_b)
#
BLOCK STAUMIX  # Stau Mixing Matrix
  1  1    -6.97611306E-01   # cos(theta_tau)
  1  2     7.16476424E-01   # sin(theta_tau)
  2  1    -7.16476424E-01   # -sin(theta_tau)
  2  2    -6.97611306E-01   # cos(theta_tau)
#
BLOCK ALPHA  # Higgs mixing
          -5.90206280E-01   # Mixing angle in the neutral Higgs boson sector
#
BLOCK HMIX Q=  9.11876000E+01  # DRbar Higgs Parameters
         1    -4.50000000E+02   # mu(Q)               
         2     1.49999979E+00   # tanbeta(Q)          
         3     2.51743242E+02   # vev(Q)              
         4     4.12085084E+06   # MA^2(Q)             
#
BLOCK GAUGE Q=  9.11876000E+01  # The gauge couplings
     1     3.52956882E-01   # gprime(Q) DRbar
     2     6.28284244E-01   # g(Q) DRbar
     3     1.07892575E+00   # g3(Q) DRbar
#
BLOCK AU Q=  9.11876000E+01  # The trilinear couplings
  1  1     0.00000000E+00   # A_u(Q) DRbar
  2  2     0.00000000E+00   # A_c(Q) DRbar
  3  3     0.00000000E+00   # A_t(Q) DRbar
#
BLOCK AD Q=  9.11876000E+01  # The trilinear couplings
  1  1     0.00000000E+00   # A_d(Q) DRbar
  2  2     0.00000000E+00   # A_s(Q) DRbar
  3  3     0.00000000E+00   # A_b(Q) DRbar
#
BLOCK AE Q=  9.11876000E+01  # The trilinear couplings
  1  1     0.00000000E+00   # A_e(Q) DRbar
  2  2     0.00000000E+00   # A_mu(Q) DRbar
  3  3     0.00000000E+00   # A_tau(Q) DRbar
#
BLOCK Yu Q=  9.11876000E+01  # The Yukawa couplings
  1  1     0.00000000E+00   # y_u(Q) DRbar
  2  2     0.00000000E+00   # y_c(Q) DRbar
  3  3     1.02756480E+00   # y_t(Q) DRbar
#
BLOCK Yd Q=  9.11876000E+01  # The Yukawa couplings
  1  1     0.00000000E+00   # y_d(Q) DRbar
  2  2     0.00000000E+00   # y_s(Q) DRbar
  3  3     2.72620630E-02   # y_b(Q) DRbar
#
BLOCK Ye Q=  9.11876000E+01  # The Yukawa couplings
  1  1     0.00000000E+00   # y_e(Q) DRbar
  2  2     0.00000000E+00   # y_mu(Q) DRbar
  3  3     1.79911099E-02   # y_tau(Q) DRbar
#
BLOCK MSOFT Q=  9.11876000E+01  # The soft SUSY breaking masses at the scale Q
         1     4.55832221E+02   # M_1                 
         2     3.00000000E+03   # M_2                 
         3     2.20000000E+03   # M_3                 
        14     0.00000000E+00   # A_u                 
        15     0.00000000E+00   # A_d                 
        16     0.00000000E+00   # A_e                 
        21     2.83646231E+06   # M^2_Hd              
        22    -5.58076023E+06   # M^2_Hu              
        31     5.00000000E+03   # M_eL                
        32     5.00000000E+03   # M_muL               
        33     5.00000000E+03   # M_tauL              
        34     5.00000000E+03   # M_eR                
        35     5.00000000E+03   # M_muR               
        36     5.00000000E+03   # M_tauR              
        41     5.00000000E+03   # M_q1L               
        42     5.00000000E+03   # M_q2L               
        43     5.00000000E+03   # M_q3L               
        44     5.00000000E+03   # M_uR                
        45     5.00000000E+03   # M_cR                
        46     5.00000000E+03   # M_tR                
        47     5.00000000E+03   # M_dR                
        48     5.00000000E+03   # M_sR                
        49     5.00000000E+03   # M_bR                
#
#
#
#                             =================
#                             |The decay table|
#                             =================
#
# - The QCD corrections to the decays gluino -> squark  + quark
#                                     squark -> gaugino + quark_prime
#                                     squark -> squark_prime + Higgs
#                                     squark -> gluino  + quark
#   are included.
#
# - The multi-body decays for the inos, stops and sbottoms are included.
#
# - The loop induced decays for the gluino, neutralinos and stops
#   are included.
#
# - The SUSY decays of the top quark are included.
#
# - Possible decays of the NLSP in GMSB models are included.
#
#
#         PDG            Width
DECAY         6     1.37543407E+00   # top decays
#          BR         NDA      ID1       ID2
     1.00000000E+00    2           5        24   # BR(t ->  b    W+)
#
#         PDG            Width
DECAY   1000021     5.67569399E-03   # gluino decays
#          BR         NDA      ID1       ID2
     4.68576424E-03    2     1000022        21   # BR(~g -> ~chi_10 g)
     6.94758163E-03    2     1000023        21   # BR(~g -> ~chi_20 g)
     2.32277576E-03    2     1000025        21   # BR(~g -> ~chi_30 g)
#          BR         NDA      ID1       ID2
     0.00000000E+00    2     1000039        21   # BR(~g -> ~G      g)
#           BR         NDA      ID1       ID2       ID3
     2.05745815E-03    3     1000022         1        -1   # BR(~g -> ~chi_10 d  db)
     2.86282567E-05    3     1000023         1        -1   # BR(~g -> ~chi_20 d  db)
     4.79465075E-03    3     1000025         1        -1   # BR(~g -> ~chi_30 d  db)
     6.84222381E-03    3     1000022         2        -2   # BR(~g -> ~chi_10 u  ub)
     3.21254317E-05    3     1000023         2        -2   # BR(~g -> ~chi_20 u  ub)
     1.65456957E-02    3     1000025         2        -2   # BR(~g -> ~chi_30 u  ub)
     2.05745815E-03    3     1000022         3        -3   # BR(~g -> ~chi_10 s  sb)
     2.86282567E-05    3     1000023         3        -3   # BR(~g -> ~chi_20 s  sb)
     4.79465075E-03    3     1000025         3        -3   # BR(~g -> ~chi_30 s  sb)
     6.84222381E-03    3     1000022         4        -4   # BR(~g -> ~chi_10 c  cb)
     3.21254317E-05    3     1000023         4        -4   # BR(~g -> ~chi_20 c  cb)
     1.65456957E-02    3     1000025         4        -4   # BR(~g -> ~chi_30 c  cb)
     2.20193192E-03    3     1000022         5        -5   # BR(~g -> ~chi_10 b  bb)
     1.99343583E-04    3     1000023         5        -5   # BR(~g -> ~chi_20 b  bb)
     4.82619712E-03    3     1000025         5        -5   # BR(~g -> ~chi_30 b  bb)
     1.42835941E-01    3     1000022         6        -6   # BR(~g -> ~chi_10 t  tb)
     2.11428040E-01    3     1000023         6        -6   # BR(~g -> ~chi_20 t  tb)
     1.00855874E-01    3     1000025         6        -6   # BR(~g -> ~chi_30 t  tb)
     2.51358790E-05    3     1000024         1        -2   # BR(~g -> ~chi_1+ d  ub)
     2.51358790E-05    3    -1000024         2        -1   # BR(~g -> ~chi_1- u  db)
     2.51358790E-05    3     1000024         3        -4   # BR(~g -> ~chi_1+ s  cb)
     2.51358790E-05    3    -1000024         4        -3   # BR(~g -> ~chi_1- c  sb)
     2.31208685E-01    3     1000024         5        -6   # BR(~g -> ~chi_1+ b  tb)
     2.31208685E-01    3    -1000024         6        -5   # BR(~g -> ~chi_1- t  bb)
#
#         PDG            Width
DECAY   1000006     2.90245400E+02   # stop1 decays
#          BR         NDA      ID1       ID2
     6.48141957E-02    2     1000022         6   # BR(~t_1 -> ~chi_10 t )
     1.17280291E-01    2     1000023         6   # BR(~t_1 -> ~chi_20 t )
     7.90892083E-02    2     1000025         6   # BR(~t_1 -> ~chi_30 t )
     1.44160168E-02    2     1000035         6   # BR(~t_1 -> ~chi_40 t )
     1.18526205E-01    2     1000024         5   # BR(~t_1 -> ~chi_1+ b )
     2.87821406E-02    2     1000037         5   # BR(~t_1 -> ~chi_2+ b )
     5.77091942E-01    2     1000021         6   # BR(~t_1 -> ~g      t )
#
#         PDG            Width
DECAY   2000006     3.03358693E+02   # stop2 decays
#          BR         NDA      ID1       ID2
     1.04805519E-01    2     1000022         6   # BR(~t_2 -> ~chi_10 t )
     1.22602438E-01    2     1000023         6   # BR(~t_2 -> ~chi_20 t )
     2.89936277E-02    2     1000025         6   # BR(~t_2 -> ~chi_30 t )
     1.19538977E-02    2     1000035         6   # BR(~t_2 -> ~chi_40 t )
     1.21950044E-01    2     1000024         5   # BR(~t_2 -> ~chi_1+ b )
     2.38545494E-02    2     1000037         5   # BR(~t_2 -> ~chi_2+ b )
     5.85839925E-01    2     1000021         6   # BR(~t_2 -> ~g      t )
#
#         PDG            Width
DECAY   1000005     2.26771089E+02   # sbottom1 decays
#          BR         NDA      ID1       ID2
     3.04535382E-03    2     1000022         5   # BR(~b_1 -> ~chi_10 b )
     4.58670439E-06    2     1000023         5   # BR(~b_1 -> ~chi_20 b )
     4.23030248E-03    2     1000025         5   # BR(~b_1 -> ~chi_30 b )
     1.74932438E-02    2     1000035         5   # BR(~b_1 -> ~chi_40 b )
     1.78990414E-01    2    -1000024         6   # BR(~b_1 -> ~chi_1- t )
     3.50604731E-02    2    -1000037         6   # BR(~b_1 -> ~chi_2- t )
     7.61175626E-01    2     1000021         5   # BR(~b_1 -> ~g      b )
#
#         PDG            Width
DECAY   2000005     2.16681338E+02   # sbottom2 decays
#          BR         NDA      ID1       ID2
     1.42602059E-03    2     1000022         5   # BR(~b_2 -> ~chi_10 b )
     3.37591903E-04    2     1000023         5   # BR(~b_2 -> ~chi_20 b )
     6.15073888E-03    2     1000025         5   # BR(~b_2 -> ~chi_30 b )
     1.75904446E-02    2     1000035         5   # BR(~b_2 -> ~chi_40 b )
     1.41548204E-01    2    -1000024         6   # BR(~b_2 -> ~chi_1- t )
     3.52447825E-02    2    -1000037         6   # BR(~b_2 -> ~chi_2- t )
     7.97702218E-01    2     1000021         5   # BR(~b_2 -> ~g      b )
#
#         PDG            Width
DECAY   1000002     1.96736540E+02   # sup_L decays
#          BR         NDA      ID1       ID2
     8.80499433E-04    2     1000022         2   # BR(~u_L -> ~chi_10 u)
     1.71377233E-05    2     1000023         2   # BR(~u_L -> ~chi_20 u)
     2.47986070E-03    2     1000025         2   # BR(~u_L -> ~chi_30 u)
     3.95208404E-02    2     1000035         2   # BR(~u_L -> ~chi_40 u)
     1.53943934E-04    2     1000024         1   # BR(~u_L -> ~chi_1+ d)
     7.90321211E-02    2     1000037         1   # BR(~u_L -> ~chi_2+ d)
     8.77915597E-01    2     1000021         2   # BR(~u_L -> ~g      u)
#
#         PDG            Width
DECAY   2000002     1.83147919E+02   # sup_R decays
#          BR         NDA      ID1       ID2
     1.65136094E-02    2     1000022         2   # BR(~u_R -> ~chi_10 u)
     1.30281804E-04    2     1000023         2   # BR(~u_R -> ~chi_20 u)
     4.02826698E-02    2     1000025         2   # BR(~u_R -> ~chi_30 u)
     3.91334848E-09    2     1000035         2   # BR(~u_R -> ~chi_40 u)
     9.43073435E-01    2     1000021         2   # BR(~u_R -> ~g      u)
#
#         PDG            Width
DECAY   1000001     1.96741466E+02   # sdown_L decays
#          BR         NDA      ID1       ID2
     1.04463438E-03    2     1000022         1   # BR(~d_L -> ~chi_10 d)
     9.30510246E-05    2     1000023         1   # BR(~d_L -> ~chi_20 d)
     2.21152386E-03    2     1000025         1   # BR(~d_L -> ~chi_30 d)
     3.95380076E-02    2     1000035         1   # BR(~d_L -> ~chi_40 d)
     5.07075073E-05    2    -1000024         2   # BR(~d_L -> ~chi_1- u)
     7.90856643E-02    2    -1000037         2   # BR(~d_L -> ~chi_2- u)
     8.77976411E-01    2     1000021         1   # BR(~d_L -> ~g      d)
#
#         PDG            Width
DECAY   2000001     1.75333615E+02   # sdown_R decays
#          BR         NDA      ID1       ID2
     4.31246634E-03    2     1000022         1   # BR(~d_R -> ~chi_10 d)
     3.40225987E-05    2     1000023         1   # BR(~d_R -> ~chi_20 d)
     1.05196666E-02    2     1000025         1   # BR(~d_R -> ~chi_30 d)
     1.02199008E-09    2     1000035         1   # BR(~d_R -> ~chi_40 d)
     9.85133843E-01    2     1000021         1   # BR(~d_R -> ~g      d)
#
#         PDG            Width
DECAY   1000004     1.96736540E+02   # scharm_L decays
#          BR         NDA      ID1       ID2
     8.80499433E-04    2     1000022         4   # BR(~c_L -> ~chi_10 c)
     1.71377233E-05    2     1000023         4   # BR(~c_L -> ~chi_20 c)
     2.47986070E-03    2     1000025         4   # BR(~c_L -> ~chi_30 c)
     3.95208404E-02    2     1000035         4   # BR(~c_L -> ~chi_40 c)
     1.53943934E-04    2     1000024         3   # BR(~c_L -> ~chi_1+ s)
     7.90321211E-02    2     1000037         3   # BR(~c_L -> ~chi_2+ s)
     8.77915597E-01    2     1000021         4   # BR(~c_L -> ~g      c)
#
#         PDG            Width
DECAY   2000004     1.83147919E+02   # scharm_R decays
#          BR         NDA      ID1       ID2
     1.65136094E-02    2     1000022         4   # BR(~c_R -> ~chi_10 c)
     1.30281804E-04    2     1000023         4   # BR(~c_R -> ~chi_20 c)
     4.02826698E-02    2     1000025         4   # BR(~c_R -> ~chi_30 c)
     3.91334848E-09    2     1000035         4   # BR(~c_R -> ~chi_40 c)
     9.43073435E-01    2     1000021         4   # BR(~c_R -> ~g      c)
#
#         PDG            Width
DECAY   1000003     1.96741466E+02   # sstrange_L decays
#          BR         NDA      ID1       ID2
     1.04463438E-03    2     1000022         3   # BR(~s_L -> ~chi_10 s)
     9.30510246E-05    2     1000023         3   # BR(~s_L -> ~chi_20 s)
     2.21152386E-03    2     1000025         3   # BR(~s_L -> ~chi_30 s)
     3.95380076E-02    2     1000035         3   # BR(~s_L -> ~chi_40 s)
     5.07075073E-05    2    -1000024         4   # BR(~s_L -> ~chi_1- c)
     7.90856643E-02    2    -1000037         4   # BR(~s_L -> ~chi_2- c)
     8.77976411E-01    2     1000021         3   # BR(~s_L -> ~g      s)
#
#         PDG            Width
DECAY   2000003     1.75333615E+02   # sstrange_R decays
#          BR         NDA      ID1       ID2
     4.31246634E-03    2     1000022         3   # BR(~s_R -> ~chi_10 s)
     3.40225987E-05    2     1000023         3   # BR(~s_R -> ~chi_20 s)
     1.05196666E-02    2     1000025         3   # BR(~s_R -> ~chi_30 s)
     1.02199008E-09    2     1000035         3   # BR(~s_R -> ~chi_40 s)
     9.85133843E-01    2     1000021         3   # BR(~s_R -> ~g      s)
#
#         PDG            Width
DECAY   1000011     3.02026625E+01   # selectron_L decays
#          BR         NDA      ID1       ID2
     5.68652491E-02    2     1000022        11   # BR(~e_L -> ~chi_10 e-)
     1.26389862E-05    2     1000023        11   # BR(~e_L -> ~chi_20 e-)
     1.45480242E-01    2     1000025        11   # BR(~e_L -> ~chi_30 e-)
     2.65637055E-01    2     1000035        11   # BR(~e_L -> ~chi_40 e-)
     3.43143640E-04    2    -1000024        12   # BR(~e_L -> ~chi_1- nu_e)
     5.31661672E-01    2    -1000037        12   # BR(~e_L -> ~chi_2- nu_e)
#
#         PDG            Width
DECAY   2000011     2.43703564E+01   # selectron_R decays
#          BR         NDA      ID1       ID2
     2.90095991E-01    2     1000022        11   # BR(~e_R -> ~chi_10 e-)
     2.28861725E-03    2     1000023        11   # BR(~e_R -> ~chi_20 e-)
     7.07615323E-01    2     1000025        11   # BR(~e_R -> ~chi_30 e-)
     6.82979801E-08    2     1000035        11   # BR(~e_R -> ~chi_40 e-)
#
#         PDG            Width
DECAY   1000013     3.02026625E+01   # smuon_L decays
#          BR         NDA      ID1       ID2
     5.68652491E-02    2     1000022        13   # BR(~mu_L -> ~chi_10 mu-)
     1.26389862E-05    2     1000023        13   # BR(~mu_L -> ~chi_20 mu-)
     1.45480242E-01    2     1000025        13   # BR(~mu_L -> ~chi_30 mu-)
     2.65637055E-01    2     1000035        13   # BR(~mu_L -> ~chi_40 mu-)
     3.43143640E-04    2    -1000024        14   # BR(~mu_L -> ~chi_1- nu_mu)
     5.31661672E-01    2    -1000037        14   # BR(~mu_L -> ~chi_2- nu_mu)
#
#         PDG            Width
DECAY   2000013     2.43703564E+01   # smuon_R decays
#          BR         NDA      ID1       ID2
     2.90095991E-01    2     1000022        13   # BR(~mu_R -> ~chi_10 mu-)
     2.28861725E-03    2     1000023        13   # BR(~mu_R -> ~chi_20 mu-)
     7.07615323E-01    2     1000025        13   # BR(~mu_R -> ~chi_30 mu-)
     6.82979801E-08    2     1000035        13   # BR(~mu_R -> ~chi_40 mu-)
#
#         PDG            Width
DECAY   1000015     2.72390526E+01   # stau_1 decays
#          BR         NDA      ID1       ID2
     1.69758775E-01    2     1000022        15   # BR(~tau_1 -> ~chi_10  tau-)
     6.38514907E-04    2     1000023        15   # BR(~tau_1 -> ~chi_20  tau-)
     3.98867134E-01    2     1000025        15   # BR(~tau_1 -> ~chi_30  tau-)
     1.43467509E-01    2     1000035        15   # BR(~tau_1 -> ~chi_40  tau-)
     1.17096623E-04    2    -1000024        16   # BR(~tau_1 -> ~chi_1-  nu_tau)
     2.87143680E-01    2    -1000037        16   # BR(~tau_1 -> ~chi_2-  nu_tau)
     7.29082897E-06    2     1000039        15   # BR(~tau_1 -> ~G       tau-)
#
#         PDG            Width
DECAY   2000015     2.74291825E+01   # stau_2 decays
#          BR         NDA      ID1       ID2
     1.52651002E-01    2     1000022        15   # BR(~tau_2 -> ~chi_10  tau-)
     2.56281201E-03    2     1000023        15   # BR(~tau_2 -> ~chi_20  tau-)
     3.93079086E-01    2     1000025        15   # BR(~tau_2 -> ~chi_30  tau-)
     1.50023926E-01    2     1000035        15   # BR(~tau_2 -> ~chi_40  tau-)
     1.41604374E-03    2    -1000024        16   # BR(~tau_2 -> ~chi_1-  nu_tau)
     3.00267131E-01    2    -1000037        16   # BR(~tau_2 -> ~chi_2-  nu_tau)
#
#         PDG            Width
DECAY   1000012     3.02008339E+01   # snu_eL decays
#          BR         NDA      ID1       ID2
     6.01976754E-02    2     1000022        12   # BR(~nu_eL -> ~chi_10 nu_e)
     1.55378118E-03    2     1000023        12   # BR(~nu_eL -> ~chi_20 nu_e)
     1.40033030E-01    2     1000025        12   # BR(~nu_eL -> ~chi_30 nu_e)
     2.65853566E-01    2     1000035        12   # BR(~nu_eL -> ~chi_40 nu_e)
     1.04179435E-03    2     1000024        11   # BR(~nu_eL -> ~chi_1+ e-)
     5.31320153E-01    2     1000037        11   # BR(~nu_eL -> ~chi_2+ e-)
#
#         PDG            Width
DECAY   1000014     3.02008339E+01   # snu_muL decays
#          BR         NDA      ID1       ID2
     6.01976754E-02    2     1000022        14   # BR(~nu_muL -> ~chi_10 nu_mu)
     1.55378118E-03    2     1000023        14   # BR(~nu_muL -> ~chi_20 nu_mu)
     1.40033030E-01    2     1000025        14   # BR(~nu_muL -> ~chi_30 nu_mu)
     2.65853566E-01    2     1000035        14   # BR(~nu_muL -> ~chi_40 nu_mu)
     1.04179435E-03    2     1000024        13   # BR(~nu_muL -> ~chi_1+ mu-)
     5.31320153E-01    2     1000037        13   # BR(~nu_muL -> ~chi_2+ mu-)
#
#         PDG            Width
DECAY   1000016     3.02325059E+01   # snu_tauL decays
#          BR         NDA      ID1       ID2
     6.01346115E-02    2     1000022        16   # BR(~nu_tauL -> ~chi_10 nu_tau)
     1.55215342E-03    2     1000023        16   # BR(~nu_tauL -> ~chi_20 nu_tau)
     1.39886329E-01    2     1000025        16   # BR(~nu_tauL -> ~chi_30 nu_tau)
     2.65575055E-01    2     1000035        16   # BR(~nu_tauL -> ~chi_40 nu_tau)
     2.08819502E-03    2     1000024        15   # BR(~nu_tauL -> ~chi_1+ tau-)
     5.30763656E-01    2     1000037        15   # BR(~nu_tauL -> ~chi_2+ tau-)
#
#         PDG            Width
DECAY   1000024     1.53325094E-08   # chargino1+ decays
#          BR         NDA      ID1       ID2
     3.44023089E-02    2     1000039        24   # BR(~chi_1+ -> ~G       W+)
#           BR         NDA      ID1       ID2       ID3
     3.50989607E-01    3     1000022         2        -1   # BR(~chi_1+ -> ~chi_10 u    db)
     2.92708222E-01    3     1000022         4        -3   # BR(~chi_1+ -> ~chi_10 c    sb)
     1.16997174E-01    3     1000022       -11        12   # BR(~chi_1+ -> ~chi_10 e+   nu_e)
     1.16874665E-01    3     1000022       -13        14   # BR(~chi_1+ -> ~chi_10 mu+  nu_mu)
     8.80280236E-02    3     1000022       -15        16   # BR(~chi_1+ -> ~chi_10 tau+ nu_tau)
#
#         PDG            Width
DECAY   1000037     2.67355786E+01   # chargino2+ decays
#          BR         NDA      ID1       ID2
     1.58871593E-01    2     1000024        23   # BR(~chi_2+ -> ~chi_1+  Z )
     1.05656513E-01    2     1000022        24   # BR(~chi_2+ -> ~chi_10  W+)
     1.54118535E-01    2     1000023        24   # BR(~chi_2+ -> ~chi_20  W+)
     5.01567372E-02    2     1000025        24   # BR(~chi_2+ -> ~chi_30  W+)
     1.59396175E-01    2     1000024        25   # BR(~chi_2+ -> ~chi_1+  h )
     9.27672038E-02    2     1000024        35   # BR(~chi_2+ -> ~chi_1+  H )
     9.31495881E-02    2     1000024        36   # BR(~chi_2+ -> ~chi_1+  A )
     6.69786859E-02    2     1000022        37   # BR(~chi_2+ -> ~chi_10  H+)
     9.27497936E-02    2     1000023        37   # BR(~chi_2+ -> ~chi_20  H+)
     2.61545976E-02    2     1000025        37   # BR(~chi_2+ -> ~chi_30  H+)
     5.77671506E-07    2     1000039        24   # BR(~chi_2+ -> ~G       W+)
     1.20176839E-11    2     1000039        37   # BR(~chi_2+ -> ~G       H+)
#
#         PDG            Width
DECAY   1000022     1.0E-05   # neutralino1 decays
#          BR         NDA      ID1       ID2
     4.12610031E-01    2     1000039        22   # BR(~chi_10 -> ~G        gam)
     1.29188573E-01    2     1000039        23   # BR(~chi_10 -> ~G        Z)
     4.58201396E-01    2     1000039        25   # BR(~chi_10 -> ~G        h)
#
#         PDG            Width
DECAY   1000023     1.0E-05   # neutralino2 decays
#          BR         NDA      ID1       ID2
     1.56396031E-02    2     1000022        22   # BR(~chi_20 -> ~chi_10 gam)
#          BR         NDA      ID1       ID2
     2.71776760E-05    2     1000039        22   # BR(~chi_20 -> ~G        gam)
     1.17585816E-02    2     1000039        23   # BR(~chi_20 -> ~G        Z)
     3.97391025E-04    2     1000039        25   # BR(~chi_20 -> ~G        h)
#           BR         NDA      ID1       ID2       ID3
     1.37776050E-01    3     1000022        -2         2   # BR(~chi_20 -> ~chi_10 ub      u)
     1.78356895E-01    3     1000022        -1         1   # BR(~chi_20 -> ~chi_10 db      d)
     1.18780409E-01    3     1000022        -4         4   # BR(~chi_20 -> ~chi_10 cb      c)
     1.77769793E-01    3     1000022        -3         3   # BR(~chi_20 -> ~chi_10 sb      s)
     4.07140938E-02    3     1000022       -11        11   # BR(~chi_20 -> ~chi_10 e+      e-)
     4.06881700E-02    3     1000022       -13        13   # BR(~chi_20 -> ~chi_10 mu+     mu-)
     3.26835753E-02    3     1000022       -15        15   # BR(~chi_20 -> ~chi_10 tau+    tau-)
     8.12975255E-02    3     1000022       -12        12   # BR(~chi_20 -> ~chi_10 nu_eb   nu_e)
     8.12975255E-02    3     1000022       -14        14   # BR(~chi_20 -> ~chi_10 nu_mub  nu_mu)
     8.12975255E-02    3     1000022       -16        16   # BR(~chi_20 -> ~chi_10 nu_taub nu_tau)
     4.29382556E-04    3     1000024        -2         1   # BR(~chi_20 -> ~chi_1+ ub      d)
     4.29382556E-04    3    -1000024        -1         2   # BR(~chi_20 -> ~chi_1- db      u)
     4.18336753E-05    3     1000024        -4         3   # BR(~chi_20 -> ~chi_1+ cb      s)
     4.18336753E-05    3    -1000024        -3         4   # BR(~chi_20 -> ~chi_1- sb      c)
     1.43127535E-04    3     1000024       -12        11   # BR(~chi_20 -> ~chi_1+ nu_eb   e-)
     1.43127535E-04    3    -1000024        12       -11   # BR(~chi_20 -> ~chi_1- nu_e    e+)
     1.41467532E-04    3     1000024       -14        13   # BR(~chi_20 -> ~chi_1+ nu_mub  mu-)
     1.41467532E-04    3    -1000024        14       -13   # BR(~chi_20 -> ~chi_1- nu_mu   mu+)
     2.03074054E-06    3     1000024       -16        15   # BR(~chi_20 -> ~chi_1+ nu_taub tau-)
     2.03074054E-06    3    -1000024        16       -15   # BR(~chi_20 -> ~chi_1- nu_tau  tau+)
#
#         PDG            Width
DECAY   1000025     1.0E-05   # neutralino3 decays
#          BR         NDA      ID1       ID2
     8.72034304E-01    2     1000022        22   # BR(~chi_30 -> ~chi_10 gam)
     2.61266596E-02    2     1000023        22   # BR(~chi_30 -> ~chi_20 gam)
#          BR         NDA      ID1       ID2
     4.52291881E-04    2     1000039        22   # BR(~chi_30 -> ~G        gam)
     1.26324259E-04    2     1000039        23   # BR(~chi_30 -> ~G        Z)
     8.88772084E-05    2     1000039        25   # BR(~chi_30 -> ~G        h)
#           BR         NDA      ID1       ID2       ID3
     1.87080805E-04    3     1000022        -2         2   # BR(~chi_30 -> ~chi_10 ub      u)
     2.43418164E-04    3     1000022        -1         1   # BR(~chi_30 -> ~chi_10 db      d)
     1.73954761E-04    3     1000022        -4         4   # BR(~chi_30 -> ~chi_10 cb      c)
     2.43137147E-04    3     1000022        -3         3   # BR(~chi_30 -> ~chi_10 sb      s)
     1.09135338E-04    3     1000022        -5         5   # BR(~chi_30 -> ~chi_10 bb      b)
     5.65331256E-05    3     1000022       -11        11   # BR(~chi_30 -> ~chi_10 e+      e-)
     5.65074377E-05    3     1000022       -13        13   # BR(~chi_30 -> ~chi_10 mu+     mu-)
     4.97906194E-05    3     1000022       -15        15   # BR(~chi_30 -> ~chi_10 tau+    tau-)
     1.10443690E-04    3     1000022       -12        12   # BR(~chi_30 -> ~chi_10 nu_eb   nu_e)
     1.10443690E-04    3     1000022       -14        14   # BR(~chi_30 -> ~chi_10 nu_mub  nu_mu)
     1.10443690E-04    3     1000022       -16        16   # BR(~chi_30 -> ~chi_10 nu_taub nu_tau)
     1.60873696E-03    3     1000023        -2         2   # BR(~chi_30 -> ~chi_20 ub      u)
     2.08262504E-03    3     1000023        -1         1   # BR(~chi_30 -> ~chi_20 db      d)
     1.39445898E-03    3     1000023        -4         4   # BR(~chi_30 -> ~chi_20 cb      c)
     2.07600578E-03    3     1000023        -3         3   # BR(~chi_30 -> ~chi_20 sb      s)
     4.75435251E-04    3     1000023       -11        11   # BR(~chi_30 -> ~chi_20 e+      e-)
     4.75142770E-04    3     1000023       -13        13   # BR(~chi_30 -> ~chi_20 mu+     mu-)
     3.85003784E-04    3     1000023       -15        15   # BR(~chi_30 -> ~chi_20 tau+    tau-)
     9.49251093E-04    3     1000023       -12        12   # BR(~chi_30 -> ~chi_20 nu_eb   nu_e)
     9.49251093E-04    3     1000023       -14        14   # BR(~chi_30 -> ~chi_20 nu_mub  nu_mu)
     9.49251093E-04    3     1000023       -16        16   # BR(~chi_30 -> ~chi_20 nu_taub nu_tau)
     1.52500482E-02    3     1000024        -2         1   # BR(~chi_30 -> ~chi_1+ ub      d)
     1.52500482E-02    3    -1000024        -1         2   # BR(~chi_30 -> ~chi_1- db      u)
     1.42187914E-02    3     1000024        -4         3   # BR(~chi_30 -> ~chi_1+ cb      s)
     1.42187914E-02    3    -1000024        -3         4   # BR(~chi_30 -> ~chi_1- sb      c)
     5.08327698E-03    3     1000024       -12        11   # BR(~chi_30 -> ~chi_1+ nu_eb   e-)
     5.08327698E-03    3    -1000024        12       -11   # BR(~chi_30 -> ~chi_1- nu_e    e+)
     5.08124858E-03    3     1000024       -14        13   # BR(~chi_30 -> ~chi_1+ nu_mub  mu-)
     5.08124858E-03    3    -1000024        14       -13   # BR(~chi_30 -> ~chi_1- nu_mu   mu+)
     4.55438094E-03    3     1000024       -16        15   # BR(~chi_30 -> ~chi_1+ nu_taub tau-)
     4.55438094E-03    3    -1000024        16       -15   # BR(~chi_30 -> ~chi_1- nu_tau  tau+)
#
#         PDG            Width
DECAY   1000035     2.67359335E+01   # neutralino4 decays
#          BR         NDA      ID1       ID2
     1.03582245E-01    2     1000022        23   # BR(~chi_40 -> ~chi_10   Z )
     1.08580151E-02    2     1000023        23   # BR(~chi_40 -> ~chi_20   Z )
     4.46223209E-02    2     1000025        23   # BR(~chi_40 -> ~chi_30   Z )
     1.54770055E-01    2     1000024       -24   # BR(~chi_40 -> ~chi_1+   W-)
     1.54770055E-01    2    -1000024        24   # BR(~chi_40 -> ~chi_1-   W+)
     4.79803579E-03    2     1000022        25   # BR(~chi_40 -> ~chi_10   h )
     6.56166549E-02    2     1000022        35   # BR(~chi_40 -> ~chi_10   H )
     1.20536493E-03    2     1000022        36   # BR(~chi_40 -> ~chi_10   A )
     1.47989826E-01    2     1000023        25   # BR(~chi_40 -> ~chi_20   h )
     1.10804825E-03    2     1000023        35   # BR(~chi_40 -> ~chi_20   H )
     9.17381064E-02    2     1000023        36   # BR(~chi_40 -> ~chi_20   A )
     6.81331853E-03    2     1000025        25   # BR(~chi_40 -> ~chi_30   h )
     2.60100827E-02    2     1000025        35   # BR(~chi_40 -> ~chi_30   H )
     9.52369904E-05    2     1000025        36   # BR(~chi_40 -> ~chi_30   A )
     9.30110282E-02    2     1000024       -37   # BR(~chi_40 -> ~chi_1+   H-)
     9.30110282E-02    2    -1000024        37   # BR(~chi_40 -> ~chi_1-   H+)
     1.38714743E-07    2     1000039        22   # BR(~chi_40 -> ~G        gam)
     4.38900966E-07    2     1000039        23   # BR(~chi_40 -> ~G        Z)
     3.06354580E-11    2     1000039        25   # BR(~chi_40 -> ~G        h)
     1.18955391E-11    2     1000039        35   # BR(~chi_40 -> ~G        H)
     6.68894857E-14    2     1000039        36   # BR(~chi_40 -> ~G        A)
#
#         PDG            Width
DECAY        25     4.08045096E-03   # h decays
#          BR         NDA      ID1       ID2
     6.17214272E-01    2           5        -5   # BR(h -> b       bb     )
     6.38312012E-02    2         -15        15   # BR(h -> tau+    tau-   )
     2.25938943E-04    2         -13        13   # BR(h -> mu+     mu-    )
     4.78784897E-04    2           3        -3   # BR(h -> s       sb     )
     2.06554378E-02    2           4        -4   # BR(h -> c       cb     )
     6.70694951E-02    2          21        21   # BR(h -> g       g      )
     2.29601728E-03    2          22        22   # BR(h -> gam     gam    )
     1.53934912E-03    2          22        23   # BR(h -> Z       gam    )
     2.01039483E-01    2          24       -24   # BR(h -> W+      W-     )
     2.56500200E-02    2          23        23   # BR(h -> Z       Z      )
#
#         PDG            Width
DECAY        35     3.95409994E+01   # H decays
#          BR         NDA      ID1       ID2
     1.41353810E-03    2           5        -5   # BR(H -> b       bb     )
     2.35655331E-04    2         -15        15   # BR(H -> tau+    tau-   )
     8.33129329E-07    2         -13        13   # BR(H -> mu+     mu-    )
     1.06669960E-06    2           3        -3   # BR(H -> s       sb     )
     9.62684288E-06    2           4        -4   # BR(H -> c       cb     )
     9.52535220E-01    2           6        -6   # BR(H -> t       tb     )
     7.62786669E-04    2          21        21   # BR(H -> g       g      )
     2.54642062E-06    2          22        22   # BR(H -> gam     gam    )
     1.10863439E-06    2          23        22   # BR(H -> Z       gam    )
     3.21286342E-04    2          24       -24   # BR(H -> W+      W-     )
     1.60204983E-04    2          23        23   # BR(H -> Z       Z      )
     8.65618642E-04    2          25        25   # BR(H -> h       h      )
     8.30803306E-24    2          36        36   # BR(H -> A       A      )
     3.35200243E-11    2          23        36   # BR(H -> Z       A      )
     4.04912490E-12    2          24       -37   # BR(H -> W+      H-     )
     4.04912490E-12    2         -24        37   # BR(H -> W-      H+     )
     6.54067456E-05    2     1000024  -1000024   # BR(H -> ~chi_1+ ~chi_1-)
     1.80839465E-02    2     1000022   1000022   # BR(H -> ~chi_10 ~chi_10)
     2.60138542E-05    2     1000023   1000023   # BR(H -> ~chi_20 ~chi_20)
     1.59674878E-02    2     1000025   1000025   # BR(H -> ~chi_30 ~chi_30)
     5.05709799E-05    2     1000022   1000023   # BR(H -> ~chi_10 ~chi_20)
     7.16735742E-03    2     1000022   1000025   # BR(H -> ~chi_10 ~chi_30)
     2.32972517E-03    2     1000023   1000025   # BR(H -> ~chi_20 ~chi_30)
#
#         PDG            Width
DECAY        36     3.99759837E+01   # A decays
#          BR         NDA      ID1       ID2
     1.41662682E-03    2           5        -5   # BR(A -> b       bb     )
     2.33295482E-04    2         -15        15   # BR(A -> tau+    tau-   )
     8.24783807E-07    2         -13        13   # BR(A -> mu+     mu-    )
     1.08735838E-06    2           3        -3   # BR(A -> s       sb     )
     9.52872675E-06    2           4        -4   # BR(A -> c       cb     )
     9.53656560E-01    2           6        -6   # BR(A -> t       tb     )
     9.02654051E-04    2          21        21   # BR(A -> g       g      )
     3.13173219E-06    2          22        22   # BR(A -> gam     gam    )
     1.29306272E-06    2          23        22   # BR(A -> Z       gam    )
     3.13189090E-04    2          23        25   # BR(A -> Z       h      )
     4.09530887E-04    2     1000024  -1000024   # BR(A -> ~chi_1+ ~chi_1-)
     1.17518394E-03    2     1000022   1000022   # BR(A -> ~chi_10 ~chi_10)
     8.32071366E-04    2     1000023   1000023   # BR(A -> ~chi_20 ~chi_20)
     3.28695084E-04    2     1000025   1000025   # BR(A -> ~chi_30 ~chi_30)
     1.14813019E-02    2     1000022   1000023   # BR(A -> ~chi_10 ~chi_20)
     8.07166266E-04    2     1000022   1000025   # BR(A -> ~chi_10 ~chi_30)
     2.84278598E-02    2     1000023   1000025   # BR(A -> ~chi_20 ~chi_30)
#
#         PDG            Width
DECAY        37     3.91755922E+01   # H+ decays
#          BR         NDA      ID1       ID2
     2.27525883E-06    2           4        -5   # BR(H+ -> c       bb     )
     2.38284935E-04    2         -15        16   # BR(H+ -> tau+    nu_tau )
     8.42423324E-07    2         -13        14   # BR(H+ -> mu+     nu_mu  )
     1.44661618E-08    2           2        -5   # BR(H+ -> u       bb     )
     5.21701117E-08    2           2        -3   # BR(H+ -> u       sb     )
     1.03950918E-05    2           4        -3   # BR(H+ -> c       sb     )
     9.55474304E-01    2           6        -5   # BR(H+ -> t       bb     )
     3.20942777E-04    2          24        25   # BR(H+ -> W+      h      )
     7.75015388E-13    2          24        36   # BR(H+ -> W+      A      )
     1.21916236E-02    2     1000024   1000022   # BR(H+ -> ~chi_1+ ~chi_10)
     1.09282651E-04    2     1000024   1000023   # BR(H+ -> ~chi_1+ ~chi_20)
     3.16519831E-02    2     1000024   1000025   # BR(H+ -> ~chi_1+ ~chi_30)
