#
#                              ======================
#                              | THE SUSYHIT OUTPUT |
#                              ======================
#
#
#              ------------------------------------------------------
#              |     This is the output of the SUSY-HIT package     |
#              |  created by A.Djouadi, M.Muehlleitner and M.Spira. |
#              |  In case of problems with SUSY-HIT email to        |
#              |           margarete.muehlleitner@kit.edu           |
#              |           michael.spira@psi.ch                     |
#              |           abdelhak.djouadi@cern.ch                 |
#              ------------------------------------------------------
#
#              ------------------------------------------------------
#              |  SUSY Les Houches Accord - MSSM Spectrum + Decays  |
#              |              based on the decay programs           |
#              |                                                    |
#              |                     SDECAY 1.5a                    |
#              |                                                    |
#              |  Authors: M.Muhlleitner, A.Djouadi and Y.Mambrini  |
#              |  Ref.:    Comput.Phys.Commun.168(2005)46           |
#              |           [hep-ph/0311167]                         |
#              |                                                    |
#              |                     HDECAY 3.4                     |
#              |                                                    |
#              |  By: A.Djouadi,J.Kalinowski,M.Muhlleitner,M.Spira  |
#              |  Ref.:    Comput.Phys.Commun.108(1998)56           |
#              |           [hep-ph/9704448]                         |
#              |                                                    |
#              |                                                    |
#              |  If not stated otherwise all DRbar couplings and   |
#              |  soft SUSY breaking masses are given at the scale  |
#              |  Q=  0.91187600E+02
#              |                                                    |
#              ------------------------------------------------------
#
#
BLOCK DCINFO  # Decay Program information
     1   SDECAY/HDECAY # decay calculator
     2   1.5a /3.4    # version number
#
BLOCK SPINFO  # Spectrum calculator information
     1   SuSpect     # RGE +Spectrum calculator            
     2   2.43         # version number                     
#
BLOCK MODSEL  # Model selection
     1     2   # GMSB                                              
#
BLOCK SMINPUTS  # Standard Model inputs
         1     1.27932904E+02   # alpha_em^-1(M_Z)^MSbar
         2     1.16639000E-05   # G_F [GeV^-2]
         3     1.17200000E-01   # alpha_S(M_Z)^MSbar
         4     9.11870000E+01   # M_Z pole mass
         5     4.25000000E+00   # mb(mb)^MSbar
         6     1.72900000E+02   # mt pole mass
         7     1.77700000E+00   # mtau pole mass
#
BLOCK MINPAR  # Input parameters - minimal models
#
BLOCK EXTPAR  # Input parameters - non-minimal models
         0     9.11876000E+01   # EWSB                
         1     4.55832221E+02   # M_1                 
         2     3.00000000E+03   # M_2                 
         3     1.20000000E+03   # M_3                 
        11     0.00000000E+00   # A_t                 
        12     0.00000000E+00   # A_b                 
        13     0.00000000E+00   # A_tau               
        14     0.00000000E+00   # A_u                 
        15     0.00000000E+00   # A_d                 
        16     0.00000000E+00   # A_e                 
        23    -4.50000000E+02   # mu(EWSB)            
        25     1.50000000E+00   # tanbeta(in)         
        26     2.00000000E+03   # MA_pole             
        31     5.00000000E+03   # M_eL                
        32     5.00000000E+03   # M_muL               
        33     5.00000000E+03   # M_tauL              
        34     5.00000000E+03   # M_eR                
        35     5.00000000E+03   # M_muR               
        36     5.00000000E+03   # M_tauR              
        41     5.00000000E+03   # M_q1L               
        42     5.00000000E+03   # M_q2L               
        43     5.00000000E+03   # M_q3L               
        44     5.00000000E+03   # M_uR                
        45     5.00000000E+03   # M_cR                
        46     5.00000000E+03   # M_tR                
        47     5.00000000E+03   # M_dR                
        48     5.00000000E+03   # M_sR                
        49     5.00000000E+03   # M_bR                
#
BLOCK MASS  # Mass Spectrum
# PDG code           mass       particle
        24     8.05387964E+01   # W+
        25     1.25000000E+02   # h
        35     2.00413779E+03   # H
        36     2.00000000E+03   # A
        37     2.00188537E+03   # H+
         5     4.87877839E+00   # b-quark pole mass calculated from mb(mb)_Msbar
   1000001     5.00013291E+03   # ~d_L
   2000001     5.00002530E+03   # ~d_R
   1000002     4.99989239E+03   # ~u_L
   2000002     4.99994939E+03   # ~u_R
   1000003     5.00013291E+03   # ~s_L
   2000003     5.00002530E+03   # ~s_R
   1000004     4.99989239E+03   # ~c_L
   2000004     4.99994939E+03   # ~c_R
   1000005     4.99989045E+03   # ~b_1
   2000005     5.00026921E+03   # ~b_2
   1000006     4.99767067E+03   # ~t_1
   2000006     5.00678821E+03   # ~t_2
   1000011     5.00008231E+03   # ~e_L
   2000011     5.00007591E+03   # ~e_R
   1000012     4.99984178E+03   # ~nu_eL
   1000013     5.00008231E+03   # ~mu_L
   2000013     5.00007591E+03   # ~mu_R
   1000014     4.99984178E+03   # ~nu_muL
   1000015     4.99995947E+03   # ~tau_1
   2000015     5.00019938E+03   # ~tau_2
   1000016     4.99984178E+03   # ~nu_tauL
   1000021     1.20000000E+03   # ~g
   1000022     4.44352269E+02   # ~chi_10
   1000023    -4.53827899E+02   # ~chi_20
   1000025     4.63471136E+02   # ~chi_30
   1000035     3.00183671E+03   # ~chi_40
   1000024     4.51647765E+02   # ~chi_1+
   1000037     3.00183641E+03   # ~chi_2+
   1000039     4.25622875E-09   # ~gravitino
#
BLOCK NMIX  # Neutralino Mixing Matrix
  1  1     5.38336139E-01   # N_11
  1  2    -4.30454677E-03   # N_12
  1  3    -6.14401250E-01   # N_13
  1  4    -5.76790063E-01   # N_14
  2  1     4.78306904E-02   # N_21
  2  2    -2.24243541E-02   # N_22
  2  3     7.05521091E-01   # N_23
  2  4    -7.06717315E-01   # N_24
  3  1     8.41371655E-01   # N_31
  3  2     4.51039537E-03   # N_32
  3  3     3.53011096E-01   # N_33
  3  4     4.09214564E-01   # N_34
  4  1     4.05163151E-04   # N_41
  4  2    -9.99729101E-01   # N_42
  4  3    -1.15870552E-02   # N_43
  4  4     2.01816858E-02   # N_44
#
BLOCK UMIX  # Chargino Mixing Matrix U
  1  1    -1.63793074E-02   # U_11
  1  2     9.99865850E-01   # U_12
  2  1     9.99865850E-01   # U_21
  2  2     1.63793074E-02   # U_22
#
BLOCK VMIX  # Chargino Mixing Matrix V
  1  1     2.85394888E-02   # V_11
  1  2    -9.99592666E-01   # V_12
  2  1     9.99592666E-01   # V_21
  2  2     2.85394888E-02   # V_22
#
BLOCK STOPMIX  # Stop Mixing Matrix
  1  1     7.09312907E-01   # cos(theta_t)
  1  2    -7.04893751E-01   # sin(theta_t)
  2  1     7.04893751E-01   # -sin(theta_t)
  2  2     7.09312907E-01   # cos(theta_t)
#
BLOCK SBOTMIX  # Sbottom Mixing Matrix
  1  1    -5.98284345E-01   # cos(theta_b)
  1  2     8.01283871E-01   # sin(theta_b)
  2  1    -8.01283871E-01   # -sin(theta_b)
  2  2    -5.98284345E-01   # cos(theta_b)
#
BLOCK STAUMIX  # Stau Mixing Matrix
  1  1    -6.97611651E-01   # cos(theta_tau)
  1  2     7.16476088E-01   # sin(theta_tau)
  2  1    -7.16476088E-01   # -sin(theta_tau)
  2  2    -6.97611651E-01   # cos(theta_tau)
#
BLOCK ALPHA  # Higgs mixing
          -5.90196505E-01   # Mixing angle in the neutral Higgs boson sector
#
BLOCK HMIX Q=  9.11876000E+01  # DRbar Higgs Parameters
         1    -4.50000000E+02   # mu(Q)               
         2     1.49999979E+00   # tanbeta(Q)          
         3     2.51735284E+02   # vev(Q)              
         4     4.10120584E+06   # MA^2(Q)             
#
BLOCK GAUGE Q=  9.11876000E+01  # The gauge couplings
     1     3.52956989E-01   # gprime(Q) DRbar
     2     6.28284892E-01   # g(Q) DRbar
     3     1.08870483E+00   # g3(Q) DRbar
#
BLOCK AU Q=  9.11876000E+01  # The trilinear couplings
  1  1     0.00000000E+00   # A_u(Q) DRbar
  2  2     0.00000000E+00   # A_c(Q) DRbar
  3  3     0.00000000E+00   # A_t(Q) DRbar
#
BLOCK AD Q=  9.11876000E+01  # The trilinear couplings
  1  1     0.00000000E+00   # A_d(Q) DRbar
  2  2     0.00000000E+00   # A_s(Q) DRbar
  3  3     0.00000000E+00   # A_b(Q) DRbar
#
BLOCK AE Q=  9.11876000E+01  # The trilinear couplings
  1  1     0.00000000E+00   # A_e(Q) DRbar
  2  2     0.00000000E+00   # A_mu(Q) DRbar
  3  3     0.00000000E+00   # A_tau(Q) DRbar
#
BLOCK Yu Q=  9.11876000E+01  # The Yukawa couplings
  1  1     0.00000000E+00   # y_u(Q) DRbar
  2  2     0.00000000E+00   # y_c(Q) DRbar
  3  3     1.02643871E+00   # y_t(Q) DRbar
#
BLOCK Yd Q=  9.11876000E+01  # The Yukawa couplings
  1  1     0.00000000E+00   # y_d(Q) DRbar
  2  2     0.00000000E+00   # y_s(Q) DRbar
  3  3     2.72444776E-02   # y_b(Q) DRbar
#
BLOCK Ye Q=  9.11876000E+01  # The Yukawa couplings
  1  1     0.00000000E+00   # y_e(Q) DRbar
  2  2     0.00000000E+00   # y_mu(Q) DRbar
  3  3     1.79916949E-02   # y_tau(Q) DRbar
#
BLOCK MSOFT Q=  9.11876000E+01  # The soft SUSY breaking masses at the scale Q
         1     4.55832221E+02   # M_1                 
         2     3.00000000E+03   # M_2                 
         3     1.20000000E+03   # M_3                 
        14     0.00000000E+00   # A_u                 
        15     0.00000000E+00   # A_d                 
        16     0.00000000E+00   # A_e                 
        21     2.83632557E+06   # M^2_Hd              
        22    -5.68567445E+06   # M^2_Hu              
        31     5.00000000E+03   # M_eL                
        32     5.00000000E+03   # M_muL               
        33     5.00000000E+03   # M_tauL              
        34     5.00000000E+03   # M_eR                
        35     5.00000000E+03   # M_muR               
        36     5.00000000E+03   # M_tauR              
        41     5.00000000E+03   # M_q1L               
        42     5.00000000E+03   # M_q2L               
        43     5.00000000E+03   # M_q3L               
        44     5.00000000E+03   # M_uR                
        45     5.00000000E+03   # M_cR                
        46     5.00000000E+03   # M_tR                
        47     5.00000000E+03   # M_dR                
        48     5.00000000E+03   # M_sR                
        49     5.00000000E+03   # M_bR                
#
#
#
#                             =================
#                             |The decay table|
#                             =================
#
# - The QCD corrections to the decays gluino -> squark  + quark
#                                     squark -> gaugino + quark_prime
#                                     squark -> squark_prime + Higgs
#                                     squark -> gluino  + quark
#   are included.
#
# - The multi-body decays for the inos, stops and sbottoms are included.
#
# - The loop induced decays for the gluino, neutralinos and stops
#   are included.
#
# - The SUSY decays of the top quark are included.
#
# - Possible decays of the NLSP in GMSB models are included.
#
#
#         PDG            Width
DECAY         6     1.37543698E+00   # top decays
#          BR         NDA      ID1       ID2
     1.00000000E+00    2           5        24   # BR(t ->  b    W+)
#
#         PDG            Width
DECAY   1000021     9.60475799E-05   # gluino decays
#          BR         NDA      ID1       ID2
     3.02141232E-02    2     1000022        21   # BR(~g -> ~chi_10 g)
     4.41664905E-02    2     1000023        21   # BR(~g -> ~chi_20 g)
     1.45655150E-02    2     1000025        21   # BR(~g -> ~chi_30 g)
#          BR         NDA      ID1       ID2
     0.00000000E+00    2     1000039        21   # BR(~g -> ~G      g)
#           BR         NDA      ID1       ID2       ID3
     2.91438259E-03    3     1000022         1        -1   # BR(~g -> ~chi_10 d  db)
     2.98751152E-05    3     1000023         1        -1   # BR(~g -> ~chi_20 d  db)
     6.38207952E-03    3     1000025         1        -1   # BR(~g -> ~chi_30 d  db)
     9.69194081E-03    3     1000022         2        -2   # BR(~g -> ~chi_10 u  ub)
     3.35242450E-05    3     1000023         2        -2   # BR(~g -> ~chi_20 u  ub)
     2.20235738E-02    3     1000025         2        -2   # BR(~g -> ~chi_30 u  ub)
     2.91438259E-03    3     1000022         3        -3   # BR(~g -> ~chi_10 s  sb)
     2.98751152E-05    3     1000023         3        -3   # BR(~g -> ~chi_20 s  sb)
     6.38207952E-03    3     1000025         3        -3   # BR(~g -> ~chi_30 s  sb)
     9.69194081E-03    3     1000022         4        -4   # BR(~g -> ~chi_10 c  cb)
     3.35242450E-05    3     1000023         4        -4   # BR(~g -> ~chi_20 c  cb)
     2.20235738E-02    3     1000025         4        -4   # BR(~g -> ~chi_30 c  cb)
     3.12036214E-03    3     1000022         5        -5   # BR(~g -> ~chi_10 b  bb)
     2.42411795E-04    3     1000023         5        -5   # BR(~g -> ~chi_20 b  bb)
     6.40156156E-03    3     1000025         5        -5   # BR(~g -> ~chi_30 b  bb)
     1.16435323E-01    3     1000022         6        -6   # BR(~g -> ~chi_10 t  tb)
     1.42358711E-01    3     1000023         6        -6   # BR(~g -> ~chi_20 t  tb)
     8.99923547E-02    3     1000025         6        -6   # BR(~g -> ~chi_30 t  tb)
     2.73894468E-05    3     1000024         1        -2   # BR(~g -> ~chi_1+ d  ub)
     2.73894468E-05    3    -1000024         2        -1   # BR(~g -> ~chi_1- u  db)
     2.73894468E-05    3     1000024         3        -4   # BR(~g -> ~chi_1+ s  cb)
     2.73894468E-05    3    -1000024         4        -3   # BR(~g -> ~chi_1- c  sb)
     2.34298179E-01    3     1000024         5        -6   # BR(~g -> ~chi_1+ b  tb)
     2.34298179E-01    3    -1000024         6        -5   # BR(~g -> ~chi_1- t  bb)
#
#         PDG            Width
DECAY   1000006     3.49155284E+02   # stop1 decays
#          BR         NDA      ID1       ID2
     5.39608167E-02    2     1000022         6   # BR(~t_1 -> ~chi_10 t )
     9.76900642E-02    2     1000023         6   # BR(~t_1 -> ~chi_20 t )
     6.58888127E-02    2     1000025         6   # BR(~t_1 -> ~chi_30 t )
     1.20358174E-02    2     1000035         6   # BR(~t_1 -> ~chi_40 t )
     9.80252371E-02    2     1000024         5   # BR(~t_1 -> ~chi_1+ b )
     2.40298608E-02    2     1000037         5   # BR(~t_1 -> ~chi_2+ b )
     6.48369391E-01    2     1000021         6   # BR(~t_1 -> ~g      t )
#
#         PDG            Width
DECAY   2000006     3.57712350E+02   # stop2 decays
#          BR         NDA      ID1       ID2
     8.89254211E-02    2     1000022         6   # BR(~t_2 -> ~chi_10 t )
     1.03936358E-01    2     1000023         6   # BR(~t_2 -> ~chi_20 t )
     2.46242866E-02    2     1000025         6   # BR(~t_2 -> ~chi_30 t )
     1.00718221E-02    2     1000035         6   # BR(~t_2 -> ~chi_40 t )
     1.04065462E-01    2     1000024         5   # BR(~t_2 -> ~chi_1+ b )
     2.00989705E-02    2     1000037         5   # BR(~t_2 -> ~chi_2+ b )
     6.48277680E-01    2     1000021         6   # BR(~t_2 -> ~g      t )
#
#         PDG            Width
DECAY   1000005     2.74624903E+02   # sbottom1 decays
#          BR         NDA      ID1       ID2
     2.63815813E-03    2     1000022         5   # BR(~b_1 -> ~chi_10 b )
     6.63958185E-06    2     1000023         5   # BR(~b_1 -> ~chi_20 b )
     3.91634976E-03    2     1000025         5   # BR(~b_1 -> ~chi_30 b )
     1.23869644E-02    2     1000035         5   # BR(~b_1 -> ~chi_40 b )
     1.21542358E-01    2    -1000024         6   # BR(~b_1 -> ~chi_1- t )
     2.48247183E-02    2    -1000037         6   # BR(~b_1 -> ~chi_2- t )
     8.34684812E-01    2     1000021         5   # BR(~b_1 -> ~g      b )
#
#         PDG            Width
DECAY   2000005     2.81985493E+02   # sbottom2 decays
#          BR         NDA      ID1       ID2
     9.90831016E-04    2     1000022         5   # BR(~b_2 -> ~chi_10 b )
     2.57450696E-04    2     1000023         5   # BR(~b_2 -> ~chi_20 b )
     4.34968347E-03    2     1000025         5   # BR(~b_2 -> ~chi_30 b )
     1.55016768E-02    2     1000035         5   # BR(~b_2 -> ~chi_40 b )
     1.34548948E-01    2    -1000024         6   # BR(~b_2 -> ~chi_1- t )
     3.10622551E-02    2    -1000037         6   # BR(~b_2 -> ~chi_2- t )
     8.13289155E-01    2     1000021         5   # BR(~b_2 -> ~g      b )
#
#         PDG            Width
DECAY   1000002     2.53275072E+02   # sup_L decays
#          BR         NDA      ID1       ID2
     6.86965495E-04    2     1000022         2   # BR(~u_L -> ~chi_10 u)
     1.33699240E-05    2     1000023         2   # BR(~u_L -> ~chi_20 u)
     1.93473125E-03    2     1000025         2   # BR(~u_L -> ~chi_30 u)
     3.06764586E-02    2     1000035         2   # BR(~u_L -> ~chi_40 u)
     1.20098998E-04    2     1000024         1   # BR(~u_L -> ~chi_1+ d)
     6.13454970E-02    2     1000037         1   # BR(~u_L -> ~chi_2+ d)
     9.05222879E-01    2     1000021         2   # BR(~u_L -> ~g      u)
#
#         PDG            Width
DECAY   2000002     2.39745454E+02   # sup_R decays
#          BR         NDA      ID1       ID2
     1.26708622E-02    2     1000022         2   # BR(~u_R -> ~chi_10 u)
     9.99578056E-05    2     1000023         2   # BR(~u_R -> ~chi_20 u)
     3.09080501E-02    2     1000025         2   # BR(~u_R -> ~chi_30 u)
     2.98697968E-09    2     1000035         2   # BR(~u_R -> ~chi_40 u)
     9.56321127E-01    2     1000021         2   # BR(~u_R -> ~g      u)
#
#         PDG            Width
DECAY   1000001     2.53277313E+02   # sdown_L decays
#          BR         NDA      ID1       ID2
     8.15033947E-04    2     1000022         1   # BR(~d_L -> ~chi_10 d)
     7.25943331E-05    2     1000023         1   # BR(~d_L -> ~chi_20 d)
     1.72541634E-03    2     1000025         1   # BR(~d_L -> ~chi_30 d)
     3.06902817E-02    2     1000035         1   # BR(~d_L -> ~chi_40 d)
     3.95599631E-05    2    -1000024         2   # BR(~d_L -> ~chi_1- u)
     6.13880524E-02    2    -1000037         2   # BR(~d_L -> ~chi_2- u)
     9.05269061E-01    2     1000021         1   # BR(~d_L -> ~g      d)
#
#         PDG            Width
DECAY   2000001     2.31895968E+02   # sdown_R decays
#          BR         NDA      ID1       ID2
     3.27499156E-03    2     1000022         1   # BR(~d_R -> ~chi_10 d)
     2.58357301E-05    2     1000023         1   # BR(~d_R -> ~chi_20 d)
     7.98869135E-03    2     1000025         1   # BR(~d_R -> ~chi_30 d)
     7.72059575E-10    2     1000035         1   # BR(~d_R -> ~chi_40 d)
     9.88710481E-01    2     1000021         1   # BR(~d_R -> ~g      d)
#
#         PDG            Width
DECAY   1000004     2.53275072E+02   # scharm_L decays
#          BR         NDA      ID1       ID2
     6.86965495E-04    2     1000022         4   # BR(~c_L -> ~chi_10 c)
     1.33699240E-05    2     1000023         4   # BR(~c_L -> ~chi_20 c)
     1.93473125E-03    2     1000025         4   # BR(~c_L -> ~chi_30 c)
     3.06764586E-02    2     1000035         4   # BR(~c_L -> ~chi_40 c)
     1.20098998E-04    2     1000024         3   # BR(~c_L -> ~chi_1+ s)
     6.13454970E-02    2     1000037         3   # BR(~c_L -> ~chi_2+ s)
     9.05222879E-01    2     1000021         4   # BR(~c_L -> ~g      c)
#
#         PDG            Width
DECAY   2000004     2.39745454E+02   # scharm_R decays
#          BR         NDA      ID1       ID2
     1.26708622E-02    2     1000022         4   # BR(~c_R -> ~chi_10 c)
     9.99578056E-05    2     1000023         4   # BR(~c_R -> ~chi_20 c)
     3.09080501E-02    2     1000025         4   # BR(~c_R -> ~chi_30 c)
     2.98697968E-09    2     1000035         4   # BR(~c_R -> ~chi_40 c)
     9.56321127E-01    2     1000021         4   # BR(~c_R -> ~g      c)
#
#         PDG            Width
DECAY   1000003     2.53277313E+02   # sstrange_L decays
#          BR         NDA      ID1       ID2
     8.15033947E-04    2     1000022         3   # BR(~s_L -> ~chi_10 s)
     7.25943331E-05    2     1000023         3   # BR(~s_L -> ~chi_20 s)
     1.72541634E-03    2     1000025         3   # BR(~s_L -> ~chi_30 s)
     3.06902817E-02    2     1000035         3   # BR(~s_L -> ~chi_40 s)
     3.95599631E-05    2    -1000024         4   # BR(~s_L -> ~chi_1- c)
     6.13880524E-02    2    -1000037         4   # BR(~s_L -> ~chi_2- c)
     9.05269061E-01    2     1000021         3   # BR(~s_L -> ~g      s)
#
#         PDG            Width
DECAY   2000003     2.31895968E+02   # sstrange_R decays
#          BR         NDA      ID1       ID2
     3.27499156E-03    2     1000022         3   # BR(~s_R -> ~chi_10 s)
     2.58357301E-05    2     1000023         3   # BR(~s_R -> ~chi_20 s)
     7.98869135E-03    2     1000025         3   # BR(~s_R -> ~chi_30 s)
     7.72059575E-10    2     1000035         3   # BR(~s_R -> ~chi_40 s)
     9.88710481E-01    2     1000021         3   # BR(~s_R -> ~g      s)
#
#         PDG            Width
DECAY   1000011     3.02027169E+01   # selectron_L decays
#          BR         NDA      ID1       ID2
     5.68647382E-02    2     1000022        11   # BR(~e_L -> ~chi_10 e-)
     1.26380270E-05    2     1000023        11   # BR(~e_L -> ~chi_20 e-)
     1.45480475E-01    2     1000025        11   # BR(~e_L -> ~chi_30 e-)
     2.65637164E-01    2     1000035        11   # BR(~e_L -> ~chi_40 e-)
     3.43122787E-04    2    -1000024        12   # BR(~e_L -> ~chi_1- nu_e)
     5.31661862E-01    2    -1000037        12   # BR(~e_L -> ~chi_2- nu_e)
#
#         PDG            Width
DECAY   2000011     2.43703714E+01   # selectron_R decays
#          BR         NDA      ID1       ID2
     2.90093589E-01    2     1000022        11   # BR(~e_R -> ~chi_10 e-)
     2.28847550E-03    2     1000023        11   # BR(~e_R -> ~chi_20 e-)
     7.07617868E-01    2     1000025        11   # BR(~e_R -> ~chi_30 e-)
     6.82895435E-08    2     1000035        11   # BR(~e_R -> ~chi_40 e-)
#
#         PDG            Width
DECAY   1000013     3.02027169E+01   # smuon_L decays
#          BR         NDA      ID1       ID2
     5.68647382E-02    2     1000022        13   # BR(~mu_L -> ~chi_10 mu-)
     1.26380270E-05    2     1000023        13   # BR(~mu_L -> ~chi_20 mu-)
     1.45480475E-01    2     1000025        13   # BR(~mu_L -> ~chi_30 mu-)
     2.65637164E-01    2     1000035        13   # BR(~mu_L -> ~chi_40 mu-)
     3.43122787E-04    2    -1000024        14   # BR(~mu_L -> ~chi_1- nu_mu)
     5.31661862E-01    2    -1000037        14   # BR(~mu_L -> ~chi_2- nu_mu)
#
#         PDG            Width
DECAY   2000013     2.43703714E+01   # smuon_R decays
#          BR         NDA      ID1       ID2
     2.90093589E-01    2     1000022        13   # BR(~mu_R -> ~chi_10 mu-)
     2.28847550E-03    2     1000023        13   # BR(~mu_R -> ~chi_20 mu-)
     7.07617868E-01    2     1000025        13   # BR(~mu_R -> ~chi_30 mu-)
     6.82895435E-08    2     1000035        13   # BR(~mu_R -> ~chi_40 mu-)
#
#         PDG            Width
DECAY   1000015     2.72390925E+01   # stau_1 decays
#          BR         NDA      ID1       ID2
     1.69757375E-01    2     1000022        15   # BR(~tau_1 -> ~chi_10  tau-)
     6.38483236E-04    2     1000023        15   # BR(~tau_1 -> ~chi_20  tau-)
     3.98867810E-01    2     1000025        15   # BR(~tau_1 -> ~chi_30  tau-)
     1.43467758E-01    2     1000035        15   # BR(~tau_1 -> ~chi_40  tau-)
     1.17121938E-04    2    -1000024        16   # BR(~tau_1 -> ~chi_1-  nu_tau)
     2.87144161E-01    2    -1000037        16   # BR(~tau_1 -> ~chi_2-  nu_tau)
     7.29081820E-06    2     1000039        15   # BR(~tau_1 -> ~G       tau-)
#
#         PDG            Width
DECAY   2000015     2.74292180E+01   # stau_2 decays
#          BR         NDA      ID1       ID2
     1.52649578E-01    2     1000022        15   # BR(~tau_2 -> ~chi_10  tau-)
     2.56278858E-03    2     1000023        15   # BR(~tau_2 -> ~chi_20  tau-)
     3.93080533E-01    2     1000025        15   # BR(~tau_2 -> ~chi_30  tau-)
     1.50023922E-01    2     1000035        15   # BR(~tau_2 -> ~chi_40  tau-)
     1.41606942E-03    2    -1000024        16   # BR(~tau_2 -> ~chi_1-  nu_tau)
     3.00267109E-01    2    -1000037        16   # BR(~tau_2 -> ~chi_2-  nu_tau)
#
#         PDG            Width
DECAY   1000012     3.02008884E+01   # snu_eL decays
#          BR         NDA      ID1       ID2
     6.01970768E-02    2     1000022        12   # BR(~nu_eL -> ~chi_10 nu_e)
     1.55368489E-03    2     1000023        12   # BR(~nu_eL -> ~chi_20 nu_e)
     1.40033482E-01    2     1000025        12   # BR(~nu_eL -> ~chi_30 nu_e)
     2.65853662E-01    2     1000035        12   # BR(~nu_eL -> ~chi_40 nu_e)
     1.04173100E-03    2     1000024        11   # BR(~nu_eL -> ~chi_1+ e-)
     5.31320364E-01    2     1000037        11   # BR(~nu_eL -> ~chi_2+ e-)
#
#         PDG            Width
DECAY   1000014     3.02008884E+01   # snu_muL decays
#          BR         NDA      ID1       ID2
     6.01970768E-02    2     1000022        14   # BR(~nu_muL -> ~chi_10 nu_mu)
     1.55368489E-03    2     1000023        14   # BR(~nu_muL -> ~chi_20 nu_mu)
     1.40033482E-01    2     1000025        14   # BR(~nu_muL -> ~chi_30 nu_mu)
     2.65853662E-01    2     1000035        14   # BR(~nu_muL -> ~chi_40 nu_mu)
     1.04173100E-03    2     1000024        13   # BR(~nu_muL -> ~chi_1+ mu-)
     5.31320364E-01    2     1000037        13   # BR(~nu_muL -> ~chi_2+ mu-)
#
#         PDG            Width
DECAY   1000016     3.02325625E+01   # snu_tauL decays
#          BR         NDA      ID1       ID2
     6.01340096E-02    2     1000022        16   # BR(~nu_tauL -> ~chi_10 nu_tau)
     1.55205712E-03    2     1000023        16   # BR(~nu_tauL -> ~chi_20 nu_tau)
     1.39886772E-01    2     1000025        16   # BR(~nu_tauL -> ~chi_30 nu_tau)
     2.65575132E-01    2     1000035        16   # BR(~nu_tauL -> ~chi_40 nu_tau)
     2.08819785E-03    2     1000024        15   # BR(~nu_tauL -> ~chi_1+ tau-)
     5.30763832E-01    2     1000037        15   # BR(~nu_tauL -> ~chi_2+ tau-)
#
#         PDG            Width
DECAY   1000024     1.53293659E-08   # chargino1+ decays
#          BR         NDA      ID1       ID2
     3.44095885E-02    2     1000039        24   # BR(~chi_1+ -> ~G       W+)
#           BR         NDA      ID1       ID2       ID3
     3.50989365E-01    3     1000022         2        -1   # BR(~chi_1+ -> ~chi_10 u    db)
     2.92703532E-01    3     1000022         4        -3   # BR(~chi_1+ -> ~chi_10 c    sb)
     1.16997093E-01    3     1000022       -11        12   # BR(~chi_1+ -> ~chi_10 e+   nu_e)
     1.16874574E-01    3     1000022       -13        14   # BR(~chi_1+ -> ~chi_10 mu+  nu_mu)
     8.80258468E-02    3     1000022       -15        16   # BR(~chi_1+ -> ~chi_10 tau+ nu_tau)
#
#         PDG            Width
DECAY   1000037     2.67348215E+01   # chargino2+ decays
#          BR         NDA      ID1       ID2
     1.58866655E-01    2     1000024        23   # BR(~chi_2+ -> ~chi_1+  Z )
     1.05653777E-01    2     1000022        24   # BR(~chi_2+ -> ~chi_10  W+)
     1.54113847E-01    2     1000023        24   # BR(~chi_2+ -> ~chi_20  W+)
     5.01546279E-02    2     1000025        24   # BR(~chi_2+ -> ~chi_30  W+)
     1.59401523E-01    2     1000024        25   # BR(~chi_2+ -> ~chi_1+  h )
     9.27713025E-02    2     1000024        35   # BR(~chi_2+ -> ~chi_1+  H )
     9.31524134E-02    2     1000024        36   # BR(~chi_2+ -> ~chi_1+  A )
     6.69796696E-02    2     1000022        37   # BR(~chi_2+ -> ~chi_10  H+)
     9.27509014E-02    2     1000023        37   # BR(~chi_2+ -> ~chi_20  H+)
     2.61547049E-02    2     1000025        37   # BR(~chi_2+ -> ~chi_30  H+)
     5.77687865E-07    2     1000039        24   # BR(~chi_2+ -> ~G       W+)
     1.20168346E-11    2     1000039        37   # BR(~chi_2+ -> ~G       H+)
#
#         PDG            Width
DECAY   1000022     1.0E-05   # neutralino1 decays
#          BR         NDA      ID1       ID2
     4.12608546E-01    2     1000039        22   # BR(~chi_10 -> ~G        gam)
     1.29188281E-01    2     1000039        23   # BR(~chi_10 -> ~G        Z)
     4.58203173E-01    2     1000039        25   # BR(~chi_10 -> ~G        h)
#
#         PDG            Width
DECAY   1000023     1.0E-05   # neutralino2 decays
#          BR         NDA      ID1       ID2
     1.56415644E-02    2     1000022        22   # BR(~chi_20 -> ~chi_10 gam)
#          BR         NDA      ID1       ID2
     2.71820828E-05    2     1000039        22   # BR(~chi_20 -> ~G        gam)
     1.17612080E-02    2     1000039        23   # BR(~chi_20 -> ~G        Z)
     3.97518743E-04    2     1000039        25   # BR(~chi_20 -> ~G        h)
#           BR         NDA      ID1       ID2       ID3
     1.37775803E-01    3     1000022        -2         2   # BR(~chi_20 -> ~chi_10 ub      u)
     1.78356553E-01    3     1000022        -1         1   # BR(~chi_20 -> ~chi_10 db      d)
     1.18778409E-01    3     1000022        -4         4   # BR(~chi_20 -> ~chi_10 cb      c)
     1.77769397E-01    3     1000022        -3         3   # BR(~chi_20 -> ~chi_10 sb      s)
     4.07140059E-02    3     1000022       -11        11   # BR(~chi_20 -> ~chi_10 e+      e-)
     4.06880799E-02    3     1000022       -13        13   # BR(~chi_20 -> ~chi_10 mu+     mu-)
     3.26827241E-02    3     1000022       -15        15   # BR(~chi_20 -> ~chi_10 tau+    tau-)
     8.12973431E-02    3     1000022       -12        12   # BR(~chi_20 -> ~chi_10 nu_eb   nu_e)
     8.12973431E-02    3     1000022       -14        14   # BR(~chi_20 -> ~chi_10 nu_mub  nu_mu)
     8.12973431E-02    3     1000022       -16        16   # BR(~chi_20 -> ~chi_10 nu_taub nu_tau)
     4.29347778E-04    3     1000024        -2         1   # BR(~chi_20 -> ~chi_1+ ub      d)
     4.29347778E-04    3    -1000024        -1         2   # BR(~chi_20 -> ~chi_1- db      u)
     4.18142370E-05    3     1000024        -4         3   # BR(~chi_20 -> ~chi_1+ cb      s)
     4.18142370E-05    3    -1000024        -3         4   # BR(~chi_20 -> ~chi_1- sb      c)
     1.43115942E-04    3     1000024       -12        11   # BR(~chi_20 -> ~chi_1+ nu_eb   e-)
     1.43115942E-04    3    -1000024        12       -11   # BR(~chi_20 -> ~chi_1- nu_e    e+)
     1.41455869E-04    3     1000024       -14        13   # BR(~chi_20 -> ~chi_1+ nu_mub  mu-)
     1.41455869E-04    3    -1000024        14       -13   # BR(~chi_20 -> ~chi_1- nu_mu   mu+)
     2.02875185E-06    3     1000024       -16        15   # BR(~chi_20 -> ~chi_1+ nu_taub tau-)
     2.02875185E-06    3    -1000024        16       -15   # BR(~chi_20 -> ~chi_1- nu_tau  tau+)
#
#         PDG            Width
DECAY   1000025     1.0E-05   # neutralino3 decays
#          BR         NDA      ID1       ID2
     8.72045402E-01    2     1000022        22   # BR(~chi_30 -> ~chi_10 gam)
     2.61260855E-02    2     1000023        22   # BR(~chi_30 -> ~chi_20 gam)
#          BR         NDA      ID1       ID2
     4.52290547E-04    2     1000039        22   # BR(~chi_30 -> ~G        gam)
     1.26323624E-04    2     1000039        23   # BR(~chi_30 -> ~G        Z)
     8.88755575E-05    2     1000039        25   # BR(~chi_30 -> ~G        h)
#           BR         NDA      ID1       ID2       ID3
     1.87047624E-04    3     1000022        -2         2   # BR(~chi_30 -> ~chi_10 ub      u)
     2.43374979E-04    3     1000022        -1         1   # BR(~chi_30 -> ~chi_10 db      d)
     1.73923190E-04    3     1000022        -4         4   # BR(~chi_30 -> ~chi_10 cb      c)
     2.43093996E-04    3     1000022        -3         3   # BR(~chi_30 -> ~chi_10 sb      s)
     1.09110392E-04    3     1000022        -5         5   # BR(~chi_30 -> ~chi_10 bb      b)
     5.65230960E-05    3     1000022       -11        11   # BR(~chi_30 -> ~chi_10 e+      e-)
     5.64974112E-05    3     1000022       -13        13   # BR(~chi_30 -> ~chi_10 mu+     mu-)
     4.97814245E-05    3     1000022       -15        15   # BR(~chi_30 -> ~chi_10 tau+    tau-)
     1.10424052E-04    3     1000022       -12        12   # BR(~chi_30 -> ~chi_10 nu_eb   nu_e)
     1.10424052E-04    3     1000022       -14        14   # BR(~chi_30 -> ~chi_10 nu_mub  nu_mu)
     1.10424052E-04    3     1000022       -16        16   # BR(~chi_30 -> ~chi_10 nu_taub nu_tau)
     1.60864281E-03    3     1000023        -2         2   # BR(~chi_30 -> ~chi_20 ub      u)
     2.08250290E-03    3     1000023        -1         1   # BR(~chi_30 -> ~chi_20 db      d)
     1.39437292E-03    3     1000023        -4         4   # BR(~chi_30 -> ~chi_20 cb      c)
     2.07588390E-03    3     1000023        -3         3   # BR(~chi_30 -> ~chi_20 sb      s)
     4.75407253E-04    3     1000023       -11        11   # BR(~chi_30 -> ~chi_20 e+      e-)
     4.75114783E-04    3     1000023       -13        13   # BR(~chi_30 -> ~chi_20 mu+     mu-)
     3.84979197E-04    3     1000023       -15        15   # BR(~chi_30 -> ~chi_20 tau+    tau-)
     9.49195113E-04    3     1000023       -12        12   # BR(~chi_30 -> ~chi_20 nu_eb   nu_e)
     9.49195113E-04    3     1000023       -14        14   # BR(~chi_30 -> ~chi_20 nu_mub  nu_mu)
     9.49195113E-04    3     1000023       -16        16   # BR(~chi_30 -> ~chi_20 nu_taub nu_tau)
     1.52484149E-02    3     1000024        -2         1   # BR(~chi_30 -> ~chi_1+ ub      d)
     1.52484149E-02    3    -1000024        -1         2   # BR(~chi_30 -> ~chi_1- db      u)
     1.42172294E-02    3     1000024        -4         3   # BR(~chi_30 -> ~chi_1+ cb      s)
     1.42172294E-02    3    -1000024        -3         4   # BR(~chi_30 -> ~chi_1- sb      c)
     5.08273254E-03    3     1000024       -12        11   # BR(~chi_30 -> ~chi_1+ nu_eb   e-)
     5.08273254E-03    3    -1000024        12       -11   # BR(~chi_30 -> ~chi_1- nu_e    e+)
     5.08070428E-03    3     1000024       -14        13   # BR(~chi_30 -> ~chi_1+ nu_mub  mu-)
     5.08070428E-03    3    -1000024        14       -13   # BR(~chi_30 -> ~chi_1- nu_mu   mu+)
     4.55387356E-03    3     1000024       -16        15   # BR(~chi_30 -> ~chi_1+ nu_taub tau-)
     4.55387356E-03    3    -1000024        16       -15   # BR(~chi_30 -> ~chi_1- nu_tau  tau+)
#
#         PDG            Width
DECAY   1000035     2.67351762E+01   # neutralino4 decays
#          BR         NDA      ID1       ID2
     1.03579434E-01    2     1000022        23   # BR(~chi_40 -> ~chi_10   Z )
     1.08576751E-02    2     1000023        23   # BR(~chi_40 -> ~chi_20   Z )
     4.46205165E-02    2     1000025        23   # BR(~chi_40 -> ~chi_30   Z )
     1.54765305E-01    2     1000024       -24   # BR(~chi_40 -> ~chi_1+   W-)
     1.54765305E-01    2    -1000024        24   # BR(~chi_40 -> ~chi_1-   W+)
     4.79888943E-03    2     1000022        25   # BR(~chi_40 -> ~chi_10   h )
     6.56197145E-02    2     1000022        35   # BR(~chi_40 -> ~chi_10   H )
     1.20538982E-03    2     1000022        36   # BR(~chi_40 -> ~chi_10   A )
     1.47993820E-01    2     1000023        25   # BR(~chi_40 -> ~chi_20   h )
     1.10822410E-03    2     1000023        35   # BR(~chi_40 -> ~chi_20   H )
     9.17409034E-02    2     1000023        36   # BR(~chi_40 -> ~chi_20   A )
     6.81380884E-03    2     1000025        25   # BR(~chi_40 -> ~chi_30   h )
     2.60109455E-02    2     1000025        35   # BR(~chi_40 -> ~chi_30   H )
     9.52431494E-05    2     1000025        36   # BR(~chi_40 -> ~chi_30   A )
     9.30121243E-02    2     1000024       -37   # BR(~chi_40 -> ~chi_1+   H-)
     9.30121243E-02    2    -1000024        37   # BR(~chi_40 -> ~chi_1-   H+)
     1.38718508E-07    2     1000039        22   # BR(~chi_40 -> ~G        gam)
     4.38913456E-07    2     1000039        23   # BR(~chi_40 -> ~G        Z)
     3.06356590E-11    2     1000039        25   # BR(~chi_40 -> ~G        h)
     1.18954299E-11    2     1000039        35   # BR(~chi_40 -> ~G        H)
     6.68872642E-14    2     1000039        36   # BR(~chi_40 -> ~G        A)
#
#         PDG            Width
DECAY        25     4.08092966E-03   # h decays
#          BR         NDA      ID1       ID2
     6.17259698E-01    2           5        -5   # BR(h -> b       bb     )
     6.38218510E-02    2         -15        15   # BR(h -> tau+    tau-   )
     2.25905847E-04    2         -13        13   # BR(h -> mu+     mu-    )
     4.78715026E-04    2           3        -3   # BR(h -> s       sb     )
     2.06532854E-02    2           4        -4   # BR(h -> c       cb     )
     6.70626627E-02    2          21        21   # BR(h -> g       g      )
     2.29573989E-03    2          22        22   # BR(h -> gam     gam    )
     1.53916725E-03    2          22        23   # BR(h -> Z       gam    )
     2.01015963E-01    2          24       -24   # BR(h -> W+      W-     )
     2.56470124E-02    2          23        23   # BR(h -> Z       Z      )
#
#         PDG            Width
DECAY        35     3.95395026E+01   # H decays
#          BR         NDA      ID1       ID2
     1.41274064E-03    2           5        -5   # BR(H -> b       bb     )
     2.35666103E-04    2         -15        15   # BR(H -> tau+    tau-   )
     8.33167414E-07    2         -13        13   # BR(H -> mu+     mu-    )
     1.06674940E-06    2           3        -3   # BR(H -> s       sb     )
     9.62688289E-06    2           4        -4   # BR(H -> c       cb     )
     9.52538901E-01    2           6        -6   # BR(H -> t       tb     )
     7.62793005E-04    2          21        21   # BR(H -> g       g      )
     2.54637641E-06    2          22        22   # BR(H -> gam     gam    )
     1.10867828E-06    2          23        22   # BR(H -> Z       gam    )
     3.18449299E-04    2          24       -24   # BR(H -> W+      W-     )
     1.58790326E-04    2          23        23   # BR(H -> Z       Z      )
     8.65671228E-04    2          25        25   # BR(H -> h       h      )
     8.28953556E-24    2          36        36   # BR(H -> A       A      )
     3.30992579E-11    2          23        36   # BR(H -> Z       A      )
     3.85535687E-12    2          24       -37   # BR(H -> W+      H-     )
     3.85535687E-12    2         -24        37   # BR(H -> W-      H+     )
     6.54072110E-05    2     1000024  -1000024   # BR(H -> ~chi_1+ ~chi_1-)
     1.80843000E-02    2     1000022   1000022   # BR(H -> ~chi_10 ~chi_10)
     2.60156131E-05    2     1000023   1000023   # BR(H -> ~chi_20 ~chi_20)
     1.59678149E-02    2     1000025   1000025   # BR(H -> ~chi_30 ~chi_30)
     5.05961934E-05    2     1000022   1000023   # BR(H -> ~chi_10 ~chi_20)
     7.16772473E-03    2     1000022   1000025   # BR(H -> ~chi_10 ~chi_30)
     2.32994778E-03    2     1000023   1000025   # BR(H -> ~chi_20 ~chi_30)
#
#         PDG            Width
DECAY        36     3.99758377E+01   # A decays
#          BR         NDA      ID1       ID2
     1.41577582E-03    2           5        -5   # BR(A -> b       bb     )
     2.33296334E-04    2         -15        15   # BR(A -> tau+    tau-   )
     8.24786819E-07    2         -13        13   # BR(A -> mu+     mu-    )
     1.08736235E-06    2           3        -3   # BR(A -> s       sb     )
     9.52876154E-06    2           4        -4   # BR(A -> c       cb     )
     9.53660042E-01    2           6        -6   # BR(A -> t       tb     )
     9.02657347E-04    2          21        21   # BR(A -> g       g      )
     3.13173800E-06    2          22        22   # BR(A -> gam     gam    )
     1.29306686E-06    2          23        22   # BR(A -> Z       gam    )
     3.10417840E-04    2          23        25   # BR(A -> Z       h      )
     4.09507389E-04    2     1000024  -1000024   # BR(A -> ~chi_1+ ~chi_1-)
     1.17516995E-03    2     1000022   1000022   # BR(A -> ~chi_10 ~chi_10)
     8.32023608E-04    2     1000023   1000023   # BR(A -> ~chi_20 ~chi_20)
     3.28704528E-04    2     1000025   1000025   # BR(A -> ~chi_30 ~chi_30)
     1.14812701E-02    2     1000022   1000023   # BR(A -> ~chi_10 ~chi_20)
     8.07164164E-04    2     1000022   1000025   # BR(A -> ~chi_10 ~chi_30)
     2.84281052E-02    2     1000023   1000025   # BR(A -> ~chi_20 ~chi_30)
#
#         PDG            Width
DECAY        37     3.91756467E+01   # H+ decays
#          BR         NDA      ID1       ID2
     2.27340002E-06    2           4        -5   # BR(H+ -> c       bb     )
     2.38285999E-04    2         -15        16   # BR(H+ -> tau+    nu_tau )
     8.42427083E-07    2         -13        14   # BR(H+ -> mu+     nu_mu  )
     1.44542651E-08    2           2        -5   # BR(H+ -> u       bb     )
     5.21703031E-08    2           2        -3   # BR(H+ -> u       sb     )
     1.03951299E-05    2           4        -3   # BR(H+ -> c       sb     )
     9.55476745E-01    2           6        -5   # BR(H+ -> t       bb     )
     3.18106964E-04    2          24        25   # BR(H+ -> W+      h      )
     7.99554735E-13    2          24        36   # BR(H+ -> W+      A      )
     1.21916445E-02    2     1000024   1000022   # BR(H+ -> ~chi_1+ ~chi_10)
     1.09276556E-04    2     1000024   1000023   # BR(H+ -> ~chi_1+ ~chi_20)
     3.16523634E-02    2     1000024   1000025   # BR(H+ -> ~chi_1+ ~chi_30)
