#
#                              ======================
#                              | THE SUSYHIT OUTPUT |
#                              ======================
#
#
#              ------------------------------------------------------
#              |     This is the output of the SUSY-HIT package     |
#              |  created by A.Djouadi, M.Muehlleitner and M.Spira. |
#              |  In case of problems with SUSY-HIT email to        |
#              |           margarete.muehlleitner@kit.edu           |
#              |           michael.spira@psi.ch                     |
#              |           abdelhak.djouadi@cern.ch                 |
#              ------------------------------------------------------
#
#              ------------------------------------------------------
#              |  SUSY Les Houches Accord - MSSM Spectrum + Decays  |
#              |              based on the decay programs           |
#              |                                                    |
#              |                     SDECAY 1.5a                    |
#              |                                                    |
#              |  Authors: M.Muhlleitner, A.Djouadi and Y.Mambrini  |
#              |  Ref.:    Comput.Phys.Commun.168(2005)46           |
#              |           [hep-ph/0311167]                         |
#              |                                                    |
#              |                     HDECAY 3.4                     |
#              |                                                    |
#              |  By: A.Djouadi,J.Kalinowski,M.Muhlleitner,M.Spira  |
#              |  Ref.:    Comput.Phys.Commun.108(1998)56           |
#              |           [hep-ph/9704448]                         |
#              |                                                    |
#              |                                                    |
#              |  If not stated otherwise all DRbar couplings and   |
#              |  soft SUSY breaking masses are given at the scale  |
#              |  Q=  0.91187600E+02
#              |                                                    |
#              ------------------------------------------------------
#
#
BLOCK DCINFO  # Decay Program information
     1   SDECAY/HDECAY # decay calculator
     2   1.5a /3.4    # version number
#
BLOCK SPINFO  # Spectrum calculator information
     1   SuSpect     # RGE +Spectrum calculator            
     2   2.43         # version number                     
#
BLOCK MODSEL  # Model selection
     1     2   # GMSB                                              
#
BLOCK SMINPUTS  # Standard Model inputs
         1     1.27932904E+02   # alpha_em^-1(M_Z)^MSbar
         2     1.16639000E-05   # G_F [GeV^-2]
         3     1.17200000E-01   # alpha_S(M_Z)^MSbar
         4     9.11870000E+01   # M_Z pole mass
         5     4.25000000E+00   # mb(mb)^MSbar
         6     1.72900000E+02   # mt pole mass
         7     1.77700000E+00   # mtau pole mass
#
BLOCK MINPAR  # Input parameters - minimal models
#
BLOCK EXTPAR  # Input parameters - non-minimal models
         0     9.11876000E+01   # EWSB                
         1     8.53841941E+02   # M_1                 
         2     3.00000000E+03   # M_2                 
         3     2.60000000E+03   # M_3                 
        11     0.00000000E+00   # A_t                 
        12     0.00000000E+00   # A_b                 
        13     0.00000000E+00   # A_tau               
        14     0.00000000E+00   # A_u                 
        15     0.00000000E+00   # A_d                 
        16     0.00000000E+00   # A_e                 
        23    -8.50000000E+02   # mu(EWSB)            
        25     1.50000000E+00   # tanbeta(in)         
        26     2.00000000E+03   # MA_pole             
        31     5.00000000E+03   # M_eL                
        32     5.00000000E+03   # M_muL               
        33     5.00000000E+03   # M_tauL              
        34     5.00000000E+03   # M_eR                
        35     5.00000000E+03   # M_muR               
        36     5.00000000E+03   # M_tauR              
        41     5.00000000E+03   # M_q1L               
        42     5.00000000E+03   # M_q2L               
        43     5.00000000E+03   # M_q3L               
        44     5.00000000E+03   # M_uR                
        45     5.00000000E+03   # M_cR                
        46     5.00000000E+03   # M_tR                
        47     5.00000000E+03   # M_dR                
        48     5.00000000E+03   # M_sR                
        49     5.00000000E+03   # M_bR                
#
BLOCK MASS  # Mass Spectrum
# PDG code           mass       particle
        24     8.05402659E+01   # W+
        25     1.25000000E+02   # h
        35     2.00415010E+03   # H
        36     2.00000000E+03   # A
        37     2.00180593E+03   # H+
         5     4.87877839E+00   # b-quark pole mass calculated from mb(mb)_Msbar
   1000001     5.00013272E+03   # ~d_L
   2000001     5.00002530E+03   # ~d_R
   1000002     4.99989258E+03   # ~u_L
   2000002     4.99994939E+03   # ~u_R
   1000003     5.00013272E+03   # ~s_L
   2000003     5.00002530E+03   # ~s_R
   1000004     4.99989258E+03   # ~c_L
   2000004     4.99994939E+03   # ~c_R
   1000005     4.99973209E+03   # ~b_1
   2000005     5.00042737E+03   # ~b_2
   1000006     4.99360766E+03   # ~t_1
   2000006     5.01085374E+03   # ~t_2
   1000011     5.00008212E+03   # ~e_L
   2000011     5.00007591E+03   # ~e_R
   1000012     4.99984197E+03   # ~nu_eL
   1000013     5.00008212E+03   # ~mu_L
   2000013     5.00007591E+03   # ~mu_R
   1000014     4.99984197E+03   # ~nu_muL
   1000015     4.99985285E+03   # ~tau_1
   2000015     5.00030579E+03   # ~tau_2
   1000016     4.99984197E+03   # ~nu_tauL
   1000021     2.60000000E+03   # ~g
   1000022     8.43364225E+02   # ~chi_10
   1000023    -8.52670567E+02   # ~chi_20
   1000025     8.61477558E+02   # ~chi_30
   1000035     3.00167073E+03   # ~chi_40
   1000024     8.51447062E+02   # ~chi_1+
   1000037     3.00167044E+03   # ~chi_2+
   1000039     2.54132387E-08   # ~gravitino
#
BLOCK NMIX  # Neutralino Mixing Matrix
  1  1     5.99962785E-01   # N_11
  1  2    -5.18435364E-03   # N_12
  1  3    -5.76666497E-01   # N_13
  1  4    -5.54502958E-01   # N_14
  2  1     2.55161236E-02   # N_21
  2  2    -2.01021620E-02   # N_22
  2  3     7.06511893E-01   # N_23
  2  4    -7.06955285E-01   # N_24
  3  1     7.99620781E-01   # N_31
  3  2     5.07802516E-03   # N_32
  3  3     4.10138147E-01   # N_33
  3  4     4.38597219E-01   # N_34
  4  1     4.37245818E-04   # N_41
  4  2    -9.99771594E-01   # N_42
  4  3    -9.13216749E-03   # N_43
  4  4     1.93176891E-02   # N_44
#
BLOCK UMIX  # Chargino Mixing Matrix U
  1  1    -1.29070258E-02   # U_11
  1  2     9.99916701E-01   # U_12
  2  1     9.99916701E-01   # U_21
  2  2     1.29070258E-02   # U_22
#
BLOCK VMIX  # Chargino Mixing Matrix V
  1  1     2.73184318E-02   # V_11
  1  2    -9.99626782E-01   # V_12
  2  1     9.99626782E-01   # V_21
  2  2     2.73184318E-02   # V_22
#
BLOCK STOPMIX  # Stop Mixing Matrix
  1  1     7.08269983E-01   # cos(theta_t)
  1  2    -7.05941663E-01   # sin(theta_t)
  2  1     7.05941663E-01   # -sin(theta_t)
  2  2     7.08269983E-01   # cos(theta_t)
#
BLOCK SBOTMIX  # Sbottom Mixing Matrix
  1  1    -6.50193590E-01   # cos(theta_b)
  1  2     7.59768580E-01   # sin(theta_b)
  2  1    -7.59768580E-01   # -sin(theta_b)
  2  2    -6.50193590E-01   # cos(theta_b)
#
BLOCK STAUMIX  # Stau Mixing Matrix
  1  1    -7.02247550E-01   # cos(theta_tau)
  1  2     7.11932847E-01   # sin(theta_tau)
  2  1    -7.11932847E-01   # -sin(theta_tau)
  2  2    -7.02247550E-01   # cos(theta_tau)
#
BLOCK ALPHA  # Higgs mixing
          -5.90203344E-01   # Mixing angle in the neutral Higgs boson sector
#
BLOCK HMIX Q=  9.11876000E+01  # DRbar Higgs Parameters
         1    -8.50000000E+02   # mu(Q)               
         2     1.49999979E+00   # tanbeta(Q)          
         3     2.51818795E+02   # vev(Q)              
         4     4.30521257E+06   # MA^2(Q)             
#
BLOCK GAUGE Q=  9.11876000E+01  # The gauge couplings
     1     3.52845607E-01   # gprime(Q) DRbar
     2     6.27574352E-01   # g(Q) DRbar
     3     1.07627686E+00   # g3(Q) DRbar
#
BLOCK AU Q=  9.11876000E+01  # The trilinear couplings
  1  1     0.00000000E+00   # A_u(Q) DRbar
  2  2     0.00000000E+00   # A_c(Q) DRbar
  3  3     0.00000000E+00   # A_t(Q) DRbar
#
BLOCK AD Q=  9.11876000E+01  # The trilinear couplings
  1  1     0.00000000E+00   # A_d(Q) DRbar
  2  2     0.00000000E+00   # A_s(Q) DRbar
  3  3     0.00000000E+00   # A_b(Q) DRbar
#
BLOCK AE Q=  9.11876000E+01  # The trilinear couplings
  1  1     0.00000000E+00   # A_e(Q) DRbar
  2  2     0.00000000E+00   # A_mu(Q) DRbar
  3  3     0.00000000E+00   # A_tau(Q) DRbar
#
BLOCK Yu Q=  9.11876000E+01  # The Yukawa couplings
  1  1     0.00000000E+00   # y_u(Q) DRbar
  2  2     0.00000000E+00   # y_c(Q) DRbar
  3  3     1.02754588E+00   # y_t(Q) DRbar
#
BLOCK Yd Q=  9.11876000E+01  # The Yukawa couplings
  1  1     0.00000000E+00   # y_d(Q) DRbar
  2  2     0.00000000E+00   # y_s(Q) DRbar
  3  3     2.72740752E-02   # y_b(Q) DRbar
#
BLOCK Ye Q=  9.11876000E+01  # The Yukawa couplings
  1  1     0.00000000E+00   # y_e(Q) DRbar
  2  2     0.00000000E+00   # y_mu(Q) DRbar
  3  3     1.79819340E-02   # y_tau(Q) DRbar
#
BLOCK MSOFT Q=  9.11876000E+01  # The soft SUSY breaking masses at the scale Q
         1     8.53841941E+02   # M_1                 
         2     3.00000000E+03   # M_2                 
         3     2.60000000E+03   # M_3                 
        14     0.00000000E+00   # A_u                 
        15     0.00000000E+00   # A_d                 
        16     0.00000000E+00   # A_e                 
        21     2.24948049E+06   # M^2_Hd              
        22    -5.99682996E+06   # M^2_Hu              
        31     5.00000000E+03   # M_eL                
        32     5.00000000E+03   # M_muL               
        33     5.00000000E+03   # M_tauL              
        34     5.00000000E+03   # M_eR                
        35     5.00000000E+03   # M_muR               
        36     5.00000000E+03   # M_tauR              
        41     5.00000000E+03   # M_q1L               
        42     5.00000000E+03   # M_q2L               
        43     5.00000000E+03   # M_q3L               
        44     5.00000000E+03   # M_uR                
        45     5.00000000E+03   # M_cR                
        46     5.00000000E+03   # M_tR                
        47     5.00000000E+03   # M_dR                
        48     5.00000000E+03   # M_sR                
        49     5.00000000E+03   # M_bR                
#
#
#
#                             =================
#                             |The decay table|
#                             =================
#
# - The QCD corrections to the decays gluino -> squark  + quark
#                                     squark -> gaugino + quark_prime
#                                     squark -> squark_prime + Higgs
#                                     squark -> gluino  + quark
#   are included.
#
# - The multi-body decays for the inos, stops and sbottoms are included.
#
# - The loop induced decays for the gluino, neutralinos and stops
#   are included.
#
# - The SUSY decays of the top quark are included.
#
# - Possible decays of the NLSP in GMSB models are included.
#
#
#         PDG            Width
DECAY         6     1.37226505E+00   # top decays
#          BR         NDA      ID1       ID2
     1.00000000E+00    2           5        24   # BR(t ->  b    W+)
#
#         PDG            Width
DECAY   1000021     9.25133407E-03   # gluino decays
#          BR         NDA      ID1       ID2
     3.84452142E-03    2     1000022        21   # BR(~g -> ~chi_10 g)
     6.17208652E-03    2     1000023        21   # BR(~g -> ~chi_20 g)
     2.36233383E-03    2     1000025        21   # BR(~g -> ~chi_30 g)
#          BR         NDA      ID1       ID2
     0.00000000E+00    2     1000039        21   # BR(~g -> ~G      g)
#           BR         NDA      ID1       ID2       ID3
     2.70877366E-03    3     1000022         1        -1   # BR(~g -> ~chi_10 d  db)
     1.36532102E-05    3     1000023         1        -1   # BR(~g -> ~chi_20 d  db)
     4.53297211E-03    3     1000025         1        -1   # BR(~g -> ~chi_30 d  db)
     8.99222148E-03    3     1000022         2        -2   # BR(~g -> ~chi_10 u  ub)
     1.15401132E-05    3     1000023         2        -2   # BR(~g -> ~chi_20 u  ub)
     1.56850111E-02    3     1000025         2        -2   # BR(~g -> ~chi_30 u  ub)
     2.70877366E-03    3     1000022         3        -3   # BR(~g -> ~chi_10 s  sb)
     1.36532102E-05    3     1000023         3        -3   # BR(~g -> ~chi_20 s  sb)
     4.53297211E-03    3     1000025         3        -3   # BR(~g -> ~chi_30 s  sb)
     8.99222148E-03    3     1000022         4        -4   # BR(~g -> ~chi_10 c  cb)
     1.15401132E-05    3     1000023         4        -4   # BR(~g -> ~chi_20 c  cb)
     1.56850111E-02    3     1000025         4        -4   # BR(~g -> ~chi_30 c  cb)
     2.83749310E-03    3     1000022         5        -5   # BR(~g -> ~chi_10 b  bb)
     1.83939898E-04    3     1000023         5        -5   # BR(~g -> ~chi_20 b  bb)
     4.57773701E-03    3     1000025         5        -5   # BR(~g -> ~chi_30 b  bb)
     1.33454784E-01    3     1000022         6        -6   # BR(~g -> ~chi_10 t  tb)
     2.11012916E-01    3     1000023         6        -6   # BR(~g -> ~chi_20 t  tb)
     1.11667310E-01    3     1000025         6        -6   # BR(~g -> ~chi_30 t  tb)
     1.98992451E-05    3     1000024         1        -2   # BR(~g -> ~chi_1+ d  ub)
     1.98992451E-05    3    -1000024         2        -1   # BR(~g -> ~chi_1- u  db)
     1.98992451E-05    3     1000024         3        -4   # BR(~g -> ~chi_1+ s  cb)
     1.98992451E-05    3    -1000024         4        -3   # BR(~g -> ~chi_1- c  sb)
     2.29948022E-01    3     1000024         5        -6   # BR(~g -> ~chi_1+ b  tb)
     2.29948022E-01    3    -1000024         6        -5   # BR(~g -> ~chi_1- t  bb)
#
#         PDG            Width
DECAY   1000006     2.54522259E+02   # stop1 decays
#          BR         NDA      ID1       ID2
     6.34890807E-02    2     1000022         6   # BR(~t_1 -> ~chi_10 t )
     1.28174985E-01    2     1000023         6   # BR(~t_1 -> ~chi_20 t )
     9.18405394E-02    2     1000025         6   # BR(~t_1 -> ~chi_30 t )
     1.63539224E-02    2     1000035         6   # BR(~t_1 -> ~chi_40 t )
     1.27902284E-01    2     1000024         5   # BR(~t_1 -> ~chi_1+ b )
     3.26603915E-02    2     1000037         5   # BR(~t_1 -> ~chi_2+ b )
     5.39578797E-01    2     1000021         6   # BR(~t_1 -> ~g      t )
#
#         PDG            Width
DECAY   2000006     2.69998533E+02   # stop2 decays
#          BR         NDA      ID1       ID2
     1.08797572E-01    2     1000022         6   # BR(~t_2 -> ~chi_10 t )
     1.30783722E-01    2     1000023         6   # BR(~t_2 -> ~chi_20 t )
     3.55630495E-02    2     1000025         6   # BR(~t_2 -> ~chi_30 t )
     1.34111532E-02    2     1000035         6   # BR(~t_2 -> ~chi_40 t )
     1.31527091E-01    2     1000024         5   # BR(~t_2 -> ~chi_1+ b )
     2.67716305E-02    2     1000037         5   # BR(~t_2 -> ~chi_2+ b )
     5.53145782E-01    2     1000021         6   # BR(~t_2 -> ~g      t )
#
#         PDG            Width
DECAY   1000005     1.89329481E+02   # sbottom1 decays
#          BR         NDA      ID1       ID2
     4.18551649E-03    2     1000022         5   # BR(~b_1 -> ~chi_10 b )
     3.75896148E-05    2     1000023         5   # BR(~b_1 -> ~chi_20 b )
     4.50424678E-03    2     1000025         5   # BR(~b_1 -> ~chi_30 b )
     1.93362153E-02    2     1000035         5   # BR(~b_1 -> ~chi_40 b )
     1.76150608E-01    2    -1000024         6   # BR(~b_1 -> ~chi_1- t )
     3.87380103E-02    2    -1000037         6   # BR(~b_1 -> ~chi_2- t )
     7.57047813E-01    2     1000021         5   # BR(~b_1 -> ~g      b )
#
#         PDG            Width
DECAY   2000005     1.92036715E+02   # sbottom2 decays
#          BR         NDA      ID1       ID2
     1.99829299E-03    2     1000022         5   # BR(~b_2 -> ~chi_10 b )
     2.77230661E-04    2     1000023         5   # BR(~b_2 -> ~chi_20 b )
     5.86718362E-03    2     1000025         5   # BR(~b_2 -> ~chi_30 b )
     2.13299035E-02    2     1000035         5   # BR(~b_2 -> ~chi_40 b )
     1.80067783E-01    2    -1000024         6   # BR(~b_2 -> ~chi_1- t )
     4.27292578E-02    2    -1000037         6   # BR(~b_2 -> ~chi_2- t )
     7.47730349E-01    2     1000021         5   # BR(~b_2 -> ~g      b )
#
#         PDG            Width
DECAY   1000002     1.67367608E+02   # sup_L decays
#          BR         NDA      ID1       ID2
     1.22108464E-03    2     1000022         2   # BR(~u_L -> ~chi_10 u)
     2.48812664E-05    2     1000023         2   # BR(~u_L -> ~chi_20 u)
     2.54171658E-03    2     1000025         2   # BR(~u_L -> ~chi_30 u)
     4.63258667E-02    2     1000035         2   # BR(~u_L -> ~chi_40 u)
     1.58256884E-04    2     1000024         1   # BR(~u_L -> ~chi_1+ d)
     9.26401007E-02    2     1000037         1   # BR(~u_L -> ~chi_2+ d)
     8.57088093E-01    2     1000021         2   # BR(~u_L -> ~g      u)
#
#         PDG            Width
DECAY   2000002     1.53420693E+02   # sup_R decays
#          BR         NDA      ID1       ID2
     2.34239428E-02    2     1000022         2   # BR(~u_R -> ~chi_10 u)
     4.23142744E-05    2     1000023         2   # BR(~u_R -> ~chi_20 u)
     4.15045210E-02    2     1000025         2   # BR(~u_R -> ~chi_30 u)
     5.43330985E-09    2     1000035         2   # BR(~u_R -> ~chi_40 u)
     9.35029217E-01    2     1000021         2   # BR(~u_R -> ~g      u)
#
#         PDG            Width
DECAY   1000001     1.67373634E+02   # sdown_L decays
#          BR         NDA      ID1       ID2
     1.46861400E-03    2     1000022         1   # BR(~d_L -> ~chi_10 d)
     6.56452547E-05    2     1000023         1   # BR(~d_L -> ~chi_20 d)
     2.21946233E-03    2     1000025         1   # BR(~d_L -> ~chi_30 d)
     4.63465975E-02    2     1000035         1   # BR(~d_L -> ~chi_40 d)
     3.53273884E-05    2    -1000024         2   # BR(~d_L -> ~chi_1- u)
     9.27049264E-02    2    -1000037         2   # BR(~d_L -> ~chi_2- u)
     8.57159427E-01    2     1000021         1   # BR(~d_L -> ~g      d)
#
#         PDG            Width
DECAY   2000001     1.45950246E+02   # sdown_R decays
#          BR         NDA      ID1       ID2
     6.15582980E-03    2     1000022         1   # BR(~d_R -> ~chi_10 d)
     1.11202236E-05    2     1000023         1   # BR(~d_R -> ~chi_20 d)
     1.09074202E-02    2     1000025         1   # BR(~d_R -> ~chi_30 d)
     1.42792351E-09    2     1000035         1   # BR(~d_R -> ~chi_40 d)
     9.82925628E-01    2     1000021         1   # BR(~d_R -> ~g      d)
#
#         PDG            Width
DECAY   1000004     1.67367608E+02   # scharm_L decays
#          BR         NDA      ID1       ID2
     1.22108464E-03    2     1000022         4   # BR(~c_L -> ~chi_10 c)
     2.48812664E-05    2     1000023         4   # BR(~c_L -> ~chi_20 c)
     2.54171658E-03    2     1000025         4   # BR(~c_L -> ~chi_30 c)
     4.63258667E-02    2     1000035         4   # BR(~c_L -> ~chi_40 c)
     1.58256884E-04    2     1000024         3   # BR(~c_L -> ~chi_1+ s)
     9.26401007E-02    2     1000037         3   # BR(~c_L -> ~chi_2+ s)
     8.57088093E-01    2     1000021         4   # BR(~c_L -> ~g      c)
#
#         PDG            Width
DECAY   2000004     1.53420693E+02   # scharm_R decays
#          BR         NDA      ID1       ID2
     2.34239428E-02    2     1000022         4   # BR(~c_R -> ~chi_10 c)
     4.23142744E-05    2     1000023         4   # BR(~c_R -> ~chi_20 c)
     4.15045210E-02    2     1000025         4   # BR(~c_R -> ~chi_30 c)
     5.43330985E-09    2     1000035         4   # BR(~c_R -> ~chi_40 c)
     9.35029217E-01    2     1000021         4   # BR(~c_R -> ~g      c)
#
#         PDG            Width
DECAY   1000003     1.67373634E+02   # sstrange_L decays
#          BR         NDA      ID1       ID2
     1.46861400E-03    2     1000022         3   # BR(~s_L -> ~chi_10 s)
     6.56452547E-05    2     1000023         3   # BR(~s_L -> ~chi_20 s)
     2.21946233E-03    2     1000025         3   # BR(~s_L -> ~chi_30 s)
     4.63465975E-02    2     1000035         3   # BR(~s_L -> ~chi_40 s)
     3.53273884E-05    2    -1000024         4   # BR(~s_L -> ~chi_1- c)
     9.27049264E-02    2    -1000037         4   # BR(~s_L -> ~chi_2- c)
     8.57159427E-01    2     1000021         3   # BR(~s_L -> ~g      s)
#
#         PDG            Width
DECAY   2000003     1.45950246E+02   # sstrange_R decays
#          BR         NDA      ID1       ID2
     6.15582980E-03    2     1000022         3   # BR(~s_R -> ~chi_10 s)
     1.11202236E-05    2     1000023         3   # BR(~s_R -> ~chi_20 s)
     1.09074202E-02    2     1000025         3   # BR(~s_R -> ~chi_30 s)
     1.42792351E-09    2     1000035         3   # BR(~s_R -> ~chi_40 s)
     9.82925628E-01    2     1000021         3   # BR(~s_R -> ~g      s)
#
#         PDG            Width
DECAY   1000011     2.98900494E+01   # selectron_L decays
#          BR         NDA      ID1       ID2
     6.82411333E-02    2     1000022        11   # BR(~e_L -> ~chi_10 e-)
     2.04689781E-05    2     1000023        11   # BR(~e_L -> ~chi_20 e-)
     1.27546856E-01    2     1000025        11   # BR(~e_L -> ~chi_30 e-)
     2.67855468E-01    2     1000035        11   # BR(~e_L -> ~chi_40 e-)
     2.05875205E-04    2    -1000024        12   # BR(~e_L -> ~chi_1- nu_e)
     5.36130199E-01    2    -1000037        12   # BR(~e_L -> ~chi_2- nu_e)
#
#         PDG            Width
DECAY   2000011     2.33415758E+01   # selectron_R decays
#          BR         NDA      ID1       ID2
     3.60541476E-01    2     1000022        11   # BR(~e_R -> ~chi_10 e-)
     6.51285470E-04    2     1000023        11   # BR(~e_R -> ~chi_20 e-)
     6.38807155E-01    2     1000025        11   # BR(~e_R -> ~chi_30 e-)
     8.29960874E-08    2     1000035        11   # BR(~e_R -> ~chi_40 e-)
#
#         PDG            Width
DECAY   1000013     2.98900494E+01   # smuon_L decays
#          BR         NDA      ID1       ID2
     6.82411333E-02    2     1000022        13   # BR(~mu_L -> ~chi_10 mu-)
     2.04689781E-05    2     1000023        13   # BR(~mu_L -> ~chi_20 mu-)
     1.27546856E-01    2     1000025        13   # BR(~mu_L -> ~chi_30 mu-)
     2.67855468E-01    2     1000035        13   # BR(~mu_L -> ~chi_40 mu-)
     2.05875205E-04    2    -1000024        14   # BR(~mu_L -> ~chi_1- nu_mu)
     5.36130199E-01    2    -1000037        14   # BR(~mu_L -> ~chi_2- nu_mu)
#
#         PDG            Width
DECAY   2000013     2.33415758E+01   # smuon_R decays
#          BR         NDA      ID1       ID2
     3.60541476E-01    2     1000022        13   # BR(~mu_R -> ~chi_10 mu-)
     6.51285470E-04    2     1000023        13   # BR(~mu_R -> ~chi_20 mu-)
     6.38807155E-01    2     1000025        13   # BR(~mu_R -> ~chi_30 mu-)
     8.29960874E-08    2     1000035        13   # BR(~mu_R -> ~chi_40 mu-)
#
#         PDG            Width
DECAY   1000015     2.66014579E+01   # stau_1 decays
#          BR         NDA      ID1       ID2
     2.04072854E-01    2     1000022        15   # BR(~tau_1 -> ~chi_10  tau-)
     1.85398726E-04    2     1000023        15   # BR(~tau_1 -> ~chi_20  tau-)
     3.49792933E-01    2     1000025        15   # BR(~tau_1 -> ~chi_30  tau-)
     1.48512800E-01    2     1000035        15   # BR(~tau_1 -> ~chi_40  tau-)
     1.78350328E-04    2    -1000024        16   # BR(~tau_1 -> ~chi_1-  nu_tau)
     2.97257454E-01    2    -1000037        16   # BR(~tau_1 -> ~chi_2-  nu_tau)
     2.09385716E-07    2     1000039        15   # BR(~tau_1 -> ~G       tau-)
#
#         PDG            Width
DECAY   2000015     2.67211534E+01   # stau_2 decays
#          BR         NDA      ID1       ID2
     1.88873341E-01    2     1000022        15   # BR(~tau_2 -> ~chi_10  tau-)
     1.54029735E-03    2     1000023        15   # BR(~tau_2 -> ~chi_20  tau-)
     3.52840655E-01    2     1000025        15   # BR(~tau_2 -> ~chi_30  tau-)
     1.51773390E-01    2     1000035        15   # BR(~tau_2 -> ~chi_40  tau-)
     1.18752086E-03    2    -1000024        16   # BR(~tau_2 -> ~chi_1-  nu_tau)
     3.03784795E-01    2    -1000037        16   # BR(~tau_2 -> ~chi_2-  nu_tau)
#
#         PDG            Width
DECAY   1000012     2.98882027E+01   # snu_eL decays
#          BR         NDA      ID1       ID2
     7.25689550E-02    2     1000022        12   # BR(~nu_eL -> ~chi_10 nu_e)
     7.33137619E-04    2     1000023        12   # BR(~nu_eL -> ~chi_20 nu_e)
     1.21913189E-01    2     1000025        12   # BR(~nu_eL -> ~chi_30 nu_e)
     2.68093715E-01    2     1000035        12   # BR(~nu_eL -> ~chi_40 nu_e)
     9.22288305E-04    2     1000024        11   # BR(~nu_eL -> ~chi_1+ e-)
     5.35768715E-01    2     1000037        11   # BR(~nu_eL -> ~chi_2+ e-)
#
#         PDG            Width
DECAY   1000014     2.98882027E+01   # snu_muL decays
#          BR         NDA      ID1       ID2
     7.25689550E-02    2     1000022        14   # BR(~nu_muL -> ~chi_10 nu_mu)
     7.33137619E-04    2     1000023        14   # BR(~nu_muL -> ~chi_20 nu_mu)
     1.21913189E-01    2     1000025        14   # BR(~nu_muL -> ~chi_30 nu_mu)
     2.68093715E-01    2     1000035        14   # BR(~nu_muL -> ~chi_40 nu_mu)
     9.22288305E-04    2     1000024        13   # BR(~nu_muL -> ~chi_1+ mu-)
     5.35768715E-01    2     1000037        13   # BR(~nu_muL -> ~chi_2+ mu-)
#
#         PDG            Width
DECAY   1000016     2.99185298E+01   # snu_tauL decays
#          BR         NDA      ID1       ID2
     7.24953950E-02    2     1000022        16   # BR(~nu_tauL -> ~chi_10 nu_tau)
     7.32394469E-04    2     1000023        16   # BR(~nu_tauL -> ~chi_20 nu_tau)
     1.21789611E-01    2     1000025        16   # BR(~nu_tauL -> ~chi_30 nu_tau)
     2.67821960E-01    2     1000035        16   # BR(~nu_tauL -> ~chi_40 nu_tau)
     1.93500291E-03    2     1000024        15   # BR(~nu_tauL -> ~chi_1+ tau-)
     5.35225636E-01    2     1000037        15   # BR(~nu_tauL -> ~chi_2+ tau-)
#
#         PDG            Width
DECAY   1000024     2.31143500E-08   # chargino1+ decays
#          BR         NDA      ID1       ID2
     1.66750222E-02    2     1000039        24   # BR(~chi_1+ -> ~G       W+)
#           BR         NDA      ID1       ID2       ID3
     3.52100503E-01    3     1000022         2        -1   # BR(~chi_1+ -> ~chi_10 u    db)
     3.03561377E-01    3     1000022         4        -3   # BR(~chi_1+ -> ~chi_10 c    sb)
     1.17367526E-01    3     1000022       -11        12   # BR(~chi_1+ -> ~chi_10 e+   nu_e)
     1.17267374E-01    3     1000022       -13        14   # BR(~chi_1+ -> ~chi_10 mu+  nu_mu)
     9.30281978E-02    3     1000022       -15        16   # BR(~chi_1+ -> ~chi_10 tau+ nu_tau)
#
#         PDG            Width
DECAY   1000037     1.95848851E+01   # chargino2+ decays
#          BR         NDA      ID1       ID2
     1.52066770E-01    2     1000024        23   # BR(~chi_2+ -> ~chi_1+  Z )
     9.11523046E-02    2     1000022        24   # BR(~chi_2+ -> ~chi_10  W+)
     1.47798550E-01    2     1000023        24   # BR(~chi_2+ -> ~chi_20  W+)
     5.76308516E-02    2     1000025        24   # BR(~chi_2+ -> ~chi_30  W+)
     1.52405052E-01    2     1000024        25   # BR(~chi_2+ -> ~chi_1+  h )
     9.90080561E-02    2     1000024        35   # BR(~chi_2+ -> ~chi_1+  H )
     1.00367402E-01    2     1000024        36   # BR(~chi_2+ -> ~chi_1+  A )
     6.54596480E-02    2     1000022        37   # BR(~chi_2+ -> ~chi_10  H+)
     9.94073363E-02    2     1000023        37   # BR(~chi_2+ -> ~chi_20  H+)
     3.47040079E-02    2     1000025        37   # BR(~chi_2+ -> ~chi_30  H+)
     2.21147085E-08    2     1000039        24   # BR(~chi_2+ -> ~G       W+)
     3.63621794E-13    2     1000039        37   # BR(~chi_2+ -> ~G       H+)
#
#         PDG            Width
DECAY   1000022     1.0E-05   # neutralino1 decays
#          BR         NDA      ID1       ID2
     4.19959977E-01    2     1000039        22   # BR(~chi_10 -> ~G        gam)
     1.46663884E-01    2     1000039        23   # BR(~chi_10 -> ~G        Z)
     4.33376139E-01    2     1000039        25   # BR(~chi_10 -> ~G        h)
#
#         PDG            Width
DECAY   1000023     1.0E-05   # neutralino2 decays
#          BR         NDA      ID1       ID2
     9.56534961E-03    2     1000022        22   # BR(~chi_20 -> ~chi_10 gam)
#          BR         NDA      ID1       ID2
     3.51529287E-06    2     1000039        22   # BR(~chi_20 -> ~G        gam)
     1.05242167E-02    2     1000039        23   # BR(~chi_20 -> ~G        Z)
     3.95718555E-04    2     1000039        25   # BR(~chi_20 -> ~G        h)
#           BR         NDA      ID1       ID2       ID3
     1.39130646E-01    3     1000022        -2         2   # BR(~chi_20 -> ~chi_10 ub      u)
     1.80135520E-01    3     1000022        -1         1   # BR(~chi_20 -> ~chi_10 db      d)
     1.19261867E-01    3     1000022        -4         4   # BR(~chi_20 -> ~chi_10 cb      c)
     1.79521145E-01    3     1000022        -3         3   # BR(~chi_20 -> ~chi_10 sb      s)
     4.11317331E-02    3     1000022       -11        11   # BR(~chi_20 -> ~chi_10 e+      e-)
     4.11046108E-02    3     1000022       -13        13   # BR(~chi_20 -> ~chi_10 mu+     mu-)
     3.27146160E-02    3     1000022       -15        15   # BR(~chi_20 -> ~chi_10 tau+    tau-)
     8.21383890E-02    3     1000022       -12        12   # BR(~chi_20 -> ~chi_10 nu_eb   nu_e)
     8.21383890E-02    3     1000022       -14        14   # BR(~chi_20 -> ~chi_10 nu_mub  nu_mu)
     8.21383890E-02    3     1000022       -16        16   # BR(~chi_20 -> ~chi_10 nu_taub nu_tau)
     2.89773151E-05    3     1000024        -2         1   # BR(~chi_20 -> ~chi_1+ ub      d)
     2.89773151E-05    3    -1000024        -1         2   # BR(~chi_20 -> ~chi_1- db      u)
     9.65910574E-06    3     1000024       -12        11   # BR(~chi_20 -> ~chi_1+ nu_eb   e-)
     9.65910574E-06    3    -1000024        12       -11   # BR(~chi_20 -> ~chi_1- nu_e    e+)
     9.31061452E-06    3     1000024       -14        13   # BR(~chi_20 -> ~chi_1+ nu_mub  mu-)
     9.31061452E-06    3    -1000024        14       -13   # BR(~chi_20 -> ~chi_1- nu_mu   mu+)
#
#         PDG            Width
DECAY   1000025     1.0E-05   # neutralino3 decays
#          BR         NDA      ID1       ID2
     8.93399232E-01    2     1000022        22   # BR(~chi_30 -> ~chi_10 gam)
     1.50035474E-02    2     1000023        22   # BR(~chi_30 -> ~chi_20 gam)
#          BR         NDA      ID1       ID2
     4.08241175E-04    2     1000039        22   # BR(~chi_30 -> ~G        gam)
     1.27266733E-04    2     1000039        23   # BR(~chi_30 -> ~G        Z)
     1.34570894E-04    2     1000039        25   # BR(~chi_30 -> ~G        h)
#           BR         NDA      ID1       ID2       ID3
     2.83703255E-05    3     1000022        -2         2   # BR(~chi_30 -> ~chi_10 ub      u)
     3.73139234E-05    3     1000022        -1         1   # BR(~chi_30 -> ~chi_10 db      d)
     2.61730516E-05    3     1000022        -4         4   # BR(~chi_30 -> ~chi_10 cb      c)
     3.72658742E-05    3     1000022        -3         3   # BR(~chi_30 -> ~chi_10 sb      s)
     1.50609147E-05    3     1000022        -5         5   # BR(~chi_30 -> ~chi_10 bb      b)
     8.98660623E-06    3     1000022       -11        11   # BR(~chi_30 -> ~chi_10 e+      e-)
     8.98204933E-06    3     1000022       -13        13   # BR(~chi_30 -> ~chi_10 mu+     mu-)
     7.80214360E-06    3     1000022       -15        15   # BR(~chi_30 -> ~chi_10 tau+    tau-)
     1.67730130E-05    3     1000022       -12        12   # BR(~chi_30 -> ~chi_10 nu_eb   nu_e)
     1.67730130E-05    3     1000022       -14        14   # BR(~chi_30 -> ~chi_10 nu_mub  nu_mu)
     1.67730130E-05    3     1000022       -16        16   # BR(~chi_30 -> ~chi_10 nu_taub nu_tau)
     2.05851481E-03    3     1000023        -2         2   # BR(~chi_30 -> ~chi_20 ub      u)
     2.66523564E-03    3     1000023        -1         1   # BR(~chi_30 -> ~chi_20 db      d)
     1.73059035E-03    3     1000023        -4         4   # BR(~chi_30 -> ~chi_20 cb      c)
     2.65509318E-03    3     1000023        -3         3   # BR(~chi_30 -> ~chi_20 sb      s)
     6.08587949E-04    3     1000023       -11        11   # BR(~chi_30 -> ~chi_20 e+      e-)
     6.08140663E-04    3     1000023       -13        13   # BR(~chi_30 -> ~chi_20 mu+     mu-)
     4.69133510E-04    3     1000023       -15        15   # BR(~chi_30 -> ~chi_20 tau+    tau-)
     1.21526357E-03    3     1000023       -12        12   # BR(~chi_30 -> ~chi_20 nu_eb   nu_e)
     1.21526357E-03    3     1000023       -14        14   # BR(~chi_30 -> ~chi_20 nu_mub  nu_mu)
     1.21526357E-03    3     1000023       -16        16   # BR(~chi_30 -> ~chi_20 nu_taub nu_tau)
     1.33308711E-02    3     1000024        -2         1   # BR(~chi_30 -> ~chi_1+ ub      d)
     1.33308711E-02    3    -1000024        -1         2   # BR(~chi_30 -> ~chi_1- db      u)
     1.20999401E-02    3     1000024        -4         3   # BR(~chi_30 -> ~chi_1+ cb      s)
     1.20999401E-02    3    -1000024        -3         4   # BR(~chi_30 -> ~chi_1- sb      c)
     4.44357464E-03    3     1000024       -12        11   # BR(~chi_30 -> ~chi_1+ nu_eb   e-)
     4.44357464E-03    3    -1000024        12       -11   # BR(~chi_30 -> ~chi_1- nu_e    e+)
     4.44111150E-03    3     1000024       -14        13   # BR(~chi_30 -> ~chi_1+ nu_mub  mu-)
     4.44111150E-03    3    -1000024        14       -13   # BR(~chi_30 -> ~chi_1- nu_mu   mu+)
     3.81739304E-03    3     1000024       -16        15   # BR(~chi_30 -> ~chi_1+ nu_taub tau-)
     3.81739304E-03    3    -1000024        16       -15   # BR(~chi_30 -> ~chi_1- nu_tau  tau+)
#
#         PDG            Width
DECAY   1000035     1.95853027E+01   # neutralino4 decays
#          BR         NDA      ID1       ID2
     8.55622398E-02    2     1000022        23   # BR(~chi_40 -> ~chi_10   Z )
     1.72344142E-02    2     1000023        23   # BR(~chi_40 -> ~chi_20   Z )
     4.94785340E-02    2     1000025        23   # BR(~chi_40 -> ~chi_30   Z )
     1.48073211E-01    2     1000024       -24   # BR(~chi_40 -> ~chi_1+   W-)
     1.48073211E-01    2    -1000024        24   # BR(~chi_40 -> ~chi_1-   W+)
     7.94322305E-03    2     1000022        25   # BR(~chi_40 -> ~chi_10   h )
     6.47693667E-02    2     1000022        35   # BR(~chi_40 -> ~chi_10   H )
     2.06688458E-04    2     1000022        36   # BR(~chi_40 -> ~chi_10   A )
     1.35056806E-01    2     1000023        25   # BR(~chi_40 -> ~chi_20   h )
     2.13062479E-04    2     1000023        35   # BR(~chi_40 -> ~chi_20   H )
     9.97601705E-02    2     1000023        36   # BR(~chi_40 -> ~chi_20   A )
     9.63381731E-03    2     1000025        25   # BR(~chi_40 -> ~chi_30   h )
     3.43801534E-02    2     1000025        35   # BR(~chi_40 -> ~chi_30   H )
     4.36116778E-05    2     1000025        36   # BR(~chi_40 -> ~chi_30   A )
     9.97857343E-02    2     1000024       -37   # BR(~chi_40 -> ~chi_1+   H-)
     9.97857343E-02    2    -1000024        37   # BR(~chi_40 -> ~chi_1-   H+)
     5.31647379E-09    2     1000039        22   # BR(~chi_40 -> ~G        gam)
     1.67956896E-08    2     1000039        23   # BR(~chi_40 -> ~G        Z)
     1.32467393E-12    2     1000039        25   # BR(~chi_40 -> ~G        h)
     3.51816124E-13    2     1000039        35   # BR(~chi_40 -> ~G        H)
     1.03010151E-14    2     1000039        36   # BR(~chi_40 -> ~G        A)
#
#         PDG            Width
DECAY        25     4.07858278E-03   # h decays
#          BR         NDA      ID1       ID2
     6.17078629E-01    2           5        -5   # BR(h -> b       bb     )
     6.38598790E-02    2         -15        15   # BR(h -> tau+    tau-   )
     2.26040452E-04    2         -13        13   # BR(h -> mu+     mu-    )
     4.79000082E-04    2           3        -3   # BR(h -> s       sb     )
     2.06649802E-02    2           4        -4   # BR(h -> c       cb     )
     6.71001771E-02    2          21        21   # BR(h -> g       g      )
     2.30084156E-03    2          22        22   # BR(h -> gam     gam    )
     1.54013494E-03    2          22        23   # BR(h -> Z       gam    )
     2.01088548E-01    2          24       -24   # BR(h -> W+      W-     )
     2.56617692E-02    2          23        23   # BR(h -> Z       Z      )
#
#         PDG            Width
DECAY        35     3.82011110E+01   # H decays
#          BR         NDA      ID1       ID2
     1.46571893E-03    2           5        -5   # BR(H -> b       bb     )
     2.43922025E-04    2         -15        15   # BR(H -> tau+    tau-   )
     8.62355172E-07    2         -13        13   # BR(H -> mu+     mu-    )
     1.10411894E-06    2           3        -3   # BR(H -> s       sb     )
     9.96442088E-06    2           4        -4   # BR(H -> c       cb     )
     9.85937178E-01    2           6        -6   # BR(H -> t       tb     )
     7.89526179E-04    2          21        21   # BR(H -> g       g      )
     2.70884322E-06    2          22        22   # BR(H -> gam     gam    )
     1.14794381E-06    2          23        22   # BR(H -> Z       gam    )
     3.31670544E-04    2          24       -24   # BR(H -> W+      W-     )
     1.65382980E-04    2          23        23   # BR(H -> Z       Z      )
     8.95394951E-04    2          25        25   # BR(H -> h       h      )
     8.63688270E-24    2          36        36   # BR(H -> A       A      )
     3.47725797E-11    2          23        36   # BR(H -> Z       A      )
     4.87197093E-12    2          24       -37   # BR(H -> W+      H-     )
     4.87197093E-12    2         -24        37   # BR(H -> W-      H+     )
     1.57638395E-05    2     1000024  -1000024   # BR(H -> ~chi_1+ ~chi_1-)
     4.57530648E-03    2     1000022   1000022   # BR(H -> ~chi_10 ~chi_10)
     2.74671847E-06    2     1000023   1000023   # BR(H -> ~chi_20 ~chi_20)
     3.58291455E-03    2     1000025   1000025   # BR(H -> ~chi_30 ~chi_30)
     1.55479352E-04    2     1000022   1000023   # BR(H -> ~chi_10 ~chi_20)
     6.45926488E-04    2     1000022   1000025   # BR(H -> ~chi_10 ~chi_30)
     1.17728075E-03    2     1000023   1000025   # BR(H -> ~chi_20 ~chi_30)
#
#         PDG            Width
DECAY        36     3.86294567E+01   # A decays
#          BR         NDA      ID1       ID2
     1.46858001E-03    2           5        -5   # BR(A -> b       bb     )
     2.41427584E-04    2         -15        15   # BR(A -> tau+    tau-   )
     8.53533723E-07    2         -13        13   # BR(A -> mu+     mu-    )
     1.12526099E-06    2           3        -3   # BR(A -> s       sb     )
     9.86087451E-06    2           4        -4   # BR(A -> c       cb     )
     9.86898660E-01    2           6        -6   # BR(A -> t       tb     )
     9.34118331E-04    2          21        21   # BR(A -> g       g      )
     3.08106868E-06    2          22        22   # BR(A -> gam     gam    )
     1.33862512E-06    2          23        22   # BR(A -> Z       gam    )
     3.23243010E-04    2          23        25   # BR(A -> Z       h      )
     2.06489117E-04    2     1000024  -1000024   # BR(A -> ~chi_1+ ~chi_1-)
     7.36325532E-04    2     1000022   1000022   # BR(A -> ~chi_10 ~chi_10)
     2.50450232E-04    2     1000023   1000023   # BR(A -> ~chi_20 ~chi_20)
     3.77978824E-04    2     1000025   1000025   # BR(A -> ~chi_30 ~chi_30)
     3.18230912E-03    2     1000022   1000023   # BR(A -> ~chi_10 ~chi_20)
     1.89291337E-04    2     1000022   1000025   # BR(A -> ~chi_10 ~chi_30)
     5.17486765E-03    2     1000023   1000025   # BR(A -> ~chi_20 ~chi_30)
#
#         PDG            Width
DECAY        37     3.78336387E+01   # H+ decays
#          BR         NDA      ID1       ID2
     2.36158062E-06    2           4        -5   # BR(H+ -> c       bb     )
     2.46728519E-04    2         -15        16   # BR(H+ -> tau+    nu_tau )
     8.72274442E-07    2         -13        14   # BR(H+ -> mu+     nu_mu  )
     1.50152369E-08    2           2        -5   # BR(H+ -> u       bb     )
     5.40189975E-08    2           2        -3   # BR(H+ -> u       sb     )
     1.07634895E-05    2           4        -3   # BR(H+ -> c       sb     )
     9.89338850E-01    2           6        -5   # BR(H+ -> t       bb     )
     3.31407535E-04    2          24        25   # BR(H+ -> W+      h      )
     6.67609971E-13    2          24        36   # BR(H+ -> W+      A      )
     3.51338037E-03    2     1000024   1000022   # BR(H+ -> ~chi_1+ ~chi_10)
     1.72958065E-05    2     1000024   1000023   # BR(H+ -> ~chi_1+ ~chi_20)
     6.53827120E-03    2     1000024   1000025   # BR(H+ -> ~chi_1+ ~chi_30)
