#
#                              ======================
#                              | THE SUSYHIT OUTPUT |
#                              ======================
#
#
#              ------------------------------------------------------
#              |     This is the output of the SUSY-HIT package     |
#              |  created by A.Djouadi, M.Muehlleitner and M.Spira. |
#              |  In case of problems with SUSY-HIT email to        |
#              |           margarete.muehlleitner@kit.edu           |
#              |           michael.spira@psi.ch                     |
#              |           abdelhak.djouadi@cern.ch                 |
#              ------------------------------------------------------
#
#              ------------------------------------------------------
#              |  SUSY Les Houches Accord - MSSM Spectrum + Decays  |
#              |              based on the decay programs           |
#              |                                                    |
#              |                     SDECAY 1.5a                    |
#              |                                                    |
#              |  Authors: M.Muhlleitner, A.Djouadi and Y.Mambrini  |
#              |  Ref.:    Comput.Phys.Commun.168(2005)46           |
#              |           [hep-ph/0311167]                         |
#              |                                                    |
#              |                     HDECAY 3.4                     |
#              |                                                    |
#              |  By: A.Djouadi,J.Kalinowski,M.Muhlleitner,M.Spira  |
#              |  Ref.:    Comput.Phys.Commun.108(1998)56           |
#              |           [hep-ph/9704448]                         |
#              |                                                    |
#              |                                                    |
#              |  If not stated otherwise all DRbar couplings and   |
#              |  soft SUSY breaking masses are given at the scale  |
#              |  Q=  0.91187600E+02
#              |                                                    |
#              ------------------------------------------------------
#
#
BLOCK DCINFO  # Decay Program information
     1   SDECAY/HDECAY # decay calculator
     2   1.5a /3.4    # version number
#
BLOCK SPINFO  # Spectrum calculator information
     1   SuSpect     # RGE +Spectrum calculator            
     2   2.43         # version number                     
#
BLOCK MODSEL  # Model selection
     1     2   # GMSB                                              
#
BLOCK SMINPUTS  # Standard Model inputs
         1     1.27932904E+02   # alpha_em^-1(M_Z)^MSbar
         2     1.16639000E-05   # G_F [GeV^-2]
         3     1.17200000E-01   # alpha_S(M_Z)^MSbar
         4     9.11870000E+01   # M_Z pole mass
         5     4.25000000E+00   # mb(mb)^MSbar
         6     1.72900000E+02   # mt pole mass
         7     1.77700000E+00   # mtau pole mass
#
BLOCK MINPAR  # Input parameters - minimal models
#
BLOCK EXTPAR  # Input parameters - non-minimal models
         0     9.11876000E+01   # EWSB                
         1     1.05375698E+03   # M_1                 
         2     3.00000000E+03   # M_2                 
         3     1.20000000E+03   # M_3                 
        11     0.00000000E+00   # A_t                 
        12     0.00000000E+00   # A_b                 
        13     0.00000000E+00   # A_tau               
        14     0.00000000E+00   # A_u                 
        15     0.00000000E+00   # A_d                 
        16     0.00000000E+00   # A_e                 
        23    -1.05000000E+03   # mu(EWSB)            
        25     1.50000000E+00   # tanbeta(in)         
        26     2.00000000E+03   # MA_pole             
        31     5.00000000E+03   # M_eL                
        32     5.00000000E+03   # M_muL               
        33     5.00000000E+03   # M_tauL              
        34     5.00000000E+03   # M_eR                
        35     5.00000000E+03   # M_muR               
        36     5.00000000E+03   # M_tauR              
        41     5.00000000E+03   # M_q1L               
        42     5.00000000E+03   # M_q2L               
        43     5.00000000E+03   # M_q3L               
        44     5.00000000E+03   # M_uR                
        45     5.00000000E+03   # M_cR                
        46     5.00000000E+03   # M_tR                
        47     5.00000000E+03   # M_dR                
        48     5.00000000E+03   # M_sR                
        49     5.00000000E+03   # M_bR                
#
BLOCK MASS  # Mass Spectrum
# PDG code           mass       particle
        24     8.05407652E+01   # W+
        25     1.25000000E+02   # h
        35     2.00414064E+03   # H
        36     2.00000000E+03   # A
        37     2.00179815E+03   # H+
         5     4.87877839E+00   # b-quark pole mass calculated from mb(mb)_Msbar
   1000001     5.00013266E+03   # ~d_L
   2000001     5.00002530E+03   # ~d_R
   1000002     4.99989264E+03   # ~u_L
   2000002     4.99994939E+03   # ~u_R
   1000003     5.00013266E+03   # ~s_L
   2000003     5.00002530E+03   # ~s_R
   1000004     4.99989264E+03   # ~c_L
   2000004     4.99994939E+03   # ~c_R
   1000005     4.99965236E+03   # ~b_1
   2000005     5.00050702E+03   # ~b_2
   1000006     4.99158291E+03   # ~t_1
   2000006     5.01285845E+03   # ~t_2
   1000011     5.00008205E+03   # ~e_L
   2000011     5.00007591E+03   # ~e_R
   1000012     4.99984203E+03   # ~nu_eL
   1000013     5.00008205E+03   # ~mu_L
   2000013     5.00007591E+03   # ~mu_R
   1000014     4.99984203E+03   # ~nu_muL
   1000015     4.99979957E+03   # ~tau_1
   2000015     5.00035901E+03   # ~tau_2
   1000016     4.99984203E+03   # ~nu_tauL
   1000021     1.20000000E+03   # ~g
   1000022     1.04324696E+03   # ~chi_10
   1000023    -1.05238189E+03   # ~chi_20
   1000025     1.06128753E+03   # ~chi_30
   1000035     3.00160439E+03   # ~chi_40
   1000024     1.05135795E+03   # ~chi_1+
   1000037     3.00160411E+03   # ~chi_2+
   1000039     4.62714837E-08   # ~gravitino
#
BLOCK NMIX  # Neutralino Mixing Matrix
  1  1     6.06098153E-01   # N_11
  1  2    -5.78861000E-03   # N_12
  1  3    -5.71408325E-01   # N_13
  1  4    -5.53266705E-01   # N_14
  2  1     2.06769114E-02   # N_21
  2  2    -1.91084705E-02   # N_22
  2  3     7.06666297E-01   # N_23
  2  4    -7.06986616E-01   # N_24
  3  1     7.95120922E-01   # N_31
  3  2     5.49173639E-03   # N_32
  3  3     4.17196311E-01   # N_33
  3  4     4.40113393E-01   # N_34
  4  1     4.63123822E-04   # N_41
  4  2    -9.99785577E-01   # N_42
  4  3    -7.90621528E-03   # N_43
  4  4     1.91331674E-02   # N_44
#
BLOCK UMIX  # Chargino Mixing Matrix U
  1  1    -1.11727199E-02   # U_11
  1  2     9.99937583E-01   # U_12
  2  1     9.99937583E-01   # U_21
  2  2     1.11727199E-02   # U_22
#
BLOCK VMIX  # Chargino Mixing Matrix V
  1  1     2.70579523E-02   # V_11
  1  2    -9.99633867E-01   # V_12
  2  1     9.99633867E-01   # V_21
  2  2     2.70579523E-02   # V_22
#
BLOCK STOPMIX  # Stop Mixing Matrix
  1  1     7.08048752E-01   # cos(theta_t)
  1  2    -7.06163554E-01   # sin(theta_t)
  2  1     7.06163554E-01   # -sin(theta_t)
  2  2     7.08048752E-01   # cos(theta_t)
#
BLOCK SBOTMIX  # Sbottom Mixing Matrix
  1  1    -6.61207213E-01   # cos(theta_b)
  1  2     7.50203320E-01   # sin(theta_b)
  2  1    -7.50203320E-01   # -sin(theta_b)
  2  2    -6.61207213E-01   # cos(theta_b)
#
BLOCK STAUMIX  # Stau Mixing Matrix
  1  1    -7.03216271E-01   # cos(theta_tau)
  1  2     7.10976003E-01   # sin(theta_tau)
  2  1    -7.10976003E-01   # -sin(theta_tau)
  2  2    -7.03216271E-01   # cos(theta_tau)
#
BLOCK ALPHA  # Higgs mixing
          -5.90191639E-01   # Mixing angle in the neutral Higgs boson sector
#
BLOCK HMIX Q=  9.11876000E+01  # DRbar Higgs Parameters
         1    -1.05000000E+03   # mu(Q)               
         2     1.49999979E+00   # tanbeta(Q)          
         3     2.51844504E+02   # vev(Q)              
         4     4.33236546E+06   # MA^2(Q)             
#
BLOCK GAUGE Q=  9.11876000E+01  # The gauge couplings
     1     3.52808774E-01   # gprime(Q) DRbar
     2     6.27340027E-01   # g(Q) DRbar
     3     1.08870460E+00   # g3(Q) DRbar
#
BLOCK AU Q=  9.11876000E+01  # The trilinear couplings
  1  1     0.00000000E+00   # A_u(Q) DRbar
  2  2     0.00000000E+00   # A_c(Q) DRbar
  3  3     0.00000000E+00   # A_t(Q) DRbar
#
BLOCK AD Q=  9.11876000E+01  # The trilinear couplings
  1  1     0.00000000E+00   # A_d(Q) DRbar
  2  2     0.00000000E+00   # A_s(Q) DRbar
  3  3     0.00000000E+00   # A_b(Q) DRbar
#
BLOCK AE Q=  9.11876000E+01  # The trilinear couplings
  1  1     0.00000000E+00   # A_e(Q) DRbar
  2  2     0.00000000E+00   # A_mu(Q) DRbar
  3  3     0.00000000E+00   # A_tau(Q) DRbar
#
BLOCK Yu Q=  9.11876000E+01  # The Yukawa couplings
  1  1     0.00000000E+00   # y_u(Q) DRbar
  2  2     0.00000000E+00   # y_c(Q) DRbar
  3  3     1.02606943E+00   # y_t(Q) DRbar
#
BLOCK Yd Q=  9.11876000E+01  # The Yukawa couplings
  1  1     0.00000000E+00   # y_d(Q) DRbar
  2  2     0.00000000E+00   # y_s(Q) DRbar
  3  3     2.72495400E-02   # y_b(Q) DRbar
#
BLOCK Ye Q=  9.11876000E+01  # The Yukawa couplings
  1  1     0.00000000E+00   # y_e(Q) DRbar
  2  2     0.00000000E+00   # y_mu(Q) DRbar
  3  3     1.79784128E-02   # y_tau(Q) DRbar
#
BLOCK MSOFT Q=  9.11876000E+01  # The soft SUSY breaking masses at the scale Q
         1     1.05375698E+03   # M_1                 
         2     3.00000000E+03   # M_2                 
         3     1.20000000E+03   # M_3                 
        14     0.00000000E+00   # A_u                 
        15     0.00000000E+00   # A_d                 
        16     0.00000000E+00   # A_e                 
        21     1.82016686E+06   # M^2_Hd              
        22    -6.52301040E+06   # M^2_Hu              
        31     5.00000000E+03   # M_eL                
        32     5.00000000E+03   # M_muL               
        33     5.00000000E+03   # M_tauL              
        34     5.00000000E+03   # M_eR                
        35     5.00000000E+03   # M_muR               
        36     5.00000000E+03   # M_tauR              
        41     5.00000000E+03   # M_q1L               
        42     5.00000000E+03   # M_q2L               
        43     5.00000000E+03   # M_q3L               
        44     5.00000000E+03   # M_uR                
        45     5.00000000E+03   # M_cR                
        46     5.00000000E+03   # M_tR                
        47     5.00000000E+03   # M_dR                
        48     5.00000000E+03   # M_sR                
        49     5.00000000E+03   # M_bR                
#
#
#
#                             =================
#                             |The decay table|
#                             =================
#
# - The QCD corrections to the decays gluino -> squark  + quark
#                                     squark -> gaugino + quark_prime
#                                     squark -> squark_prime + Higgs
#                                     squark -> gluino  + quark
#   are included.
#
# - The multi-body decays for the inos, stops and sbottoms are included.
#
# - The loop induced decays for the gluino, neutralinos and stops
#   are included.
#
# - The SUSY decays of the top quark are included.
#
# - Possible decays of the NLSP in GMSB models are included.
#
#
#         PDG            Width
DECAY         6     1.37121920E+00   # top decays
#          BR         NDA      ID1       ID2
     1.00000000E+00    2           5        24   # BR(t ->  b    W+)
#
#         PDG            Width
DECAY   1000021     1.0E-05   # gluino decays
#          BR         NDA      ID1       ID2
     3.35514650E-01    2     1000022        21   # BR(~g -> ~chi_10 g)
     4.62755031E-01    2     1000023        21   # BR(~g -> ~chi_20 g)
     1.51157915E-01    2     1000025        21   # BR(~g -> ~chi_30 g)
#          BR         NDA      ID1       ID2
     0.00000000E+00    2     1000039        21   # BR(~g -> ~G      g)
#           BR         NDA      ID1       ID2       ID3
     2.28910014E-03    3     1000022         1        -1   # BR(~g -> ~chi_10 d  db)
     5.14125601E-06    3     1000023         1        -1   # BR(~g -> ~chi_20 d  db)
     2.11908218E-03    3     1000025         1        -1   # BR(~g -> ~chi_30 d  db)
     7.57974589E-03    3     1000022         2        -2   # BR(~g -> ~chi_10 u  ub)
     4.12858650E-06    3     1000023         2        -2   # BR(~g -> ~chi_20 u  ub)
     7.34352373E-03    3     1000025         2        -2   # BR(~g -> ~chi_30 u  ub)
     2.28910014E-03    3     1000022         3        -3   # BR(~g -> ~chi_10 s  sb)
     5.14125601E-06    3     1000023         3        -3   # BR(~g -> ~chi_20 s  sb)
     2.11908218E-03    3     1000025         3        -3   # BR(~g -> ~chi_30 s  sb)
     7.57974589E-03    3     1000022         4        -4   # BR(~g -> ~chi_10 c  cb)
     4.12858650E-06    3     1000023         4        -4   # BR(~g -> ~chi_20 c  cb)
     7.34352373E-03    3     1000025         4        -4   # BR(~g -> ~chi_30 c  cb)
     2.45299232E-03    3     1000022         5        -5   # BR(~g -> ~chi_10 b  bb)
     9.89371790E-05    3     1000023         5        -5   # BR(~g -> ~chi_20 b  bb)
     2.06359972E-03    3     1000025         5        -5   # BR(~g -> ~chi_30 b  bb)
     1.00032241E-05    3     1000024         1        -2   # BR(~g -> ~chi_1+ d  ub)
     1.00032241E-05    3    -1000024         2        -1   # BR(~g -> ~chi_1- u  db)
     1.00032241E-05    3     1000024         3        -4   # BR(~g -> ~chi_1+ s  cb)
     1.00032241E-05    3    -1000024         4        -3   # BR(~g -> ~chi_1- c  sb)
#
#         PDG            Width
DECAY   1000006     3.40585517E+02   # stop1 decays
#          BR         NDA      ID1       ID2
     4.60213054E-02    2     1000022         6   # BR(~t_1 -> ~chi_10 t )
     9.34254918E-02    2     1000023         6   # BR(~t_1 -> ~chi_20 t )
     6.70891004E-02    2     1000025         6   # BR(~t_1 -> ~chi_30 t )
     1.22199667E-02    2     1000035         6   # BR(~t_1 -> ~chi_40 t )
     9.29615905E-02    2     1000024         5   # BR(~t_1 -> ~chi_1+ b )
     2.44054279E-02    2     1000037         5   # BR(~t_1 -> ~chi_2+ b )
     6.63877117E-01    2     1000021         6   # BR(~t_1 -> ~g      t )
#
#         PDG            Width
DECAY   2000006     3.49883479E+02   # stop2 decays
#          BR         NDA      ID1       ID2
     8.15599579E-02    2     1000022         6   # BR(~t_2 -> ~chi_10 t )
     9.81301759E-02    2     1000023         6   # BR(~t_2 -> ~chi_20 t )
     2.68693014E-02    2     1000025         6   # BR(~t_2 -> ~chi_30 t )
     1.03333605E-02    2     1000035         6   # BR(~t_2 -> ~chi_40 t )
     9.89450250E-02    2     1000024         5   # BR(~t_2 -> ~chi_1+ b )
     2.06289856E-02    2     1000037         5   # BR(~t_2 -> ~chi_2+ b )
     6.63533194E-01    2     1000021         6   # BR(~t_2 -> ~g      t )
#
#         PDG            Width
DECAY   1000005     2.71122719E+02   # sbottom1 decays
#          BR         NDA      ID1       ID2
     2.94968216E-03    2     1000022         5   # BR(~b_1 -> ~chi_10 b )
     3.06472244E-05    2     1000023         5   # BR(~b_1 -> ~chi_20 b )
     3.12819519E-03    2     1000025         5   # BR(~b_1 -> ~chi_30 b )
     1.27998360E-02    2     1000035         5   # BR(~b_1 -> ~chi_40 b )
     1.10008852E-01    2    -1000024         6   # BR(~b_1 -> ~chi_1- t )
     2.56409489E-02    2    -1000037         6   # BR(~b_1 -> ~chi_2- t )
     8.45441838E-01    2     1000021         5   # BR(~b_1 -> ~g      b )
#
#         PDG            Width
DECAY   2000005     2.79998177E+02   # sbottom2 decays
#          BR         NDA      ID1       ID2
     1.32786322E-03    2     1000022         5   # BR(~b_2 -> ~chi_10 b )
     1.73141570E-04    2     1000023         5   # BR(~b_2 -> ~chi_20 b )
     3.77705551E-03    2     1000025         5   # BR(~b_2 -> ~chi_30 b )
     1.52922394E-02    2     1000035         5   # BR(~b_2 -> ~chi_40 b )
     1.29716234E-01    2    -1000024         6   # BR(~b_2 -> ~chi_1- t )
     3.06336348E-02    2    -1000037         6   # BR(~b_2 -> ~chi_2- t )
     8.19079832E-01    2     1000021         5   # BR(~b_2 -> ~g      b )
#
#         PDG            Width
DECAY   1000002     2.53155911E+02   # sup_L decays
#          BR         NDA      ID1       ID2
     7.95219038E-04    2     1000022         2   # BR(~u_L -> ~chi_10 u)
     1.58425293E-05    2     1000023         2   # BR(~u_L -> ~chi_20 u)
     1.62828236E-03    2     1000025         2   # BR(~u_L -> ~chi_30 u)
     3.06067556E-02    2     1000035         2   # BR(~u_L -> ~chi_40 u)
     9.99978793E-05    2     1000024         1   # BR(~u_L -> ~chi_1+ d)
     6.12055774E-02    2     1000037         1   # BR(~u_L -> ~chi_2+ d)
     9.05648325E-01    2     1000021         2   # BR(~u_L -> ~g      u)
#
#         PDG            Width
DECAY   2000002     2.38988840E+02   # sup_R decays
#          BR         NDA      ID1       ID2
     1.49637985E-02    2     1000022         2   # BR(~u_R -> ~chi_10 u)
     1.73872286E-05    2     1000023         2   # BR(~u_R -> ~chi_20 u)
     2.56708099E-02    2     1000025         2   # BR(~u_R -> ~chi_30 u)
     3.91245969E-09    2     1000035         2   # BR(~u_R -> ~chi_40 u)
     9.59348000E-01    2     1000021         2   # BR(~u_R -> ~g      u)
#
#         PDG            Width
DECAY   1000001     2.53158529E+02   # sdown_L decays
#          BR         NDA      ID1       ID2
     9.75185382E-04    2     1000022         1   # BR(~d_L -> ~chi_10 d)
     3.60734366E-05    2     1000023         1   # BR(~d_L -> ~chi_20 d)
     1.40513255E-03    2     1000025         1   # BR(~d_L -> ~chi_30 d)
     3.06218316E-02    2     1000035         1   # BR(~d_L -> ~chi_40 d)
     1.70505750E-05    2    -1000024         2   # BR(~d_L -> ~chi_1- u)
     6.12516619E-02    2    -1000037         2   # BR(~d_L -> ~chi_2- u)
     9.05693065E-01    2     1000021         1   # BR(~d_L -> ~g      d)
#
#         PDG            Width
DECAY   2000001     2.31706685E+02   # sdown_R decays
#          BR         NDA      ID1       ID2
     3.85859085E-03    2     1000022         1   # BR(~d_R -> ~chi_10 d)
     4.48350093E-06    2     1000023         1   # BR(~d_R -> ~chi_20 d)
     6.61951991E-03    2     1000025         1   # BR(~d_R -> ~chi_30 d)
     1.00890504E-09    2     1000035         1   # BR(~d_R -> ~chi_40 d)
     9.89517405E-01    2     1000021         1   # BR(~d_R -> ~g      d)
#
#         PDG            Width
DECAY   1000004     2.53155911E+02   # scharm_L decays
#          BR         NDA      ID1       ID2
     7.95219038E-04    2     1000022         4   # BR(~c_L -> ~chi_10 c)
     1.58425293E-05    2     1000023         4   # BR(~c_L -> ~chi_20 c)
     1.62828236E-03    2     1000025         4   # BR(~c_L -> ~chi_30 c)
     3.06067556E-02    2     1000035         4   # BR(~c_L -> ~chi_40 c)
     9.99978793E-05    2     1000024         3   # BR(~c_L -> ~chi_1+ s)
     6.12055774E-02    2     1000037         3   # BR(~c_L -> ~chi_2+ s)
     9.05648325E-01    2     1000021         4   # BR(~c_L -> ~g      c)
#
#         PDG            Width
DECAY   2000004     2.38988840E+02   # scharm_R decays
#          BR         NDA      ID1       ID2
     1.49637985E-02    2     1000022         4   # BR(~c_R -> ~chi_10 c)
     1.73872286E-05    2     1000023         4   # BR(~c_R -> ~chi_20 c)
     2.56708099E-02    2     1000025         4   # BR(~c_R -> ~chi_30 c)
     3.91245969E-09    2     1000035         4   # BR(~c_R -> ~chi_40 c)
     9.59348000E-01    2     1000021         4   # BR(~c_R -> ~g      c)
#
#         PDG            Width
DECAY   1000003     2.53158529E+02   # sstrange_L decays
#          BR         NDA      ID1       ID2
     9.75185382E-04    2     1000022         3   # BR(~s_L -> ~chi_10 s)
     3.60734366E-05    2     1000023         3   # BR(~s_L -> ~chi_20 s)
     1.40513255E-03    2     1000025         3   # BR(~s_L -> ~chi_30 s)
     3.06218316E-02    2     1000035         3   # BR(~s_L -> ~chi_40 s)
     1.70505750E-05    2    -1000024         4   # BR(~s_L -> ~chi_1- c)
     6.12516619E-02    2    -1000037         4   # BR(~s_L -> ~chi_2- c)
     9.05693065E-01    2     1000021         3   # BR(~s_L -> ~g      s)
#
#         PDG            Width
DECAY   2000003     2.31706685E+02   # sstrange_R decays
#          BR         NDA      ID1       ID2
     3.85859085E-03    2     1000022         3   # BR(~s_R -> ~chi_10 s)
     4.48350093E-06    2     1000023         3   # BR(~s_R -> ~chi_20 s)
     6.61951991E-03    2     1000025         3   # BR(~s_R -> ~chi_30 s)
     1.00890504E-09    2     1000035         3   # BR(~s_R -> ~chi_40 s)
     9.89517405E-01    2     1000021         3   # BR(~s_R -> ~g      s)
#
#         PDG            Width
DECAY   1000011     2.96885498E+01   # selectron_L decays
#          BR         NDA      ID1       ID2
     6.77197826E-02    2     1000022        11   # BR(~e_L -> ~chi_10 e-)
     3.36932895E-05    2     1000023        11   # BR(~e_L -> ~chi_20 e-)
     1.23195656E-01    2     1000025        11   # BR(~e_L -> ~chi_30 e-)
     2.69485157E-01    2     1000035        11   # BR(~e_L -> ~chi_40 e-)
     1.50371188E-04    2    -1000024        12   # BR(~e_L -> ~chi_1- nu_e)
     5.39415340E-01    2    -1000037        12   # BR(~e_L -> ~chi_2- nu_e)
#
#         PDG            Width
DECAY   2000011     2.26090765E+01   # selectron_R decays
#          BR         NDA      ID1       ID2
     3.68093669E-01    2     1000022        11   # BR(~e_R -> ~chi_10 e-)
     4.27708735E-04    2     1000023        11   # BR(~e_R -> ~chi_20 e-)
     6.31478527E-01    2     1000025        11   # BR(~e_R -> ~chi_30 e-)
     9.61122707E-08    2     1000035        11   # BR(~e_R -> ~chi_40 e-)
#
#         PDG            Width
DECAY   1000013     2.96885498E+01   # smuon_L decays
#          BR         NDA      ID1       ID2
     6.77197826E-02    2     1000022        13   # BR(~mu_L -> ~chi_10 mu-)
     3.36932895E-05    2     1000023        13   # BR(~mu_L -> ~chi_20 mu-)
     1.23195656E-01    2     1000025        13   # BR(~mu_L -> ~chi_30 mu-)
     2.69485157E-01    2     1000035        13   # BR(~mu_L -> ~chi_40 mu-)
     1.50371188E-04    2    -1000024        14   # BR(~mu_L -> ~chi_1- nu_mu)
     5.39415340E-01    2    -1000037        14   # BR(~mu_L -> ~chi_2- nu_mu)
#
#         PDG            Width
DECAY   2000013     2.26090765E+01   # smuon_R decays
#          BR         NDA      ID1       ID2
     3.68093669E-01    2     1000022        13   # BR(~mu_R -> ~chi_10 mu-)
     4.27708735E-04    2     1000023        13   # BR(~mu_R -> ~chi_20 mu-)
     6.31478527E-01    2     1000025        13   # BR(~mu_R -> ~chi_30 mu-)
     9.61122707E-08    2     1000035        13   # BR(~mu_R -> ~chi_40 mu-)
#
#         PDG            Width
DECAY   1000015     2.61402475E+01   # stau_1 decays
#          BR         NDA      ID1       ID2
     2.04795316E-01    2     1000022        15   # BR(~tau_1 -> ~chi_10  tau-)
     1.64863710E-04    2     1000023        15   # BR(~tau_1 -> ~chi_20  tau-)
     3.40304557E-01    2     1000025        15   # BR(~tau_1 -> ~chi_30  tau-)
     1.51423799E-01    2     1000035        15   # BR(~tau_1 -> ~chi_40  tau-)
     2.14342530E-04    2    -1000024        16   # BR(~tau_1 -> ~chi_1-  nu_tau)
     3.03097058E-01    2    -1000037        16   # BR(~tau_1 -> ~chi_2-  nu_tau)
     6.42706712E-08    2     1000039        15   # BR(~tau_1 -> ~G       tau-)
#
#         PDG            Width
DECAY   2000015     2.62455005E+01   # stau_2 decays
#          BR         NDA      ID1       ID2
     1.90455152E-01    2     1000022        15   # BR(~tau_2 -> ~chi_10  tau-)
     1.36015201E-03    2     1000023        15   # BR(~tau_2 -> ~chi_20  tau-)
     3.44789758E-01    2     1000025        15   # BR(~tau_2 -> ~chi_30  tau-)
     1.54021483E-01    2     1000035        15   # BR(~tau_2 -> ~chi_40  tau-)
     1.07565400E-03    2    -1000024        16   # BR(~tau_2 -> ~chi_1-  nu_tau)
     3.08297801E-01    2    -1000037        16   # BR(~tau_2 -> ~chi_2-  nu_tau)
#
#         PDG            Width
DECAY   1000012     2.96866903E+01   # snu_eL decays
#          BR         NDA      ID1       ID2
     7.24806569E-02    2     1000022        12   # BR(~nu_eL -> ~chi_10 nu_e)
     5.68933973E-04    2     1000023        12   # BR(~nu_eL -> ~chi_20 nu_e)
     1.17290313E-01    2     1000025        12   # BR(~nu_eL -> ~chi_30 nu_e)
     2.69740881E-01    2     1000035        12   # BR(~nu_eL -> ~chi_40 nu_e)
     8.81940240E-04    2     1000024        11   # BR(~nu_eL -> ~chi_1+ e-)
     5.39037275E-01    2     1000037        11   # BR(~nu_eL -> ~chi_2+ e-)
#
#         PDG            Width
DECAY   1000014     2.96866903E+01   # snu_muL decays
#          BR         NDA      ID1       ID2
     7.24806569E-02    2     1000022        14   # BR(~nu_muL -> ~chi_10 nu_mu)
     5.68933973E-04    2     1000023        14   # BR(~nu_muL -> ~chi_20 nu_mu)
     1.17290313E-01    2     1000025        14   # BR(~nu_muL -> ~chi_30 nu_mu)
     2.69740881E-01    2     1000035        14   # BR(~nu_muL -> ~chi_40 nu_mu)
     8.81940240E-04    2     1000024        13   # BR(~nu_muL -> ~chi_1+ mu-)
     5.39037275E-01    2     1000037        13   # BR(~nu_muL -> ~chi_2+ mu-)
#
#         PDG            Width
DECAY   1000016     2.97160641E+01   # snu_tauL decays
#          BR         NDA      ID1       ID2
     7.24090109E-02    2     1000022        16   # BR(~nu_tauL -> ~chi_10 nu_tau)
     5.68371591E-04    2     1000023        16   # BR(~nu_tauL -> ~chi_20 nu_tau)
     1.17174374E-01    2     1000025        16   # BR(~nu_tauL -> ~chi_30 nu_tau)
     2.69474246E-01    2     1000035        16   # BR(~nu_tauL -> ~chi_40 nu_tau)
     1.86959946E-03    2     1000024        15   # BR(~nu_tauL -> ~chi_1+ tau-)
     5.38504398E-01    2     1000037        15   # BR(~nu_tauL -> ~chi_2+ tau-)
#
#         PDG            Width
DECAY   1000024     2.32316302E-08   # chargino1+ decays
#          BR         NDA      ID1       ID2
     1.45379457E-02    2     1000039        24   # BR(~chi_1+ -> ~G       W+)
#           BR         NDA      ID1       ID2       ID3
     3.52701881E-01    3     1000022         2        -1   # BR(~chi_1+ -> ~chi_10 u    db)
     3.04388576E-01    3     1000022         4        -3   # BR(~chi_1+ -> ~chi_10 c    sb)
     1.17567974E-01    3     1000022       -11        12   # BR(~chi_1+ -> ~chi_10 e+   nu_e)
     1.17468346E-01    3     1000022       -13        14   # BR(~chi_1+ -> ~chi_10 mu+  nu_mu)
     9.33352763E-02    3     1000022       -15        16   # BR(~chi_1+ -> ~chi_10 tau+ nu_tau)
#
#         PDG            Width
DECAY   1000037     9.59037340E+00   # chargino2+ decays
#          BR         NDA      ID1       ID2
     2.53087002E-01    2     1000024        23   # BR(~chi_2+ -> ~chi_1+  Z )
     1.49616634E-01    2     1000022        24   # BR(~chi_2+ -> ~chi_10  W+)
     2.46036102E-01    2     1000023        24   # BR(~chi_2+ -> ~chi_20  W+)
     9.79374442E-02    2     1000025        24   # BR(~chi_2+ -> ~chi_30  W+)
     2.53322805E-01    2     1000024        25   # BR(~chi_2+ -> ~chi_1+  h )
     1.36213376E-08    2     1000039        24   # BR(~chi_2+ -> ~G       W+)
     2.02341194E-13    2     1000039        37   # BR(~chi_2+ -> ~G       H+)
#
#         PDG            Width
DECAY   1000022     1.0E-05   # neutralino1 decays
#          BR         NDA      ID1       ID2
     4.18331224E-01    2     1000039        22   # BR(~chi_10 -> ~G        gam)
     1.49249962E-01    2     1000039        23   # BR(~chi_10 -> ~G        Z)
     4.32418814E-01    2     1000039        25   # BR(~chi_10 -> ~G        h)
#
#         PDG            Width
DECAY   1000023     1.0E-05   # neutralino2 decays
#          BR         NDA      ID1       ID2
     7.96281435E-03    2     1000022        22   # BR(~chi_20 -> ~chi_10 gam)
#          BR         NDA      ID1       ID2
     1.64693419E-06    2     1000039        22   # BR(~chi_20 -> ~G        gam)
     1.02628556E-02    2     1000039        23   # BR(~chi_20 -> ~G        Z)
     3.91275504E-04    2     1000039        25   # BR(~chi_20 -> ~G        h)
#           BR         NDA      ID1       ID2       ID3
     1.39549012E-01    3     1000022        -2         2   # BR(~chi_20 -> ~chi_10 ub      u)
     1.80685433E-01    3     1000022        -1         1   # BR(~chi_20 -> ~chi_10 db      d)
     1.18876645E-01    3     1000022        -4         4   # BR(~chi_20 -> ~chi_10 cb      c)
     1.80046048E-01    3     1000022        -3         3   # BR(~chi_20 -> ~chi_10 sb      s)
     4.12611516E-02    3     1000022       -11        11   # BR(~chi_20 -> ~chi_10 e+      e-)
     4.12329340E-02    3     1000022       -13        13   # BR(~chi_20 -> ~chi_10 mu+     mu-)
     3.24892677E-02    3     1000022       -15        15   # BR(~chi_20 -> ~chi_10 tau+    tau-)
     8.23991111E-02    3     1000022       -12        12   # BR(~chi_20 -> ~chi_10 nu_eb   nu_e)
     8.23991111E-02    3     1000022       -14        14   # BR(~chi_20 -> ~chi_10 nu_mub  nu_mu)
     8.23991111E-02    3     1000022       -16        16   # BR(~chi_20 -> ~chi_10 nu_taub nu_tau)
     1.32094924E-05    3     1000024        -2         1   # BR(~chi_20 -> ~chi_1+ ub      d)
     1.32094924E-05    3    -1000024        -1         2   # BR(~chi_20 -> ~chi_1- db      u)
     4.40316443E-06    3     1000024       -12        11   # BR(~chi_20 -> ~chi_1+ nu_eb   e-)
     4.40316443E-06    3    -1000024        12       -11   # BR(~chi_20 -> ~chi_1- nu_e    e+)
     4.17892207E-06    3     1000024       -14        13   # BR(~chi_20 -> ~chi_1+ nu_mub  mu-)
     4.17892207E-06    3    -1000024        14       -13   # BR(~chi_20 -> ~chi_1- nu_mu   mu+)
#
#         PDG            Width
DECAY   1000025     1.0E-05   # neutralino3 decays
#          BR         NDA      ID1       ID2
     8.91275056E-01    2     1000022        22   # BR(~chi_30 -> ~chi_10 gam)
     1.13430016E-02    2     1000023        22   # BR(~chi_30 -> ~chi_20 gam)
#          BR         NDA      ID1       ID2
     3.72901508E-04    2     1000039        22   # BR(~chi_30 -> ~G        gam)
     1.17632064E-04    2     1000039        23   # BR(~chi_30 -> ~G        Z)
     1.30190819E-04    2     1000039        25   # BR(~chi_30 -> ~G        h)
#           BR         NDA      ID1       ID2       ID3
     1.75024375E-05    3     1000022        -2         2   # BR(~chi_30 -> ~chi_10 ub      u)
     2.31424098E-05    3     1000022        -1         1   # BR(~chi_30 -> ~chi_10 db      d)
     1.61429737E-05    3     1000022        -4         4   # BR(~chi_30 -> ~chi_10 cb      c)
     2.31124154E-05    3     1000022        -3         3   # BR(~chi_30 -> ~chi_10 sb      s)
     9.26108744E-06    3     1000022        -5         5   # BR(~chi_30 -> ~chi_10 bb      b)
     5.67385659E-06    3     1000022       -11        11   # BR(~chi_30 -> ~chi_10 e+      e-)
     5.67095526E-06    3     1000022       -13        13   # BR(~chi_30 -> ~chi_10 mu+     mu-)
     4.92228293E-06    3     1000022       -15        15   # BR(~chi_30 -> ~chi_10 tau+    tau-)
     1.03537858E-05    3     1000022       -12        12   # BR(~chi_30 -> ~chi_10 nu_eb   nu_e)
     1.03537858E-05    3     1000022       -14        14   # BR(~chi_30 -> ~chi_10 nu_mub  nu_mu)
     1.03537858E-05    3     1000022       -16        16   # BR(~chi_30 -> ~chi_10 nu_taub nu_tau)
     2.39965875E-03    3     1000023        -2         2   # BR(~chi_30 -> ~chi_20 ub      u)
     3.10706257E-03    3     1000023        -1         1   # BR(~chi_30 -> ~chi_20 db      d)
     2.02579535E-03    3     1000023        -4         4   # BR(~chi_30 -> ~chi_20 cb      c)
     3.09549914E-03    3     1000023        -3         3   # BR(~chi_30 -> ~chi_20 sb      s)
     7.09537594E-04    3     1000023       -11        11   # BR(~chi_30 -> ~chi_20 e+      e-)
     7.09027478E-04    3     1000023       -13        13   # BR(~chi_30 -> ~chi_20 mu+     mu-)
     5.50635478E-04    3     1000023       -15        15   # BR(~chi_30 -> ~chi_20 tau+    tau-)
     1.41689784E-03    3     1000023       -12        12   # BR(~chi_30 -> ~chi_20 nu_eb   nu_e)
     1.41689784E-03    3     1000023       -14        14   # BR(~chi_30 -> ~chi_20 nu_mub  nu_mu)
     1.41689784E-03    3     1000023       -16        16   # BR(~chi_30 -> ~chi_20 nu_taub nu_tau)
     1.39574990E-02    3     1000024        -2         1   # BR(~chi_30 -> ~chi_1+ ub      d)
     1.39574990E-02    3    -1000024        -1         2   # BR(~chi_30 -> ~chi_1- db      u)
     1.26439942E-02    3     1000024        -4         3   # BR(~chi_30 -> ~chi_1+ cb      s)
     1.26439942E-02    3    -1000024        -3         4   # BR(~chi_30 -> ~chi_1- sb      c)
     4.65245089E-03    3     1000024       -12        11   # BR(~chi_30 -> ~chi_1+ nu_eb   e-)
     4.65245089E-03    3    -1000024        12       -11   # BR(~chi_30 -> ~chi_1- nu_e    e+)
     4.64981933E-03    3     1000024       -14        13   # BR(~chi_30 -> ~chi_1+ nu_mub  mu-)
     4.64981933E-03    3    -1000024        14       -13   # BR(~chi_30 -> ~chi_1- nu_mu   mu+)
     3.98464570E-03    3     1000024       -16        15   # BR(~chi_30 -> ~chi_1+ nu_taub tau-)
     3.98464570E-03    3    -1000024        16       -15   # BR(~chi_30 -> ~chi_1- nu_tau  tau+)
#
#         PDG            Width
DECAY   1000035     9.59062989E+00   # neutralino4 decays
#          BR         NDA      ID1       ID2
     1.35788270E-01    2     1000022        23   # BR(~chi_40 -> ~chi_10   Z )
     3.70687319E-02    2     1000023        23   # BR(~chi_40 -> ~chi_20   Z )
     8.05892969E-02    2     1000025        23   # BR(~chi_40 -> ~chi_30   Z )
     2.46408405E-01    2     1000024       -24   # BR(~chi_40 -> ~chi_1+   W-)
     2.46408405E-01    2    -1000024        24   # BR(~chi_40 -> ~chi_1-   W+)
     1.76696715E-02    2     1000022        25   # BR(~chi_40 -> ~chi_10   h )
     2.16207453E-01    2     1000023        25   # BR(~chi_40 -> ~chi_20   h )
     1.98597520E-02    2     1000025        25   # BR(~chi_40 -> ~chi_30   h )
     3.27568336E-09    2     1000039        22   # BR(~chi_40 -> ~G        gam)
     1.03439153E-08    2     1000039        23   # BR(~chi_40 -> ~G        Z)
     8.96534478E-13    2     1000039        25   # BR(~chi_40 -> ~G        h)
     1.90979915E-13    2     1000039        35   # BR(~chi_40 -> ~G        H)
     1.06289225E-14    2     1000039        36   # BR(~chi_40 -> ~G        A)
#
#         PDG            Width
DECAY        25     4.07935452E-03   # h decays
#          BR         NDA      ID1       ID2
     6.17165819E-01    2           5        -5   # BR(h -> b       bb     )
     6.38455666E-02    2         -15        15   # BR(h -> tau+    tau-   )
     2.25989792E-04    2         -13        13   # BR(h -> mu+     mu-    )
     4.78893042E-04    2           3        -3   # BR(h -> s       sb     )
     2.06613948E-02    2           4        -4   # BR(h -> c       cb     )
     6.70884679E-02    2          21        21   # BR(h -> g       g      )
     2.30119825E-03    2          22        22   # BR(h -> gam     gam    )
     1.53986971E-03    2          22        23   # BR(h -> Z       gam    )
     2.01035885E-01    2          24       -24   # BR(h -> W+      W-     )
     2.56569158E-02    2          23        23   # BR(h -> Z       Z      )
#
#         PDG            Width
DECAY        35     3.78114059E+01   # H decays
#          BR         NDA      ID1       ID2
     1.47924428E-03    2           5        -5   # BR(H -> b       bb     )
     2.46438721E-04    2         -15        15   # BR(H -> tau+    tau-   )
     8.71252628E-07    2         -13        13   # BR(H -> mu+     mu-    )
     1.11551188E-06    2           3        -3   # BR(H -> s       sb     )
     1.00667269E-05    2           4        -4   # BR(H -> c       cb     )
     9.96059665E-01    2           6        -6   # BR(H -> t       tb     )
     7.97629418E-04    2          21        21   # BR(H -> g       g      )
     2.74675452E-06    2          22        22   # BR(H -> gam     gam    )
     1.15992404E-06    2          23        22   # BR(H -> Z       gam    )
     3.31529087E-04    2          24       -24   # BR(H -> W+      W-     )
     1.65312460E-04    2          23        23   # BR(H -> Z       Z      )
     9.04220400E-04    2          25        25   # BR(H -> h       h      )
     8.57465334E-24    2          36        36   # BR(H -> A       A      )
     3.47328239E-11    2          23        36   # BR(H -> Z       A      )
     4.90457526E-12    2          24       -37   # BR(H -> W+      H-     )
     4.90457526E-12    2         -24        37   # BR(H -> W-      H+     )
#
#         PDG            Width
DECAY        36     3.82384166E+01   # A decays
#          BR         NDA      ID1       ID2
     1.48201295E-03    2           5        -5   # BR(A -> b       bb     )
     2.43896511E-04    2         -15        15   # BR(A -> tau+    tau-   )
     8.62262273E-07    2         -13        13   # BR(A -> mu+     mu-    )
     1.13676832E-06    2           3        -3   # BR(A -> s       sb     )
     9.96171544E-06    2           4        -4   # BR(A -> c       cb     )
     9.96991049E-01    2           6        -6   # BR(A -> t       tb     )
     9.43670969E-04    2          21        21   # BR(A -> g       g      )
     2.97322152E-06    2          22        22   # BR(A -> gam     gam    )
     1.35248263E-06    2          23        22   # BR(A -> Z       gam    )
     3.23084149E-04    2          23        25   # BR(A -> Z       h      )
#
#         PDG            Width
DECAY        37     3.74523528E+01   # H+ decays
#          BR         NDA      ID1       ID2
     2.38221110E-06    2           4        -5   # BR(H+ -> c       bb     )
     2.49239385E-04    2         -15        16   # BR(H+ -> tau+    nu_tau )
     8.81151260E-07    2         -13        14   # BR(H+ -> mu+     nu_mu  )
     1.51462658E-08    2           2        -5   # BR(H+ -> u       bb     )
     5.45687578E-08    2           2        -3   # BR(H+ -> u       sb     )
     1.08730313E-05    2           4        -3   # BR(H+ -> c       sb     )
     9.99405329E-01    2           6        -5   # BR(H+ -> t       bb     )
     3.31225715E-04    2          24        25   # BR(H+ -> W+      h      )
     6.60005993E-13    2          24        36   # BR(H+ -> W+      A      )
