#
#                              ======================
#                              | THE SUSYHIT OUTPUT |
#                              ======================
#
#
#              ------------------------------------------------------
#              |     This is the output of the SUSY-HIT package     |
#              |  created by A.Djouadi, M.Muehlleitner and M.Spira. |
#              |  In case of problems with SUSY-HIT email to        |
#              |           margarete.muehlleitner@kit.edu           |
#              |           michael.spira@psi.ch                     |
#              |           abdelhak.djouadi@cern.ch                 |
#              ------------------------------------------------------
#
#              ------------------------------------------------------
#              |  SUSY Les Houches Accord - MSSM Spectrum + Decays  |
#              |              based on the decay programs           |
#              |                                                    |
#              |                     SDECAY 1.5a                    |
#              |                                                    |
#              |  Authors: M.Muhlleitner, A.Djouadi and Y.Mambrini  |
#              |  Ref.:    Comput.Phys.Commun.168(2005)46           |
#              |           [hep-ph/0311167]                         |
#              |                                                    |
#              |                     HDECAY 3.4                     |
#              |                                                    |
#              |  By: A.Djouadi,J.Kalinowski,M.Muhlleitner,M.Spira  |
#              |  Ref.:    Comput.Phys.Commun.108(1998)56           |
#              |           [hep-ph/9704448]                         |
#              |                                                    |
#              |                                                    |
#              |  If not stated otherwise all DRbar couplings and   |
#              |  soft SUSY breaking masses are given at the scale  |
#              |  Q=  0.91187600E+02
#              |                                                    |
#              ------------------------------------------------------
#
#
BLOCK DCINFO  # Decay Program information
     1   SDECAY/HDECAY # decay calculator
     2   1.5a /3.4    # version number
#
BLOCK SPINFO  # Spectrum calculator information
     1   SuSpect     # RGE +Spectrum calculator            
     2   2.43         # version number                     
#
BLOCK MODSEL  # Model selection
     1     2   # GMSB                                              
#
BLOCK SMINPUTS  # Standard Model inputs
         1     1.27932904E+02   # alpha_em^-1(M_Z)^MSbar
         2     1.16639000E-05   # G_F [GeV^-2]
         3     1.17200000E-01   # alpha_S(M_Z)^MSbar
         4     9.11870000E+01   # M_Z pole mass
         5     4.25000000E+00   # mb(mb)^MSbar
         6     1.72900000E+02   # mt pole mass
         7     1.77700000E+00   # mtau pole mass
#
BLOCK MINPAR  # Input parameters - minimal models
#
BLOCK EXTPAR  # Input parameters - non-minimal models
         0     9.11876000E+01   # EWSB                
         1     2.63889039E+02   # M_1                 
         2     3.00000000E+03   # M_2                 
         3     2.40000000E+03   # M_3                 
        11     0.00000000E+00   # A_t                 
        12     0.00000000E+00   # A_b                 
        13     0.00000000E+00   # A_tau               
        14     0.00000000E+00   # A_u                 
        15     0.00000000E+00   # A_d                 
        16     0.00000000E+00   # A_e                 
        23    -2.50000000E+02   # mu(EWSB)            
        25     1.50000000E+00   # tanbeta(in)         
        26     2.00000000E+03   # MA_pole             
        31     5.00000000E+03   # M_eL                
        32     5.00000000E+03   # M_muL               
        33     5.00000000E+03   # M_tauL              
        34     5.00000000E+03   # M_eR                
        35     5.00000000E+03   # M_muR               
        36     5.00000000E+03   # M_tauR              
        41     5.00000000E+03   # M_q1L               
        42     5.00000000E+03   # M_q2L               
        43     5.00000000E+03   # M_q3L               
        44     5.00000000E+03   # M_uR                
        45     5.00000000E+03   # M_cR                
        46     5.00000000E+03   # M_tR                
        47     5.00000000E+03   # M_dR                
        48     5.00000000E+03   # M_sR                
        49     5.00000000E+03   # M_bR                
#
BLOCK MASS  # Mass Spectrum
# PDG code           mass       particle
        24     8.05375444E+01   # W+
        25     1.25000000E+02   # h
        35     2.00415307E+03   # H
        36     2.00000000E+03   # A
        37     2.00193740E+03   # H+
         5     4.87877839E+00   # b-quark pole mass calculated from mb(mb)_Msbar
   1000001     5.00013313E+03   # ~d_L
   2000001     5.00002531E+03   # ~d_R
   1000002     4.99989218E+03   # ~u_L
   2000002     4.99994938E+03   # ~u_R
   1000003     5.00013313E+03   # ~s_L
   2000003     5.00002531E+03   # ~s_R
   1000004     4.99989218E+03   # ~c_L
   2000004     4.99994938E+03   # ~c_R
   1000005     4.99996553E+03   # ~b_1
   2000005     5.00019435E+03   # ~b_2
   1000006     4.99970035E+03   # ~t_1
   2000006     5.00477156E+03   # ~t_2
   1000011     5.00008251E+03   # ~e_L
   2000011     5.00007593E+03   # ~e_R
   1000012     4.99984156E+03   # ~nu_eL
   1000013     5.00008251E+03   # ~mu_L
   2000013     5.00007593E+03   # ~mu_R
   1000014     4.99984156E+03   # ~nu_muL
   1000015     5.00001283E+03   # ~tau_1
   2000015     5.00014624E+03   # ~tau_2
   1000016     4.99984156E+03   # ~nu_tauL
   1000021     2.40000000E+03   # ~g
   1000022     2.46381813E+02   # ~chi_10
   1000023    -2.55507346E+02   # ~chi_20
   1000025     2.71074228E+02   # ~chi_30
   1000035     3.00194034E+03   # ~chi_40
   1000024     2.51764789E+02   # ~chi_1+
   1000037     3.00194002E+03   # ~chi_2+
   1000039     1.00000000E-09   # ~gravitino
#
BLOCK NMIX  # Neutralino Mixing Matrix
  1  1     3.76770781E-01   # N_11
  1  2    -4.26730298E-03   # N_12
  1  3    -6.78411805E-01   # N_13
  1  4    -6.30700398E-01   # N_14
  2  1     8.36013815E-02   # N_21
  2  2    -2.37605414E-02   # N_22
  2  3     7.02894484E-01   # N_23
  2  4    -7.05964298E-01   # N_24
  3  1     9.22526113E-01   # N_31
  3  2     4.32700898E-03   # N_32
  3  3     2.13379240E-01   # N_33
  3  4     3.21552714E-01   # N_34
  4  1     3.97689241E-04   # N_41
  4  2    -9.99699207E-01   # N_42
  4  3    -1.28867471E-02   # N_43
  4  4     2.08631206E-02   # N_44
#
BLOCK UMIX  # Chargino Mixing Matrix U
  1  1    -1.82173930E-02   # U_11
  1  2     9.99834050E-01   # U_12
  2  1     9.99834050E-01   # U_21
  2  2     1.82173930E-02   # U_22
#
BLOCK VMIX  # Chargino Mixing Matrix V
  1  1     2.95027698E-02   # V_11
  1  2    -9.99564699E-01   # V_12
  2  1     9.99564699E-01   # V_21
  2  2     2.95027698E-02   # V_22
#
BLOCK STOPMIX  # Stop Mixing Matrix
  1  1     7.11081800E-01   # cos(theta_t)
  1  2    -7.03109290E-01   # sin(theta_t)
  2  1     7.03109290E-01   # -sin(theta_t)
  2  2     7.11081800E-01   # cos(theta_t)
#
BLOCK SBOTMIX  # Sbottom Mixing Matrix
  1  1    -5.14205040E-01   # cos(theta_b)
  1  2     8.57667288E-01   # sin(theta_b)
  2  1    -8.57667288E-01   # -sin(theta_b)
  2  2    -5.14205040E-01   # cos(theta_b)
#
BLOCK STAUMIX  # Stau Mixing Matrix
  1  1    -6.89440483E-01   # cos(theta_tau)
  1  2     7.24342336E-01   # sin(theta_tau)
  2  1    -7.24342336E-01   # -sin(theta_tau)
  2  2    -6.89440483E-01   # cos(theta_tau)
#
BLOCK ALPHA  # Higgs mixing
          -5.90209217E-01   # Mixing angle in the neutral Higgs boson sector
#
BLOCK HMIX Q=  9.11876000E+01  # DRbar Higgs Parameters
         1    -2.50000000E+02   # mu(Q)               
         2     1.49999979E+00   # tanbeta(Q)          
         3     2.51692631E+02   # vev(Q)              
         4     4.04057802E+06   # MA^2(Q)             
#
BLOCK GAUGE Q=  9.11876000E+01  # The gauge couplings
     1     3.53058646E-01   # gprime(Q) DRbar
     2     6.28940389E-01   # g(Q) DRbar
     3     1.07754424E+00   # g3(Q) DRbar
#
BLOCK AU Q=  9.11876000E+01  # The trilinear couplings
  1  1     0.00000000E+00   # A_u(Q) DRbar
  2  2     0.00000000E+00   # A_c(Q) DRbar
  3  3     0.00000000E+00   # A_t(Q) DRbar
#
BLOCK AD Q=  9.11876000E+01  # The trilinear couplings
  1  1     0.00000000E+00   # A_d(Q) DRbar
  2  2     0.00000000E+00   # A_s(Q) DRbar
  3  3     0.00000000E+00   # A_b(Q) DRbar
#
BLOCK AE Q=  9.11876000E+01  # The trilinear couplings
  1  1     0.00000000E+00   # A_e(Q) DRbar
  2  2     0.00000000E+00   # A_mu(Q) DRbar
  3  3     0.00000000E+00   # A_tau(Q) DRbar
#
BLOCK Yu Q=  9.11876000E+01  # The Yukawa couplings
  1  1     0.00000000E+00   # y_u(Q) DRbar
  2  2     0.00000000E+00   # y_c(Q) DRbar
  3  3     1.02776517E+00   # y_t(Q) DRbar
#
BLOCK Yd Q=  9.11876000E+01  # The Yukawa couplings
  1  1     0.00000000E+00   # y_d(Q) DRbar
  2  2     0.00000000E+00   # y_s(Q) DRbar
  3  3     2.72594867E-02   # y_b(Q) DRbar
#
BLOCK Ye Q=  9.11876000E+01  # The Yukawa couplings
  1  1     0.00000000E+00   # y_e(Q) DRbar
  2  2     0.00000000E+00   # y_mu(Q) DRbar
  3  3     1.79967041E-02   # y_tau(Q) DRbar
#
BLOCK MSOFT Q=  9.11876000E+01  # The soft SUSY breaking masses at the scale Q
         1     2.63889039E+02   # M_1                 
         2     3.00000000E+03   # M_2                 
         3     2.40000000E+03   # M_3                 
        14     0.00000000E+00   # A_u                 
        15     0.00000000E+00   # A_d                 
        16     0.00000000E+00   # A_e                 
        21     2.99522256E+06   # M^2_Hd              
        22    -5.41761337E+06   # M^2_Hu              
        31     5.00000000E+03   # M_eL                
        32     5.00000000E+03   # M_muL               
        33     5.00000000E+03   # M_tauL              
        34     5.00000000E+03   # M_eR                
        35     5.00000000E+03   # M_muR               
        36     5.00000000E+03   # M_tauR              
        41     5.00000000E+03   # M_q1L               
        42     5.00000000E+03   # M_q2L               
        43     5.00000000E+03   # M_q3L               
        44     5.00000000E+03   # M_uR                
        45     5.00000000E+03   # M_cR                
        46     5.00000000E+03   # M_tR                
        47     5.00000000E+03   # M_dR                
        48     5.00000000E+03   # M_sR                
        49     5.00000000E+03   # M_bR                
#
#
#
#                             =================
#                             |The decay table|
#                             =================
#
# - The QCD corrections to the decays gluino -> squark  + quark
#                                     squark -> gaugino + quark_prime
#                                     squark -> squark_prime + Higgs
#                                     squark -> gluino  + quark
#   are included.
#
# - The multi-body decays for the inos, stops and sbottoms are included.
#
# - The loop induced decays for the gluino, neutralinos and stops
#   are included.
#
# - The SUSY decays of the top quark are included.
#
# - Possible decays of the NLSP in GMSB models are included.
#
#
#         PDG            Width
DECAY         6     1.37836213E+00   # top decays
#          BR         NDA      ID1       ID2
     1.00000000E+00    2           5        24   # BR(t ->  b    W+)
#
#         PDG            Width
DECAY   1000021     1.14494902E-02   # gluino decays
#          BR         NDA      ID1       ID2
     4.04884319E-03    2     1000022        21   # BR(~g -> ~chi_10 g)
     5.02310295E-03    2     1000023        21   # BR(~g -> ~chi_20 g)
     1.03741170E-03    2     1000025        21   # BR(~g -> ~chi_30 g)
#          BR         NDA      ID1       ID2
     0.00000000E+00    2     1000039        21   # BR(~g -> ~G      g)
#           BR         NDA      ID1       ID2       ID3
     9.04252650E-04    3     1000022         1        -1   # BR(~g -> ~chi_10 d  db)
     6.33559678E-05    3     1000023         1        -1   # BR(~g -> ~chi_20 d  db)
     5.21616994E-03    3     1000025         1        -1   # BR(~g -> ~chi_30 d  db)
     2.97919251E-03    3     1000022         2        -2   # BR(~g -> ~chi_10 u  ub)
     9.96524625E-05    3     1000023         2        -2   # BR(~g -> ~chi_20 u  ub)
     1.79674069E-02    3     1000025         2        -2   # BR(~g -> ~chi_30 u  ub)
     9.04252650E-04    3     1000022         3        -3   # BR(~g -> ~chi_10 s  sb)
     6.33559678E-05    3     1000023         3        -3   # BR(~g -> ~chi_20 s  sb)
     5.21616994E-03    3     1000025         3        -3   # BR(~g -> ~chi_30 s  sb)
     2.97919251E-03    3     1000022         4        -4   # BR(~g -> ~chi_10 c  cb)
     9.96524625E-05    3     1000023         4        -4   # BR(~g -> ~chi_20 c  cb)
     1.79674069E-02    3     1000025         4        -4   # BR(~g -> ~chi_30 c  cb)
     1.06939552E-03    3     1000022         5        -5   # BR(~g -> ~chi_10 b  bb)
     2.29326091E-04    3     1000023         5        -5   # BR(~g -> ~chi_20 b  bb)
     5.22547652E-03    3     1000025         5        -5   # BR(~g -> ~chi_30 b  bb)
     1.72561216E-01    3     1000022         6        -6   # BR(~g -> ~chi_10 t  tb)
     2.15693007E-01    3     1000023         6        -6   # BR(~g -> ~chi_20 t  tb)
     7.12995501E-02    3     1000025         6        -6   # BR(~g -> ~chi_30 t  tb)
     3.08971292E-05    3     1000024         1        -2   # BR(~g -> ~chi_1+ d  ub)
     3.08971292E-05    3    -1000024         2        -1   # BR(~g -> ~chi_1- u  db)
     3.08971292E-05    3     1000024         3        -4   # BR(~g -> ~chi_1+ s  cb)
     3.08971292E-05    3    -1000024         4        -3   # BR(~g -> ~chi_1- c  sb)
     2.30611134E-01    3     1000024         5        -6   # BR(~g -> ~chi_1+ b  tb)
     2.30611134E-01    3    -1000024         6        -5   # BR(~g -> ~chi_1- t  bb)
#
#         PDG            Width
DECAY   1000006     2.77900347E+02   # stop1 decays
#          BR         NDA      ID1       ID2
     8.75938834E-02    2     1000022         6   # BR(~t_1 -> ~chi_10 t )
     1.21748862E-01    2     1000023         6   # BR(~t_1 -> ~chi_20 t )
     6.64392318E-02    2     1000025         6   # BR(~t_1 -> ~chi_30 t )
     1.48144305E-02    2     1000035         6   # BR(~t_1 -> ~chi_40 t )
     1.29295669E-01    2     1000024         5   # BR(~t_1 -> ~chi_1+ b )
     2.95717988E-02    2     1000037         5   # BR(~t_1 -> ~chi_2+ b )
     5.50536125E-01    2     1000021         6   # BR(~t_1 -> ~g      t )
#
#         PDG            Width
DECAY   2000006     2.89359461E+02   # stop2 decays
#          BR         NDA      ID1       ID2
     1.19169042E-01    2     1000022         6   # BR(~t_2 -> ~chi_10 t )
     1.31226821E-01    2     1000023         6   # BR(~t_2 -> ~chi_20 t )
     2.05778265E-02    2     1000025         6   # BR(~t_2 -> ~chi_30 t )
     1.28220328E-02    2     1000035         6   # BR(~t_2 -> ~chi_40 t )
     1.24902885E-01    2     1000024         5   # BR(~t_2 -> ~chi_1+ b )
     2.55798553E-02    2     1000037         5   # BR(~t_2 -> ~chi_2+ b )
     5.65721537E-01    2     1000021         6   # BR(~t_2 -> ~g      t )
#
#         PDG            Width
DECAY   1000005     2.39572840E+02   # sbottom1 decays
#          BR         NDA      ID1       ID2
     1.73066312E-03    2     1000022         5   # BR(~b_1 -> ~chi_10 b )
    -8.13391248E-05    2     1000023         5   # BR(~b_1 -> ~chi_20 b )
     3.65475238E-03    2     1000025         5   # BR(~b_1 -> ~chi_30 b )
     2.29746665E-02    2     1000035         5   # BR(~b_1 -> ~chi_40 b )
     2.65044082E-01    2    -1000024         6   # BR(~b_1 -> ~chi_1- t )
     4.60681654E-02    2    -1000037         6   # BR(~b_1 -> ~chi_2- t )
     6.60609010E-01    2     1000021         5   # BR(~b_1 -> ~g      b )
#
#         PDG            Width
DECAY   2000005     1.76091138E+02   # sbottom2 decays
#          BR         NDA      ID1       ID2
     6.30865299E-04    2     1000022         5   # BR(~b_2 -> ~chi_10 b )
     6.64749837E-04    2     1000023         5   # BR(~b_2 -> ~chi_20 b )
     1.07948216E-02    2     1000025         5   # BR(~b_2 -> ~chi_30 b )
     1.29881433E-02    2     1000035         5   # BR(~b_2 -> ~chi_40 b )
     4.79203893E-02    2    -1000024         6   # BR(~b_2 -> ~chi_1- t )
     2.60100837E-02    2    -1000037         6   # BR(~b_2 -> ~chi_2- t )
     9.00990947E-01    2     1000021         5   # BR(~b_2 -> ~g      b )
#
#         PDG            Width
DECAY   1000002     1.82515482E+02   # sup_L decays
#          BR         NDA      ID1       ID2
     4.52037746E-04    2     1000022         2   # BR(~u_L -> ~chi_10 u)
     6.78714084E-06    2     1000023         2   # BR(~u_L -> ~chi_20 u)
     3.22333079E-03    2     1000025         2   # BR(~u_L -> ~chi_30 u)
     4.26712992E-02    2     1000035         2   # BR(~u_L -> ~chi_40 u)
     1.79345645E-04    2     1000024         1   # BR(~u_L -> ~chi_1+ d)
     8.53323581E-02    2     1000037         1   # BR(~u_L -> ~chi_2+ d)
     8.68134841E-01    2     1000021         2   # BR(~u_L -> ~g      u)
#
#         PDG            Width
DECAY   2000002     1.68979605E+02   # sup_R decays
#          BR         NDA      ID1       ID2
     8.85111583E-03    2     1000022         2   # BR(~u_R -> ~chi_10 u)
     4.35636418E-04    2     1000023         2   # BR(~u_R -> ~chi_20 u)
     5.30140947E-02    2     1000025         2   # BR(~u_R -> ~chi_30 u)
     4.08679850E-09    2     1000035         2   # BR(~u_R -> ~chi_40 u)
     9.37699149E-01    2     1000021         2   # BR(~u_R -> ~g      u)
#
#         PDG            Width
DECAY   1000001     1.82520852E+02   # sdown_L decays
#          BR         NDA      ID1       ID2
     5.76051066E-04    2     1000022         1   # BR(~d_L -> ~chi_10 d)
     1.59941577E-04    2     1000023         1   # BR(~d_L -> ~chi_20 d)
     2.91581286E-03    2     1000025         1   # BR(~d_L -> ~chi_30 d)
     4.26894119E-02    2     1000035         1   # BR(~d_L -> ~chi_40 d)
     6.83827361E-05    2    -1000024         2   # BR(~d_L -> ~chi_1- u)
     8.53891652E-02    2    -1000037         2   # BR(~d_L -> ~chi_2- u)
     8.68201235E-01    2     1000021         1   # BR(~d_L -> ~g      d)
#
#         PDG            Width
DECAY   2000001     1.61089254E+02   # sdown_R decays
#          BR         NDA      ID1       ID2
     2.32119988E-03    2     1000022         1   # BR(~d_R -> ~chi_10 d)
     1.14245393E-04    2     1000023         1   # BR(~d_R -> ~chi_20 d)
     1.39029153E-02    2     1000025         1   # BR(~d_R -> ~chi_30 d)
     1.07179644E-09    2     1000035         1   # BR(~d_R -> ~chi_40 d)
     9.83661638E-01    2     1000021         1   # BR(~d_R -> ~g      d)
#
#         PDG            Width
DECAY   1000004     1.82515482E+02   # scharm_L decays
#          BR         NDA      ID1       ID2
     4.52037746E-04    2     1000022         4   # BR(~c_L -> ~chi_10 c)
     6.78714084E-06    2     1000023         4   # BR(~c_L -> ~chi_20 c)
     3.22333079E-03    2     1000025         4   # BR(~c_L -> ~chi_30 c)
     4.26712992E-02    2     1000035         4   # BR(~c_L -> ~chi_40 c)
     1.79345645E-04    2     1000024         3   # BR(~c_L -> ~chi_1+ s)
     8.53323581E-02    2     1000037         3   # BR(~c_L -> ~chi_2+ s)
     8.68134841E-01    2     1000021         4   # BR(~c_L -> ~g      c)
#
#         PDG            Width
DECAY   2000004     1.68979605E+02   # scharm_R decays
#          BR         NDA      ID1       ID2
     8.85111583E-03    2     1000022         4   # BR(~c_R -> ~chi_10 c)
     4.35636418E-04    2     1000023         4   # BR(~c_R -> ~chi_20 c)
     5.30140947E-02    2     1000025         4   # BR(~c_R -> ~chi_30 c)
     4.08679850E-09    2     1000035         4   # BR(~c_R -> ~chi_40 c)
     9.37699149E-01    2     1000021         4   # BR(~c_R -> ~g      c)
#
#         PDG            Width
DECAY   1000003     1.82520852E+02   # sstrange_L decays
#          BR         NDA      ID1       ID2
     5.76051066E-04    2     1000022         3   # BR(~s_L -> ~chi_10 s)
     1.59941577E-04    2     1000023         3   # BR(~s_L -> ~chi_20 s)
     2.91581286E-03    2     1000025         3   # BR(~s_L -> ~chi_30 s)
     4.26894119E-02    2     1000035         3   # BR(~s_L -> ~chi_40 s)
     6.83827361E-05    2    -1000024         4   # BR(~s_L -> ~chi_1- c)
     8.53891652E-02    2    -1000037         4   # BR(~s_L -> ~chi_2- c)
     8.68201235E-01    2     1000021         3   # BR(~s_L -> ~g      s)
#
#         PDG            Width
DECAY   2000003     1.61089254E+02   # sstrange_R decays
#          BR         NDA      ID1       ID2
     2.32119988E-03    2     1000022         3   # BR(~s_R -> ~chi_10 s)
     1.14245393E-04    2     1000023         3   # BR(~s_R -> ~chi_20 s)
     1.39029153E-02    2     1000025         3   # BR(~s_R -> ~chi_30 s)
     1.07179644E-09    2     1000035         3   # BR(~s_R -> ~chi_40 s)
     9.83661638E-01    2     1000021         3   # BR(~s_R -> ~g      s)
#
#         PDG            Width
DECAY   1000011     3.03252308E+01   # selectron_L decays
#          BR         NDA      ID1       ID2
     2.77271837E-02    2     1000022        11   # BR(~e_L -> ~chi_10 e-)
     3.46460666E-04    2     1000023        11   # BR(~e_L -> ~chi_20 e-)
     1.75871271E-01    2     1000025        11   # BR(~e_L -> ~chi_30 e-)
     2.65082187E-01    2     1000035        11   # BR(~e_L -> ~chi_40 e-)
     4.28439658E-04    2    -1000024        12   # BR(~e_L -> ~chi_1- nu_e)
     5.30544459E-01    2    -1000037        12   # BR(~e_L -> ~chi_2- nu_e)
#
#         PDG            Width
DECAY   2000011     2.46569259E+01   # selectron_R decays
#          BR         NDA      ID1       ID2
     1.42080465E-01    2     1000022        11   # BR(~e_R -> ~chi_10 e-)
     6.99273908E-03    2     1000023        11   # BR(~e_R -> ~chi_20 e-)
     8.50926731E-01    2     1000025        11   # BR(~e_R -> ~chi_30 e-)
     6.50611250E-08    2     1000035        11   # BR(~e_R -> ~chi_40 e-)
#
#         PDG            Width
DECAY   1000013     3.03252308E+01   # smuon_L decays
#          BR         NDA      ID1       ID2
     2.77271837E-02    2     1000022        13   # BR(~mu_L -> ~chi_10 mu-)
     3.46460666E-04    2     1000023        13   # BR(~mu_L -> ~chi_20 mu-)
     1.75871271E-01    2     1000025        13   # BR(~mu_L -> ~chi_30 mu-)
     2.65082187E-01    2     1000035        13   # BR(~mu_L -> ~chi_40 mu-)
     4.28439658E-04    2    -1000024        14   # BR(~mu_L -> ~chi_1- nu_mu)
     5.30544459E-01    2    -1000037        14   # BR(~mu_L -> ~chi_2- nu_mu)
#
#         PDG            Width
DECAY   2000013     2.46569259E+01   # smuon_R decays
#          BR         NDA      ID1       ID2
     1.42080465E-01    2     1000022        13   # BR(~mu_R -> ~chi_10 mu-)
     6.99273908E-03    2     1000023        13   # BR(~mu_R -> ~chi_20 mu-)
     8.50926731E-01    2     1000025        13   # BR(~mu_R -> ~chi_30 mu-)
     6.50611250E-08    2     1000035        13   # BR(~mu_R -> ~chi_40 mu-)
#
#         PDG            Width
DECAY   1000015     2.73845970E+01   # stau_1 decays
#          BR         NDA      ID1       ID2
     8.64807770E-02    2     1000022        15   # BR(~tau_1 -> ~chi_10  tau-)
     2.62880882E-03    2     1000023        15   # BR(~tau_1 -> ~chi_20  tau-)
     4.91429324E-01    2     1000025        15   # BR(~tau_1 -> ~chi_30  tau-)
     1.39678289E-01    2     1000035        15   # BR(~tau_1 -> ~chi_40  tau-)
     9.52669678E-05    2    -1000024        16   # BR(~tau_1 -> ~chi_1-  nu_tau)
     2.79556152E-01    2    -1000037        16   # BR(~tau_1 -> ~chi_2-  nu_tau)
     1.31381933E-04    2     1000039        15   # BR(~tau_1 -> ~G       tau-)
#
#         PDG            Width
DECAY   2000015     2.76973112E+01   # stau_2 decays
#          BR         NDA      ID1       ID2
     7.24032619E-02    2     1000022        15   # BR(~tau_2 -> ~chi_10  tau-)
     5.14886818E-03    2     1000023        15   # BR(~tau_2 -> ~chi_20  tau-)
     4.64300934E-01    2     1000025        15   # BR(~tau_2 -> ~chi_30  tau-)
     1.52132194E-01    2     1000035        15   # BR(~tau_2 -> ~chi_40  tau-)
     1.53184558E-03    2    -1000024        16   # BR(~tau_2 -> ~chi_1-  nu_tau)
     3.04482896E-01    2    -1000037        16   # BR(~tau_2 -> ~chi_2-  nu_tau)
#
#         PDG            Width
DECAY   1000012     3.03234141E+01   # snu_eL decays
#          BR         NDA      ID1       ID2
     3.00583414E-02    2     1000022        12   # BR(~nu_eL -> ~chi_10 nu_e)
     3.22514262E-03    2     1000023        12   # BR(~nu_eL -> ~chi_20 nu_e)
     1.70092216E-01    2     1000025        12   # BR(~nu_eL -> ~chi_30 nu_e)
     2.65293360E-01    2     1000035        12   # BR(~nu_eL -> ~chi_40 nu_e)
     1.12369298E-03    2     1000024        11   # BR(~nu_eL -> ~chi_1+ e-)
     5.30207248E-01    2     1000037        11   # BR(~nu_eL -> ~chi_2+ e-)
#
#         PDG            Width
DECAY   1000014     3.03234141E+01   # snu_muL decays
#          BR         NDA      ID1       ID2
     3.00583414E-02    2     1000022        14   # BR(~nu_muL -> ~chi_10 nu_mu)
     3.22514262E-03    2     1000023        14   # BR(~nu_muL -> ~chi_20 nu_mu)
     1.70092216E-01    2     1000025        14   # BR(~nu_muL -> ~chi_30 nu_mu)
     2.65293360E-01    2     1000035        14   # BR(~nu_muL -> ~chi_40 nu_mu)
     1.12369298E-03    2     1000024        13   # BR(~nu_muL -> ~chi_1+ mu-)
     5.30207248E-01    2     1000037        13   # BR(~nu_muL -> ~chi_2+ mu-)
#
#         PDG            Width
DECAY   1000016     3.03554643E+01   # snu_tauL decays
#          BR         NDA      ID1       ID2
     3.00266049E-02    2     1000022        16   # BR(~nu_tauL -> ~chi_10 nu_tau)
     3.22173741E-03    2     1000023        16   # BR(~nu_tauL -> ~chi_20 nu_tau)
     1.69912627E-01    2     1000025        16   # BR(~nu_tauL -> ~chi_30 nu_tau)
     2.65013255E-01    2     1000035        16   # BR(~nu_tauL -> ~chi_40 nu_tau)
     2.17815191E-03    2     1000024        15   # BR(~nu_tauL -> ~chi_1+ tau-)
     5.29647624E-01    2     1000037        15   # BR(~nu_tauL -> ~chi_2+ tau-)
#
#         PDG            Width
DECAY   1000024     4.03545479E-09   # chargino1+ decays
#          BR         NDA      ID1       ID2
     9.52077984E-02    2     1000039        24   # BR(~chi_1+ -> ~G       W+)
#           BR         NDA      ID1       ID2       ID3
     3.50450480E-01    3     1000022         2        -1   # BR(~chi_1+ -> ~chi_10 u    db)
     2.51540402E-01    3     1000022         4        -3   # BR(~chi_1+ -> ~chi_10 c    sb)
     1.16817255E-01    3     1000022       -11        12   # BR(~chi_1+ -> ~chi_10 e+   nu_e)
     1.16592792E-01    3     1000022       -13        14   # BR(~chi_1+ -> ~chi_10 mu+  nu_mu)
     6.93912736E-02    3     1000022       -15        16   # BR(~chi_1+ -> ~chi_10 tau+ nu_tau)
#
#         PDG            Width
DECAY   1000037     2.86636124E+01   # chargino2+ decays
#          BR         NDA      ID1       ID2
     1.72786081E-01    2     1000024        23   # BR(~chi_2+ -> ~chi_1+  Z )
     1.39302354E-01    2     1000022        24   # BR(~chi_2+ -> ~chi_10  W+)
     1.66740452E-01    2     1000023        24   # BR(~chi_2+ -> ~chi_20  W+)
     3.11420716E-02    2     1000025        24   # BR(~chi_2+ -> ~chi_30  W+)
     1.73257834E-01    2     1000024        25   # BR(~chi_2+ -> ~chi_1+  h )
     7.90597032E-02    2     1000024        35   # BR(~chi_2+ -> ~chi_1+  H )
     7.93543305E-02    2     1000024        36   # BR(~chi_2+ -> ~chi_1+  A )
     6.92866172E-02    2     1000022        37   # BR(~chi_2+ -> ~chi_10  H+)
     7.86709951E-02    2     1000023        37   # BR(~chi_2+ -> ~chi_20  H+)
     1.03897990E-02    2     1000025        37   # BR(~chi_2+ -> ~chi_30  H+)
     9.76214310E-06    2     1000039        24   # BR(~chi_2+ -> ~G       W+)
     2.31583515E-10    2     1000039        37   # BR(~chi_2+ -> ~G       H+)
#
#         PDG            Width
DECAY   1000022     1.0E-05   # neutralino1 decays
#          BR         NDA      ID1       ID2
     4.16438787E-01    2     1000039        22   # BR(~chi_10 -> ~G        gam)
     1.00624813E-01    2     1000039        23   # BR(~chi_10 -> ~G        Z)
     4.82936400E-01    2     1000039        25   # BR(~chi_10 -> ~G        h)
#
#         PDG            Width
DECAY   1000023     1.0E-05   # neutralino2 decays
#          BR         NDA      ID1       ID2
     2.13375143E-02    2     1000022        22   # BR(~chi_20 -> ~chi_10 gam)
#          BR         NDA      ID1       ID2
     1.10305728E-04    2     1000039        22   # BR(~chi_20 -> ~G        gam)
     8.20150249E-03    2     1000039        23   # BR(~chi_20 -> ~G        Z)
     1.87695778E-04    2     1000039        25   # BR(~chi_20 -> ~G        h)
#           BR         NDA      ID1       ID2       ID3
     1.33974972E-01    3     1000022        -2         2   # BR(~chi_20 -> ~chi_10 ub      u)
     1.73414048E-01    3     1000022        -1         1   # BR(~chi_20 -> ~chi_10 db      d)
     1.14053842E-01    3     1000022        -4         4   # BR(~chi_20 -> ~chi_10 cb      c)
     1.72798360E-01    3     1000022        -3         3   # BR(~chi_20 -> ~chi_10 sb      s)
     3.95756539E-02    3     1000022       -11        11   # BR(~chi_20 -> ~chi_10 e+      e-)
     3.95484867E-02    3     1000022       -13        13   # BR(~chi_20 -> ~chi_10 mu+     mu-)
     3.11354066E-02    3     1000022       -15        15   # BR(~chi_20 -> ~chi_10 tau+    tau-)
     7.90174220E-02    3     1000022       -12        12   # BR(~chi_20 -> ~chi_10 nu_eb   nu_e)
     7.90174220E-02    3     1000022       -14        14   # BR(~chi_20 -> ~chi_10 nu_mub  nu_mu)
     7.90174220E-02    3     1000022       -16        16   # BR(~chi_20 -> ~chi_10 nu_taub nu_tau)
     6.28055494E-03    3     1000024        -2         1   # BR(~chi_20 -> ~chi_1+ ub      d)
     6.28055494E-03    3    -1000024        -1         2   # BR(~chi_20 -> ~chi_1- db      u)
     3.14891868E-03    3     1000024        -4         3   # BR(~chi_20 -> ~chi_1+ cb      s)
     3.14891868E-03    3    -1000024        -3         4   # BR(~chi_20 -> ~chi_1- sb      c)
     2.09351871E-03    3     1000024       -12        11   # BR(~chi_20 -> ~chi_1+ nu_eb   e-)
     2.09351871E-03    3    -1000024        12       -11   # BR(~chi_20 -> ~chi_1- nu_e    e+)
     2.08521602E-03    3     1000024       -14        13   # BR(~chi_20 -> ~chi_1+ nu_mub  mu-)
     2.08521602E-03    3    -1000024        14       -13   # BR(~chi_20 -> ~chi_1- nu_mu   mu+)
     6.96764697E-04    3     1000024       -16        15   # BR(~chi_20 -> ~chi_1+ nu_taub tau-)
     6.96764697E-04    3    -1000024        16       -15   # BR(~chi_20 -> ~chi_1- nu_tau  tau+)
#
#         PDG            Width
DECAY   1000025     1.0E-05   # neutralino3 decays
#          BR         NDA      ID1       ID2
     6.98375414E-01    2     1000022        22   # BR(~chi_30 -> ~chi_10 gam)
     2.22189423E-02    2     1000023        22   # BR(~chi_30 -> ~chi_20 gam)
#          BR         NDA      ID1       ID2
     2.85743680E-04    2     1000039        22   # BR(~chi_30 -> ~G        gam)
     5.75066817E-05    2     1000039        23   # BR(~chi_30 -> ~G        Z)
     1.25698513E-05    2     1000039        25   # BR(~chi_30 -> ~G        h)
#           BR         NDA      ID1       ID2       ID3
     2.51307101E-03    3     1000022        -2         2   # BR(~chi_30 -> ~chi_10 ub      u)
     3.25697612E-03    3     1000022        -1         1   # BR(~chi_30 -> ~chi_10 db      d)
     2.40609778E-03    3     1000022        -4         4   # BR(~chi_30 -> ~chi_10 cb      c)
     3.25474039E-03    3     1000022        -3         3   # BR(~chi_30 -> ~chi_10 sb      s)
     2.05646055E-03    3     1000022        -5         5   # BR(~chi_30 -> ~chi_10 bb      b)
     7.46483506E-04    3     1000022       -11        11   # BR(~chi_30 -> ~chi_10 e+      e-)
     7.46281181E-04    3     1000022       -13        13   # BR(~chi_30 -> ~chi_10 mu+     mu-)
     6.91937951E-04    3     1000022       -15        15   # BR(~chi_30 -> ~chi_10 tau+    tau-)
     1.48235114E-03    3     1000022       -12        12   # BR(~chi_30 -> ~chi_10 nu_eb   nu_e)
     1.48235114E-03    3     1000022       -14        14   # BR(~chi_30 -> ~chi_10 nu_mub  nu_mu)
     1.48235114E-03    3     1000022       -16        16   # BR(~chi_30 -> ~chi_10 nu_taub nu_tau)
     3.51909326E-03    3     1000023        -2         2   # BR(~chi_30 -> ~chi_20 ub      u)
     4.55526411E-03    3     1000023        -1         1   # BR(~chi_30 -> ~chi_20 db      d)
     3.33623640E-03    3     1000023        -4         4   # BR(~chi_30 -> ~chi_20 cb      c)
     4.54965742E-03    3     1000023        -3         3   # BR(~chi_30 -> ~chi_20 sb      s)
     1.66178238E-03    3     1000023        -5         5   # BR(~chi_30 -> ~chi_20 bb      b)
     1.03973338E-03    3     1000023       -11        11   # BR(~chi_30 -> ~chi_20 e+      e-)
     1.03947957E-03    3     1000023       -13        13   # BR(~chi_30 -> ~chi_20 mu+     mu-)
     9.64754359E-04    3     1000023       -15        15   # BR(~chi_30 -> ~chi_20 tau+    tau-)
     2.07549007E-03    3     1000023       -12        12   # BR(~chi_30 -> ~chi_20 nu_eb   nu_e)
     2.07549007E-03    3     1000023       -14        14   # BR(~chi_30 -> ~chi_20 nu_mub  nu_mu)
     2.07549007E-03    3     1000023       -16        16   # BR(~chi_30 -> ~chi_20 nu_taub nu_tau)
     3.91931364E-02    3     1000024        -2         1   # BR(~chi_30 -> ~chi_1+ ub      d)
     3.91931364E-02    3    -1000024        -1         2   # BR(~chi_30 -> ~chi_1- db      u)
     3.81687754E-02    3     1000024        -4         3   # BR(~chi_30 -> ~chi_1+ cb      s)
     3.81687754E-02    3    -1000024        -3         4   # BR(~chi_30 -> ~chi_1- sb      c)
     1.30640826E-02    3     1000024       -12        11   # BR(~chi_30 -> ~chi_1+ nu_eb   e-)
     1.30640826E-02    3    -1000024        12       -11   # BR(~chi_30 -> ~chi_1- nu_e    e+)
     1.30621298E-02    3     1000024       -14        13   # BR(~chi_30 -> ~chi_1+ nu_mub  mu-)
     1.30621298E-02    3    -1000024        14       -13   # BR(~chi_30 -> ~chi_1- nu_mu   mu+)
     1.25310011E-02    3     1000024       -16        15   # BR(~chi_30 -> ~chi_1+ nu_taub tau-)
     1.25310011E-02    3    -1000024        16       -15   # BR(~chi_30 -> ~chi_1- nu_tau  tau+)
#
#         PDG            Width
DECAY   1000035     2.86639692E+01   # neutralino4 decays
#          BR         NDA      ID1       ID2
     1.38092592E-01    2     1000022        23   # BR(~chi_40 -> ~chi_10   Z )
     9.23484449E-03    2     1000023        23   # BR(~chi_40 -> ~chi_20   Z )
     2.56470476E-02    2     1000025        23   # BR(~chi_40 -> ~chi_30   Z )
     1.68395973E-01    2     1000024       -24   # BR(~chi_40 -> ~chi_1+   W-)
     1.68395973E-01    2    -1000024        24   # BR(~chi_40 -> ~chi_1-   W+)
     4.75808405E-03    2     1000022        25   # BR(~chi_40 -> ~chi_10   h )
     6.70177773E-02    2     1000022        35   # BR(~chi_40 -> ~chi_10   H )
     2.12941877E-03    2     1000022        36   # BR(~chi_40 -> ~chi_10   A )
     1.62433287E-01    2     1000023        25   # BR(~chi_40 -> ~chi_20   h )
     1.57612464E-03    2     1000023        35   # BR(~chi_40 -> ~chi_20   H )
     7.71331783E-02    2     1000023        36   # BR(~chi_40 -> ~chi_20   A )
     6.27466713E-03    2     1000025        25   # BR(~chi_40 -> ~chi_30   h )
     1.03740258E-02    2     1000025        35   # BR(~chi_40 -> ~chi_30   H )
     6.36532326E-06    2     1000025        36   # BR(~chi_40 -> ~chi_30   A )
     7.92604400E-02    2     1000024       -37   # BR(~chi_40 -> ~chi_1+   H-)
     7.92604400E-02    2    -1000024        37   # BR(~chi_40 -> ~chi_1-   H+)
     2.34147062E-06    2     1000039        22   # BR(~chi_40 -> ~G        gam)
     7.41978892E-06    2     1000039        23   # BR(~chi_40 -> ~G        Z)
     5.02043136E-10    2     1000039        25   # BR(~chi_40 -> ~G        h)
     2.30173456E-10    2     1000039        35   # BR(~chi_40 -> ~G        H)
     3.38636439E-13    2     1000039        36   # BR(~chi_40 -> ~G        A)
#
#         PDG            Width
DECAY        25     4.08124990E-03   # h decays
#          BR         NDA      ID1       ID2
     6.17258806E-01    2           5        -5   # BR(h -> b       bb     )
     6.38192653E-02    2         -15        15   # BR(h -> tau+    tau-   )
     2.25896695E-04    2         -13        13   # BR(h -> mu+     mu-    )
     4.78695290E-04    2           3        -3   # BR(h -> s       sb     )
     2.06513131E-02    2           4        -4   # BR(h -> c       cb     )
     6.70561490E-02    2          21        21   # BR(h -> g       g      )
     2.28903478E-03    2          22        22   # BR(h -> gam     gam    )
     1.53897892E-03    2          22        23   # BR(h -> Z       gam    )
     2.01036862E-01    2          24       -24   # BR(h -> W+      W-     )
     2.56449985E-02    2          23        23   # BR(h -> Z       Z      )
#
#         PDG            Width
DECAY        35     3.99956563E+01   # H decays
#          BR         NDA      ID1       ID2
     1.39656603E-03    2           5        -5   # BR(H -> b       bb     )
     2.32976121E-04    2         -15        15   # BR(H -> tau+    tau-   )
     8.23657325E-07    2         -13        13   # BR(H -> mu+     mu-    )
     1.05457166E-06    2           3        -3   # BR(H -> s       sb     )
     9.51751126E-06    2           4        -4   # BR(H -> c       cb     )
     9.41717444E-01    2           6        -6   # BR(H -> t       tb     )
     7.54124325E-04    2          21        21   # BR(H -> g       g      )
     2.50587894E-06    2          22        22   # BR(H -> gam     gam    )
     1.09568625E-06    2          23        22   # BR(H -> Z       gam    )
     3.18483715E-04    2          24       -24   # BR(H -> W+      W-     )
     1.58807446E-04    2          23        23   # BR(H -> Z       Z      )
     8.55922329E-04    2          25        25   # BR(H -> h       h      )
     8.40526672E-24    2          36        36   # BR(H -> A       A      )
     3.33294121E-11    2          23        36   # BR(H -> Z       A      )
     3.51048488E-12    2          24       -37   # BR(H -> W+      H-     )
     3.51048488E-12    2         -24        37   # BR(H -> W-      H+     )
     7.99288308E-05    2     1000024  -1000024   # BR(H -> ~chi_1+ ~chi_1-)
     1.35706066E-02    2     1000022   1000022   # BR(H -> ~chi_10 ~chi_10)
     6.54169171E-05    2     1000023   1000023   # BR(H -> ~chi_20 ~chi_20)
     1.13880166E-02    2     1000025   1000025   # BR(H -> ~chi_30 ~chi_30)
     1.12022775E-04    2     1000022   1000023   # BR(H -> ~chi_10 ~chi_20)
     2.65147372E-02    2     1000022   1000025   # BR(H -> ~chi_10 ~chi_30)
     2.81994957E-03    2     1000023   1000025   # BR(H -> ~chi_20 ~chi_30)
#
#         PDG            Width
DECAY        36     4.04341877E+01   # A decays
#          BR         NDA      ID1       ID2
     1.39968001E-03    2           5        -5   # BR(A -> b       bb     )
     2.30651756E-04    2         -15        15   # BR(A -> tau+    tau-   )
     8.15437279E-07    2         -13        13   # BR(A -> mu+     mu-    )
     1.07503633E-06    2           3        -3   # BR(A -> s       sb     )
     9.42074632E-06    2           4        -4   # BR(A -> c       cb     )
     9.42849633E-01    2           6        -6   # BR(A -> t       tb     )
     8.92425090E-04    2          21        21   # BR(A -> g       g      )
     3.10400378E-06    2          22        22   # BR(A -> gam     gam    )
     1.27801023E-06    2          23        22   # BR(A -> Z       gam    )
     3.10465934E-04    2          23        25   # BR(A -> Z       h      )
     4.89188427E-04    2     1000024  -1000024   # BR(A -> ~chi_1+ ~chi_1-)
     7.84929596E-04    2     1000022   1000022   # BR(A -> ~chi_10 ~chi_10)
     1.80306427E-03    2     1000023   1000023   # BR(A -> ~chi_20 ~chi_20)
     6.47430327E-08    2     1000025   1000025   # BR(A -> ~chi_30 ~chi_30)
     6.52874119E-03    2     1000022   1000023   # BR(A -> ~chi_10 ~chi_20)
     2.21523381E-03    2     1000022   1000025   # BR(A -> ~chi_10 ~chi_30)
     4.24802285E-02    2     1000023   1000025   # BR(A -> ~chi_20 ~chi_30)
#
#         PDG            Width
DECAY        37     3.96330192E+01   # H+ decays
#          BR         NDA      ID1       ID2
     2.24705214E-06    2           4        -5   # BR(H+ -> c       bb     )
     2.35542255E-04    2         -15        16   # BR(H+ -> tau+    nu_tau )
     8.32726958E-07    2         -13        14   # BR(H+ -> mu+     nu_mu  )
     1.42867386E-08    2           2        -5   # BR(H+ -> u       bb     )
     5.15694069E-08    2           2        -3   # BR(H+ -> u       sb     )
     1.02753990E-05    2           4        -3   # BR(H+ -> c       sb     )
     9.44471915E-01    2           6        -5   # BR(H+ -> t       bb     )
     3.18115573E-04    2          24        25   # BR(H+ -> W+      h      )
     9.05548079E-13    2          24        36   # BR(H+ -> W+      A      )
     7.26651822E-03    2     1000024   1000022   # BR(H+ -> ~chi_1+ ~chi_10)
     3.76454817E-04    2     1000024   1000023   # BR(H+ -> ~chi_1+ ~chi_20)
     4.73180332E-02    2     1000024   1000025   # BR(H+ -> ~chi_1+ ~chi_30)
