#
#                              ======================
#                              | THE SUSYHIT OUTPUT |
#                              ======================
#
#
#              ------------------------------------------------------
#              |     This is the output of the SUSY-HIT package     |
#              |  created by A.Djouadi, M.Muehlleitner and M.Spira. |
#              |  In case of problems with SUSY-HIT email to        |
#              |           margarete.muehlleitner@kit.edu           |
#              |           michael.spira@psi.ch                     |
#              |           abdelhak.djouadi@cern.ch                 |
#              ------------------------------------------------------
#
#              ------------------------------------------------------
#              |  SUSY Les Houches Accord - MSSM Spectrum + Decays  |
#              |              based on the decay programs           |
#              |                                                    |
#              |                     SDECAY 1.5a                    |
#              |                                                    |
#              |  Authors: M.Muhlleitner, A.Djouadi and Y.Mambrini  |
#              |  Ref.:    Comput.Phys.Commun.168(2005)46           |
#              |           [hep-ph/0311167]                         |
#              |                                                    |
#              |                     HDECAY 3.4                     |
#              |                                                    |
#              |  By: A.Djouadi,J.Kalinowski,M.Muhlleitner,M.Spira  |
#              |  Ref.:    Comput.Phys.Commun.108(1998)56           |
#              |           [hep-ph/9704448]                         |
#              |                                                    |
#              |                                                    |
#              |  If not stated otherwise all DRbar couplings and   |
#              |  soft SUSY breaking masses are given at the scale  |
#              |  Q=  0.91187600E+02
#              |                                                    |
#              ------------------------------------------------------
#
#
BLOCK DCINFO  # Decay Program information
     1   SDECAY/HDECAY # decay calculator
     2   1.5a /3.4    # version number
#
BLOCK SPINFO  # Spectrum calculator information
     1   SuSpect     # RGE +Spectrum calculator            
     2   2.43         # version number                     
#
BLOCK MODSEL  # Model selection
     1     2   # GMSB                                              
#
BLOCK SMINPUTS  # Standard Model inputs
         1     1.27932904E+02   # alpha_em^-1(M_Z)^MSbar
         2     1.16639000E-05   # G_F [GeV^-2]
         3     1.17200000E-01   # alpha_S(M_Z)^MSbar
         4     9.11870000E+01   # M_Z pole mass
         5     4.25000000E+00   # mb(mb)^MSbar
         6     1.72900000E+02   # mt pole mass
         7     1.77700000E+00   # mtau pole mass
#
BLOCK MINPAR  # Input parameters - minimal models
#
BLOCK EXTPAR  # Input parameters - non-minimal models
         0     9.11876000E+01   # EWSB                
         1     4.55832221E+02   # M_1                 
         2     3.00000000E+03   # M_2                 
         3     2.40000000E+03   # M_3                 
        11     0.00000000E+00   # A_t                 
        12     0.00000000E+00   # A_b                 
        13     0.00000000E+00   # A_tau               
        14     0.00000000E+00   # A_u                 
        15     0.00000000E+00   # A_d                 
        16     0.00000000E+00   # A_e                 
        23    -4.50000000E+02   # mu(EWSB)            
        25     1.50000000E+00   # tanbeta(in)         
        26     2.00000000E+03   # MA_pole             
        31     5.00000000E+03   # M_eL                
        32     5.00000000E+03   # M_muL               
        33     5.00000000E+03   # M_tauL              
        34     5.00000000E+03   # M_eR                
        35     5.00000000E+03   # M_muR               
        36     5.00000000E+03   # M_tauR              
        41     5.00000000E+03   # M_q1L               
        42     5.00000000E+03   # M_q2L               
        43     5.00000000E+03   # M_q3L               
        44     5.00000000E+03   # M_uR                
        45     5.00000000E+03   # M_cR                
        46     5.00000000E+03   # M_tR                
        47     5.00000000E+03   # M_dR                
        48     5.00000000E+03   # M_sR                
        49     5.00000000E+03   # M_bR                
#
BLOCK MASS  # Mass Spectrum
# PDG code           mass       particle
        24     8.05387982E+01   # W+
        25     1.25000000E+02   # h
        35     2.00414825E+03   # H
        36     2.00000000E+03   # A
        37     2.00187153E+03   # H+
         5     4.87877839E+00   # b-quark pole mass calculated from mb(mb)_Msbar
   1000001     5.00013292E+03   # ~d_L
   2000001     5.00002530E+03   # ~d_R
   1000002     4.99989238E+03   # ~u_L
   2000002     4.99994939E+03   # ~u_R
   1000003     5.00013292E+03   # ~s_L
   2000003     5.00002530E+03   # ~s_R
   1000004     4.99989238E+03   # ~c_L
   2000004     4.99994939E+03   # ~c_R
   1000005     4.99989033E+03   # ~b_1
   2000005     5.00026934E+03   # ~b_2
   1000006     4.99767074E+03   # ~t_1
   2000006     5.00679914E+03   # ~t_2
   1000011     5.00008231E+03   # ~e_L
   2000011     5.00007591E+03   # ~e_R
   1000012     4.99984177E+03   # ~nu_eL
   1000013     5.00008231E+03   # ~mu_L
   2000013     5.00007591E+03   # ~mu_R
   1000014     4.99984177E+03   # ~nu_muL
   1000015     4.99995948E+03   # ~tau_1
   2000015     5.00019938E+03   # ~tau_2
   1000016     4.99984177E+03   # ~nu_tauL
   1000021     2.40000000E+03   # ~g
   1000022     4.44352046E+02   # ~chi_10
   1000023    -4.53828148E+02   # ~chi_20
   1000025     4.63471490E+02   # ~chi_30
   1000035     3.00183683E+03   # ~chi_40
   1000024     4.51647871E+02   # ~chi_1+
   1000037     3.00183653E+03   # ~chi_2+
   1000039     4.25622875E-09   # ~gravitino
#
BLOCK NMIX  # Neutralino Mixing Matrix
  1  1     5.38338486E-01   # N_11
  1  2    -4.30464492E-03   # N_12
  1  3    -6.14400879E-01   # N_13
  1  4    -5.76788266E-01   # N_14
  2  1     4.78322541E-02   # N_21
  2  2    -2.24250717E-02   # N_22
  2  3     7.05520988E-01   # N_23
  2  4    -7.06717290E-01   # N_24
  3  1     8.41370065E-01   # N_31
  3  2     4.51059252E-03   # N_32
  3  3     3.53011936E-01   # N_33
  3  4     4.09217109E-01   # N_34
  4  1     4.05189535E-04   # N_41
  4  2    -9.99729084E-01   # N_42
  4  3    -1.15874274E-02   # N_43
  4  4     2.01823339E-02   # N_44
#
BLOCK UMIX  # Chargino Mixing Matrix U
  1  1    -1.63798331E-02   # U_11
  1  2     9.99865842E-01   # U_12
  2  1     9.99865842E-01   # U_21
  2  2     1.63798331E-02   # U_22
#
BLOCK VMIX  # Chargino Mixing Matrix V
  1  1     2.85404053E-02   # V_11
  1  2    -9.99592640E-01   # V_12
  2  1     9.99592640E-01   # V_21
  2  2     2.85404053E-02   # V_22
#
BLOCK STOPMIX  # Stop Mixing Matrix
  1  1     7.09310421E-01   # cos(theta_t)
  1  2    -7.04896252E-01   # sin(theta_t)
  2  1     7.04896252E-01   # -sin(theta_t)
  2  2     7.09310421E-01   # cos(theta_t)
#
BLOCK SBOTMIX  # Sbottom Mixing Matrix
  1  1    -5.98353379E-01   # cos(theta_b)
  1  2     8.01232322E-01   # sin(theta_b)
  2  1    -8.01232322E-01   # -sin(theta_b)
  2  2    -5.98353379E-01   # cos(theta_b)
#
BLOCK STAUMIX  # Stau Mixing Matrix
  1  1    -6.97611330E-01   # cos(theta_tau)
  1  2     7.16476400E-01   # sin(theta_tau)
  2  1    -7.16476400E-01   # -sin(theta_tau)
  2  2    -6.97611330E-01   # cos(theta_tau)
#
BLOCK ALPHA  # Higgs mixing
          -5.90206463E-01   # Mixing angle in the neutral Higgs boson sector
#
BLOCK HMIX Q=  9.11876000E+01  # DRbar Higgs Parameters
         1    -4.50000000E+02   # mu(Q)               
         2     1.49999979E+00   # tanbeta(Q)          
         3     2.51743692E+02   # vev(Q)              
         4     4.12469557E+06   # MA^2(Q)             
#
BLOCK GAUGE Q=  9.11876000E+01  # The gauge couplings
     1     3.52956863E-01   # gprime(Q) DRbar
     2     6.28284109E-01   # g(Q) DRbar
     3     1.07754399E+00   # g3(Q) DRbar
#
BLOCK AU Q=  9.11876000E+01  # The trilinear couplings
  1  1     0.00000000E+00   # A_u(Q) DRbar
  2  2     0.00000000E+00   # A_c(Q) DRbar
  3  3     0.00000000E+00   # A_t(Q) DRbar
#
BLOCK AD Q=  9.11876000E+01  # The trilinear couplings
  1  1     0.00000000E+00   # A_d(Q) DRbar
  2  2     0.00000000E+00   # A_s(Q) DRbar
  3  3     0.00000000E+00   # A_b(Q) DRbar
#
BLOCK AE Q=  9.11876000E+01  # The trilinear couplings
  1  1     0.00000000E+00   # A_e(Q) DRbar
  2  2     0.00000000E+00   # A_mu(Q) DRbar
  3  3     0.00000000E+00   # A_tau(Q) DRbar
#
BLOCK Yu Q=  9.11876000E+01  # The Yukawa couplings
  1  1     0.00000000E+00   # y_u(Q) DRbar
  2  2     0.00000000E+00   # y_c(Q) DRbar
  3  3     1.02762814E+00   # y_t(Q) DRbar
#
BLOCK Yd Q=  9.11876000E+01  # The Yukawa couplings
  1  1     0.00000000E+00   # y_d(Q) DRbar
  2  2     0.00000000E+00   # y_s(Q) DRbar
  3  3     2.72625583E-02   # y_b(Q) DRbar
#
BLOCK Ye Q=  9.11876000E+01  # The Yukawa couplings
  1  1     0.00000000E+00   # y_e(Q) DRbar
  2  2     0.00000000E+00   # y_mu(Q) DRbar
  3  3     1.79910774E-02   # y_tau(Q) DRbar
#
BLOCK MSOFT Q=  9.11876000E+01  # The soft SUSY breaking masses at the scale Q
         1     4.55832221E+02   # M_1                 
         2     3.00000000E+03   # M_2                 
         3     2.40000000E+03   # M_3                 
        14     0.00000000E+00   # A_u                 
        15     0.00000000E+00   # A_d                 
        16     0.00000000E+00   # A_e                 
        21     2.83654888E+06   # M^2_Hd              
        22    -5.54762269E+06   # M^2_Hu              
        31     5.00000000E+03   # M_eL                
        32     5.00000000E+03   # M_muL               
        33     5.00000000E+03   # M_tauL              
        34     5.00000000E+03   # M_eR                
        35     5.00000000E+03   # M_muR               
        36     5.00000000E+03   # M_tauR              
        41     5.00000000E+03   # M_q1L               
        42     5.00000000E+03   # M_q2L               
        43     5.00000000E+03   # M_q3L               
        44     5.00000000E+03   # M_uR                
        45     5.00000000E+03   # M_cR                
        46     5.00000000E+03   # M_tR                
        47     5.00000000E+03   # M_dR                
        48     5.00000000E+03   # M_sR                
        49     5.00000000E+03   # M_bR                
#
#
#
#                             =================
#                             |The decay table|
#                             =================
#
# - The QCD corrections to the decays gluino -> squark  + quark
#                                     squark -> gaugino + quark_prime
#                                     squark -> squark_prime + Higgs
#                                     squark -> gluino  + quark
#   are included.
#
# - The multi-body decays for the inos, stops and sbottoms are included.
#
# - The loop induced decays for the gluino, neutralinos and stops
#   are included.
#
# - The SUSY decays of the top quark are included.
#
# - Possible decays of the NLSP in GMSB models are included.
#
#
#         PDG            Width
DECAY         6     1.37543348E+00   # top decays
#          BR         NDA      ID1       ID2
     1.00000000E+00    2           5        24   # BR(t ->  b    W+)
#
#         PDG            Width
DECAY   1000021     9.61308017E-03   # gluino decays
#          BR         NDA      ID1       ID2
     3.76882378E-03    2     1000022        21   # BR(~g -> ~chi_10 g)
     5.59183885E-03    2     1000023        21   # BR(~g -> ~chi_20 g)
     1.87028710E-03    2     1000025        21   # BR(~g -> ~chi_30 g)
#          BR         NDA      ID1       ID2
     0.00000000E+00    2     1000039        21   # BR(~g -> ~G      g)
#           BR         NDA      ID1       ID2       ID3
     2.00288158E-03    3     1000022         1        -1   # BR(~g -> ~chi_10 d  db)
     2.90822308E-05    3     1000023         1        -1   # BR(~g -> ~chi_20 d  db)
     4.68613690E-03    3     1000025         1        -1   # BR(~g -> ~chi_30 d  db)
     6.66073603E-03    3     1000022         2        -2   # BR(~g -> ~chi_10 u  ub)
     3.26349671E-05    3     1000023         2        -2   # BR(~g -> ~chi_20 u  ub)
     1.61712547E-02    3     1000025         2        -2   # BR(~g -> ~chi_30 u  ub)
     2.00288158E-03    3     1000022         3        -3   # BR(~g -> ~chi_10 s  sb)
     2.90822308E-05    3     1000023         3        -3   # BR(~g -> ~chi_20 s  sb)
     4.68613690E-03    3     1000025         3        -3   # BR(~g -> ~chi_30 s  sb)
     6.66073603E-03    3     1000022         4        -4   # BR(~g -> ~chi_10 c  cb)
     3.26349671E-05    3     1000023         4        -4   # BR(~g -> ~chi_20 c  cb)
     1.61712547E-02    3     1000025         4        -4   # BR(~g -> ~chi_30 c  cb)
     2.14440116E-03    3     1000022         5        -5   # BR(~g -> ~chi_10 b  bb)
     1.98110490E-04    3     1000023         5        -5   # BR(~g -> ~chi_20 b  bb)
     4.71851751E-03    3     1000025         5        -5   # BR(~g -> ~chi_30 b  bb)
     1.44462866E-01    3     1000022         6        -6   # BR(~g -> ~chi_10 t  tb)
     2.14787889E-01    3     1000023         6        -6   # BR(~g -> ~chi_20 t  tb)
     1.00490530E-01    3     1000025         6        -6   # BR(~g -> ~chi_30 t  tb)
     2.54032175E-05    3     1000024         1        -2   # BR(~g -> ~chi_1+ d  ub)
     2.54032175E-05    3    -1000024         2        -1   # BR(~g -> ~chi_1- u  db)
     2.54032175E-05    3     1000024         3        -4   # BR(~g -> ~chi_1+ s  cb)
     2.54032175E-05    3    -1000024         4        -3   # BR(~g -> ~chi_1- c  sb)
     2.31086627E-01    3     1000024         5        -6   # BR(~g -> ~chi_1+ b  tb)
     2.31086627E-01    3    -1000024         6        -5   # BR(~g -> ~chi_1- t  bb)
#
#         PDG            Width
DECAY   1000006     2.75391500E+02   # stop1 decays
#          BR         NDA      ID1       ID2
     6.81378277E-02    2     1000022         6   # BR(~t_1 -> ~chi_10 t )
     1.23300696E-01    2     1000023         6   # BR(~t_1 -> ~chi_20 t )
     8.31914333E-02    2     1000025         6   # BR(~t_1 -> ~chi_30 t )
     1.51735740E-02    2     1000035         6   # BR(~t_1 -> ~chi_40 t )
     1.24780471E-01    2     1000024         5   # BR(~t_1 -> ~chi_1+ b )
     3.02947793E-02    2     1000037         5   # BR(~t_1 -> ~chi_2+ b )
     5.55121219E-01    2     1000021         6   # BR(~t_1 -> ~g      t )
#
#         PDG            Width
DECAY   2000006     2.89193857E+02   # stop2 decays
#          BR         NDA      ID1       ID2
     1.09737239E-01    2     1000022         6   # BR(~t_2 -> ~chi_10 t )
     1.28365179E-01    2     1000023         6   # BR(~t_2 -> ~chi_20 t )
     3.03452409E-02    2     1000025         6   # BR(~t_2 -> ~chi_30 t )
     1.25502775E-02    2     1000035         6   # BR(~t_2 -> ~chi_40 t )
     1.27520822E-01    2     1000024         5   # BR(~t_2 -> ~chi_1+ b )
     2.50447186E-02    2     1000037         5   # BR(~t_2 -> ~chi_2+ b )
     5.66436523E-01    2     1000021         6   # BR(~t_2 -> ~g      t )
#
#         PDG            Width
DECAY   1000005     2.14081281E+02   # sbottom1 decays
#          BR         NDA      ID1       ID2
     3.19343408E-03    2     1000022         5   # BR(~b_1 -> ~chi_10 b )
     4.09492790E-06    2     1000023         5   # BR(~b_1 -> ~chi_20 b )
     4.37611886E-03    2     1000025         5   # BR(~b_1 -> ~chi_30 b )
     1.90212806E-02    2     1000035         5   # BR(~b_1 -> ~chi_40 b )
     1.95692140E-01    2    -1000024         6   # BR(~b_1 -> ~chi_1- t )
     3.81232847E-02    2    -1000037         6   # BR(~b_1 -> ~chi_2- t )
     7.39589647E-01    2     1000021         5   # BR(~b_1 -> ~g      b )
#
#         PDG            Width
DECAY   2000005     2.00665454E+02   # sbottom2 decays
#          BR         NDA      ID1       ID2
     1.56725779E-03    2     1000022         5   # BR(~b_2 -> ~chi_10 b )
     3.64577762E-04    2     1000023         5   # BR(~b_2 -> ~chi_20 b )
     6.73755605E-03    2     1000025         5   # BR(~b_2 -> ~chi_30 b )
     1.84592536E-02    2     1000035         5   # BR(~b_2 -> ~chi_40 b )
     1.45575038E-01    2    -1000024         6   # BR(~b_2 -> ~chi_1- t )
     3.69846649E-02    2    -1000037         6   # BR(~b_2 -> ~chi_2- t )
     7.90311652E-01    2     1000021         5   # BR(~b_2 -> ~g      b )
#
#         PDG            Width
DECAY   1000002     1.82458764E+02   # sup_L decays
#          BR         NDA      ID1       ID2
     9.48062091E-04    2     1000022         2   # BR(~u_L -> ~chi_10 u)
     1.84528454E-05    2     1000023         2   # BR(~u_L -> ~chi_20 u)
     2.67016508E-03    2     1000025         2   # BR(~u_L -> ~chi_30 u)
     4.26012379E-02    2     1000035         2   # BR(~u_L -> ~chi_40 u)
     1.65757278E-04    2     1000024         1   # BR(~u_L -> ~chi_1+ d)
     8.51921704E-02    2     1000037         1   # BR(~u_L -> ~chi_2+ d)
     8.68404154E-01    2     1000021         2   # BR(~u_L -> ~g      u)
#
#         PDG            Width
DECAY   2000002     1.68863258E+02   # sup_R decays
#          BR         NDA      ID1       ID2
     1.78853020E-02    2     1000022         2   # BR(~u_R -> ~chi_10 u)
     1.41104537E-04    2     1000023         2   # BR(~u_R -> ~chi_20 u)
     4.36290304E-02    2     1000025         2   # BR(~u_R -> ~chi_30 u)
     4.24320599E-09    2     1000035         2   # BR(~u_R -> ~chi_40 u)
     9.38344559E-01    2     1000021         2   # BR(~u_R -> ~g      u)
#
#         PDG            Width
DECAY   1000001     1.82464185E+02   # sdown_L decays
#          BR         NDA      ID1       ID2
     1.12478652E-03    2     1000022         1   # BR(~d_L -> ~chi_10 d)
     1.00191222E-04    2     1000023         1   # BR(~d_L -> ~chi_20 d)
     2.38122474E-03    2     1000025         1   # BR(~d_L -> ~chi_30 d)
     4.26195455E-02    2     1000035         1   # BR(~d_L -> ~chi_40 d)
     5.45984516E-05    2    -1000024         2   # BR(~d_L -> ~chi_1- u)
     8.52494914E-02    2    -1000037         2   # BR(~d_L -> ~chi_2- u)
     8.68470162E-01    2     1000021         1   # BR(~d_L -> ~g      d)
#
#         PDG            Width
DECAY   2000001     1.61060082E+02   # sdown_R decays
#          BR         NDA      ID1       ID2
     4.68803079E-03    2     1000022         1   # BR(~d_R -> ~chi_10 d)
     3.69858125E-05    2     1000023         1   # BR(~d_R -> ~chi_20 d)
     1.14358844E-02    2     1000025         1   # BR(~d_R -> ~chi_30 d)
     1.11225079E-09    2     1000035         1   # BR(~d_R -> ~chi_40 d)
     9.83839098E-01    2     1000021         1   # BR(~d_R -> ~g      d)
#
#         PDG            Width
DECAY   1000004     1.82458764E+02   # scharm_L decays
#          BR         NDA      ID1       ID2
     9.48062091E-04    2     1000022         4   # BR(~c_L -> ~chi_10 c)
     1.84528454E-05    2     1000023         4   # BR(~c_L -> ~chi_20 c)
     2.67016508E-03    2     1000025         4   # BR(~c_L -> ~chi_30 c)
     4.26012379E-02    2     1000035         4   # BR(~c_L -> ~chi_40 c)
     1.65757278E-04    2     1000024         3   # BR(~c_L -> ~chi_1+ s)
     8.51921704E-02    2     1000037         3   # BR(~c_L -> ~chi_2+ s)
     8.68404154E-01    2     1000021         4   # BR(~c_L -> ~g      c)
#
#         PDG            Width
DECAY   2000004     1.68863258E+02   # scharm_R decays
#          BR         NDA      ID1       ID2
     1.78853020E-02    2     1000022         4   # BR(~c_R -> ~chi_10 c)
     1.41104537E-04    2     1000023         4   # BR(~c_R -> ~chi_20 c)
     4.36290304E-02    2     1000025         4   # BR(~c_R -> ~chi_30 c)
     4.24320599E-09    2     1000035         4   # BR(~c_R -> ~chi_40 c)
     9.38344559E-01    2     1000021         4   # BR(~c_R -> ~g      c)
#
#         PDG            Width
DECAY   1000003     1.82464185E+02   # sstrange_L decays
#          BR         NDA      ID1       ID2
     1.12478652E-03    2     1000022         3   # BR(~s_L -> ~chi_10 s)
     1.00191222E-04    2     1000023         3   # BR(~s_L -> ~chi_20 s)
     2.38122474E-03    2     1000025         3   # BR(~s_L -> ~chi_30 s)
     4.26195455E-02    2     1000035         3   # BR(~s_L -> ~chi_40 s)
     5.45984516E-05    2    -1000024         4   # BR(~s_L -> ~chi_1- c)
     8.52494914E-02    2    -1000037         4   # BR(~s_L -> ~chi_2- c)
     8.68470162E-01    2     1000021         3   # BR(~s_L -> ~g      s)
#
#         PDG            Width
DECAY   2000003     1.61060082E+02   # sstrange_R decays
#          BR         NDA      ID1       ID2
     4.68803079E-03    2     1000022         3   # BR(~s_R -> ~chi_10 s)
     3.69858125E-05    2     1000023         3   # BR(~s_R -> ~chi_20 s)
     1.14358844E-02    2     1000025         3   # BR(~s_R -> ~chi_30 s)
     1.11225079E-09    2     1000035         3   # BR(~s_R -> ~chi_40 s)
     9.83839098E-01    2     1000021         3   # BR(~s_R -> ~g      s)
#
#         PDG            Width
DECAY   1000011     3.02026514E+01   # selectron_L decays
#          BR         NDA      ID1       ID2
     5.68652889E-02    2     1000022        11   # BR(~e_L -> ~chi_10 e-)
     1.26390730E-05    2     1000023        11   # BR(~e_L -> ~chi_20 e-)
     1.45480256E-01    2     1000025        11   # BR(~e_L -> ~chi_30 e-)
     2.65637037E-01    2     1000035        11   # BR(~e_L -> ~chi_40 e-)
     3.43144699E-04    2    -1000024        12   # BR(~e_L -> ~chi_1- nu_e)
     5.31661634E-01    2    -1000037        12   # BR(~e_L -> ~chi_2- nu_e)
#
#         PDG            Width
DECAY   2000011     2.43703538E+01   # selectron_R decays
#          BR         NDA      ID1       ID2
     2.90096125E-01    2     1000022        11   # BR(~e_R -> ~chi_10 e-)
     2.28862511E-03    2     1000023        11   # BR(~e_R -> ~chi_20 e-)
     7.07615181E-01    2     1000025        11   # BR(~e_R -> ~chi_30 e-)
     6.82984322E-08    2     1000035        11   # BR(~e_R -> ~chi_40 e-)
#
#         PDG            Width
DECAY   1000013     3.02026514E+01   # smuon_L decays
#          BR         NDA      ID1       ID2
     5.68652889E-02    2     1000022        13   # BR(~mu_L -> ~chi_10 mu-)
     1.26390730E-05    2     1000023        13   # BR(~mu_L -> ~chi_20 mu-)
     1.45480256E-01    2     1000025        13   # BR(~mu_L -> ~chi_30 mu-)
     2.65637037E-01    2     1000035        13   # BR(~mu_L -> ~chi_40 mu-)
     3.43144699E-04    2    -1000024        14   # BR(~mu_L -> ~chi_1- nu_mu)
     5.31661634E-01    2    -1000037        14   # BR(~mu_L -> ~chi_2- nu_mu)
#
#         PDG            Width
DECAY   2000013     2.43703538E+01   # smuon_R decays
#          BR         NDA      ID1       ID2
     2.90096125E-01    2     1000022        13   # BR(~mu_R -> ~chi_10 mu-)
     2.28862511E-03    2     1000023        13   # BR(~mu_R -> ~chi_20 mu-)
     7.07615181E-01    2     1000025        13   # BR(~mu_R -> ~chi_30 mu-)
     6.82984322E-08    2     1000035        13   # BR(~mu_R -> ~chi_40 mu-)
#
#         PDG            Width
DECAY   1000015     2.72390459E+01   # stau_1 decays
#          BR         NDA      ID1       ID2
     1.69758857E-01    2     1000022        15   # BR(~tau_1 -> ~chi_10  tau-)
     6.38516730E-04    2     1000023        15   # BR(~tau_1 -> ~chi_20  tau-)
     3.98867103E-01    2     1000025        15   # BR(~tau_1 -> ~chi_30  tau-)
     1.43467493E-01    2     1000035        15   # BR(~tau_1 -> ~chi_40  tau-)
     1.17095268E-04    2    -1000024        16   # BR(~tau_1 -> ~chi_1-  nu_tau)
     2.87143645E-01    2    -1000037        16   # BR(~tau_1 -> ~chi_2-  nu_tau)
     7.29083077E-06    2     1000039        15   # BR(~tau_1 -> ~G       tau-)
#
#         PDG            Width
DECAY   2000015     2.74291751E+01   # stau_2 decays
#          BR         NDA      ID1       ID2
     1.52651112E-01    2     1000022        15   # BR(~tau_2 -> ~chi_10  tau-)
     2.56281373E-03    2     1000023        15   # BR(~tau_2 -> ~chi_20  tau-)
     3.93079081E-01    2     1000025        15   # BR(~tau_2 -> ~chi_30  tau-)
     1.50023891E-01    2     1000035        15   # BR(~tau_2 -> ~chi_40  tau-)
     1.41604235E-03    2    -1000024        16   # BR(~tau_2 -> ~chi_1-  nu_tau)
     3.00267061E-01    2    -1000037        16   # BR(~tau_2 -> ~chi_2-  nu_tau)
#
#         PDG            Width
DECAY   1000012     3.02008229E+01   # snu_eL decays
#          BR         NDA      ID1       ID2
     6.01977199E-02    2     1000022        12   # BR(~nu_eL -> ~chi_10 nu_e)
     1.55378648E-03    2     1000023        12   # BR(~nu_eL -> ~chi_20 nu_e)
     1.40033032E-01    2     1000025        12   # BR(~nu_eL -> ~chi_30 nu_e)
     2.65853550E-01    2     1000035        12   # BR(~nu_eL -> ~chi_40 nu_e)
     1.04179756E-03    2     1000024        11   # BR(~nu_eL -> ~chi_1+ e-)
     5.31320114E-01    2     1000037        11   # BR(~nu_eL -> ~chi_2+ e-)
#
#         PDG            Width
DECAY   1000014     3.02008229E+01   # snu_muL decays
#          BR         NDA      ID1       ID2
     6.01977199E-02    2     1000022        14   # BR(~nu_muL -> ~chi_10 nu_mu)
     1.55378648E-03    2     1000023        14   # BR(~nu_muL -> ~chi_20 nu_mu)
     1.40033032E-01    2     1000025        14   # BR(~nu_muL -> ~chi_30 nu_mu)
     2.65853550E-01    2     1000035        14   # BR(~nu_muL -> ~chi_40 nu_mu)
     1.04179756E-03    2     1000024        13   # BR(~nu_muL -> ~chi_1+ mu-)
     5.31320114E-01    2     1000037        13   # BR(~nu_muL -> ~chi_2+ mu-)
#
#         PDG            Width
DECAY   1000016     3.02324947E+01   # snu_tauL decays
#          BR         NDA      ID1       ID2
     6.01346562E-02    2     1000022        16   # BR(~nu_tauL -> ~chi_10 nu_tau)
     1.55215871E-03    2     1000023        16   # BR(~nu_tauL -> ~chi_20 nu_tau)
     1.39886332E-01    2     1000025        16   # BR(~nu_tauL -> ~chi_30 nu_tau)
     2.65575039E-01    2     1000035        16   # BR(~nu_tauL -> ~chi_40 nu_tau)
     2.08819484E-03    2     1000024        15   # BR(~nu_tauL -> ~chi_1+ tau-)
     5.30763619E-01    2     1000037        15   # BR(~nu_tauL -> ~chi_2+ tau-)
#
#         PDG            Width
DECAY   1000024     1.53326713E-08   # chargino1+ decays
#          BR         NDA      ID1       ID2
     3.44019340E-02    2     1000039        24   # BR(~chi_1+ -> ~G       W+)
#           BR         NDA      ID1       ID2       ID3
     3.50989612E-01    3     1000022         2        -1   # BR(~chi_1+ -> ~chi_10 u    db)
     2.92708471E-01    3     1000022         4        -3   # BR(~chi_1+ -> ~chi_10 c    sb)
     1.16997175E-01    3     1000022       -11        12   # BR(~chi_1+ -> ~chi_10 e+   nu_e)
     1.16874667E-01    3     1000022       -13        14   # BR(~chi_1+ -> ~chi_10 mu+  nu_mu)
     8.80281402E-02    3     1000022       -15        16   # BR(~chi_1+ -> ~chi_10 tau+ nu_tau)
#
#         PDG            Width
DECAY   1000037     2.67356237E+01   # chargino2+ decays
#          BR         NDA      ID1       ID2
     1.58871770E-01    2     1000024        23   # BR(~chi_2+ -> ~chi_1+  Z )
     1.05656595E-01    2     1000022        24   # BR(~chi_2+ -> ~chi_10  W+)
     1.54118691E-01    2     1000023        24   # BR(~chi_2+ -> ~chi_20  W+)
     5.01568210E-02    2     1000025        24   # BR(~chi_2+ -> ~chi_30  W+)
     1.59395828E-01    2     1000024        25   # BR(~chi_2+ -> ~chi_1+  h )
     9.27670193E-02    2     1000024        35   # BR(~chi_2+ -> ~chi_1+  H )
     9.31493918E-02    2     1000024        36   # BR(~chi_2+ -> ~chi_1+  A )
     6.69787575E-02    2     1000022        37   # BR(~chi_2+ -> ~chi_10  H+)
     9.27499077E-02    2     1000023        37   # BR(~chi_2+ -> ~chi_20  H+)
     2.61546412E-02    2     1000025        37   # BR(~chi_2+ -> ~chi_30  H+)
     5.77670537E-07    2     1000039        24   # BR(~chi_2+ -> ~G       W+)
     1.20177835E-11    2     1000039        37   # BR(~chi_2+ -> ~G       H+)
#
#         PDG            Width
DECAY   1000022     1.0E-05   # neutralino1 decays
#          BR         NDA      ID1       ID2
     4.12610123E-01    2     1000039        22   # BR(~chi_10 -> ~G        gam)
     1.29188620E-01    2     1000039        23   # BR(~chi_10 -> ~G        Z)
     4.58201256E-01    2     1000039        25   # BR(~chi_10 -> ~G        h)
#
#         PDG            Width
DECAY   1000023     1.0E-05   # neutralino2 decays
#          BR         NDA      ID1       ID2
     1.56394926E-02    2     1000022        22   # BR(~chi_20 -> ~chi_10 gam)
#          BR         NDA      ID1       ID2
     2.71774569E-05    2     1000039        22   # BR(~chi_20 -> ~G        gam)
     1.17584475E-02    2     1000039        23   # BR(~chi_20 -> ~G        Z)
     3.97385770E-04    2     1000039        25   # BR(~chi_20 -> ~G        h)
#           BR         NDA      ID1       ID2       ID3
     1.37776058E-01    3     1000022        -2         2   # BR(~chi_20 -> ~chi_10 ub      u)
     1.78356910E-01    3     1000022        -1         1   # BR(~chi_20 -> ~chi_10 db      d)
     1.18780513E-01    3     1000022        -4         4   # BR(~chi_20 -> ~chi_10 cb      c)
     1.77769811E-01    3     1000022        -3         3   # BR(~chi_20 -> ~chi_10 sb      s)
     4.07140995E-02    3     1000022       -11        11   # BR(~chi_20 -> ~chi_10 e+      e-)
     4.06881759E-02    3     1000022       -13        13   # BR(~chi_20 -> ~chi_10 mu+     mu-)
     3.26836219E-02    3     1000022       -15        15   # BR(~chi_20 -> ~chi_10 tau+    tau-)
     8.12975384E-02    3     1000022       -12        12   # BR(~chi_20 -> ~chi_10 nu_eb   nu_e)
     8.12975384E-02    3     1000022       -14        14   # BR(~chi_20 -> ~chi_10 nu_mub  nu_mu)
     8.12975384E-02    3     1000022       -16        16   # BR(~chi_20 -> ~chi_10 nu_taub nu_tau)
     4.29384110E-04    3     1000024        -2         1   # BR(~chi_20 -> ~chi_1+ ub      d)
     4.29384110E-04    3    -1000024        -1         2   # BR(~chi_20 -> ~chi_1- db      u)
     4.18346530E-05    3     1000024        -4         3   # BR(~chi_20 -> ~chi_1+ cb      s)
     4.18346530E-05    3    -1000024        -3         4   # BR(~chi_20 -> ~chi_1- sb      c)
     1.43128053E-04    3     1000024       -12        11   # BR(~chi_20 -> ~chi_1+ nu_eb   e-)
     1.43128053E-04    3    -1000024        12       -11   # BR(~chi_20 -> ~chi_1- nu_e    e+)
     1.41468055E-04    3     1000024       -14        13   # BR(~chi_20 -> ~chi_1+ nu_mub  mu-)
     1.41468055E-04    3    -1000024        14       -13   # BR(~chi_20 -> ~chi_1- nu_mu   mu+)
     2.03084182E-06    3     1000024       -16        15   # BR(~chi_20 -> ~chi_1+ nu_taub tau-)
     2.03084182E-06    3    -1000024        16       -15   # BR(~chi_20 -> ~chi_1- nu_tau  tau+)
#
#         PDG            Width
DECAY   1000025     1.0E-05   # neutralino3 decays
#          BR         NDA      ID1       ID2
     8.72033720E-01    2     1000022        22   # BR(~chi_30 -> ~chi_10 gam)
     2.61266830E-02    2     1000023        22   # BR(~chi_30 -> ~chi_20 gam)
#          BR         NDA      ID1       ID2
     4.52292091E-04    2     1000039        22   # BR(~chi_30 -> ~G        gam)
     1.26324362E-04    2     1000039        23   # BR(~chi_30 -> ~G        Z)
     8.88773245E-05    2     1000039        25   # BR(~chi_30 -> ~G        h)
#           BR         NDA      ID1       ID2       ID3
     1.87082578E-04    3     1000022        -2         2   # BR(~chi_30 -> ~chi_10 ub      u)
     2.43420477E-04    3     1000022        -1         1   # BR(~chi_30 -> ~chi_10 db      d)
     1.73956449E-04    3     1000022        -4         4   # BR(~chi_30 -> ~chi_10 cb      c)
     2.43139459E-04    3     1000022        -3         3   # BR(~chi_30 -> ~chi_10 sb      s)
     1.09136679E-04    3     1000022        -5         5   # BR(~chi_30 -> ~chi_10 bb      b)
     5.65336654E-05    3     1000022       -11        11   # BR(~chi_30 -> ~chi_10 e+      e-)
     5.65079774E-05    3     1000022       -13        13   # BR(~chi_30 -> ~chi_10 mu+     mu-)
     4.97911147E-05    3     1000022       -15        15   # BR(~chi_30 -> ~chi_10 tau+    tau-)
     1.10444748E-04    3     1000022       -12        12   # BR(~chi_30 -> ~chi_10 nu_eb   nu_e)
     1.10444748E-04    3     1000022       -14        14   # BR(~chi_30 -> ~chi_10 nu_mub  nu_mu)
     1.10444748E-04    3     1000022       -16        16   # BR(~chi_30 -> ~chi_10 nu_taub nu_tau)
     1.60874226E-03    3     1000023        -2         2   # BR(~chi_30 -> ~chi_20 ub      u)
     2.08263195E-03    3     1000023        -1         1   # BR(~chi_30 -> ~chi_20 db      d)
     1.39446386E-03    3     1000023        -4         4   # BR(~chi_30 -> ~chi_20 cb      c)
     2.07601268E-03    3     1000023        -3         3   # BR(~chi_30 -> ~chi_20 sb      s)
     4.75436855E-04    3     1000023       -11        11   # BR(~chi_30 -> ~chi_20 e+      e-)
     4.75144373E-04    3     1000023       -13        13   # BR(~chi_30 -> ~chi_20 mu+     mu-)
     3.85005200E-04    3     1000023       -15        15   # BR(~chi_30 -> ~chi_20 tau+    tau-)
     9.49254313E-04    3     1000023       -12        12   # BR(~chi_30 -> ~chi_20 nu_eb   nu_e)
     9.49254313E-04    3     1000023       -14        14   # BR(~chi_30 -> ~chi_20 nu_mub  nu_mu)
     9.49254313E-04    3     1000023       -16        16   # BR(~chi_30 -> ~chi_20 nu_taub nu_tau)
     1.52501347E-02    3     1000024        -2         1   # BR(~chi_30 -> ~chi_1+ ub      d)
     1.52501347E-02    3    -1000024        -1         2   # BR(~chi_30 -> ~chi_1- db      u)
     1.42188743E-02    3     1000024        -4         3   # BR(~chi_30 -> ~chi_1+ cb      s)
     1.42188743E-02    3    -1000024        -3         4   # BR(~chi_30 -> ~chi_1- sb      c)
     5.08330582E-03    3     1000024       -12        11   # BR(~chi_30 -> ~chi_1+ nu_eb   e-)
     5.08330582E-03    3    -1000024        12       -11   # BR(~chi_30 -> ~chi_1- nu_e    e+)
     5.08127741E-03    3     1000024       -14        13   # BR(~chi_30 -> ~chi_1+ nu_mub  mu-)
     5.08127741E-03    3    -1000024        14       -13   # BR(~chi_30 -> ~chi_1- nu_mu   mu+)
     4.55440786E-03    3     1000024       -16        15   # BR(~chi_30 -> ~chi_1+ nu_taub tau-)
     4.55440786E-03    3    -1000024        16       -15   # BR(~chi_30 -> ~chi_1- nu_tau  tau+)
#
#         PDG            Width
DECAY   1000035     2.67359784E+01   # neutralino4 decays
#          BR         NDA      ID1       ID2
     1.03582338E-01    2     1000022        23   # BR(~chi_40 -> ~chi_10   Z )
     1.08580270E-02    2     1000023        23   # BR(~chi_40 -> ~chi_20   Z )
     4.46223939E-02    2     1000025        23   # BR(~chi_40 -> ~chi_30   Z )
     1.54770216E-01    2     1000024       -24   # BR(~chi_40 -> ~chi_1+   W-)
     1.54770216E-01    2    -1000024        24   # BR(~chi_40 -> ~chi_1-   W+)
     4.79800841E-03    2     1000022        25   # BR(~chi_40 -> ~chi_10   h )
     6.56165132E-02    2     1000022        35   # BR(~chi_40 -> ~chi_10   H )
     1.20536303E-03    2     1000022        36   # BR(~chi_40 -> ~chi_10   A )
     1.47989521E-01    2     1000023        25   # BR(~chi_40 -> ~chi_20   h )
     1.10804391E-03    2     1000023        35   # BR(~chi_40 -> ~chi_20   H )
     9.17379119E-02    2     1000023        36   # BR(~chi_40 -> ~chi_20   A )
     6.81330497E-03    2     1000025        25   # BR(~chi_40 -> ~chi_30   h )
     2.60100437E-02    2     1000025        35   # BR(~chi_40 -> ~chi_30   H )
     9.52366091E-05    2     1000025        36   # BR(~chi_40 -> ~chi_30   A )
     9.30111427E-02    2     1000024       -37   # BR(~chi_40 -> ~chi_1+   H-)
     9.30111427E-02    2    -1000024        37   # BR(~chi_40 -> ~chi_1-   H+)
     1.38714543E-07    2     1000039        22   # BR(~chi_40 -> ~G        gam)
     4.38900197E-07    2     1000039        23   # BR(~chi_40 -> ~G        Z)
     3.06354799E-11    2     1000039        25   # BR(~chi_40 -> ~G        h)
     1.18955603E-11    2     1000039        35   # BR(~chi_40 -> ~G        H)
     6.68895765E-14    2     1000039        36   # BR(~chi_40 -> ~G        A)
#
#         PDG            Width
DECAY        25     4.08037313E-03   # h decays
#          BR         NDA      ID1       ID2
     6.17206960E-01    2           5        -5   # BR(h -> b       bb     )
     6.38324537E-02    2         -15        15   # BR(h -> tau+    tau-   )
     2.25943377E-04    2         -13        13   # BR(h -> mu+     mu-    )
     4.78794287E-04    2           3        -3   # BR(h -> s       sb     )
     2.06558268E-02    2           4        -4   # BR(h -> c       cb     )
     6.70707551E-02    2          21        21   # BR(h -> g       g      )
     2.29606122E-03    2          22        22   # BR(h -> gam     gam    )
     1.53937851E-03    2          22        23   # BR(h -> Z       gam    )
     2.01043318E-01    2          24       -24   # BR(h -> W+      W-     )
     2.56505093E-02    2          23        23   # BR(h -> Z       Z      )
#
#         PDG            Width
DECAY        35     3.95410280E+01   # H decays
#          BR         NDA      ID1       ID2
     1.41367980E-03    2           5        -5   # BR(H -> b       bb     )
     2.35655098E-04    2         -15        15   # BR(H -> tau+    tau-   )
     8.33128506E-07    2         -13        13   # BR(H -> mu+     mu-    )
     1.06669854E-06    2           3        -3   # BR(H -> s       sb     )
     9.62684101E-06    2           4        -4   # BR(H -> c       cb     )
     9.52535033E-01    2           6        -6   # BR(H -> t       tb     )
     7.62786537E-04    2          21        21   # BR(H -> g       g      )
     2.54642135E-06    2          22        22   # BR(H -> gam     gam    )
     1.10863350E-06    2          23        22   # BR(H -> Z       gam    )
     3.21339455E-04    2          24       -24   # BR(H -> W+      W-     )
     1.60231467E-04    2          23        23   # BR(H -> Z       Z      )
     8.65617664E-04    2          25        25   # BR(H -> h       h      )
     8.46482300E-24    2          36        36   # BR(H -> A       A      )
     3.35183839E-11    2          23        36   # BR(H -> Z       A      )
     4.06766655E-12    2          24       -37   # BR(H -> W+      H-     )
     4.06766655E-12    2         -24        37   # BR(H -> W-      H+     )
     6.54068528E-05    2     1000024  -1000024   # BR(H -> ~chi_1+ ~chi_1-)
     1.80839400E-02    2     1000022   1000022   # BR(H -> ~chi_10 ~chi_10)
     2.60138702E-05    2     1000023   1000023   # BR(H -> ~chi_20 ~chi_20)
     1.59674797E-02    2     1000025   1000025   # BR(H -> ~chi_30 ~chi_30)
     5.05702998E-05    2     1000022   1000023   # BR(H -> ~chi_10 ~chi_20)
     7.16734255E-03    2     1000022   1000025   # BR(H -> ~chi_10 ~chi_30)
     2.32972155E-03    2     1000023   1000025   # BR(H -> ~chi_20 ~chi_30)
#
#         PDG            Width
DECAY        36     3.99759915E+01   # A decays
#          BR         NDA      ID1       ID2
     1.41676851E-03    2           5        -5   # BR(A -> b       bb     )
     2.33295437E-04    2         -15        15   # BR(A -> tau+    tau-   )
     8.24783646E-07    2         -13        13   # BR(A -> mu+     mu-    )
     1.08735816E-06    2           3        -3   # BR(A -> s       sb     )
     9.52872488E-06    2           4        -4   # BR(A -> c       cb     )
     9.53656373E-01    2           6        -6   # BR(A -> t       tb     )
     9.02653875E-04    2          21        21   # BR(A -> g       g      )
     3.13173186E-06    2          22        22   # BR(A -> gam     gam    )
     1.29306247E-06    2          23        22   # BR(A -> Z       gam    )
     3.13241049E-04    2          23        25   # BR(A -> Z       h      )
     4.09532094E-04    2     1000024  -1000024   # BR(A -> ~chi_1+ ~chi_1-)
     1.17518474E-03    2     1000022   1000022   # BR(A -> ~chi_10 ~chi_10)
     8.32073930E-04    2     1000023   1000023   # BR(A -> ~chi_20 ~chi_20)
     3.28694572E-04    2     1000025   1000025   # BR(A -> ~chi_30 ~chi_30)
     1.14813039E-02    2     1000022   1000023   # BR(A -> ~chi_10 ~chi_20)
     8.07166391E-04    2     1000022   1000025   # BR(A -> ~chi_10 ~chi_30)
     2.84278468E-02    2     1000023   1000025   # BR(A -> ~chi_20 ~chi_30)
#
#         PDG            Width
DECAY        37     3.91755633E+01   # H+ decays
#          BR         NDA      ID1       ID2
     2.27555680E-06    2           4        -5   # BR(H+ -> c       bb     )
     2.38284858E-04    2         -15        16   # BR(H+ -> tau+    nu_tau )
     8.42423052E-07    2         -13        14   # BR(H+ -> mu+     nu_mu  )
     1.44680688E-08    2           2        -5   # BR(H+ -> u       bb     )
     5.21701023E-08    2           2        -3   # BR(H+ -> u       sb     )
     1.03950900E-05    2           4        -3   # BR(H+ -> c       sb     )
     9.55474300E-01    2           6        -5   # BR(H+ -> t       bb     )
     3.20995290E-04    2          24        25   # BR(H+ -> W+      h      )
     7.70641917E-13    2          24        36   # BR(H+ -> W+      A      )
     1.21916151E-02    2     1000024   1000022   # BR(H+ -> ~chi_1+ ~chi_10)
     1.09282964E-04    2     1000024   1000023   # BR(H+ -> ~chi_1+ ~chi_20)
     3.16519421E-02    2     1000024   1000025   # BR(H+ -> ~chi_1+ ~chi_30)
