#
#                              ======================
#                              | THE SUSYHIT OUTPUT |
#                              ======================
#
#
#              ------------------------------------------------------
#              |     This is the output of the SUSY-HIT package     |
#              |  created by A.Djouadi, M.Muehlleitner and M.Spira. |
#              |  In case of problems with SUSY-HIT email to        |
#              |           margarete.muehlleitner@kit.edu           |
#              |           michael.spira@psi.ch                     |
#              |           abdelhak.djouadi@cern.ch                 |
#              ------------------------------------------------------
#
#              ------------------------------------------------------
#              |  SUSY Les Houches Accord - MSSM Spectrum + Decays  |
#              |              based on the decay programs           |
#              |                                                    |
#              |                     SDECAY 1.5a                    |
#              |                                                    |
#              |  Authors: M.Muhlleitner, A.Djouadi and Y.Mambrini  |
#              |  Ref.:    Comput.Phys.Commun.168(2005)46           |
#              |           [hep-ph/0311167]                         |
#              |                                                    |
#              |                     HDECAY 3.4                     |
#              |                                                    |
#              |  By: A.Djouadi,J.Kalinowski,M.Muhlleitner,M.Spira  |
#              |  Ref.:    Comput.Phys.Commun.108(1998)56           |
#              |           [hep-ph/9704448]                         |
#              |                                                    |
#              |                                                    |
#              |  If not stated otherwise all DRbar couplings and   |
#              |  soft SUSY breaking masses are given at the scale  |
#              |  Q=  0.91187600E+02
#              |                                                    |
#              ------------------------------------------------------
#
#
BLOCK DCINFO  # Decay Program information
     1   SDECAY/HDECAY # decay calculator
     2   1.5a /3.4    # version number
#
BLOCK SPINFO  # Spectrum calculator information
     1   SuSpect     # RGE +Spectrum calculator            
     2   2.43         # version number                     
#
BLOCK MODSEL  # Model selection
     1     2   # GMSB                                              
#
BLOCK SMINPUTS  # Standard Model inputs
         1     1.27932904E+02   # alpha_em^-1(M_Z)^MSbar
         2     1.16639000E-05   # G_F [GeV^-2]
         3     1.17200000E-01   # alpha_S(M_Z)^MSbar
         4     9.11870000E+01   # M_Z pole mass
         5     4.25000000E+00   # mb(mb)^MSbar
         6     1.72900000E+02   # mt pole mass
         7     1.77700000E+00   # mtau pole mass
#
BLOCK MINPAR  # Input parameters - minimal models
#
BLOCK EXTPAR  # Input parameters - non-minimal models
         0     9.11876000E+01   # EWSB                
         1     6.54299572E+02   # M_1                 
         2     3.00000000E+03   # M_2                 
         3     2.00000000E+03   # M_3                 
        11     0.00000000E+00   # A_t                 
        12     0.00000000E+00   # A_b                 
        13     0.00000000E+00   # A_tau               
        14     0.00000000E+00   # A_u                 
        15     0.00000000E+00   # A_d                 
        16     0.00000000E+00   # A_e                 
        23    -6.50000000E+02   # mu(EWSB)            
        25     1.50000000E+00   # tanbeta(in)         
        26     2.00000000E+03   # MA_pole             
        31     5.00000000E+03   # M_eL                
        32     5.00000000E+03   # M_muL               
        33     5.00000000E+03   # M_tauL              
        34     5.00000000E+03   # M_eR                
        35     5.00000000E+03   # M_muR               
        36     5.00000000E+03   # M_tauR              
        41     5.00000000E+03   # M_q1L               
        42     5.00000000E+03   # M_q2L               
        43     5.00000000E+03   # M_q3L               
        44     5.00000000E+03   # M_uR                
        45     5.00000000E+03   # M_cR                
        46     5.00000000E+03   # M_tR                
        47     5.00000000E+03   # M_dR                
        48     5.00000000E+03   # M_sR                
        49     5.00000000E+03   # M_bR                
#
BLOCK MASS  # Mass Spectrum
# PDG code           mass       particle
        24     8.05396358E+01   # W+
        25     1.25000000E+02   # h
        35     2.00414709E+03   # H
        36     2.00000000E+03   # A
        37     2.00183756E+03   # H+
         5     4.87877839E+00   # b-quark pole mass calculated from mb(mb)_Msbar
   1000001     5.00013280E+03   # ~d_L
   2000001     5.00002530E+03   # ~d_R
   1000002     4.99989250E+03   # ~u_L
   2000002     4.99994939E+03   # ~u_R
   1000003     5.00013280E+03   # ~s_L
   2000003     5.00002530E+03   # ~s_R
   1000004     4.99989250E+03   # ~c_L
   2000004     4.99994939E+03   # ~c_R
   1000005     4.99981180E+03   # ~b_1
   2000005     5.00034774E+03   # ~b_2
   1000006     4.99564027E+03   # ~t_1
   2000006     5.00882425E+03   # ~t_2
   1000011     5.00008220E+03   # ~e_L
   2000011     5.00007591E+03   # ~e_R
   1000012     4.99984189E+03   # ~nu_eL
   1000013     5.00008220E+03   # ~mu_L
   2000013     5.00007591E+03   # ~mu_R
   1000014     4.99984189E+03   # ~nu_muL
   1000015     4.99990615E+03   # ~tau_1
   2000015     5.00025258E+03   # ~tau_2
   1000016     4.99984189E+03   # ~nu_tauL
   1000021     2.00000000E+03   # ~g
   1000022     6.43654205E+02   # ~chi_10
   1000023    -6.53096358E+02   # ~chi_20
   1000025     6.61994012E+02   # ~chi_30
   1000035     3.00174771E+03   # ~chi_40
   1000024     6.51542916E+02   # ~chi_1+
   1000037     3.00174742E+03   # ~chi_2+
   1000039     1.19148737E-08   # ~gravitino
#
BLOCK NMIX  # Neutralino Mixing Matrix
  1  1     5.83152302E-01   # N_11
  1  2    -4.68741830E-03   # N_12
  1  3    -5.88329319E-01   # N_13
  1  4    -5.60160721E-01   # N_14
  2  1     3.32977455E-02   # N_21
  2  2    -2.12026879E-02   # N_22
  2  3     7.06219770E-01   # N_23
  2  4    -7.06891323E-01   # N_24
  3  1     8.11680034E-01   # N_31
  3  2     4.75276480E-03   # N_32
  3  3     3.93719675E-01   # N_33
  3  4     4.31436845E-01   # N_34
  4  1     4.18347184E-04   # N_41
  4  2    -9.99752912E-01   # N_42
  4  3    -1.03473114E-02   # N_43
  4  4     1.96690816E-02   # N_44
#
BLOCK UMIX  # Chargino Mixing Matrix U
  1  1    -1.46258514E-02   # U_11
  1  2     9.99893037E-01   # U_12
  2  1     9.99893037E-01   # U_21
  2  2     1.46258514E-02   # U_22
#
BLOCK VMIX  # Chargino Mixing Matrix V
  1  1     2.78149555E-02   # V_11
  1  2    -9.99613089E-01   # V_12
  2  1     9.99613089E-01   # V_21
  2  2     2.78149555E-02   # V_22
#
BLOCK STOPMIX  # Stop Mixing Matrix
  1  1     7.08630156E-01   # cos(theta_t)
  1  2    -7.05580117E-01   # sin(theta_t)
  2  1     7.05580117E-01   # -sin(theta_t)
  2  2     7.08630156E-01   # cos(theta_t)
#
BLOCK SBOTMIX  # Sbottom Mixing Matrix
  1  1    -6.32225746E-01   # cos(theta_b)
  1  2     7.74784232E-01   # sin(theta_b)
  2  1    -7.74784232E-01   # -sin(theta_b)
  2  2    -6.32225746E-01   # cos(theta_b)
#
BLOCK STAUMIX  # Stau Mixing Matrix
  1  1    -7.00661698E-01   # cos(theta_tau)
  1  2     7.13493647E-01   # sin(theta_tau)
  2  1    -7.13493647E-01   # -sin(theta_tau)
  2  2    -7.00661698E-01   # cos(theta_tau)
#
BLOCK ALPHA  # Higgs mixing
          -5.90203633E-01   # Mixing angle in the neutral Higgs boson sector
#
BLOCK HMIX Q=  9.11876000E+01  # DRbar Higgs Parameters
         1    -6.50000000E+02   # mu(Q)               
         2     1.49999979E+00   # tanbeta(Q)          
         3     2.51781220E+02   # vev(Q)              
         4     4.19935868E+06   # MA^2(Q)             
#
BLOCK GAUGE Q=  9.11876000E+01  # The gauge couplings
     1     3.52892721E-01   # gprime(Q) DRbar
     2     6.27874421E-01   # g(Q) DRbar
     3     1.08044533E+00   # g3(Q) DRbar
#
BLOCK AU Q=  9.11876000E+01  # The trilinear couplings
  1  1     0.00000000E+00   # A_u(Q) DRbar
  2  2     0.00000000E+00   # A_c(Q) DRbar
  3  3     0.00000000E+00   # A_t(Q) DRbar
#
BLOCK AD Q=  9.11876000E+01  # The trilinear couplings
  1  1     0.00000000E+00   # A_d(Q) DRbar
  2  2     0.00000000E+00   # A_s(Q) DRbar
  3  3     0.00000000E+00   # A_b(Q) DRbar
#
BLOCK AE Q=  9.11876000E+01  # The trilinear couplings
  1  1     0.00000000E+00   # A_e(Q) DRbar
  2  2     0.00000000E+00   # A_mu(Q) DRbar
  3  3     0.00000000E+00   # A_tau(Q) DRbar
#
BLOCK Yu Q=  9.11876000E+01  # The Yukawa couplings
  1  1     0.00000000E+00   # y_u(Q) DRbar
  2  2     0.00000000E+00   # y_c(Q) DRbar
  3  3     1.02736852E+00   # y_t(Q) DRbar
#
BLOCK Yd Q=  9.11876000E+01  # The Yukawa couplings
  1  1     0.00000000E+00   # y_d(Q) DRbar
  2  2     0.00000000E+00   # y_s(Q) DRbar
  3  3     2.72645805E-02   # y_b(Q) DRbar
#
BLOCK Ye Q=  9.11876000E+01  # The Yukawa couplings
  1  1     0.00000000E+00   # y_e(Q) DRbar
  2  2     0.00000000E+00   # y_mu(Q) DRbar
  3  3     1.79864559E-02   # y_tau(Q) DRbar
#
BLOCK MSOFT Q=  9.11876000E+01  # The soft SUSY breaking masses at the scale Q
         1     6.54299572E+02   # M_1                 
         2     3.00000000E+03   # M_2                 
         3     2.00000000E+03   # M_3                 
        14     0.00000000E+00   # A_u                 
        15     0.00000000E+00   # A_d                 
        16     0.00000000E+00   # A_e                 
        21     2.58768210E+06   # M^2_Hd              
        22    -5.81532820E+06   # M^2_Hu              
        31     5.00000000E+03   # M_eL                
        32     5.00000000E+03   # M_muL               
        33     5.00000000E+03   # M_tauL              
        34     5.00000000E+03   # M_eR                
        35     5.00000000E+03   # M_muR               
        36     5.00000000E+03   # M_tauR              
        41     5.00000000E+03   # M_q1L               
        42     5.00000000E+03   # M_q2L               
        43     5.00000000E+03   # M_q3L               
        44     5.00000000E+03   # M_uR                
        45     5.00000000E+03   # M_cR                
        46     5.00000000E+03   # M_tR                
        47     5.00000000E+03   # M_dR                
        48     5.00000000E+03   # M_sR                
        49     5.00000000E+03   # M_bR                
#
#
#
#                             =================
#                             |The decay table|
#                             =================
#
# - The QCD corrections to the decays gluino -> squark  + quark
#                                     squark -> gaugino + quark_prime
#                                     squark -> squark_prime + Higgs
#                                     squark -> gluino  + quark
#   are included.
#
# - The multi-body decays for the inos, stops and sbottoms are included.
#
# - The loop induced decays for the gluino, neutralinos and stops
#   are included.
#
# - The SUSY decays of the top quark are included.
#
# - Possible decays of the NLSP in GMSB models are included.
#
#
#         PDG            Width
DECAY         6     1.37360453E+00   # top decays
#          BR         NDA      ID1       ID2
     1.00000000E+00    2           5        24   # BR(t ->  b    W+)
#
#         PDG            Width
DECAY   1000021     2.13783177E-03   # gluino decays
#          BR         NDA      ID1       ID2
     7.07383136E-03    2     1000022        21   # BR(~g -> ~chi_10 g)
     1.10892282E-02    2     1000023        21   # BR(~g -> ~chi_20 g)
     4.10510115E-03    2     1000025        21   # BR(~g -> ~chi_30 g)
#          BR         NDA      ID1       ID2
     0.00000000E+00    2     1000039        21   # BR(~g -> ~G      g)
#           BR         NDA      ID1       ID2       ID3
     2.68601603E-03    3     1000022         1        -1   # BR(~g -> ~chi_10 d  db)
     1.79568732E-05    3     1000023         1        -1   # BR(~g -> ~chi_20 d  db)
     4.86625138E-03    3     1000025         1        -1   # BR(~g -> ~chi_30 d  db)
     8.93157997E-03    3     1000022         2        -2   # BR(~g -> ~chi_10 u  ub)
     1.67326924E-05    3     1000023         2        -2   # BR(~g -> ~chi_20 u  ub)
     1.68154202E-02    3     1000025         2        -2   # BR(~g -> ~chi_30 u  ub)
     2.68601603E-03    3     1000022         3        -3   # BR(~g -> ~chi_10 s  sb)
     1.79568732E-05    3     1000023         3        -3   # BR(~g -> ~chi_20 s  sb)
     4.86625138E-03    3     1000025         3        -3   # BR(~g -> ~chi_30 s  sb)
     8.93157997E-03    3     1000022         4        -4   # BR(~g -> ~chi_10 c  cb)
     1.67326924E-05    3     1000023         4        -4   # BR(~g -> ~chi_20 c  cb)
     1.68154202E-02    3     1000025         4        -4   # BR(~g -> ~chi_30 c  cb)
     2.82897578E-03    3     1000022         5        -5   # BR(~g -> ~chi_10 b  bb)
     1.94503792E-04    3     1000023         5        -5   # BR(~g -> ~chi_20 b  bb)
     4.90477598E-03    3     1000025         5        -5   # BR(~g -> ~chi_30 b  bb)
     1.31266322E-01    3     1000022         6        -6   # BR(~g -> ~chi_10 t  tb)
     2.00105998E-01    3     1000023         6        -6   # BR(~g -> ~chi_20 t  tb)
     1.09239292E-01    3     1000025         6        -6   # BR(~g -> ~chi_30 t  tb)
     2.16620627E-05    3     1000024         1        -2   # BR(~g -> ~chi_1+ d  ub)
     2.16620627E-05    3    -1000024         2        -1   # BR(~g -> ~chi_1- u  db)
     2.16620627E-05    3     1000024         3        -4   # BR(~g -> ~chi_1+ s  cb)
     2.16620627E-05    3    -1000024         4        -3   # BR(~g -> ~chi_1- c  sb)
     2.31158010E-01    3     1000024         5        -6   # BR(~g -> ~chi_1+ b  tb)
     2.31158010E-01    3    -1000024         6        -5   # BR(~g -> ~chi_1- t  bb)
#
#         PDG            Width
DECAY   1000006     3.01881641E+02   # stop1 decays
#          BR         NDA      ID1       ID2
     5.67715595E-02    2     1000022         6   # BR(~t_1 -> ~chi_10 t )
     1.11451223E-01    2     1000023         6   # BR(~t_1 -> ~chi_20 t )
     7.86699783E-02    2     1000025         6   # BR(~t_1 -> ~chi_30 t )
     1.38553646E-02    2     1000035         6   # BR(~t_1 -> ~chi_40 t )
     1.11402463E-01    2     1000024         5   # BR(~t_1 -> ~chi_1+ b )
     2.76671400E-02    2     1000037         5   # BR(~t_1 -> ~chi_2+ b )
     6.00182271E-01    2     1000021         6   # BR(~t_1 -> ~g      t )
#
#         PDG            Width
DECAY   2000006     3.14759046E+02   # stop2 decays
#          BR         NDA      ID1       ID2
     9.69319870E-02    2     1000022         6   # BR(~t_2 -> ~chi_10 t )
     1.15759015E-01    2     1000023         6   # BR(~t_2 -> ~chi_20 t )
     3.04417128E-02    2     1000025         6   # BR(~t_2 -> ~chi_30 t )
     1.14905877E-02    2     1000035         6   # BR(~t_2 -> ~chi_40 t )
     1.16251855E-01    2     1000024         5   # BR(~t_2 -> ~chi_1+ b )
     2.29345250E-02    2     1000037         5   # BR(~t_2 -> ~chi_2+ b )
     6.06190318E-01    2     1000021         6   # BR(~t_2 -> ~g      t )
#
#         PDG            Width
DECAY   1000005     2.32988158E+02   # sbottom1 decays
#          BR         NDA      ID1       ID2
     3.36887053E-03    2     1000022         5   # BR(~b_1 -> ~chi_10 b )
     2.20878781E-05    2     1000023         5   # BR(~b_1 -> ~chi_20 b )
     3.95477016E-03    2     1000025         5   # BR(~b_1 -> ~chi_30 b )
     1.55260924E-02    2     1000035         5   # BR(~b_1 -> ~chi_40 b )
     1.47605972E-01    2    -1000024         6   # BR(~b_1 -> ~chi_1- t )
     3.11095167E-02    2    -1000037         6   # BR(~b_1 -> ~chi_2- t )
     7.98412690E-01    2     1000021         5   # BR(~b_1 -> ~g      b )
#
#         PDG            Width
DECAY   2000005     2.35990218E+02   # sbottom2 decays
#          BR         NDA      ID1       ID2
     1.52384243E-03    2     1000022         5   # BR(~b_2 -> ~chi_10 b )
     2.57127096E-04    2     1000023         5   # BR(~b_2 -> ~chi_20 b )
     4.99066406E-03    2     1000025         5   # BR(~b_2 -> ~chi_30 b )
     1.75980298E-02    2     1000035         5   # BR(~b_2 -> ~chi_40 b )
     1.51263575E-01    2    -1000024         6   # BR(~b_2 -> ~chi_1- t )
     3.52574029E-02    2    -1000037         6   # BR(~b_2 -> ~chi_2- t )
     7.89109359E-01    2     1000021         5   # BR(~b_2 -> ~g      b )
#
#         PDG            Width
DECAY   1000002     2.10090036E+02   # sup_L decays
#          BR         NDA      ID1       ID2
     9.51473686E-04    2     1000022         2   # BR(~u_L -> ~chi_10 u)
     1.94679233E-05    2     1000023         2   # BR(~u_L -> ~chi_20 u)
     2.13595021E-03    2     1000025         2   # BR(~u_L -> ~chi_30 u)
     3.69693699E-02    2     1000035         2   # BR(~u_L -> ~chi_40 u)
     1.34541604E-04    2     1000024         1   # BR(~u_L -> ~chi_1+ d)
     7.39296665E-02    2     1000037         1   # BR(~u_L -> ~chi_2+ d)
     8.85859530E-01    2     1000021         2   # BR(~u_L -> ~g      u)
#
#         PDG            Width
DECAY   2000002     1.96368248E+02   # sup_R decays
#          BR         NDA      ID1       ID2
     1.77805730E-02    2     1000022         2   # BR(~u_R -> ~chi_10 u)
     5.79143091E-05    2     1000023         2   # BR(~u_R -> ~chi_20 u)
     3.43810326E-02    2     1000025         2   # BR(~u_R -> ~chi_30 u)
     3.89014659E-09    2     1000035         2   # BR(~u_R -> ~chi_40 u)
     9.47780476E-01    2     1000021         2   # BR(~u_R -> ~g      u)
#
#         PDG            Width
DECAY   1000001     2.10094504E+02   # sdown_L decays
#          BR         NDA      ID1       ID2
     1.12976631E-03    2     1000022         1   # BR(~d_L -> ~chi_10 d)
     6.54652653E-05    2     1000023         1   # BR(~d_L -> ~chi_20 d)
     1.88491653E-03    2     1000025         1   # BR(~d_L -> ~chi_30 d)
     3.69859314E-02    2     1000035         1   # BR(~d_L -> ~chi_40 d)
     3.72010737E-05    2    -1000024         2   # BR(~d_L -> ~chi_1- u)
     7.39810159E-02    2    -1000037         2   # BR(~d_L -> ~chi_2- u)
     8.85915704E-01    2     1000021         1   # BR(~d_L -> ~g      d)
#
#         PDG            Width
DECAY   2000001     1.88682576E+02   # sdown_R decays
#          BR         NDA      ID1       ID2
     4.62628451E-03    2     1000022         1   # BR(~d_R -> ~chi_10 d)
     1.50685852E-05    2     1000023         1   # BR(~d_R -> ~chi_20 d)
     8.94551868E-03    2     1000025         1   # BR(~d_R -> ~chi_30 d)
     1.01220106E-09    2     1000035         1   # BR(~d_R -> ~chi_40 d)
     9.86413127E-01    2     1000021         1   # BR(~d_R -> ~g      d)
#
#         PDG            Width
DECAY   1000004     2.10090036E+02   # scharm_L decays
#          BR         NDA      ID1       ID2
     9.51473686E-04    2     1000022         4   # BR(~c_L -> ~chi_10 c)
     1.94679233E-05    2     1000023         4   # BR(~c_L -> ~chi_20 c)
     2.13595021E-03    2     1000025         4   # BR(~c_L -> ~chi_30 c)
     3.69693699E-02    2     1000035         4   # BR(~c_L -> ~chi_40 c)
     1.34541604E-04    2     1000024         3   # BR(~c_L -> ~chi_1+ s)
     7.39296665E-02    2     1000037         3   # BR(~c_L -> ~chi_2+ s)
     8.85859530E-01    2     1000021         4   # BR(~c_L -> ~g      c)
#
#         PDG            Width
DECAY   2000004     1.96368248E+02   # scharm_R decays
#          BR         NDA      ID1       ID2
     1.77805730E-02    2     1000022         4   # BR(~c_R -> ~chi_10 c)
     5.79143091E-05    2     1000023         4   # BR(~c_R -> ~chi_20 c)
     3.43810326E-02    2     1000025         4   # BR(~c_R -> ~chi_30 c)
     3.89014659E-09    2     1000035         4   # BR(~c_R -> ~chi_40 c)
     9.47780476E-01    2     1000021         4   # BR(~c_R -> ~g      c)
#
#         PDG            Width
DECAY   1000003     2.10094504E+02   # sstrange_L decays
#          BR         NDA      ID1       ID2
     1.12976631E-03    2     1000022         3   # BR(~s_L -> ~chi_10 s)
     6.54652653E-05    2     1000023         3   # BR(~s_L -> ~chi_20 s)
     1.88491653E-03    2     1000025         3   # BR(~s_L -> ~chi_30 s)
     3.69859314E-02    2     1000035         3   # BR(~s_L -> ~chi_40 s)
     3.72010737E-05    2    -1000024         4   # BR(~s_L -> ~chi_1- c)
     7.39810159E-02    2    -1000037         4   # BR(~s_L -> ~chi_2- c)
     8.85915704E-01    2     1000021         3   # BR(~s_L -> ~g      s)
#
#         PDG            Width
DECAY   2000003     1.88682576E+02   # sstrange_R decays
#          BR         NDA      ID1       ID2
     4.62628451E-03    2     1000022         3   # BR(~s_R -> ~chi_10 s)
     1.50685852E-05    2     1000023         3   # BR(~s_R -> ~chi_20 s)
     8.94551868E-03    2     1000025         3   # BR(~s_R -> ~chi_30 s)
     1.01220106E-09    2     1000035         3   # BR(~s_R -> ~chi_40 s)
     9.86413127E-01    2     1000021         3   # BR(~s_R -> ~g      s)
#
#         PDG            Width
DECAY   1000011     3.00607281E+01   # selectron_L decays
#          BR         NDA      ID1       ID2
     6.58417430E-02    2     1000022        11   # BR(~e_L -> ~chi_10 e-)
     3.90072254E-06    2     1000023        11   # BR(~e_L -> ~chi_20 e-)
     1.33774957E-01    2     1000025        11   # BR(~e_L -> ~chi_30 e-)
     2.66569742E-01    2     1000035        11   # BR(~e_L -> ~chi_40 e-)
     2.69662527E-04    2    -1000024        12   # BR(~e_L -> ~chi_1- nu_e)
     5.33539995E-01    2    -1000037        12   # BR(~e_L -> ~chi_2- nu_e)
#
#         PDG            Width
DECAY   2000011     2.39304086E+01   # selectron_R decays
#          BR         NDA      ID1       ID2
     3.40503770E-01    2     1000022        11   # BR(~e_R -> ~chi_10 e-)
     1.10905971E-03    2     1000023        11   # BR(~e_R -> ~chi_20 e-)
     6.58387096E-01    2     1000025        11   # BR(~e_R -> ~chi_30 e-)
     7.41226465E-08    2     1000035        11   # BR(~e_R -> ~chi_40 e-)
#
#         PDG            Width
DECAY   1000013     3.00607281E+01   # smuon_L decays
#          BR         NDA      ID1       ID2
     6.58417430E-02    2     1000022        13   # BR(~mu_L -> ~chi_10 mu-)
     3.90072254E-06    2     1000023        13   # BR(~mu_L -> ~chi_20 mu-)
     1.33774957E-01    2     1000025        13   # BR(~mu_L -> ~chi_30 mu-)
     2.66569742E-01    2     1000035        13   # BR(~mu_L -> ~chi_40 mu-)
     2.69662527E-04    2    -1000024        14   # BR(~mu_L -> ~chi_1- nu_mu)
     5.33539995E-01    2    -1000037        14   # BR(~mu_L -> ~chi_2- nu_mu)
#
#         PDG            Width
DECAY   2000013     2.39304086E+01   # smuon_R decays
#          BR         NDA      ID1       ID2
     3.40503770E-01    2     1000022        13   # BR(~mu_R -> ~chi_10 mu-)
     1.10905971E-03    2     1000023        13   # BR(~mu_R -> ~chi_20 mu-)
     6.58387096E-01    2     1000025        13   # BR(~mu_R -> ~chi_30 mu-)
     7.41226465E-08    2     1000035        13   # BR(~mu_R -> ~chi_40 mu-)
#
#         PDG            Width
DECAY   1000015     2.69704022E+01   # stau_1 decays
#          BR         NDA      ID1       ID2
     1.95779417E-01    2     1000022        15   # BR(~tau_1 -> ~chi_10  tau-)
     2.76001737E-04    2     1000023        15   # BR(~tau_1 -> ~chi_20  tau-)
     3.65671318E-01    2     1000025        15   # BR(~tau_1 -> ~chi_30  tau-)
     1.45969257E-01    2     1000035        15   # BR(~tau_1 -> ~chi_40  tau-)
     1.45865864E-04    2    -1000024        16   # BR(~tau_1 -> ~chi_1-  nu_tau)
     2.92157201E-01    2    -1000037        16   # BR(~tau_1 -> ~chi_2-  nu_tau)
     9.39570473E-07    2     1000039        15   # BR(~tau_1 -> ~G       tau-)
#
#         PDG            Width
DECAY   2000015     2.71140501E+01   # stau_2 decays
#          BR         NDA      ID1       ID2
     1.79573162E-01    2     1000022        15   # BR(~tau_2 -> ~chi_10  tau-)
     1.85267623E-03    2     1000023        15   # BR(~tau_2 -> ~chi_20  tau-)
     3.66015137E-01    2     1000025        15   # BR(~tau_2 -> ~chi_30  tau-)
     1.50344045E-01    2     1000035        15   # BR(~tau_2 -> ~chi_40  tau-)
     1.30058129E-03    2    -1000024        16   # BR(~tau_2 -> ~chi_1-  nu_tau)
     3.00914398E-01    2    -1000037        16   # BR(~tau_2 -> ~chi_2-  nu_tau)
#
#         PDG            Width
DECAY   1000012     3.00588914E+01   # snu_eL decays
#          BR         NDA      ID1       ID2
     6.97190615E-02    2     1000022        12   # BR(~nu_eL -> ~chi_10 nu_e)
     1.00416911E-03    2     1000023        12   # BR(~nu_eL -> ~chi_20 nu_e)
     1.28315795E-01    2     1000025        12   # BR(~nu_eL -> ~chi_30 nu_e)
     2.66795209E-01    2     1000035        12   # BR(~nu_eL -> ~chi_40 nu_e)
     9.75302297E-04    2     1000024        11   # BR(~nu_eL -> ~chi_1+ e-)
     5.33190463E-01    2     1000037        11   # BR(~nu_eL -> ~chi_2+ e-)
#
#         PDG            Width
DECAY   1000014     3.00588914E+01   # snu_muL decays
#          BR         NDA      ID1       ID2
     6.97190615E-02    2     1000022        14   # BR(~nu_muL -> ~chi_10 nu_mu)
     1.00416911E-03    2     1000023        14   # BR(~nu_muL -> ~chi_20 nu_mu)
     1.28315795E-01    2     1000025        14   # BR(~nu_muL -> ~chi_30 nu_mu)
     2.66795209E-01    2     1000035        14   # BR(~nu_muL -> ~chi_40 nu_mu)
     9.75302297E-04    2     1000024        13   # BR(~nu_muL -> ~chi_1+ mu-)
     5.33190463E-01    2     1000037        13   # BR(~nu_muL -> ~chi_2+ mu-)
#
#         PDG            Width
DECAY   1000016     3.00899880E+01   # snu_tauL decays
#          BR         NDA      ID1       ID2
     6.96470100E-02    2     1000022        16   # BR(~nu_tauL -> ~chi_10 nu_tau)
     1.00313134E-03    2     1000023        16   # BR(~nu_tauL -> ~chi_20 nu_tau)
     1.28183186E-01    2     1000025        16   # BR(~nu_tauL -> ~chi_30 nu_tau)
     2.66519488E-01    2     1000035        16   # BR(~nu_tauL -> ~chi_40 nu_tau)
     2.00768710E-03    2     1000024        15   # BR(~nu_tauL -> ~chi_1+ tau-)
     5.32639497E-01    2     1000037        15   # BR(~nu_tauL -> ~chi_2+ tau-)
#
#         PDG            Width
DECAY   1000024     2.10936792E-08   # chargino1+ decays
#          BR         NDA      ID1       ID2
     2.12789573E-02    2     1000039        24   # BR(~chi_1+ -> ~G       W+)
#           BR         NDA      ID1       ID2       ID3
     3.51619888E-01    3     1000022         2        -1   # BR(~chi_1+ -> ~chi_10 u    db)
     3.00944868E-01    3     1000022         4        -3   # BR(~chi_1+ -> ~chi_10 c    sb)
     1.17207317E-01    3     1000022       -11        12   # BR(~chi_1+ -> ~chi_10 e+   nu_e)
     1.17102324E-01    3     1000022       -13        14   # BR(~chi_1+ -> ~chi_10 mu+  nu_mu)
     9.18466464E-02    3     1000022       -15        16   # BR(~chi_1+ -> ~chi_10 tau+ nu_tau)
#
#         PDG            Width
DECAY   1000037     2.40337979E+01   # chargino2+ decays
#          BR         NDA      ID1       ID2
     1.49254921E-01    2     1000024        23   # BR(~chi_2+ -> ~chi_1+  Z )
     9.23057840E-02    2     1000022        24   # BR(~chi_2+ -> ~chi_10  W+)
     1.44990886E-01    2     1000023        24   # BR(~chi_2+ -> ~chi_20  W+)
     5.38264173E-02    2     1000025        24   # BR(~chi_2+ -> ~chi_30  W+)
     1.49712338E-01    2     1000024        25   # BR(~chi_2+ -> ~chi_1+  h )
     1.02170128E-01    2     1000024        35   # BR(~chi_2+ -> ~chi_1+  H )
     1.02771609E-01    2     1000024        36   # BR(~chi_2+ -> ~chi_1+  A )
     6.85257860E-02    2     1000022        37   # BR(~chi_2+ -> ~chi_10  H+)
     1.02302542E-01    2     1000023        37   # BR(~chi_2+ -> ~chi_20  H+)
     3.41395067E-02    2     1000025        37   # BR(~chi_2+ -> ~chi_30  H+)
     8.19911491E-08    2     1000039        24   # BR(~chi_2+ -> ~G       W+)
     1.50922933E-12    2     1000039        37   # BR(~chi_2+ -> ~G       H+)
#
#         PDG            Width
DECAY   1000022     1.0E-05   # neutralino1 decays
#          BR         NDA      ID1       ID2
     4.18442292E-01    2     1000039        22   # BR(~chi_10 -> ~G        gam)
     1.41247334E-01    2     1000039        23   # BR(~chi_10 -> ~G        Z)
     4.40310374E-01    2     1000039        25   # BR(~chi_10 -> ~G        h)
#
#         PDG            Width
DECAY   1000023     1.0E-05   # neutralino2 decays
#          BR         NDA      ID1       ID2
     1.19221314E-02    2     1000022        22   # BR(~chi_20 -> ~chi_10 gam)
#          BR         NDA      ID1       ID2
     8.60842425E-06    2     1000039        22   # BR(~chi_20 -> ~G        gam)
     1.10237079E-02    2     1000039        23   # BR(~chi_20 -> ~G        Z)
     4.02763693E-04    2     1000039        25   # BR(~chi_20 -> ~G        h)
#           BR         NDA      ID1       ID2       ID3
     1.38593217E-01    3     1000022        -2         2   # BR(~chi_20 -> ~chi_10 ub      u)
     1.79429175E-01    3     1000022        -1         1   # BR(~chi_20 -> ~chi_10 db      d)
     1.19356362E-01    3     1000022        -4         4   # BR(~chi_20 -> ~chi_10 cb      c)
     1.78834487E-01    3     1000022        -3         3   # BR(~chi_20 -> ~chi_10 sb      s)
     4.09655475E-02    3     1000022       -11        11   # BR(~chi_20 -> ~chi_10 e+      e-)
     4.09392885E-02    3     1000022       -13        13   # BR(~chi_20 -> ~chi_10 mu+     mu-)
     3.28274951E-02    3     1000022       -15        15   # BR(~chi_20 -> ~chi_10 tau+    tau-)
     8.18036287E-02    3     1000022       -12        12   # BR(~chi_20 -> ~chi_10 nu_eb   nu_e)
     8.18036287E-02    3     1000022       -14        14   # BR(~chi_20 -> ~chi_10 nu_mub  nu_mu)
     8.18036287E-02    3     1000022       -16        16   # BR(~chi_20 -> ~chi_10 nu_taub nu_tau)
     8.62896812E-05    3     1000024        -2         1   # BR(~chi_20 -> ~chi_1+ ub      d)
     8.62896812E-05    3    -1000024        -1         2   # BR(~chi_20 -> ~chi_1- db      u)
     2.87632296E-05    3     1000024       -12        11   # BR(~chi_20 -> ~chi_1+ nu_eb   e-)
     2.87632296E-05    3    -1000024        12       -11   # BR(~chi_20 -> ~chi_1- nu_e    e+)
     2.81124160E-05    3     1000024       -14        13   # BR(~chi_20 -> ~chi_1+ nu_mub  mu-)
     2.81124160E-05    3    -1000024        14       -13   # BR(~chi_20 -> ~chi_1- nu_mu   mu+)
#
#         PDG            Width
DECAY   1000025     1.0E-05   # neutralino3 decays
#          BR         NDA      ID1       ID2
     8.89653895E-01    2     1000022        22   # BR(~chi_30 -> ~chi_10 gam)
     2.01931539E-02    2     1000023        22   # BR(~chi_30 -> ~chi_20 gam)
#          BR         NDA      ID1       ID2
     4.42416754E-04    2     1000039        22   # BR(~chi_30 -> ~G        gam)
     1.33968782E-04    2     1000039        23   # BR(~chi_30 -> ~G        Z)
     1.26629067E-04    2     1000039        25   # BR(~chi_30 -> ~G        h)
#           BR         NDA      ID1       ID2       ID3
     5.84791763E-05    3     1000022        -2         2   # BR(~chi_30 -> ~chi_10 ub      u)
     7.64879698E-05    3     1000022        -1         1   # BR(~chi_30 -> ~chi_10 db      d)
     5.40420787E-05    3     1000022        -4         4   # BR(~chi_30 -> ~chi_10 cb      c)
     7.63918798E-05    3     1000022        -3         3   # BR(~chi_30 -> ~chi_10 sb      s)
     3.16769301E-05    3     1000022        -5         5   # BR(~chi_30 -> ~chi_10 bb      b)
     1.80794454E-05    3     1000022       -11        11   # BR(~chi_30 -> ~chi_10 e+      e-)
     1.80705079E-05    3     1000022       -13        13   # BR(~chi_30 -> ~chi_10 mu+     mu-)
     1.57483985E-05    3     1000022       -15        15   # BR(~chi_30 -> ~chi_10 tau+    tau-)
     3.45499707E-05    3     1000022       -12        12   # BR(~chi_30 -> ~chi_10 nu_eb   nu_e)
     3.45499707E-05    3     1000022       -14        14   # BR(~chi_30 -> ~chi_10 nu_mub  nu_mu)
     3.45499707E-05    3     1000022       -16        16   # BR(~chi_30 -> ~chi_10 nu_taub nu_tau)
     1.76167729E-03    3     1000023        -2         2   # BR(~chi_30 -> ~chi_20 ub      u)
     2.28078352E-03    3     1000023        -1         1   # BR(~chi_30 -> ~chi_20 db      d)
     1.48660176E-03    3     1000023        -4         4   # BR(~chi_30 -> ~chi_20 cb      c)
     2.27227795E-03    3     1000023        -3         3   # BR(~chi_30 -> ~chi_20 sb      s)
     5.20744642E-04    3     1000023       -11        11   # BR(~chi_30 -> ~chi_20 e+      e-)
     5.20369501E-04    3     1000023       -13        13   # BR(~chi_30 -> ~chi_20 mu+     mu-)
     4.03895459E-04    3     1000023       -15        15   # BR(~chi_30 -> ~chi_20 tau+    tau-)
     1.03979999E-03    3     1000023       -12        12   # BR(~chi_30 -> ~chi_20 nu_eb   nu_e)
     1.03979999E-03    3     1000023       -14        14   # BR(~chi_30 -> ~chi_20 nu_mub  nu_mu)
     1.03979999E-03    3     1000023       -16        16   # BR(~chi_30 -> ~chi_20 nu_taub nu_tau)
     1.33468103E-02    3     1000024        -2         1   # BR(~chi_30 -> ~chi_1+ ub      d)
     1.33468103E-02    3    -1000024        -1         2   # BR(~chi_30 -> ~chi_1- db      u)
     1.22061510E-02    3     1000024        -4         3   # BR(~chi_30 -> ~chi_1+ cb      s)
     1.22061510E-02    3    -1000024        -3         4   # BR(~chi_30 -> ~chi_1- sb      c)
     4.44888316E-03    3     1000024       -12        11   # BR(~chi_30 -> ~chi_1+ nu_eb   e-)
     4.44888316E-03    3    -1000024        12       -11   # BR(~chi_30 -> ~chi_1- nu_e    e+)
     4.44661141E-03    3     1000024       -14        13   # BR(~chi_30 -> ~chi_1+ nu_mub  mu-)
     4.44661141E-03    3    -1000024        14       -13   # BR(~chi_30 -> ~chi_1- nu_mu   mu+)
     3.86732403E-03    3     1000024       -16        15   # BR(~chi_30 -> ~chi_1+ nu_taub tau-)
     3.86732403E-03    3    -1000024        16       -15   # BR(~chi_30 -> ~chi_1- nu_tau  tau+)
#
#         PDG            Width
DECAY   1000035     2.40341524E+01   # neutralino4 decays
#          BR         NDA      ID1       ID2
     8.88326742E-02    2     1000022        23   # BR(~chi_40 -> ~chi_10   Z )
     1.31196176E-02    2     1000023        23   # BR(~chi_40 -> ~chi_20   Z )
     4.74963618E-02    2     1000025        23   # BR(~chi_40 -> ~chi_30   Z )
     1.45363074E-01    2     1000024       -24   # BR(~chi_40 -> ~chi_1+   W-)
     1.45363074E-01    2    -1000024        24   # BR(~chi_40 -> ~chi_1-   W+)
     5.86053505E-03    2     1000022        25   # BR(~chi_40 -> ~chi_10   h )
     6.76842093E-02    2     1000022        35   # BR(~chi_40 -> ~chi_10   H )
     6.15275665E-04    2     1000022        36   # BR(~chi_40 -> ~chi_10   A )
     1.36346967E-01    2     1000023        25   # BR(~chi_40 -> ~chi_20   h )
     6.33385375E-04    2     1000023        35   # BR(~chi_40 -> ~chi_20   H )
     1.01884735E-01    2     1000023        36   # BR(~chi_40 -> ~chi_20   A )
     7.71251444E-03    2     1000025        25   # BR(~chi_40 -> ~chi_30   h )
     3.39290051E-02    2     1000025        35   # BR(~chi_40 -> ~chi_30   H )
     1.04673000E-04    2     1000025        36   # BR(~chi_40 -> ~chi_30   A )
     1.02526908E-01    2     1000024       -37   # BR(~chi_40 -> ~chi_1+   H-)
     1.02526908E-01    2    -1000024        37   # BR(~chi_40 -> ~chi_1-   H+)
     1.97018649E-08    2     1000039        22   # BR(~chi_40 -> ~G        gam)
     6.22808393E-08    2     1000039        23   # BR(~chi_40 -> ~G        Z)
     4.57323796E-12    2     1000039        25   # BR(~chi_40 -> ~G        h)
     1.48174747E-12    2     1000039        35   # BR(~chi_40 -> ~G        H)
     2.08144684E-14    2     1000039        36   # BR(~chi_40 -> ~G        A)
#
#         PDG            Width
DECAY        25     4.07979970E-03   # h decays
#          BR         NDA      ID1       ID2
     6.17175500E-01    2           5        -5   # BR(h -> b       bb     )
     6.38408860E-02    2         -15        15   # BR(h -> tau+    tau-   )
     2.25973224E-04    2         -13        13   # BR(h -> mu+     mu-    )
     4.78857612E-04    2           3        -3   # BR(h -> s       sb     )
     2.06588083E-02    2           4        -4   # BR(h -> c       cb     )
     6.70803338E-02    2          21        21   # BR(h -> g       g      )
     2.29885488E-03    2          22        22   # BR(h -> gam     gam    )
     1.53964078E-03    2          22        23   # BR(h -> Z       gam    )
     2.01047031E-01    2          24       -24   # BR(h -> W+      W-     )
     2.56541148E-02    2          23        23   # BR(h -> Z       Z      )
#
#         PDG            Width
DECAY        35     3.88983192E+01   # H decays
#          BR         NDA      ID1       ID2
     1.43769794E-03    2           5        -5   # BR(H -> b       bb     )
     2.39549548E-04    2         -15        15   # BR(H -> tau+    tau-   )
     8.46896835E-07    2         -13        13   # BR(H -> mu+     mu-    )
     1.08432703E-06    2           3        -3   # BR(H -> s       sb     )
     9.78581573E-06    2           4        -4   # BR(H -> c       cb     )
     9.68264876E-01    2           6        -6   # BR(H -> t       tb     )
     7.75379978E-04    2          21        21   # BR(H -> g       g      )
     2.62203666E-06    2          22        22   # BR(H -> gam     gam    )
     1.12718930E-06    2          23        22   # BR(H -> Z       gam    )
     3.25809854E-04    2          24       -24   # BR(H -> W+      W-     )
     1.62460601E-04    2          23        23   # BR(H -> Z       Z      )
     8.79681556E-04    2          25        25   # BR(H -> h       h      )
     8.48542694E-24    2          36        36   # BR(H -> A       A      )
     3.40252139E-11    2          23        36   # BR(H -> Z       A      )
     4.44147806E-12    2          24       -37   # BR(H -> W+      H-     )
     4.44147806E-12    2         -24        37   # BR(H -> W-      H+     )
     4.31196013E-05    2     1000024  -1000024   # BR(H -> ~chi_1+ ~chi_1-)
     1.25037889E-02    2     1000022   1000022   # BR(H -> ~chi_10 ~chi_10)
     1.08156164E-05    2     1000023   1000023   # BR(H -> ~chi_20 ~chi_20)
     1.08466833E-02    2     1000025   1000025   # BR(H -> ~chi_30 ~chi_30)
     1.46923407E-04    2     1000022   1000023   # BR(H -> ~chi_10 ~chi_20)
     2.54188999E-03    2     1000022   1000025   # BR(H -> ~chi_10 ~chi_30)
     1.80585777E-03    2     1000023   1000025   # BR(H -> ~chi_20 ~chi_30)
#
#         PDG            Width
DECAY        36     3.93299203E+01   # A decays
#          BR         NDA      ID1       ID2
     1.44069178E-03    2           5        -5   # BR(A -> b       bb     )
     2.37127772E-04    2         -15        15   # BR(A -> tau+    tau-   )
     8.38332337E-07    2         -13        13   # BR(A -> mu+     mu-    )
     1.10522016E-06    2           3        -3   # BR(A -> s       sb     )
     9.68525290E-06    2           4        -4   # BR(A -> c       cb     )
     9.69322052E-01    2           6        -6   # BR(A -> t       tb     )
     9.17481737E-04    2          21        21   # BR(A -> g       g      )
     3.12651299E-06    2          22        22   # BR(A -> gam     gam    )
     1.31457789E-06    2          23        22   # BR(A -> Z       gam    )
     3.17569463E-04    2          23        25   # BR(A -> Z       h      )
     3.20786993E-04    2     1000024  -1000024   # BR(A -> ~chi_1+ ~chi_1-)
     1.04645133E-03    2     1000022   1000022   # BR(A -> ~chi_10 ~chi_10)
     4.75788717E-04    2     1000023   1000023   # BR(A -> ~chi_20 ~chi_20)
     4.59345043E-04    2     1000025   1000025   # BR(A -> ~chi_30 ~chi_30)
     8.65350065E-03    2     1000022   1000023   # BR(A -> ~chi_10 ~chi_20)
     3.85017058E-04    2     1000022   1000025   # BR(A -> ~chi_10 ~chi_30)
     1.64081179E-02    2     1000023   1000025   # BR(A -> ~chi_20 ~chi_30)
#
#         PDG            Width
DECAY        37     3.85311374E+01   # H+ decays
#          BR         NDA      ID1       ID2
     2.31504252E-06    2           4        -5   # BR(H+ -> c       bb     )
     2.42266016E-04    2         -15        16   # BR(H+ -> tau+    nu_tau )
     8.56497882E-07    2         -13        14   # BR(H+ -> mu+     nu_mu  )
     1.47191817E-08    2           2        -5   # BR(H+ -> u       bb     )
     5.30418590E-08    2           2        -3   # BR(H+ -> u       sb     )
     1.05687909E-05    2           4        -3   # BR(H+ -> c       sb     )
     9.71440794E-01    2           6        -5   # BR(H+ -> t       bb     )
     3.25509426E-04    2          24        25   # BR(H+ -> W+      h      )
     7.14967120E-13    2          24        36   # BR(H+ -> W+      A      )
     9.17592142E-03    2     1000024   1000022   # BR(H+ -> ~chi_1+ ~chi_10)
     4.40638628E-05    2     1000024   1000023   # BR(H+ -> ~chi_1+ ~chi_20)
     1.87576375E-02    2     1000024   1000025   # BR(H+ -> ~chi_1+ ~chi_30)
